2017-10-30 14:38:08.076 EDT,,,17685,,59f77190.4515,1,,2017-10-30 14:38:08 EDT,,0,LOG,00000,"ending log output to stderr",,"Future log output will go to log destination ""csvlog"".",,,,,,,""
2017-10-30 14:38:08.076 EDT,,,17687,,59f77190.4517,1,,2017-10-30 14:38:08 EDT,,0,LOG,00000,"database system was shut down at 2017-10-30 14:38:07 EDT",,,,,,,,,""
2017-10-30 14:38:08.091 EDT,,,17687,,59f77190.4517,2,,2017-10-30 14:38:08 EDT,,0,LOG,00000,"MultiXact member wraparound protections are now enabled",,,,,,,,,""
2017-10-30 14:38:08.093 EDT,,,17691,,59f77190.451b,1,,2017-10-30 14:38:08 EDT,,0,LOG,00000,"autovacuum launcher started",,,,,,,,,""
2017-10-30 14:38:08.093 EDT,,,17685,,59f77190.4515,2,,2017-10-30 14:38:08 EDT,,0,LOG,00000,"database system is ready to accept connections",,,,,,,,,""
2017-10-30 14:38:08.542 EDT,,,17693,"[local]",59f77190.451d,1,"",2017-10-30 14:38:08 EDT,,0,LOG,08P01,"incomplete startup packet",,,,,,,,,""
2017-10-30 14:38:09.055 EDT,"postgres","postgres",17696,"[local]",59f77191.4520,1,"idle",2017-10-30 14:38:09 EDT,2/2,0,LOG,00000,"statement: SELECT d.datname as ""Name"",
       pg_catalog.pg_get_userbyid(d.datdba) as ""Owner"",
       pg_catalog.pg_encoding_to_char(d.encoding) as ""Encoding"",
       d.datcollate as ""Collate"",
       d.datctype as ""Ctype"",
       pg_catalog.array_to_string(d.datacl, E'\n') AS ""Access privileges""
FROM pg_catalog.pg_database d
ORDER BY 1;",,,,,,,,,"psql"
2017-10-30 14:38:09.569 EDT,"postgres","postgres",17699,"[local]",59f77191.4523,1,"idle",2017-10-30 14:38:09 EDT,2/4,0,LOG,00000,"statement: SELECT d.datname as ""Name"",
       pg_catalog.pg_get_userbyid(d.datdba) as ""Owner"",
       pg_catalog.pg_encoding_to_char(d.encoding) as ""Encoding"",
       d.datcollate as ""Collate"",
       d.datctype as ""Ctype"",
       pg_catalog.array_to_string(d.datacl, E'\n') AS ""Access privileges""
FROM pg_catalog.pg_database d
ORDER BY 1;",,,,,,,,,"psql"
2017-10-30 14:38:10.087 EDT,"postgres","postgres",17702,"[local]",59f77192.4526,1,"idle",2017-10-30 14:38:10 EDT,2/6,0,LOG,00000,"statement: SELECT d.datname as ""Name"",
       pg_catalog.pg_get_userbyid(d.datdba) as ""Owner"",
       pg_catalog.pg_encoding_to_char(d.encoding) as ""Encoding"",
       d.datcollate as ""Collate"",
       d.datctype as ""Ctype"",
       pg_catalog.array_to_string(d.datacl, E'\n') AS ""Access privileges""
FROM pg_catalog.pg_database d
ORDER BY 1;",,,,,,,,,"psql"
2017-10-30 14:38:48.223 EDT,"postgres","seats",17728,"127.0.0.1:60931",59f771b8.4540,1,"SET",2017-10-30 14:38:48 EDT,2/10,0,LOG,00000,"execute <unnamed>: SET extra_float_digits = 3",,,,,,,,,""
2017-10-30 14:38:48.241 EDT,"postgres","seats",17728,"127.0.0.1:60931",59f771b8.4540,2,"SET",2017-10-30 14:38:48 EDT,2/11,0,LOG,00000,"execute <unnamed>: SET SESSION CHARACTERISTICS AS TRANSACTION ISOLATION LEVEL READ COMMITTED",,,,,,,,,""
2017-10-30 14:38:48.253 EDT,"postgres","seats",17728,"127.0.0.1:60931",59f771b8.4540,3,"BEGIN",2017-10-30 14:38:48 EDT,2/12,0,LOG,00000,"execute <unnamed>: BEGIN",,,,,,,,,""
2017-10-30 14:38:48.254 EDT,"postgres","seats",17728,"127.0.0.1:60931",59f771b8.4540,4,"SELECT",2017-10-30 14:38:48 EDT,2/12,0,LOG,00000,"execute <unnamed>: SELECT * FROM ""CONFIG_PROFILE""",,,,,,,,,""
2017-10-30 14:38:48.264 EDT,"postgres","seats",17728,"127.0.0.1:60931",59f771b8.4540,5,"SELECT",2017-10-30 14:38:48 EDT,2/12,0,LOG,00000,"execute <unnamed>: SELECT * FROM ""CONFIG_HISTOGRAMS""",,,,,,,,,""
2017-10-30 14:38:48.265 EDT,"postgres","seats",17728,"127.0.0.1:60931",59f771b8.4540,6,"SELECT",2017-10-30 14:38:48 EDT,2/12,0,LOG,00000,"execute <unnamed>: SELECT CO_ID, CO_CODE_3 FROM ""COUNTRY""",,,,,,,,,""
2017-10-30 14:38:48.266 EDT,"postgres","seats",17728,"127.0.0.1:60931",59f771b8.4540,7,"SELECT",2017-10-30 14:38:48 EDT,2/12,0,LOG,00000,"execute <unnamed>: SELECT AP_ID, AP_CODE FROM ""AIRPORT""",,,,,,,,,""
2017-10-30 14:38:48.268 EDT,"postgres","seats",17728,"127.0.0.1:60931",59f771b8.4540,8,"SELECT",2017-10-30 14:38:48 EDT,2/12,0,LOG,00000,"execute <unnamed>: SELECT AL_ID, AL_IATA_CODE FROM ""AIRLINE"" WHERE AL_IATA_CODE != ''",,,,,,,,,""
2017-10-30 14:38:48.271 EDT,"postgres","seats",17728,"127.0.0.1:60931",59f771b8.4540,9,"SELECT",2017-10-30 14:38:48 EDT,2/12,0,LOG,00000,"execute <unnamed>: SELECT f_id FROM ""FLIGHT"" ORDER BY F_DEPART_TIME DESC  LIMIT 10000",,,,,,,,,""
2017-10-30 14:38:48.378 EDT,"postgres","seats",17728,"127.0.0.1:60931",59f771b8.4540,10,"SELECT",2017-10-30 14:38:48 EDT,2/12,0,LOG,00000,"execute <unnamed>: SELECT F_STATUS, F_BASE_PRICE, F_SEATS_TOTAL, F_SEATS_LEFT,        (F_BASE_PRICE + (F_BASE_PRICE * (1 - (F_SEATS_LEFT / F_SEATS_TOTAL)))) AS F_PRICE   FROM ""FLIGHT"" WHERE F_ID = $1","parameters: $1 = '83668596818641524'",,,,,,,,""
2017-10-30 14:38:48.379 EDT,"postgres","seats",17728,"127.0.0.1:60931",59f771b8.4540,11,"SELECT",2017-10-30 14:38:48 EDT,2/12,0,LOG,00000,"execute <unnamed>: SELECT R_ID, R_F_ID, R_SEAT   FROM ""RESERVATION"" WHERE R_F_ID = $1","parameters: $1 = '83668596818641524'",,,,,,,,""
2017-10-30 14:38:48.380 EDT,"postgres","seats",17728,"127.0.0.1:60931",59f771b8.4540,12,"COMMIT",2017-10-30 14:38:48 EDT,2/12,0,LOG,00000,"execute S_1: COMMIT",,,,,,,,,""
