2017-04-14 18:14:17.726 EDT,,,2074,,58f149b9.81a,1,,2017-04-14 18:14:17 EDT,,0,LOG,00000,"ending log output to stderr",,"Future log output will go to log destination ""csvlog"".",,,,,,,""
2017-04-14 18:14:17.727 EDT,,,2076,,58f149b9.81c,1,,2017-04-14 18:14:17 EDT,,0,LOG,00000,"database system was shut down at 2017-04-14 18:14:16 EDT",,,,,,,,,""
2017-04-14 18:14:17.734 EDT,,,2076,,58f149b9.81c,2,,2017-04-14 18:14:17 EDT,,0,LOG,00000,"MultiXact member wraparound protections are now enabled",,,,,,,,,""
2017-04-14 18:14:17.735 EDT,,,2074,,58f149b9.81a,2,,2017-04-14 18:14:17 EDT,,0,LOG,00000,"database system is ready to accept connections",,,,,,,,,""
2017-04-14 18:14:17.736 EDT,,,2080,,58f149b9.820,1,,2017-04-14 18:14:17 EDT,,0,LOG,00000,"autovacuum launcher started",,,,,,,,,""
2017-04-14 18:14:18.209 EDT,,,2087,"[local]",58f149ba.827,1,"",2017-04-14 18:14:18 EDT,,0,LOG,08P01,"incomplete startup packet",,,,,,,,,""
2017-04-14 18:14:18.722 EDT,"postgres","postgres",2096,"[local]",58f149ba.830,1,"idle",2017-04-14 18:14:18 EDT,2/2,0,LOG,00000,"statement: SELECT d.datname as ""Name"",
       pg_catalog.pg_get_userbyid(d.datdba) as ""Owner"",
       pg_catalog.pg_encoding_to_char(d.encoding) as ""Encoding"",
       d.datcollate as ""Collate"",
       d.datctype as ""Ctype"",
       pg_catalog.array_to_string(d.datacl, E'\n') AS ""Access privileges""
FROM pg_catalog.pg_database d
ORDER BY 1;",,,,,,,,,"psql"
2017-04-14 18:14:19.240 EDT,"postgres","postgres",2099,"[local]",58f149bb.833,1,"idle",2017-04-14 18:14:19 EDT,2/4,0,LOG,00000,"statement: SELECT d.datname as ""Name"",
       pg_catalog.pg_get_userbyid(d.datdba) as ""Owner"",
       pg_catalog.pg_encoding_to_char(d.encoding) as ""Encoding"",
       d.datcollate as ""Collate"",
       d.datctype as ""Ctype"",
       pg_catalog.array_to_string(d.datacl, E'\n') AS ""Access privileges""
FROM pg_catalog.pg_database d
ORDER BY 1;",,,,,,,,,"psql"
2017-04-14 18:14:19.760 EDT,"postgres","postgres",2105,"[local]",58f149bb.839,1,"idle",2017-04-14 18:14:19 EDT,2/6,0,LOG,00000,"statement: SELECT d.datname as ""Name"",
       pg_catalog.pg_get_userbyid(d.datdba) as ""Owner"",
       pg_catalog.pg_encoding_to_char(d.encoding) as ""Encoding"",
       d.datcollate as ""Collate"",
       d.datctype as ""Ctype"",
       pg_catalog.array_to_string(d.datacl, E'\n') AS ""Access privileges""
FROM pg_catalog.pg_database d
ORDER BY 1;",,,,,,,,,"psql"
2017-04-14 18:14:36.239 EDT,"postgres","tatp",2136,"127.0.0.1:58174",58f149cc.858,1,"SET",2017-04-14 18:14:36 EDT,2/8,0,LOG,00000,"execute <unnamed>: SET extra_float_digits = 3",,,,,,,,,""
2017-04-14 18:14:36.258 EDT,"postgres","tatp",2136,"127.0.0.1:58174",58f149cc.858,2,"SET",2017-04-14 18:14:36 EDT,2/9,0,LOG,00000,"execute <unnamed>: SET SESSION CHARACTERISTICS AS TRANSACTION ISOLATION LEVEL READ COMMITTED",,,,,,,,,""
2017-04-14 18:14:36.263 EDT,"postgres","tatp",2137,"127.0.0.1:58175",58f149cc.859,1,"SET",2017-04-14 18:14:36 EDT,3/2,0,LOG,00000,"execute <unnamed>: SET extra_float_digits = 3",,,,,,,,,""
2017-04-14 18:14:36.264 EDT,"postgres","tatp",2137,"127.0.0.1:58175",58f149cc.859,2,"SET",2017-04-14 18:14:36 EDT,3/3,0,LOG,00000,"execute <unnamed>: SET SESSION CHARACTERISTICS AS TRANSACTION ISOLATION LEVEL READ COMMITTED",,,,,,,,,""
2017-04-14 18:14:36.267 EDT,"postgres","tatp",2138,"127.0.0.1:58176",58f149cc.85a,1,"SET",2017-04-14 18:14:36 EDT,4/2,0,LOG,00000,"execute <unnamed>: SET extra_float_digits = 3",,,,,,,,,""
2017-04-14 18:14:36.268 EDT,"postgres","tatp",2138,"127.0.0.1:58176",58f149cc.85a,2,"SET",2017-04-14 18:14:36 EDT,4/3,0,LOG,00000,"execute <unnamed>: SET SESSION CHARACTERISTICS AS TRANSACTION ISOLATION LEVEL READ COMMITTED",,,,,,,,,""
2017-04-14 18:14:36.272 EDT,"postgres","tatp",2139,"127.0.0.1:58177",58f149cc.85b,1,"SET",2017-04-14 18:14:36 EDT,5/2,0,LOG,00000,"execute <unnamed>: SET extra_float_digits = 3",,,,,,,,,""
2017-04-14 18:14:36.274 EDT,"postgres","tatp",2139,"127.0.0.1:58177",58f149cc.85b,2,"SET",2017-04-14 18:14:36 EDT,5/3,0,LOG,00000,"execute <unnamed>: SET SESSION CHARACTERISTICS AS TRANSACTION ISOLATION LEVEL READ COMMITTED",,,,,,,,,""
2017-04-14 18:14:36.278 EDT,"postgres","tatp",2140,"127.0.0.1:58178",58f149cc.85c,1,"SET",2017-04-14 18:14:36 EDT,6/2,0,LOG,00000,"execute <unnamed>: SET extra_float_digits = 3",,,,,,,,,""
2017-04-14 18:14:36.280 EDT,"postgres","tatp",2140,"127.0.0.1:58178",58f149cc.85c,2,"SET",2017-04-14 18:14:36 EDT,6/3,0,LOG,00000,"execute <unnamed>: SET SESSION CHARACTERISTICS AS TRANSACTION ISOLATION LEVEL READ COMMITTED",,,,,,,,,""
2017-04-14 18:14:36.285 EDT,"postgres","tatp",2141,"127.0.0.1:58179",58f149cc.85d,1,"SET",2017-04-14 18:14:36 EDT,7/2,0,LOG,00000,"execute <unnamed>: SET extra_float_digits = 3",,,,,,,,,""
2017-04-14 18:14:36.287 EDT,"postgres","tatp",2141,"127.0.0.1:58179",58f149cc.85d,2,"SET",2017-04-14 18:14:36 EDT,7/3,0,LOG,00000,"execute <unnamed>: SET SESSION CHARACTERISTICS AS TRANSACTION ISOLATION LEVEL READ COMMITTED",,,,,,,,,""
2017-04-14 18:14:36.292 EDT,"postgres","tatp",2142,"127.0.0.1:58180",58f149cc.85e,1,"SET",2017-04-14 18:14:36 EDT,8/2,0,LOG,00000,"execute <unnamed>: SET extra_float_digits = 3",,,,,,,,,""
2017-04-14 18:14:36.293 EDT,"postgres","tatp",2142,"127.0.0.1:58180",58f149cc.85e,2,"SET",2017-04-14 18:14:36 EDT,8/3,0,LOG,00000,"execute <unnamed>: SET SESSION CHARACTERISTICS AS TRANSACTION ISOLATION LEVEL READ COMMITTED",,,,,,,,,""
2017-04-14 18:14:36.299 EDT,"postgres","tatp",2143,"127.0.0.1:58181",58f149cc.85f,1,"SET",2017-04-14 18:14:36 EDT,9/2,0,LOG,00000,"execute <unnamed>: SET extra_float_digits = 3",,,,,,,,,""
2017-04-14 18:14:36.300 EDT,"postgres","tatp",2143,"127.0.0.1:58181",58f149cc.85f,2,"SET",2017-04-14 18:14:36 EDT,9/3,0,LOG,00000,"execute <unnamed>: SET SESSION CHARACTERISTICS AS TRANSACTION ISOLATION LEVEL READ COMMITTED",,,,,,,,,""
2017-04-14 18:14:36.305 EDT,"postgres","tatp",2146,"127.0.0.1:58182",58f149cc.862,1,"SET",2017-04-14 18:14:36 EDT,10/2,0,LOG,00000,"execute <unnamed>: SET extra_float_digits = 3",,,,,,,,,""
2017-04-14 18:14:36.306 EDT,"postgres","tatp",2146,"127.0.0.1:58182",58f149cc.862,2,"SET",2017-04-14 18:14:36 EDT,10/3,0,LOG,00000,"execute <unnamed>: SET SESSION CHARACTERISTICS AS TRANSACTION ISOLATION LEVEL READ COMMITTED",,,,,,,,,""
2017-04-14 18:14:36.311 EDT,"postgres","tatp",2149,"127.0.0.1:58183",58f149cc.865,1,"SET",2017-04-14 18:14:36 EDT,11/2,0,LOG,00000,"execute <unnamed>: SET extra_float_digits = 3",,,,,,,,,""
2017-04-14 18:14:36.312 EDT,"postgres","tatp",2149,"127.0.0.1:58183",58f149cc.865,2,"SET",2017-04-14 18:14:36 EDT,11/3,0,LOG,00000,"execute <unnamed>: SET SESSION CHARACTERISTICS AS TRANSACTION ISOLATION LEVEL READ COMMITTED",,,,,,,,,""
2017-04-14 18:14:36.317 EDT,"postgres","tatp",2150,"127.0.0.1:58184",58f149cc.866,1,"SET",2017-04-14 18:14:36 EDT,12/2,0,LOG,00000,"execute <unnamed>: SET extra_float_digits = 3",,,,,,,,,""
2017-04-14 18:14:36.318 EDT,"postgres","tatp",2150,"127.0.0.1:58184",58f149cc.866,2,"SET",2017-04-14 18:14:36 EDT,12/3,0,LOG,00000,"execute <unnamed>: SET SESSION CHARACTERISTICS AS TRANSACTION ISOLATION LEVEL READ COMMITTED",,,,,,,,,""
2017-04-14 18:14:36.321 EDT,"postgres","tatp",2151,"127.0.0.1:58185",58f149cc.867,1,"SET",2017-04-14 18:14:36 EDT,13/2,0,LOG,00000,"execute <unnamed>: SET extra_float_digits = 3",,,,,,,,,""
2017-04-14 18:14:36.322 EDT,"postgres","tatp",2151,"127.0.0.1:58185",58f149cc.867,2,"SET",2017-04-14 18:14:36 EDT,13/3,0,LOG,00000,"execute <unnamed>: SET SESSION CHARACTERISTICS AS TRANSACTION ISOLATION LEVEL READ COMMITTED",,,,,,,,,""
2017-04-14 18:14:36.325 EDT,"postgres","tatp",2152,"127.0.0.1:58186",58f149cc.868,1,"SET",2017-04-14 18:14:36 EDT,14/2,0,LOG,00000,"execute <unnamed>: SET extra_float_digits = 3",,,,,,,,,""
2017-04-14 18:14:36.326 EDT,"postgres","tatp",2152,"127.0.0.1:58186",58f149cc.868,2,"SET",2017-04-14 18:14:36 EDT,14/3,0,LOG,00000,"execute <unnamed>: SET SESSION CHARACTERISTICS AS TRANSACTION ISOLATION LEVEL READ COMMITTED",,,,,,,,,""
2017-04-14 18:14:36.329 EDT,"postgres","tatp",2153,"127.0.0.1:58187",58f149cc.869,1,"SET",2017-04-14 18:14:36 EDT,15/2,0,LOG,00000,"execute <unnamed>: SET extra_float_digits = 3",,,,,,,,,""
2017-04-14 18:14:36.330 EDT,"postgres","tatp",2153,"127.0.0.1:58187",58f149cc.869,2,"SET",2017-04-14 18:14:36 EDT,15/3,0,LOG,00000,"execute <unnamed>: SET SESSION CHARACTERISTICS AS TRANSACTION ISOLATION LEVEL READ COMMITTED",,,,,,,,,""
2017-04-14 18:14:36.333 EDT,"postgres","tatp",2154,"127.0.0.1:58188",58f149cc.86a,1,"SET",2017-04-14 18:14:36 EDT,16/2,0,LOG,00000,"execute <unnamed>: SET extra_float_digits = 3",,,,,,,,,""
2017-04-14 18:14:36.334 EDT,"postgres","tatp",2154,"127.0.0.1:58188",58f149cc.86a,2,"SET",2017-04-14 18:14:36 EDT,16/3,0,LOG,00000,"execute <unnamed>: SET SESSION CHARACTERISTICS AS TRANSACTION ISOLATION LEVEL READ COMMITTED",,,,,,,,,""
2017-04-14 18:14:36.340 EDT,"postgres","tatp",2155,"127.0.0.1:58189",58f149cc.86b,1,"SET",2017-04-14 18:14:36 EDT,17/2,0,LOG,00000,"execute <unnamed>: SET extra_float_digits = 3",,,,,,,,,""
2017-04-14 18:14:36.341 EDT,"postgres","tatp",2155,"127.0.0.1:58189",58f149cc.86b,2,"SET",2017-04-14 18:14:36 EDT,17/3,0,LOG,00000,"execute <unnamed>: SET SESSION CHARACTERISTICS AS TRANSACTION ISOLATION LEVEL READ COMMITTED",,,,,,,,,""
2017-04-14 18:14:36.350 EDT,"postgres","tatp",2156,"127.0.0.1:58190",58f149cc.86c,1,"SET",2017-04-14 18:14:36 EDT,18/2,0,LOG,00000,"execute <unnamed>: SET extra_float_digits = 3",,,,,,,,,""
2017-04-14 18:14:36.350 EDT,"postgres","tatp",2156,"127.0.0.1:58190",58f149cc.86c,2,"SET",2017-04-14 18:14:36 EDT,18/3,0,LOG,00000,"execute <unnamed>: SET SESSION CHARACTERISTICS AS TRANSACTION ISOLATION LEVEL READ COMMITTED",,,,,,,,,""
2017-04-14 18:14:36.354 EDT,"postgres","tatp",2157,"127.0.0.1:58191",58f149cc.86d,1,"SET",2017-04-14 18:14:36 EDT,19/2,0,LOG,00000,"execute <unnamed>: SET extra_float_digits = 3",,,,,,,,,""
2017-04-14 18:14:36.354 EDT,"postgres","tatp",2157,"127.0.0.1:58191",58f149cc.86d,2,"SET",2017-04-14 18:14:36 EDT,19/3,0,LOG,00000,"execute <unnamed>: SET SESSION CHARACTERISTICS AS TRANSACTION ISOLATION LEVEL READ COMMITTED",,,,,,,,,""
2017-04-14 18:14:36.358 EDT,"postgres","tatp",2158,"127.0.0.1:58192",58f149cc.86e,1,"SET",2017-04-14 18:14:36 EDT,20/2,0,LOG,00000,"execute <unnamed>: SET extra_float_digits = 3",,,,,,,,,""
2017-04-14 18:14:36.359 EDT,"postgres","tatp",2158,"127.0.0.1:58192",58f149cc.86e,2,"SET",2017-04-14 18:14:36 EDT,20/3,0,LOG,00000,"execute <unnamed>: SET SESSION CHARACTERISTICS AS TRANSACTION ISOLATION LEVEL READ COMMITTED",,,,,,,,,""
2017-04-14 18:14:36.362 EDT,"postgres","tatp",2159,"127.0.0.1:58193",58f149cc.86f,1,"SET",2017-04-14 18:14:36 EDT,21/2,0,LOG,00000,"execute <unnamed>: SET extra_float_digits = 3",,,,,,,,,""
2017-04-14 18:14:36.363 EDT,"postgres","tatp",2159,"127.0.0.1:58193",58f149cc.86f,2,"SET",2017-04-14 18:14:36 EDT,21/3,0,LOG,00000,"execute <unnamed>: SET SESSION CHARACTERISTICS AS TRANSACTION ISOLATION LEVEL READ COMMITTED",,,,,,,,,""
2017-04-14 18:14:36.397 EDT,"postgres","tatp",2158,"127.0.0.1:58192",58f149cc.86e,3,"BEGIN",2017-04-14 18:14:36 EDT,20/4,0,LOG,00000,"execute <unnamed>: BEGIN",,,,,,,,,""
2017-04-14 18:14:36.399 EDT,"postgres","tatp",2158,"127.0.0.1:58192",58f149cc.86e,4,"SELECT",2017-04-14 18:14:36 EDT,20/4,0,LOG,00000,"execute <unnamed>: SELECT * FROM ""SUBSCRIBER"" WHERE s_id = $1","parameters: $1 = '68130'",,,,,,,,""
2017-04-14 18:14:36.408 EDT,"postgres","tatp",2158,"127.0.0.1:58192",58f149cc.86e,5,"COMMIT",2017-04-14 18:14:36 EDT,20/4,0,LOG,00000,"execute S_1: COMMIT",,,,,,,,,""
2017-04-14 18:14:36.495 EDT,"postgres","tatp",2157,"127.0.0.1:58191",58f149cc.86d,3,"BEGIN",2017-04-14 18:14:36 EDT,19/4,0,LOG,00000,"execute <unnamed>: BEGIN",,,,,,,,,""
2017-04-14 18:14:36.498 EDT,"postgres","tatp",2157,"127.0.0.1:58191",58f149cc.86d,4,"SELECT",2017-04-14 18:14:36 EDT,19/4,0,LOG,00000,"execute <unnamed>: SELECT * FROM ""SUBSCRIBER"" WHERE s_id = $1","parameters: $1 = '39711'",,,,,,,,""
2017-04-14 18:14:36.498 EDT,"postgres","tatp",2157,"127.0.0.1:58191",58f149cc.86d,5,"COMMIT",2017-04-14 18:14:36 EDT,19/4,0,LOG,00000,"execute S_1: COMMIT",,,,,,,,,""
2017-04-14 18:14:36.595 EDT,"postgres","tatp",2156,"127.0.0.1:58190",58f149cc.86c,3,"BEGIN",2017-04-14 18:14:36 EDT,18/4,0,LOG,00000,"execute <unnamed>: BEGIN",,,,,,,,,""
2017-04-14 18:14:36.599 EDT,"postgres","tatp",2156,"127.0.0.1:58190",58f149cc.86c,4,"SELECT",2017-04-14 18:14:36 EDT,18/4,0,LOG,00000,"execute <unnamed>: SELECT cf.numberx FROM ""SPECIAL_FACILITY"" sf, ""CALL_FORWARDING"" cf	WHERE sf.s_id = $1 AND sf.sf_type = $2 AND sf.is_active = 1 AND cf.s_id = sf.s_id AND cf.sf_type = sf.sf_type AND cf.start_time <= $3 AND cf.end_time > $4","parameters: $1 = '39418', $2 = '1', $3 = '0', $4 = '15'",,,,,,,,""
2017-04-14 18:14:36.600 EDT,"postgres","tatp",2156,"127.0.0.1:58190",58f149cc.86c,5,"COMMIT",2017-04-14 18:14:36 EDT,18/4,0,LOG,00000,"execute S_1: COMMIT",,,,,,,,,""
2017-04-14 18:14:36.694 EDT,"postgres","tatp",2155,"127.0.0.1:58189",58f149cc.86b,3,"BEGIN",2017-04-14 18:14:36 EDT,17/4,0,LOG,00000,"execute <unnamed>: BEGIN",,,,,,,,,""
2017-04-14 18:14:36.696 EDT,"postgres","tatp",2155,"127.0.0.1:58189",58f149cc.86b,4,"SELECT",2017-04-14 18:14:36 EDT,17/4,0,LOG,00000,"execute <unnamed>: SELECT * FROM ""SUBSCRIBER"" WHERE s_id = $1","parameters: $1 = '30052'",,,,,,,,""
2017-04-14 18:14:36.697 EDT,"postgres","tatp",2155,"127.0.0.1:58189",58f149cc.86b,5,"COMMIT",2017-04-14 18:14:36 EDT,17/4,0,LOG,00000,"execute S_1: COMMIT",,,,,,,,,""
2017-04-14 18:14:36.794 EDT,"postgres","tatp",2154,"127.0.0.1:58188",58f149cc.86a,3,"BEGIN",2017-04-14 18:14:36 EDT,16/4,0,LOG,00000,"execute <unnamed>: BEGIN",,,,,,,,,""
2017-04-14 18:14:36.797 EDT,"postgres","tatp",2154,"127.0.0.1:58188",58f149cc.86a,4,"SELECT",2017-04-14 18:14:36 EDT,16/4,0,LOG,00000,"execute <unnamed>: SELECT data1, data2, data3, data4 FROM ""ACCESS_INFO"" WHERE s_id = $1 AND ai_type = $2","parameters: $1 = '5891', $2 = '2'",,,,,,,,""
2017-04-14 18:14:36.798 EDT,"postgres","tatp",2154,"127.0.0.1:58188",58f149cc.86a,5,"COMMIT",2017-04-14 18:14:36 EDT,16/4,0,LOG,00000,"execute S_1: COMMIT",,,,,,,,,""
2017-04-14 18:14:36.894 EDT,"postgres","tatp",2142,"127.0.0.1:58180",58f149cc.85e,3,"BEGIN",2017-04-14 18:14:36 EDT,8/4,0,LOG,00000,"execute <unnamed>: BEGIN",,,,,,,,,""
2017-04-14 18:14:36.896 EDT,"postgres","tatp",2142,"127.0.0.1:58180",58f149cc.85e,4,"SELECT",2017-04-14 18:14:36 EDT,8/4,0,LOG,00000,"execute <unnamed>: SELECT * FROM ""SUBSCRIBER"" WHERE s_id = $1","parameters: $1 = '24097'",,,,,,,,""
2017-04-14 18:14:36.897 EDT,"postgres","tatp",2142,"127.0.0.1:58180",58f149cc.85e,5,"COMMIT",2017-04-14 18:14:36 EDT,8/4,0,LOG,00000,"execute S_1: COMMIT",,,,,,,,,""
2017-04-14 18:14:36.994 EDT,"postgres","tatp",2153,"127.0.0.1:58187",58f149cc.869,3,"BEGIN",2017-04-14 18:14:36 EDT,15/4,0,LOG,00000,"execute <unnamed>: BEGIN",,,,,,,,,""
2017-04-14 18:14:36.996 EDT,"postgres","tatp",2153,"127.0.0.1:58187",58f149cc.869,4,"SELECT",2017-04-14 18:14:36 EDT,15/4,0,LOG,00000,"execute <unnamed>: SELECT data1, data2, data3, data4 FROM ""ACCESS_INFO"" WHERE s_id = $1 AND ai_type = $2","parameters: $1 = '66660', $2 = '3'",,,,,,,,""
2017-04-14 18:14:36.997 EDT,"postgres","tatp",2153,"127.0.0.1:58187",58f149cc.869,5,"COMMIT",2017-04-14 18:14:36 EDT,15/4,0,LOG,00000,"execute S_1: COMMIT",,,,,,,,,""
2017-04-14 18:14:37.094 EDT,"postgres","tatp",2139,"127.0.0.1:58177",58f149cc.85b,3,"BEGIN",2017-04-14 18:14:36 EDT,5/4,0,LOG,00000,"execute <unnamed>: BEGIN",,,,,,,,,""
2017-04-14 18:14:37.096 EDT,"postgres","tatp",2139,"127.0.0.1:58177",58f149cc.85b,4,"SELECT",2017-04-14 18:14:36 EDT,5/4,0,LOG,00000,"execute <unnamed>: SELECT data1, data2, data3, data4 FROM ""ACCESS_INFO"" WHERE s_id = $1 AND ai_type = $2","parameters: $1 = '60413', $2 = '4'",,,,,,,,""
2017-04-14 18:14:37.097 EDT,"postgres","tatp",2139,"127.0.0.1:58177",58f149cc.85b,5,"COMMIT",2017-04-14 18:14:36 EDT,5/4,0,LOG,00000,"execute S_1: COMMIT",,,,,,,,,""
2017-04-14 18:14:37.194 EDT,"postgres","tatp",2137,"127.0.0.1:58175",58f149cc.859,3,"BEGIN",2017-04-14 18:14:36 EDT,3/4,0,LOG,00000,"execute <unnamed>: BEGIN",,,,,,,,,""
2017-04-14 18:14:37.196 EDT,"postgres","tatp",2137,"127.0.0.1:58175",58f149cc.859,4,"SELECT",2017-04-14 18:14:36 EDT,3/4,0,LOG,00000,"execute <unnamed>: SELECT * FROM ""SUBSCRIBER"" WHERE s_id = $1","parameters: $1 = '41969'",,,,,,,,""
2017-04-14 18:14:37.197 EDT,"postgres","tatp",2137,"127.0.0.1:58175",58f149cc.859,5,"COMMIT",2017-04-14 18:14:36 EDT,3/4,0,LOG,00000,"execute S_1: COMMIT",,,,,,,,,""
2017-04-14 18:14:37.296 EDT,"postgres","tatp",2152,"127.0.0.1:58186",58f149cc.868,3,"BEGIN",2017-04-14 18:14:36 EDT,14/4,0,LOG,00000,"execute <unnamed>: BEGIN",,,,,,,,,""
2017-04-14 18:14:37.299 EDT,"postgres","tatp",2152,"127.0.0.1:58186",58f149cc.868,4,"SELECT",2017-04-14 18:14:36 EDT,14/4,0,LOG,00000,"execute <unnamed>: SELECT s_id FROM ""SUBSCRIBER"" WHERE sub_nbr = $1","parameters: $1 = '000000000072028'",,,,,,,,""
2017-04-14 18:14:37.301 EDT,"postgres","tatp",2152,"127.0.0.1:58186",58f149cc.868,5,"UPDATE",2017-04-14 18:14:36 EDT,14/4,0,LOG,00000,"execute <unnamed>: UPDATE ""SUBSCRIBER"" SET vlr_location = $1 WHERE s_id = $2","parameters: $1 = '259030115', $2 = '72028'",,,,,,,,""
2017-04-14 18:14:37.302 EDT,"postgres","tatp",2152,"127.0.0.1:58186",58f149cc.868,6,"COMMIT",2017-04-14 18:14:36 EDT,14/4,323707,LOG,00000,"execute S_1: COMMIT",,,,,,,,,""
2017-04-14 18:14:37.394 EDT,"postgres","tatp",2143,"127.0.0.1:58181",58f149cc.85f,3,"BEGIN",2017-04-14 18:14:36 EDT,9/4,0,LOG,00000,"execute <unnamed>: BEGIN",,,,,,,,,""
2017-04-14 18:14:37.398 EDT,"postgres","tatp",2143,"127.0.0.1:58181",58f149cc.85f,4,"SELECT",2017-04-14 18:14:36 EDT,9/4,0,LOG,00000,"execute <unnamed>: SELECT cf.numberx FROM ""SPECIAL_FACILITY"" sf, ""CALL_FORWARDING"" cf	WHERE sf.s_id = $1 AND sf.sf_type = $2 AND sf.is_active = 1 AND cf.s_id = sf.s_id AND cf.sf_type = sf.sf_type AND cf.start_time <= $3 AND cf.end_time > $4","parameters: $1 = '69496', $2 = '1', $3 = '8', $4 = '14'",,,,,,,,""
2017-04-14 18:14:37.398 EDT,"postgres","tatp",2143,"127.0.0.1:58181",58f149cc.85f,5,"COMMIT",2017-04-14 18:14:36 EDT,9/4,0,LOG,00000,"execute S_1: COMMIT",,,,,,,,,""
2017-04-14 18:14:37.494 EDT,"postgres","tatp",2151,"127.0.0.1:58185",58f149cc.867,3,"BEGIN",2017-04-14 18:14:36 EDT,13/4,0,LOG,00000,"execute <unnamed>: BEGIN",,,,,,,,,""
2017-04-14 18:14:37.497 EDT,"postgres","tatp",2151,"127.0.0.1:58185",58f149cc.867,4,"SELECT",2017-04-14 18:14:36 EDT,13/4,0,LOG,00000,"execute <unnamed>: SELECT s_id FROM ""SUBSCRIBER"" WHERE sub_nbr = $1","parameters: $1 = '000000000096430'",,,,,,,,""
2017-04-14 18:14:37.499 EDT,"postgres","tatp",2151,"127.0.0.1:58185",58f149cc.867,5,"UPDATE",2017-04-14 18:14:36 EDT,13/4,0,LOG,00000,"execute <unnamed>: UPDATE ""SUBSCRIBER"" SET vlr_location = $1 WHERE s_id = $2","parameters: $1 = '715981791', $2 = '96430'",,,,,,,,""
2017-04-14 18:14:37.500 EDT,"postgres","tatp",2151,"127.0.0.1:58185",58f149cc.867,6,"COMMIT",2017-04-14 18:14:36 EDT,13/4,323708,LOG,00000,"execute S_1: COMMIT",,,,,,,,,""
2017-04-14 18:14:37.594 EDT,"postgres","tatp",2150,"127.0.0.1:58184",58f149cc.866,3,"BEGIN",2017-04-14 18:14:36 EDT,12/4,0,LOG,00000,"execute <unnamed>: BEGIN",,,,,,,,,""
2017-04-14 18:14:37.596 EDT,"postgres","tatp",2150,"127.0.0.1:58184",58f149cc.866,4,"SELECT",2017-04-14 18:14:36 EDT,12/4,0,LOG,00000,"execute <unnamed>: SELECT data1, data2, data3, data4 FROM ""ACCESS_INFO"" WHERE s_id = $1 AND ai_type = $2","parameters: $1 = '71626', $2 = '2'",,,,,,,,""
2017-04-14 18:14:37.597 EDT,"postgres","tatp",2150,"127.0.0.1:58184",58f149cc.866,5,"COMMIT",2017-04-14 18:14:36 EDT,12/4,0,LOG,00000,"execute S_1: COMMIT",,,,,,,,,""
2017-04-14 18:14:37.694 EDT,"postgres","tatp",2136,"127.0.0.1:58174",58f149cc.858,3,"BEGIN",2017-04-14 18:14:36 EDT,2/10,0,LOG,00000,"execute <unnamed>: BEGIN",,,,,,,,,""
2017-04-14 18:14:37.697 EDT,"postgres","tatp",2136,"127.0.0.1:58174",58f149cc.858,4,"SELECT",2017-04-14 18:14:36 EDT,2/10,0,LOG,00000,"execute <unnamed>: SELECT s_id FROM ""SUBSCRIBER"" WHERE sub_nbr = $1","parameters: $1 = '000000000055937'",,,,,,,,""
2017-04-14 18:14:37.698 EDT,"postgres","tatp",2136,"127.0.0.1:58174",58f149cc.858,5,"UPDATE",2017-04-14 18:14:36 EDT,2/10,0,LOG,00000,"execute <unnamed>: UPDATE ""SUBSCRIBER"" SET vlr_location = $1 WHERE s_id = $2","parameters: $1 = '1327673013', $2 = '55937'",,,,,,,,""
2017-04-14 18:14:37.699 EDT,"postgres","tatp",2136,"127.0.0.1:58174",58f149cc.858,6,"COMMIT",2017-04-14 18:14:36 EDT,2/10,323709,LOG,00000,"execute S_1: COMMIT",,,,,,,,,""
2017-04-14 18:14:37.794 EDT,"postgres","tatp",2159,"127.0.0.1:58193",58f149cc.86f,3,"BEGIN",2017-04-14 18:14:36 EDT,21/4,0,LOG,00000,"execute <unnamed>: BEGIN",,,,,,,,,""
2017-04-14 18:14:37.797 EDT,"postgres","tatp",2159,"127.0.0.1:58193",58f149cc.86f,4,"SELECT",2017-04-14 18:14:36 EDT,21/4,0,LOG,00000,"execute <unnamed>: SELECT data1, data2, data3, data4 FROM ""ACCESS_INFO"" WHERE s_id = $1 AND ai_type = $2","parameters: $1 = '53414', $2 = '2'",,,,,,,,""
2017-04-14 18:14:37.797 EDT,"postgres","tatp",2159,"127.0.0.1:58193",58f149cc.86f,5,"COMMIT",2017-04-14 18:14:36 EDT,21/4,0,LOG,00000,"execute S_1: COMMIT",,,,,,,,,""
2017-04-14 18:14:37.894 EDT,"postgres","tatp",2140,"127.0.0.1:58178",58f149cc.85c,3,"BEGIN",2017-04-14 18:14:36 EDT,6/4,0,LOG,00000,"execute <unnamed>: BEGIN",,,,,,,,,""
2017-04-14 18:14:37.896 EDT,"postgres","tatp",2140,"127.0.0.1:58178",58f149cc.85c,4,"SELECT",2017-04-14 18:14:36 EDT,6/4,0,LOG,00000,"execute <unnamed>: SELECT data1, data2, data3, data4 FROM ""ACCESS_INFO"" WHERE s_id = $1 AND ai_type = $2","parameters: $1 = '27756', $2 = '1'",,,,,,,,""
2017-04-14 18:14:37.896 EDT,"postgres","tatp",2140,"127.0.0.1:58178",58f149cc.85c,5,"COMMIT",2017-04-14 18:14:36 EDT,6/4,0,LOG,00000,"execute S_1: COMMIT",,,,,,,,,""
2017-04-14 18:14:37.994 EDT,"postgres","tatp",2141,"127.0.0.1:58179",58f149cc.85d,3,"BEGIN",2017-04-14 18:14:36 EDT,7/4,0,LOG,00000,"execute <unnamed>: BEGIN",,,,,,,,,""
2017-04-14 18:14:37.997 EDT,"postgres","tatp",2141,"127.0.0.1:58179",58f149cc.85d,4,"SELECT",2017-04-14 18:14:36 EDT,7/4,0,LOG,00000,"execute <unnamed>: SELECT s_id FROM ""SUBSCRIBER"" WHERE sub_nbr = $1","parameters: $1 = '000000000037322'",,,,,,,,""
2017-04-14 18:14:37.999 EDT,"postgres","tatp",2141,"127.0.0.1:58179",58f149cc.85d,5,"UPDATE",2017-04-14 18:14:36 EDT,7/4,0,LOG,00000,"execute <unnamed>: UPDATE ""SUBSCRIBER"" SET vlr_location = $1 WHERE s_id = $2","parameters: $1 = '933948375', $2 = '37322'",,,,,,,,""
2017-04-14 18:14:38.000 EDT,"postgres","tatp",2141,"127.0.0.1:58179",58f149cc.85d,6,"COMMIT",2017-04-14 18:14:36 EDT,7/4,323710,LOG,00000,"execute S_1: COMMIT",,,,,,,,,""
2017-04-14 18:14:38.094 EDT,"postgres","tatp",2149,"127.0.0.1:58183",58f149cc.865,3,"BEGIN",2017-04-14 18:14:36 EDT,11/4,0,LOG,00000,"execute <unnamed>: BEGIN",,,,,,,,,""
2017-04-14 18:14:38.096 EDT,"postgres","tatp",2149,"127.0.0.1:58183",58f149cc.865,4,"SELECT",2017-04-14 18:14:36 EDT,11/4,0,LOG,00000,"execute <unnamed>: SELECT * FROM ""SUBSCRIBER"" WHERE s_id = $1","parameters: $1 = '28874'",,,,,,,,""
2017-04-14 18:14:38.097 EDT,"postgres","tatp",2149,"127.0.0.1:58183",58f149cc.865,5,"COMMIT",2017-04-14 18:14:36 EDT,11/4,0,LOG,00000,"execute S_1: COMMIT",,,,,,,,,""
2017-04-14 18:14:38.195 EDT,"postgres","tatp",2146,"127.0.0.1:58182",58f149cc.862,3,"BEGIN",2017-04-14 18:14:36 EDT,10/4,0,LOG,00000,"execute <unnamed>: BEGIN",,,,,,,,,""
2017-04-14 18:14:38.197 EDT,"postgres","tatp",2146,"127.0.0.1:58182",58f149cc.862,4,"UPDATE",2017-04-14 18:14:36 EDT,10/4,0,LOG,00000,"execute <unnamed>: UPDATE ""SUBSCRIBER"" SET bit_1 = $1 WHERE s_id = $2","parameters: $1 = '1', $2 = '64616'",,,,,,,,""
2017-04-14 18:14:38.199 EDT,"postgres","tatp",2146,"127.0.0.1:58182",58f149cc.862,5,"UPDATE",2017-04-14 18:14:36 EDT,10/4,323711,LOG,00000,"execute <unnamed>: UPDATE ""SPECIAL_FACILITY"" SET data_a = $1 WHERE s_id = $2 AND sf_type = $3","parameters: $1 = '186', $2 = '64616', $3 = '2'",,,,,,,,""
2017-04-14 18:14:38.200 EDT,"postgres","tatp",2146,"127.0.0.1:58182",58f149cc.862,6,"ROLLBACK",2017-04-14 18:14:36 EDT,10/4,323711,LOG,00000,"execute S_1: ROLLBACK",,,,,,,,,""
2017-04-14 18:14:38.294 EDT,"postgres","tatp",2138,"127.0.0.1:58176",58f149cc.85a,3,"BEGIN",2017-04-14 18:14:36 EDT,4/4,0,LOG,00000,"execute <unnamed>: BEGIN",,,,,,,,,""
2017-04-14 18:14:38.296 EDT,"postgres","tatp",2138,"127.0.0.1:58176",58f149cc.85a,4,"SELECT",2017-04-14 18:14:36 EDT,4/4,0,LOG,00000,"execute <unnamed>: SELECT data1, data2, data3, data4 FROM ""ACCESS_INFO"" WHERE s_id = $1 AND ai_type = $2","parameters: $1 = '17043', $2 = '4'",,,,,,,,""
2017-04-14 18:14:38.296 EDT,"postgres","tatp",2138,"127.0.0.1:58176",58f149cc.85a,5,"COMMIT",2017-04-14 18:14:36 EDT,4/4,0,LOG,00000,"execute S_1: COMMIT",,,,,,,,,""
2017-04-14 18:14:38.394 EDT,"postgres","tatp",2158,"127.0.0.1:58192",58f149cc.86e,6,"BEGIN",2017-04-14 18:14:36 EDT,20/5,0,LOG,00000,"execute <unnamed>: BEGIN",,,,,,,,,""
2017-04-14 18:14:38.396 EDT,"postgres","tatp",2158,"127.0.0.1:58192",58f149cc.86e,7,"SELECT",2017-04-14 18:14:36 EDT,20/5,0,LOG,00000,"execute <unnamed>: SELECT cf.numberx FROM ""SPECIAL_FACILITY"" sf, ""CALL_FORWARDING"" cf	WHERE sf.s_id = $1 AND sf.sf_type = $2 AND sf.is_active = 1 AND cf.s_id = sf.s_id AND cf.sf_type = sf.sf_type AND cf.start_time <= $3 AND cf.end_time > $4","parameters: $1 = '93202', $2 = '3', $3 = '8', $4 = '16'",,,,,,,,""
2017-04-14 18:14:38.397 EDT,"postgres","tatp",2158,"127.0.0.1:58192",58f149cc.86e,8,"COMMIT",2017-04-14 18:14:36 EDT,20/5,0,LOG,00000,"execute S_1: COMMIT",,,,,,,,,""
2017-04-14 18:14:38.494 EDT,"postgres","tatp",2157,"127.0.0.1:58191",58f149cc.86d,6,"BEGIN",2017-04-14 18:14:36 EDT,19/5,0,LOG,00000,"execute <unnamed>: BEGIN",,,,,,,,,""
2017-04-14 18:14:38.495 EDT,"postgres","tatp",2157,"127.0.0.1:58191",58f149cc.86d,7,"SELECT",2017-04-14 18:14:36 EDT,19/5,0,LOG,00000,"execute <unnamed>: SELECT data1, data2, data3, data4 FROM ""ACCESS_INFO"" WHERE s_id = $1 AND ai_type = $2","parameters: $1 = '83065', $2 = '4'",,,,,,,,""
2017-04-14 18:14:38.496 EDT,"postgres","tatp",2157,"127.0.0.1:58191",58f149cc.86d,8,"COMMIT",2017-04-14 18:14:36 EDT,19/5,0,LOG,00000,"execute S_1: COMMIT",,,,,,,,,""
2017-04-14 18:14:38.594 EDT,"postgres","tatp",2156,"127.0.0.1:58190",58f149cc.86c,6,"BEGIN",2017-04-14 18:14:36 EDT,18/5,0,LOG,00000,"execute <unnamed>: BEGIN",,,,,,,,,""
2017-04-14 18:14:38.596 EDT,"postgres","tatp",2156,"127.0.0.1:58190",58f149cc.86c,7,"SELECT",2017-04-14 18:14:36 EDT,18/5,0,LOG,00000,"execute <unnamed>: SELECT s_id FROM ""SUBSCRIBER"" WHERE sub_nbr = $1","parameters: $1 = '000000000035564'",,,,,,,,""
2017-04-14 18:14:38.598 EDT,"postgres","tatp",2156,"127.0.0.1:58190",58f149cc.86c,8,"UPDATE",2017-04-14 18:14:36 EDT,18/5,0,LOG,00000,"execute <unnamed>: UPDATE ""SUBSCRIBER"" SET vlr_location = $1 WHERE s_id = $2","parameters: $1 = '985711938', $2 = '35564'",,,,,,,,""
2017-04-14 18:14:38.599 EDT,"postgres","tatp",2156,"127.0.0.1:58190",58f149cc.86c,9,"COMMIT",2017-04-14 18:14:36 EDT,18/5,323712,LOG,00000,"execute S_1: COMMIT",,,,,,,,,""
2017-04-14 18:14:38.695 EDT,"postgres","tatp",2155,"127.0.0.1:58189",58f149cc.86b,6,"BEGIN",2017-04-14 18:14:36 EDT,17/5,0,LOG,00000,"execute <unnamed>: BEGIN",,,,,,,,,""
2017-04-14 18:14:38.697 EDT,"postgres","tatp",2155,"127.0.0.1:58189",58f149cc.86b,7,"SELECT",2017-04-14 18:14:36 EDT,17/5,0,LOG,00000,"execute <unnamed>: SELECT cf.numberx FROM ""SPECIAL_FACILITY"" sf, ""CALL_FORWARDING"" cf	WHERE sf.s_id = $1 AND sf.sf_type = $2 AND sf.is_active = 1 AND cf.s_id = sf.s_id AND cf.sf_type = sf.sf_type AND cf.start_time <= $3 AND cf.end_time > $4","parameters: $1 = '35227', $2 = '3', $3 = '8', $4 = '6'",,,,,,,,""
2017-04-14 18:14:38.698 EDT,"postgres","tatp",2155,"127.0.0.1:58189",58f149cc.86b,8,"COMMIT",2017-04-14 18:14:36 EDT,17/5,0,LOG,00000,"execute S_1: COMMIT",,,,,,,,,""
2017-04-14 18:14:38.794 EDT,"postgres","tatp",2154,"127.0.0.1:58188",58f149cc.86a,6,"BEGIN",2017-04-14 18:14:36 EDT,16/5,0,LOG,00000,"execute <unnamed>: BEGIN",,,,,,,,,""
2017-04-14 18:14:38.795 EDT,"postgres","tatp",2154,"127.0.0.1:58188",58f149cc.86a,7,"SELECT",2017-04-14 18:14:36 EDT,16/5,0,LOG,00000,"execute <unnamed>: SELECT * FROM ""SUBSCRIBER"" WHERE s_id = $1","parameters: $1 = '6901'",,,,,,,,""
2017-04-14 18:14:38.796 EDT,"postgres","tatp",2154,"127.0.0.1:58188",58f149cc.86a,8,"COMMIT",2017-04-14 18:14:36 EDT,16/5,0,LOG,00000,"execute S_1: COMMIT",,,,,,,,,""
2017-04-14 18:14:38.894 EDT,"postgres","tatp",2142,"127.0.0.1:58180",58f149cc.85e,6,"BEGIN",2017-04-14 18:14:36 EDT,8/5,0,LOG,00000,"execute <unnamed>: BEGIN",,,,,,,,,""
2017-04-14 18:14:38.896 EDT,"postgres","tatp",2142,"127.0.0.1:58180",58f149cc.85e,7,"SELECT",2017-04-14 18:14:36 EDT,8/5,0,LOG,00000,"execute <unnamed>: SELECT cf.numberx FROM ""SPECIAL_FACILITY"" sf, ""CALL_FORWARDING"" cf	WHERE sf.s_id = $1 AND sf.sf_type = $2 AND sf.is_active = 1 AND cf.s_id = sf.s_id AND cf.sf_type = sf.sf_type AND cf.start_time <= $3 AND cf.end_time > $4","parameters: $1 = '95993', $2 = '3', $3 = '0', $4 = '2'",,,,,,,,""
2017-04-14 18:14:38.897 EDT,"postgres","tatp",2142,"127.0.0.1:58180",58f149cc.85e,8,"COMMIT",2017-04-14 18:14:36 EDT,8/5,0,LOG,00000,"execute S_1: COMMIT",,,,,,,,,""
2017-04-14 18:14:38.994 EDT,"postgres","tatp",2153,"127.0.0.1:58187",58f149cc.869,6,"BEGIN",2017-04-14 18:14:36 EDT,15/5,0,LOG,00000,"execute <unnamed>: BEGIN",,,,,,,,,""
2017-04-14 18:14:38.995 EDT,"postgres","tatp",2153,"127.0.0.1:58187",58f149cc.869,7,"SELECT",2017-04-14 18:14:36 EDT,15/5,0,LOG,00000,"execute <unnamed>: SELECT * FROM ""SUBSCRIBER"" WHERE s_id = $1","parameters: $1 = '62329'",,,,,,,,""
2017-04-14 18:14:38.996 EDT,"postgres","tatp",2153,"127.0.0.1:58187",58f149cc.869,8,"COMMIT",2017-04-14 18:14:36 EDT,15/5,0,LOG,00000,"execute S_1: COMMIT",,,,,,,,,""
2017-04-14 18:14:39.095 EDT,"postgres","tatp",2139,"127.0.0.1:58177",58f149cc.85b,6,"BEGIN",2017-04-14 18:14:36 EDT,5/5,0,LOG,00000,"execute <unnamed>: BEGIN",,,,,,,,,""
2017-04-14 18:14:39.095 EDT,"postgres","tatp",2139,"127.0.0.1:58177",58f149cc.85b,7,"SELECT",2017-04-14 18:14:36 EDT,5/5,0,LOG,00000,"execute <unnamed>: SELECT data1, data2, data3, data4 FROM ""ACCESS_INFO"" WHERE s_id = $1 AND ai_type = $2","parameters: $1 = '39358', $2 = '1'",,,,,,,,""
2017-04-14 18:14:39.096 EDT,"postgres","tatp",2139,"127.0.0.1:58177",58f149cc.85b,8,"COMMIT",2017-04-14 18:14:36 EDT,5/5,0,LOG,00000,"execute S_1: COMMIT",,,,,,,,,""
2017-04-14 18:14:39.194 EDT,"postgres","tatp",2137,"127.0.0.1:58175",58f149cc.859,6,"BEGIN",2017-04-14 18:14:36 EDT,3/5,0,LOG,00000,"execute <unnamed>: BEGIN",,,,,,,,,""
2017-04-14 18:14:39.194 EDT,"postgres","tatp",2137,"127.0.0.1:58175",58f149cc.859,7,"SELECT",2017-04-14 18:14:36 EDT,3/5,0,LOG,00000,"execute <unnamed>: SELECT * FROM ""SUBSCRIBER"" WHERE s_id = $1","parameters: $1 = '77978'",,,,,,,,""
2017-04-14 18:14:39.195 EDT,"postgres","tatp",2137,"127.0.0.1:58175",58f149cc.859,8,"COMMIT",2017-04-14 18:14:36 EDT,3/5,0,LOG,00000,"execute S_1: COMMIT",,,,,,,,,""
2017-04-14 18:14:39.294 EDT,"postgres","tatp",2152,"127.0.0.1:58186",58f149cc.868,7,"BEGIN",2017-04-14 18:14:36 EDT,14/5,0,LOG,00000,"execute <unnamed>: BEGIN",,,,,,,,,""
2017-04-14 18:14:39.295 EDT,"postgres","tatp",2152,"127.0.0.1:58186",58f149cc.868,8,"SELECT",2017-04-14 18:14:36 EDT,14/5,0,LOG,00000,"execute <unnamed>: SELECT * FROM ""SUBSCRIBER"" WHERE s_id = $1","parameters: $1 = '11133'",,,,,,,,""
2017-04-14 18:14:39.295 EDT,"postgres","tatp",2152,"127.0.0.1:58186",58f149cc.868,9,"COMMIT",2017-04-14 18:14:36 EDT,14/5,0,LOG,00000,"execute S_1: COMMIT",,,,,,,,,""
2017-04-14 18:14:39.394 EDT,"postgres","tatp",2143,"127.0.0.1:58181",58f149cc.85f,6,"BEGIN",2017-04-14 18:14:36 EDT,9/5,0,LOG,00000,"execute <unnamed>: BEGIN",,,,,,,,,""
2017-04-14 18:14:39.395 EDT,"postgres","tatp",2143,"127.0.0.1:58181",58f149cc.85f,7,"SELECT",2017-04-14 18:14:36 EDT,9/5,0,LOG,00000,"execute <unnamed>: SELECT * FROM ""SUBSCRIBER"" WHERE s_id = $1","parameters: $1 = '43613'",,,,,,,,""
2017-04-14 18:14:39.396 EDT,"postgres","tatp",2143,"127.0.0.1:58181",58f149cc.85f,8,"COMMIT",2017-04-14 18:14:36 EDT,9/5,0,LOG,00000,"execute S_1: COMMIT",,,,,,,,,""
2017-04-14 18:14:39.494 EDT,"postgres","tatp",2151,"127.0.0.1:58185",58f149cc.867,7,"BEGIN",2017-04-14 18:14:36 EDT,13/5,0,LOG,00000,"execute <unnamed>: BEGIN",,,,,,,,,""
2017-04-14 18:14:39.495 EDT,"postgres","tatp",2151,"127.0.0.1:58185",58f149cc.867,8,"SELECT",2017-04-14 18:14:36 EDT,13/5,0,LOG,00000,"execute <unnamed>: SELECT s_id FROM ""SUBSCRIBER"" WHERE sub_nbr = $1","parameters: $1 = '000000000006609'",,,,,,,,""
2017-04-14 18:14:39.496 EDT,"postgres","tatp",2151,"127.0.0.1:58185",58f149cc.867,9,"UPDATE",2017-04-14 18:14:36 EDT,13/5,0,LOG,00000,"execute <unnamed>: UPDATE ""SUBSCRIBER"" SET vlr_location = $1 WHERE s_id = $2","parameters: $1 = '1607583331', $2 = '6609'",,,,,,,,""
2017-04-14 18:14:39.497 EDT,"postgres","tatp",2151,"127.0.0.1:58185",58f149cc.867,10,"COMMIT",2017-04-14 18:14:36 EDT,13/5,323713,LOG,00000,"execute S_1: COMMIT",,,,,,,,,""
2017-04-14 18:14:39.593 EDT,"postgres","tatp",2150,"127.0.0.1:58184",58f149cc.866,6,"BEGIN",2017-04-14 18:14:36 EDT,12/5,0,LOG,00000,"execute <unnamed>: BEGIN",,,,,,,,,""
2017-04-14 18:14:39.594 EDT,"postgres","tatp",2150,"127.0.0.1:58184",58f149cc.866,7,"SELECT",2017-04-14 18:14:36 EDT,12/5,0,LOG,00000,"execute <unnamed>: SELECT data1, data2, data3, data4 FROM ""ACCESS_INFO"" WHERE s_id = $1 AND ai_type = $2","parameters: $1 = '9940', $2 = '2'",,,,,,,,""
2017-04-14 18:14:39.594 EDT,"postgres","tatp",2150,"127.0.0.1:58184",58f149cc.866,8,"COMMIT",2017-04-14 18:14:36 EDT,12/5,0,LOG,00000,"execute S_1: COMMIT",,,,,,,,,""
2017-04-14 18:14:39.694 EDT,"postgres","tatp",2136,"127.0.0.1:58174",58f149cc.858,7,"BEGIN",2017-04-14 18:14:36 EDT,2/11,0,LOG,00000,"execute <unnamed>: BEGIN",,,,,,,,,""
2017-04-14 18:14:39.695 EDT,"postgres","tatp",2136,"127.0.0.1:58174",58f149cc.858,8,"SELECT",2017-04-14 18:14:36 EDT,2/11,0,LOG,00000,"execute <unnamed>: SELECT * FROM ""SUBSCRIBER"" WHERE s_id = $1","parameters: $1 = '38139'",,,,,,,,""
2017-04-14 18:14:39.695 EDT,"postgres","tatp",2136,"127.0.0.1:58174",58f149cc.858,9,"COMMIT",2017-04-14 18:14:36 EDT,2/11,0,LOG,00000,"execute S_1: COMMIT",,,,,,,,,""
2017-04-14 18:14:39.794 EDT,"postgres","tatp",2159,"127.0.0.1:58193",58f149cc.86f,6,"BEGIN",2017-04-14 18:14:36 EDT,21/5,0,LOG,00000,"execute <unnamed>: BEGIN",,,,,,,,,""
2017-04-14 18:14:39.794 EDT,"postgres","tatp",2159,"127.0.0.1:58193",58f149cc.86f,7,"SELECT",2017-04-14 18:14:36 EDT,21/5,0,LOG,00000,"execute <unnamed>: SELECT data1, data2, data3, data4 FROM ""ACCESS_INFO"" WHERE s_id = $1 AND ai_type = $2","parameters: $1 = '87440', $2 = '4'",,,,,,,,""
2017-04-14 18:14:39.795 EDT,"postgres","tatp",2159,"127.0.0.1:58193",58f149cc.86f,8,"COMMIT",2017-04-14 18:14:36 EDT,21/5,0,LOG,00000,"execute S_1: COMMIT",,,,,,,,,""
2017-04-14 18:14:39.894 EDT,"postgres","tatp",2140,"127.0.0.1:58178",58f149cc.85c,6,"BEGIN",2017-04-14 18:14:36 EDT,6/5,0,LOG,00000,"execute <unnamed>: BEGIN",,,,,,,,,""
2017-04-14 18:14:39.895 EDT,"postgres","tatp",2140,"127.0.0.1:58178",58f149cc.85c,7,"SELECT",2017-04-14 18:14:36 EDT,6/5,0,LOG,00000,"execute <unnamed>: SELECT data1, data2, data3, data4 FROM ""ACCESS_INFO"" WHERE s_id = $1 AND ai_type = $2","parameters: $1 = '94920', $2 = '2'",,,,,,,,""
2017-04-14 18:14:39.895 EDT,"postgres","tatp",2140,"127.0.0.1:58178",58f149cc.85c,8,"COMMIT",2017-04-14 18:14:36 EDT,6/5,0,LOG,00000,"execute S_1: COMMIT",,,,,,,,,""
2017-04-14 18:14:39.994 EDT,"postgres","tatp",2141,"127.0.0.1:58179",58f149cc.85d,7,"BEGIN",2017-04-14 18:14:36 EDT,7/5,0,LOG,00000,"execute <unnamed>: BEGIN",,,,,,,,,""
2017-04-14 18:14:39.995 EDT,"postgres","tatp",2141,"127.0.0.1:58179",58f149cc.85d,8,"SELECT",2017-04-14 18:14:36 EDT,7/5,0,LOG,00000,"execute <unnamed>: SELECT data1, data2, data3, data4 FROM ""ACCESS_INFO"" WHERE s_id = $1 AND ai_type = $2","parameters: $1 = '12350', $2 = '2'",,,,,,,,""
2017-04-14 18:14:39.996 EDT,"postgres","tatp",2141,"127.0.0.1:58179",58f149cc.85d,9,"COMMIT",2017-04-14 18:14:36 EDT,7/5,0,LOG,00000,"execute S_1: COMMIT",,,,,,,,,""
2017-04-14 18:14:40.094 EDT,"postgres","tatp",2149,"127.0.0.1:58183",58f149cc.865,6,"BEGIN",2017-04-14 18:14:36 EDT,11/5,0,LOG,00000,"execute <unnamed>: BEGIN",,,,,,,,,""
2017-04-14 18:14:40.095 EDT,"postgres","tatp",2149,"127.0.0.1:58183",58f149cc.865,7,"SELECT",2017-04-14 18:14:36 EDT,11/5,0,LOG,00000,"execute <unnamed>: SELECT data1, data2, data3, data4 FROM ""ACCESS_INFO"" WHERE s_id = $1 AND ai_type = $2","parameters: $1 = '48548', $2 = '1'",,,,,,,,""
2017-04-14 18:14:40.095 EDT,"postgres","tatp",2149,"127.0.0.1:58183",58f149cc.865,8,"COMMIT",2017-04-14 18:14:36 EDT,11/5,0,LOG,00000,"execute S_1: COMMIT",,,,,,,,,""
2017-04-14 18:14:40.194 EDT,"postgres","tatp",2146,"127.0.0.1:58182",58f149cc.862,7,"BEGIN",2017-04-14 18:14:36 EDT,10/5,0,LOG,00000,"execute <unnamed>: BEGIN",,,,,,,,,""
2017-04-14 18:14:40.195 EDT,"postgres","tatp",2146,"127.0.0.1:58182",58f149cc.862,8,"SELECT",2017-04-14 18:14:36 EDT,10/5,0,LOG,00000,"execute <unnamed>: SELECT * FROM ""SUBSCRIBER"" WHERE s_id = $1","parameters: $1 = '22808'",,,,,,,,""
2017-04-14 18:14:40.195 EDT,"postgres","tatp",2146,"127.0.0.1:58182",58f149cc.862,9,"COMMIT",2017-04-14 18:14:36 EDT,10/5,0,LOG,00000,"execute S_2: COMMIT",,,,,,,,,""
2017-04-14 18:14:40.294 EDT,"postgres","tatp",2138,"127.0.0.1:58176",58f149cc.85a,6,"BEGIN",2017-04-14 18:14:36 EDT,4/5,0,LOG,00000,"execute <unnamed>: BEGIN",,,,,,,,,""
2017-04-14 18:14:40.295 EDT,"postgres","tatp",2138,"127.0.0.1:58176",58f149cc.85a,7,"SELECT",2017-04-14 18:14:36 EDT,4/5,0,LOG,00000,"execute <unnamed>: SELECT * FROM ""SUBSCRIBER"" WHERE s_id = $1","parameters: $1 = '4789'",,,,,,,,""
2017-04-14 18:14:40.296 EDT,"postgres","tatp",2138,"127.0.0.1:58176",58f149cc.85a,8,"COMMIT",2017-04-14 18:14:36 EDT,4/5,0,LOG,00000,"execute S_1: COMMIT",,,,,,,,,""
2017-04-14 18:14:40.395 EDT,"postgres","tatp",2158,"127.0.0.1:58192",58f149cc.86e,9,"BEGIN",2017-04-14 18:14:36 EDT,20/6,0,LOG,00000,"execute <unnamed>: BEGIN",,,,,,,,,""
2017-04-14 18:14:40.396 EDT,"postgres","tatp",2158,"127.0.0.1:58192",58f149cc.86e,10,"SELECT",2017-04-14 18:14:36 EDT,20/6,0,LOG,00000,"execute <unnamed>: SELECT data1, data2, data3, data4 FROM ""ACCESS_INFO"" WHERE s_id = $1 AND ai_type = $2","parameters: $1 = '96592', $2 = '2'",,,,,,,,""
2017-04-14 18:14:40.396 EDT,"postgres","tatp",2158,"127.0.0.1:58192",58f149cc.86e,11,"COMMIT",2017-04-14 18:14:36 EDT,20/6,0,LOG,00000,"execute S_1: COMMIT",,,,,,,,,""
2017-04-14 18:14:40.494 EDT,"postgres","tatp",2157,"127.0.0.1:58191",58f149cc.86d,9,"BEGIN",2017-04-14 18:14:36 EDT,19/6,0,LOG,00000,"execute <unnamed>: BEGIN",,,,,,,,,""
2017-04-14 18:14:40.494 EDT,"postgres","tatp",2157,"127.0.0.1:58191",58f149cc.86d,10,"SELECT",2017-04-14 18:14:36 EDT,19/6,0,LOG,00000,"execute <unnamed>: SELECT * FROM ""SUBSCRIBER"" WHERE s_id = $1","parameters: $1 = '4989'",,,,,,,,""
2017-04-14 18:14:40.495 EDT,"postgres","tatp",2157,"127.0.0.1:58191",58f149cc.86d,11,"COMMIT",2017-04-14 18:14:36 EDT,19/6,0,LOG,00000,"execute S_1: COMMIT",,,,,,,,,""
2017-04-14 18:14:40.594 EDT,"postgres","tatp",2156,"127.0.0.1:58190",58f149cc.86c,10,"BEGIN",2017-04-14 18:14:36 EDT,18/6,0,LOG,00000,"execute <unnamed>: BEGIN",,,,,,,,,""
2017-04-14 18:14:40.595 EDT,"postgres","tatp",2156,"127.0.0.1:58190",58f149cc.86c,11,"SELECT",2017-04-14 18:14:36 EDT,18/6,0,LOG,00000,"execute <unnamed>: SELECT data1, data2, data3, data4 FROM ""ACCESS_INFO"" WHERE s_id = $1 AND ai_type = $2","parameters: $1 = '84110', $2 = '1'",,,,,,,,""
2017-04-14 18:14:40.595 EDT,"postgres","tatp",2156,"127.0.0.1:58190",58f149cc.86c,12,"COMMIT",2017-04-14 18:14:36 EDT,18/6,0,LOG,00000,"execute S_1: COMMIT",,,,,,,,,""
2017-04-14 18:14:40.694 EDT,"postgres","tatp",2155,"127.0.0.1:58189",58f149cc.86b,9,"BEGIN",2017-04-14 18:14:36 EDT,17/6,0,LOG,00000,"execute <unnamed>: BEGIN",,,,,,,,,""
2017-04-14 18:14:40.695 EDT,"postgres","tatp",2155,"127.0.0.1:58189",58f149cc.86b,10,"SELECT",2017-04-14 18:14:36 EDT,17/6,0,LOG,00000,"execute <unnamed>: SELECT data1, data2, data3, data4 FROM ""ACCESS_INFO"" WHERE s_id = $1 AND ai_type = $2","parameters: $1 = '64116', $2 = '3'",,,,,,,,""
2017-04-14 18:14:40.695 EDT,"postgres","tatp",2155,"127.0.0.1:58189",58f149cc.86b,11,"COMMIT",2017-04-14 18:14:36 EDT,17/6,0,LOG,00000,"execute S_1: COMMIT",,,,,,,,,""
2017-04-14 18:14:40.794 EDT,"postgres","tatp",2154,"127.0.0.1:58188",58f149cc.86a,9,"BEGIN",2017-04-14 18:14:36 EDT,16/6,0,LOG,00000,"execute <unnamed>: BEGIN",,,,,,,,,""
2017-04-14 18:14:40.795 EDT,"postgres","tatp",2154,"127.0.0.1:58188",58f149cc.86a,10,"SELECT",2017-04-14 18:14:36 EDT,16/6,0,LOG,00000,"execute <unnamed>: SELECT data1, data2, data3, data4 FROM ""ACCESS_INFO"" WHERE s_id = $1 AND ai_type = $2","parameters: $1 = '77700', $2 = '3'",,,,,,,,""
2017-04-14 18:14:40.795 EDT,"postgres","tatp",2154,"127.0.0.1:58188",58f149cc.86a,11,"COMMIT",2017-04-14 18:14:36 EDT,16/6,0,LOG,00000,"execute S_1: COMMIT",,,,,,,,,""
2017-04-14 18:14:40.894 EDT,"postgres","tatp",2142,"127.0.0.1:58180",58f149cc.85e,9,"BEGIN",2017-04-14 18:14:36 EDT,8/6,0,LOG,00000,"execute <unnamed>: BEGIN",,,,,,,,,""
2017-04-14 18:14:40.895 EDT,"postgres","tatp",2142,"127.0.0.1:58180",58f149cc.85e,10,"SELECT",2017-04-14 18:14:36 EDT,8/6,0,LOG,00000,"execute <unnamed>: SELECT s_id FROM ""SUBSCRIBER"" WHERE sub_nbr = $1","parameters: $1 = '000000000043548'",,,,,,,,""
2017-04-14 18:14:40.896 EDT,"postgres","tatp",2142,"127.0.0.1:58180",58f149cc.85e,11,"UPDATE",2017-04-14 18:14:36 EDT,8/6,0,LOG,00000,"execute <unnamed>: UPDATE ""SUBSCRIBER"" SET vlr_location = $1 WHERE s_id = $2","parameters: $1 = '1662635490', $2 = '43548'",,,,,,,,""
2017-04-14 18:14:40.897 EDT,"postgres","tatp",2142,"127.0.0.1:58180",58f149cc.85e,12,"COMMIT",2017-04-14 18:14:36 EDT,8/6,323714,LOG,00000,"execute S_1: COMMIT",,,,,,,,,""
2017-04-14 18:14:40.994 EDT,"postgres","tatp",2153,"127.0.0.1:58187",58f149cc.869,9,"BEGIN",2017-04-14 18:14:36 EDT,15/6,0,LOG,00000,"execute <unnamed>: BEGIN",,,,,,,,,""
2017-04-14 18:14:40.995 EDT,"postgres","tatp",2153,"127.0.0.1:58187",58f149cc.869,10,"SELECT",2017-04-14 18:14:36 EDT,15/6,0,LOG,00000,"execute <unnamed>: SELECT s_id FROM ""SUBSCRIBER"" WHERE sub_nbr = $1","parameters: $1 = '000000000013123'",,,,,,,,""
2017-04-14 18:14:40.997 EDT,"postgres","tatp",2153,"127.0.0.1:58187",58f149cc.869,11,"UPDATE",2017-04-14 18:14:36 EDT,15/6,0,LOG,00000,"execute <unnamed>: UPDATE ""SUBSCRIBER"" SET vlr_location = $1 WHERE s_id = $2","parameters: $1 = '1331464939', $2 = '13123'",,,,,,,,""
2017-04-14 18:14:40.998 EDT,"postgres","tatp",2153,"127.0.0.1:58187",58f149cc.869,12,"COMMIT",2017-04-14 18:14:36 EDT,15/6,323715,LOG,00000,"execute S_1: COMMIT",,,,,,,,,""
2017-04-14 18:14:41.094 EDT,"postgres","tatp",2139,"127.0.0.1:58177",58f149cc.85b,9,"BEGIN",2017-04-14 18:14:36 EDT,5/6,0,LOG,00000,"execute <unnamed>: BEGIN",,,,,,,,,""
2017-04-14 18:14:41.096 EDT,"postgres","tatp",2139,"127.0.0.1:58177",58f149cc.85b,10,"SELECT",2017-04-14 18:14:36 EDT,5/6,0,LOG,00000,"execute <unnamed>: SELECT s_id FROM ""SUBSCRIBER"" WHERE sub_nbr = $1","parameters: $1 = '000000000004988'",,,,,,,,""
2017-04-14 18:14:41.097 EDT,"postgres","tatp",2139,"127.0.0.1:58177",58f149cc.85b,11,"UPDATE",2017-04-14 18:14:36 EDT,5/6,0,LOG,00000,"execute <unnamed>: UPDATE ""SUBSCRIBER"" SET vlr_location = $1 WHERE s_id = $2","parameters: $1 = '2078251296', $2 = '4988'",,,,,,,,""
2017-04-14 18:14:41.098 EDT,"postgres","tatp",2139,"127.0.0.1:58177",58f149cc.85b,12,"COMMIT",2017-04-14 18:14:36 EDT,5/6,323716,LOG,00000,"execute S_1: COMMIT",,,,,,,,,""
2017-04-14 18:14:41.194 EDT,"postgres","tatp",2137,"127.0.0.1:58175",58f149cc.859,9,"BEGIN",2017-04-14 18:14:36 EDT,3/6,0,LOG,00000,"execute <unnamed>: BEGIN",,,,,,,,,""
2017-04-14 18:14:41.195 EDT,"postgres","tatp",2137,"127.0.0.1:58175",58f149cc.859,10,"SELECT",2017-04-14 18:14:36 EDT,3/6,0,LOG,00000,"execute <unnamed>: SELECT data1, data2, data3, data4 FROM ""ACCESS_INFO"" WHERE s_id = $1 AND ai_type = $2","parameters: $1 = '39123', $2 = '1'",,,,,,,,""
2017-04-14 18:14:41.196 EDT,"postgres","tatp",2137,"127.0.0.1:58175",58f149cc.859,11,"COMMIT",2017-04-14 18:14:36 EDT,3/6,0,LOG,00000,"execute S_1: COMMIT",,,,,,,,,""
2017-04-14 18:14:41.293 EDT,"postgres","tatp",2152,"127.0.0.1:58186",58f149cc.868,10,"BEGIN",2017-04-14 18:14:36 EDT,14/6,0,LOG,00000,"execute <unnamed>: BEGIN",,,,,,,,,""
2017-04-14 18:14:41.294 EDT,"postgres","tatp",2152,"127.0.0.1:58186",58f149cc.868,11,"SELECT",2017-04-14 18:14:36 EDT,14/6,0,LOG,00000,"execute <unnamed>: SELECT s_id FROM ""SUBSCRIBER"" WHERE sub_nbr = $1","parameters: $1 = '000000000070062'",,,,,,,,""
2017-04-14 18:14:41.295 EDT,"postgres","tatp",2152,"127.0.0.1:58186",58f149cc.868,12,"UPDATE",2017-04-14 18:14:36 EDT,14/6,0,LOG,00000,"execute <unnamed>: UPDATE ""SUBSCRIBER"" SET vlr_location = $1 WHERE s_id = $2","parameters: $1 = '2015459843', $2 = '70062'",,,,,,,,""
2017-04-14 18:14:41.295 EDT,"postgres","tatp",2152,"127.0.0.1:58186",58f149cc.868,13,"COMMIT",2017-04-14 18:14:36 EDT,14/6,323717,LOG,00000,"execute S_1: COMMIT",,,,,,,,,""
2017-04-14 18:14:41.394 EDT,"postgres","tatp",2143,"127.0.0.1:58181",58f149cc.85f,9,"BEGIN",2017-04-14 18:14:36 EDT,9/6,0,LOG,00000,"execute <unnamed>: BEGIN",,,,,,,,,""
2017-04-14 18:14:41.394 EDT,"postgres","tatp",2143,"127.0.0.1:58181",58f149cc.85f,10,"SELECT",2017-04-14 18:14:36 EDT,9/6,0,LOG,00000,"execute <unnamed>: SELECT cf.numberx FROM ""SPECIAL_FACILITY"" sf, ""CALL_FORWARDING"" cf	WHERE sf.s_id = $1 AND sf.sf_type = $2 AND sf.is_active = 1 AND cf.s_id = sf.s_id AND cf.sf_type = sf.sf_type AND cf.start_time <= $3 AND cf.end_time > $4","parameters: $1 = '47905', $2 = '4', $3 = '16', $4 = '3'",,,,,,,,""
2017-04-14 18:14:41.395 EDT,"postgres","tatp",2143,"127.0.0.1:58181",58f149cc.85f,11,"COMMIT",2017-04-14 18:14:36 EDT,9/6,0,LOG,00000,"execute S_1: COMMIT",,,,,,,,,""
2017-04-14 18:14:41.494 EDT,"postgres","tatp",2151,"127.0.0.1:58185",58f149cc.867,11,"BEGIN",2017-04-14 18:14:36 EDT,13/6,0,LOG,00000,"execute <unnamed>: BEGIN",,,,,,,,,""
2017-04-14 18:14:41.495 EDT,"postgres","tatp",2151,"127.0.0.1:58185",58f149cc.867,12,"SELECT",2017-04-14 18:14:36 EDT,13/6,0,LOG,00000,"execute <unnamed>: SELECT data1, data2, data3, data4 FROM ""ACCESS_INFO"" WHERE s_id = $1 AND ai_type = $2","parameters: $1 = '71139', $2 = '3'",,,,,,,,""
2017-04-14 18:14:41.495 EDT,"postgres","tatp",2151,"127.0.0.1:58185",58f149cc.867,13,"COMMIT",2017-04-14 18:14:36 EDT,13/6,0,LOG,00000,"execute S_1: COMMIT",,,,,,,,,""
2017-04-14 18:14:41.594 EDT,"postgres","tatp",2150,"127.0.0.1:58184",58f149cc.866,9,"BEGIN",2017-04-14 18:14:36 EDT,12/6,0,LOG,00000,"execute <unnamed>: BEGIN",,,,,,,,,""
2017-04-14 18:14:41.595 EDT,"postgres","tatp",2150,"127.0.0.1:58184",58f149cc.866,10,"SELECT",2017-04-14 18:14:36 EDT,12/6,0,LOG,00000,"execute <unnamed>: SELECT * FROM ""SUBSCRIBER"" WHERE s_id = $1","parameters: $1 = '51393'",,,,,,,,""
2017-04-14 18:14:41.596 EDT,"postgres","tatp",2150,"127.0.0.1:58184",58f149cc.866,11,"COMMIT",2017-04-14 18:14:36 EDT,12/6,0,LOG,00000,"execute S_1: COMMIT",,,,,,,,,""
2017-04-14 18:14:41.694 EDT,"postgres","tatp",2136,"127.0.0.1:58174",58f149cc.858,10,"BEGIN",2017-04-14 18:14:36 EDT,2/12,0,LOG,00000,"execute <unnamed>: BEGIN",,,,,,,,,""
2017-04-14 18:14:41.696 EDT,"postgres","tatp",2136,"127.0.0.1:58174",58f149cc.858,11,"SELECT",2017-04-14 18:14:36 EDT,2/12,0,LOG,00000,"execute <unnamed>: SELECT cf.numberx FROM ""SPECIAL_FACILITY"" sf, ""CALL_FORWARDING"" cf	WHERE sf.s_id = $1 AND sf.sf_type = $2 AND sf.is_active = 1 AND cf.s_id = sf.s_id AND cf.sf_type = sf.sf_type AND cf.start_time <= $3 AND cf.end_time > $4","parameters: $1 = '32209', $2 = '3', $3 = '16', $4 = '16'",,,,,,,,""
2017-04-14 18:14:41.697 EDT,"postgres","tatp",2136,"127.0.0.1:58174",58f149cc.858,12,"COMMIT",2017-04-14 18:14:36 EDT,2/12,0,LOG,00000,"execute S_1: COMMIT",,,,,,,,,""
2017-04-14 18:14:41.794 EDT,"postgres","tatp",2159,"127.0.0.1:58193",58f149cc.86f,9,"BEGIN",2017-04-14 18:14:36 EDT,21/6,0,LOG,00000,"execute <unnamed>: BEGIN",,,,,,,,,""
2017-04-14 18:14:41.796 EDT,"postgres","tatp",2159,"127.0.0.1:58193",58f149cc.86f,10,"SELECT",2017-04-14 18:14:36 EDT,21/6,0,LOG,00000,"execute <unnamed>: SELECT s_id FROM ""SUBSCRIBER"" WHERE sub_nbr = $1","parameters: $1 = '000000000009387'",,,,,,,,""
2017-04-14 18:14:41.797 EDT,"postgres","tatp",2159,"127.0.0.1:58193",58f149cc.86f,11,"DELETE",2017-04-14 18:14:36 EDT,21/6,0,LOG,00000,"execute <unnamed>: DELETE FROM ""CALL_FORWARDING"" WHERE s_id = $1 AND sf_type = $2 AND start_time = $3","parameters: $1 = '9387', $2 = '4', $3 = '16'",,,,,,,,""
2017-04-14 18:14:41.798 EDT,"postgres","tatp",2159,"127.0.0.1:58193",58f149cc.86f,12,"ROLLBACK",2017-04-14 18:14:36 EDT,21/6,0,LOG,00000,"execute S_2: ROLLBACK",,,,,,,,,""
2017-04-14 18:14:41.894 EDT,"postgres","tatp",2140,"127.0.0.1:58178",58f149cc.85c,9,"BEGIN",2017-04-14 18:14:36 EDT,6/6,0,LOG,00000,"execute <unnamed>: BEGIN",,,,,,,,,""
2017-04-14 18:14:41.895 EDT,"postgres","tatp",2140,"127.0.0.1:58178",58f149cc.85c,10,"SELECT",2017-04-14 18:14:36 EDT,6/6,0,LOG,00000,"execute <unnamed>: SELECT * FROM ""SUBSCRIBER"" WHERE s_id = $1","parameters: $1 = '26009'",,,,,,,,""
2017-04-14 18:14:41.896 EDT,"postgres","tatp",2140,"127.0.0.1:58178",58f149cc.85c,11,"COMMIT",2017-04-14 18:14:36 EDT,6/6,0,LOG,00000,"execute S_1: COMMIT",,,,,,,,,""
2017-04-14 18:14:41.994 EDT,"postgres","tatp",2141,"127.0.0.1:58179",58f149cc.85d,10,"BEGIN",2017-04-14 18:14:36 EDT,7/6,0,LOG,00000,"execute <unnamed>: BEGIN",,,,,,,,,""
2017-04-14 18:14:41.994 EDT,"postgres","tatp",2141,"127.0.0.1:58179",58f149cc.85d,11,"UPDATE",2017-04-14 18:14:36 EDT,7/6,0,LOG,00000,"execute <unnamed>: UPDATE ""SUBSCRIBER"" SET bit_1 = $1 WHERE s_id = $2","parameters: $1 = '1', $2 = '19063'",,,,,,,,""
2017-04-14 18:14:41.996 EDT,"postgres","tatp",2141,"127.0.0.1:58179",58f149cc.85d,12,"UPDATE",2017-04-14 18:14:36 EDT,7/6,323718,LOG,00000,"execute <unnamed>: UPDATE ""SPECIAL_FACILITY"" SET data_a = $1 WHERE s_id = $2 AND sf_type = $3","parameters: $1 = '127', $2 = '19063', $3 = '1'",,,,,,,,""
2017-04-14 18:14:41.997 EDT,"postgres","tatp",2141,"127.0.0.1:58179",58f149cc.85d,13,"COMMIT",2017-04-14 18:14:36 EDT,7/6,323718,LOG,00000,"execute S_1: COMMIT",,,,,,,,,""
2017-04-14 18:14:42.094 EDT,"postgres","tatp",2149,"127.0.0.1:58183",58f149cc.865,9,"BEGIN",2017-04-14 18:14:36 EDT,11/6,0,LOG,00000,"execute <unnamed>: BEGIN",,,,,,,,,""
2017-04-14 18:14:42.095 EDT,"postgres","tatp",2149,"127.0.0.1:58183",58f149cc.865,10,"UPDATE",2017-04-14 18:14:36 EDT,11/6,0,LOG,00000,"execute <unnamed>: UPDATE ""SUBSCRIBER"" SET bit_1 = $1 WHERE s_id = $2","parameters: $1 = '1', $2 = '3278'",,,,,,,,""
2017-04-14 18:14:42.097 EDT,"postgres","tatp",2149,"127.0.0.1:58183",58f149cc.865,11,"UPDATE",2017-04-14 18:14:36 EDT,11/6,323719,LOG,00000,"execute <unnamed>: UPDATE ""SPECIAL_FACILITY"" SET data_a = $1 WHERE s_id = $2 AND sf_type = $3","parameters: $1 = '3', $2 = '3278', $3 = '4'",,,,,,,,""
2017-04-14 18:14:42.098 EDT,"postgres","tatp",2149,"127.0.0.1:58183",58f149cc.865,12,"ROLLBACK",2017-04-14 18:14:36 EDT,11/6,323719,LOG,00000,"execute S_2: ROLLBACK",,,,,,,,,""
2017-04-14 18:14:42.194 EDT,"postgres","tatp",2146,"127.0.0.1:58182",58f149cc.862,10,"BEGIN",2017-04-14 18:14:36 EDT,10/6,0,LOG,00000,"execute <unnamed>: BEGIN",,,,,,,,,""
2017-04-14 18:14:42.195 EDT,"postgres","tatp",2146,"127.0.0.1:58182",58f149cc.862,11,"SELECT",2017-04-14 18:14:36 EDT,10/6,0,LOG,00000,"execute <unnamed>: SELECT * FROM ""SUBSCRIBER"" WHERE s_id = $1","parameters: $1 = '96833'",,,,,,,,""
2017-04-14 18:14:42.196 EDT,"postgres","tatp",2146,"127.0.0.1:58182",58f149cc.862,12,"COMMIT",2017-04-14 18:14:36 EDT,10/6,0,LOG,00000,"execute S_2: COMMIT",,,,,,,,,""
2017-04-14 18:14:42.294 EDT,"postgres","tatp",2138,"127.0.0.1:58176",58f149cc.85a,9,"BEGIN",2017-04-14 18:14:36 EDT,4/6,0,LOG,00000,"execute <unnamed>: BEGIN",,,,,,,,,""
2017-04-14 18:14:42.294 EDT,"postgres","tatp",2138,"127.0.0.1:58176",58f149cc.85a,10,"SELECT",2017-04-14 18:14:36 EDT,4/6,0,LOG,00000,"execute <unnamed>: SELECT data1, data2, data3, data4 FROM ""ACCESS_INFO"" WHERE s_id = $1 AND ai_type = $2","parameters: $1 = '71344', $2 = '1'",,,,,,,,""
2017-04-14 18:14:42.295 EDT,"postgres","tatp",2138,"127.0.0.1:58176",58f149cc.85a,11,"COMMIT",2017-04-14 18:14:36 EDT,4/6,0,LOG,00000,"execute S_1: COMMIT",,,,,,,,,""
2017-04-14 18:14:42.394 EDT,"postgres","tatp",2158,"127.0.0.1:58192",58f149cc.86e,12,"BEGIN",2017-04-14 18:14:36 EDT,20/7,0,LOG,00000,"execute <unnamed>: BEGIN",,,,,,,,,""
2017-04-14 18:14:42.396 EDT,"postgres","tatp",2158,"127.0.0.1:58192",58f149cc.86e,13,"SELECT",2017-04-14 18:14:36 EDT,20/7,0,LOG,00000,"execute <unnamed>: SELECT s_id FROM ""SUBSCRIBER"" WHERE sub_nbr = $1","parameters: $1 = '000000000084507'",,,,,,,,""
2017-04-14 18:14:42.397 EDT,"postgres","tatp",2158,"127.0.0.1:58192",58f149cc.86e,14,"UPDATE",2017-04-14 18:14:36 EDT,20/7,0,LOG,00000,"execute <unnamed>: UPDATE ""SUBSCRIBER"" SET vlr_location = $1 WHERE s_id = $2","parameters: $1 = '1227774116', $2 = '84507'",,,,,,,,""
2017-04-14 18:14:42.398 EDT,"postgres","tatp",2158,"127.0.0.1:58192",58f149cc.86e,15,"COMMIT",2017-04-14 18:14:36 EDT,20/7,323720,LOG,00000,"execute S_1: COMMIT",,,,,,,,,""
2017-04-14 18:14:42.494 EDT,"postgres","tatp",2157,"127.0.0.1:58191",58f149cc.86d,12,"BEGIN",2017-04-14 18:14:36 EDT,19/7,0,LOG,00000,"execute <unnamed>: BEGIN",,,,,,,,,""
2017-04-14 18:14:42.495 EDT,"postgres","tatp",2157,"127.0.0.1:58191",58f149cc.86d,13,"SELECT",2017-04-14 18:14:36 EDT,19/7,0,LOG,00000,"execute <unnamed>: SELECT * FROM ""SUBSCRIBER"" WHERE s_id = $1","parameters: $1 = '86262'",,,,,,,,""
2017-04-14 18:14:42.495 EDT,"postgres","tatp",2157,"127.0.0.1:58191",58f149cc.86d,14,"COMMIT",2017-04-14 18:14:36 EDT,19/7,0,LOG,00000,"execute S_1: COMMIT",,,,,,,,,""
2017-04-14 18:14:42.594 EDT,"postgres","tatp",2156,"127.0.0.1:58190",58f149cc.86c,13,"BEGIN",2017-04-14 18:14:36 EDT,18/7,0,LOG,00000,"execute <unnamed>: BEGIN",,,,,,,,,""
2017-04-14 18:14:42.594 EDT,"postgres","tatp",2156,"127.0.0.1:58190",58f149cc.86c,14,"SELECT",2017-04-14 18:14:36 EDT,18/7,0,LOG,00000,"execute <unnamed>: SELECT data1, data2, data3, data4 FROM ""ACCESS_INFO"" WHERE s_id = $1 AND ai_type = $2","parameters: $1 = '60980', $2 = '1'",,,,,,,,""
2017-04-14 18:14:42.595 EDT,"postgres","tatp",2156,"127.0.0.1:58190",58f149cc.86c,15,"COMMIT",2017-04-14 18:14:36 EDT,18/7,0,LOG,00000,"execute S_1: COMMIT",,,,,,,,,""
2017-04-14 18:14:42.693 EDT,"postgres","tatp",2155,"127.0.0.1:58189",58f149cc.86b,12,"BEGIN",2017-04-14 18:14:36 EDT,17/7,0,LOG,00000,"execute <unnamed>: BEGIN",,,,,,,,,""
2017-04-14 18:14:42.694 EDT,"postgres","tatp",2155,"127.0.0.1:58189",58f149cc.86b,13,"SELECT",2017-04-14 18:14:36 EDT,17/7,0,LOG,00000,"execute <unnamed>: SELECT * FROM ""SUBSCRIBER"" WHERE s_id = $1","parameters: $1 = '15690'",,,,,,,,""
2017-04-14 18:14:42.695 EDT,"postgres","tatp",2155,"127.0.0.1:58189",58f149cc.86b,14,"COMMIT",2017-04-14 18:14:36 EDT,17/7,0,LOG,00000,"execute S_1: COMMIT",,,,,,,,,""
2017-04-14 18:14:42.794 EDT,"postgres","tatp",2154,"127.0.0.1:58188",58f149cc.86a,12,"BEGIN",2017-04-14 18:14:36 EDT,16/7,0,LOG,00000,"execute <unnamed>: BEGIN",,,,,,,,,""
2017-04-14 18:14:42.794 EDT,"postgres","tatp",2154,"127.0.0.1:58188",58f149cc.86a,13,"SELECT",2017-04-14 18:14:36 EDT,16/7,0,LOG,00000,"execute <unnamed>: SELECT data1, data2, data3, data4 FROM ""ACCESS_INFO"" WHERE s_id = $1 AND ai_type = $2","parameters: $1 = '50352', $2 = '2'",,,,,,,,""
2017-04-14 18:14:42.795 EDT,"postgres","tatp",2154,"127.0.0.1:58188",58f149cc.86a,14,"COMMIT",2017-04-14 18:14:36 EDT,16/7,0,LOG,00000,"execute S_1: COMMIT",,,,,,,,,""
2017-04-14 18:14:42.894 EDT,"postgres","tatp",2142,"127.0.0.1:58180",58f149cc.85e,13,"BEGIN",2017-04-14 18:14:36 EDT,8/7,0,LOG,00000,"execute <unnamed>: BEGIN",,,,,,,,,""
2017-04-14 18:14:42.895 EDT,"postgres","tatp",2142,"127.0.0.1:58180",58f149cc.85e,14,"SELECT",2017-04-14 18:14:36 EDT,8/7,0,LOG,00000,"execute <unnamed>: SELECT * FROM ""SUBSCRIBER"" WHERE s_id = $1","parameters: $1 = '43441'",,,,,,,,""
2017-04-14 18:14:42.895 EDT,"postgres","tatp",2142,"127.0.0.1:58180",58f149cc.85e,15,"COMMIT",2017-04-14 18:14:36 EDT,8/7,0,LOG,00000,"execute S_1: COMMIT",,,,,,,,,""
2017-04-14 18:14:42.994 EDT,"postgres","tatp",2153,"127.0.0.1:58187",58f149cc.869,13,"BEGIN",2017-04-14 18:14:36 EDT,15/7,0,LOG,00000,"execute <unnamed>: BEGIN",,,,,,,,,""
2017-04-14 18:14:42.994 EDT,"postgres","tatp",2153,"127.0.0.1:58187",58f149cc.869,14,"UPDATE",2017-04-14 18:14:36 EDT,15/7,0,LOG,00000,"execute <unnamed>: UPDATE ""SUBSCRIBER"" SET bit_1 = $1 WHERE s_id = $2","parameters: $1 = '1', $2 = '4858'",,,,,,,,""
2017-04-14 18:14:42.995 EDT,"postgres","tatp",2153,"127.0.0.1:58187",58f149cc.869,15,"UPDATE",2017-04-14 18:14:36 EDT,15/7,323721,LOG,00000,"execute <unnamed>: UPDATE ""SPECIAL_FACILITY"" SET data_a = $1 WHERE s_id = $2 AND sf_type = $3","parameters: $1 = '45', $2 = '4858', $3 = '2'",,,,,,,,""
2017-04-14 18:14:42.995 EDT,"postgres","tatp",2153,"127.0.0.1:58187",58f149cc.869,16,"ROLLBACK",2017-04-14 18:14:36 EDT,15/7,323721,LOG,00000,"execute S_2: ROLLBACK",,,,,,,,,""
2017-04-14 18:14:43.094 EDT,"postgres","tatp",2139,"127.0.0.1:58177",58f149cc.85b,13,"BEGIN",2017-04-14 18:14:36 EDT,5/7,0,LOG,00000,"execute <unnamed>: BEGIN",,,,,,,,,""
2017-04-14 18:14:43.095 EDT,"postgres","tatp",2139,"127.0.0.1:58177",58f149cc.85b,14,"SELECT",2017-04-14 18:14:36 EDT,5/7,0,LOG,00000,"execute <unnamed>: SELECT data1, data2, data3, data4 FROM ""ACCESS_INFO"" WHERE s_id = $1 AND ai_type = $2","parameters: $1 = '2681', $2 = '1'",,,,,,,,""
2017-04-14 18:14:43.095 EDT,"postgres","tatp",2139,"127.0.0.1:58177",58f149cc.85b,15,"COMMIT",2017-04-14 18:14:36 EDT,5/7,0,LOG,00000,"execute S_1: COMMIT",,,,,,,,,""
2017-04-14 18:14:43.193 EDT,"postgres","tatp",2137,"127.0.0.1:58175",58f149cc.859,12,"BEGIN",2017-04-14 18:14:36 EDT,3/7,0,LOG,00000,"execute <unnamed>: BEGIN",,,,,,,,,""
2017-04-14 18:14:43.195 EDT,"postgres","tatp",2137,"127.0.0.1:58175",58f149cc.859,13,"SELECT",2017-04-14 18:14:36 EDT,3/7,0,LOG,00000,"execute <unnamed>: SELECT s_id FROM ""SUBSCRIBER"" WHERE sub_nbr = $1","parameters: $1 = '000000000023074'",,,,,,,,""
2017-04-14 18:14:43.197 EDT,"postgres","tatp",2137,"127.0.0.1:58175",58f149cc.859,14,"DELETE",2017-04-14 18:14:36 EDT,3/7,0,LOG,00000,"execute <unnamed>: DELETE FROM ""CALL_FORWARDING"" WHERE s_id = $1 AND sf_type = $2 AND start_time = $3","parameters: $1 = '23074', $2 = '1', $3 = '16'",,,,,,,,""
2017-04-14 18:14:43.197 EDT,"postgres","tatp",2137,"127.0.0.1:58175",58f149cc.859,15,"ROLLBACK",2017-04-14 18:14:36 EDT,3/7,0,LOG,00000,"execute S_2: ROLLBACK",,,,,,,,,""
2017-04-14 18:14:43.293 EDT,"postgres","tatp",2152,"127.0.0.1:58186",58f149cc.868,14,"BEGIN",2017-04-14 18:14:36 EDT,14/7,0,LOG,00000,"execute <unnamed>: BEGIN",,,,,,,,,""
2017-04-14 18:14:43.294 EDT,"postgres","tatp",2152,"127.0.0.1:58186",58f149cc.868,15,"SELECT",2017-04-14 18:14:36 EDT,14/7,0,LOG,00000,"execute <unnamed>: SELECT * FROM ""SUBSCRIBER"" WHERE s_id = $1","parameters: $1 = '11766'",,,,,,,,""
2017-04-14 18:14:43.295 EDT,"postgres","tatp",2152,"127.0.0.1:58186",58f149cc.868,16,"COMMIT",2017-04-14 18:14:36 EDT,14/7,0,LOG,00000,"execute S_1: COMMIT",,,,,,,,,""
2017-04-14 18:14:43.394 EDT,"postgres","tatp",2143,"127.0.0.1:58181",58f149cc.85f,12,"BEGIN",2017-04-14 18:14:36 EDT,9/7,0,LOG,00000,"execute <unnamed>: BEGIN",,,,,,,,,""
2017-04-14 18:14:43.394 EDT,"postgres","tatp",2143,"127.0.0.1:58181",58f149cc.85f,13,"SELECT",2017-04-14 18:14:36 EDT,9/7,0,LOG,00000,"execute <unnamed>: SELECT * FROM ""SUBSCRIBER"" WHERE s_id = $1","parameters: $1 = '14513'",,,,,,,,""
2017-04-14 18:14:43.395 EDT,"postgres","tatp",2143,"127.0.0.1:58181",58f149cc.85f,14,"COMMIT",2017-04-14 18:14:36 EDT,9/7,0,LOG,00000,"execute S_1: COMMIT",,,,,,,,,""
2017-04-14 18:14:43.494 EDT,"postgres","tatp",2151,"127.0.0.1:58185",58f149cc.867,14,"BEGIN",2017-04-14 18:14:36 EDT,13/7,0,LOG,00000,"execute <unnamed>: BEGIN",,,,,,,,,""
2017-04-14 18:14:43.494 EDT,"postgres","tatp",2151,"127.0.0.1:58185",58f149cc.867,15,"SELECT",2017-04-14 18:14:36 EDT,13/7,0,LOG,00000,"execute <unnamed>: SELECT s_id FROM ""SUBSCRIBER"" WHERE sub_nbr = $1","parameters: $1 = '000000000010738'",,,,,,,,""
2017-04-14 18:14:43.496 EDT,"postgres","tatp",2151,"127.0.0.1:58185",58f149cc.867,16,"DELETE",2017-04-14 18:14:36 EDT,13/7,0,LOG,00000,"execute <unnamed>: DELETE FROM ""CALL_FORWARDING"" WHERE s_id = $1 AND sf_type = $2 AND start_time = $3","parameters: $1 = '10738', $2 = '3', $3 = '8'",,,,,,,,""
2017-04-14 18:14:43.496 EDT,"postgres","tatp",2151,"127.0.0.1:58185",58f149cc.867,17,"ROLLBACK",2017-04-14 18:14:36 EDT,13/7,0,LOG,00000,"execute S_2: ROLLBACK",,,,,,,,,""
2017-04-14 18:14:43.594 EDT,"postgres","tatp",2150,"127.0.0.1:58184",58f149cc.866,12,"BEGIN",2017-04-14 18:14:36 EDT,12/7,0,LOG,00000,"execute <unnamed>: BEGIN",,,,,,,,,""
2017-04-14 18:14:43.595 EDT,"postgres","tatp",2150,"127.0.0.1:58184",58f149cc.866,13,"SELECT",2017-04-14 18:14:36 EDT,12/7,0,LOG,00000,"execute <unnamed>: SELECT * FROM ""SUBSCRIBER"" WHERE s_id = $1","parameters: $1 = '10988'",,,,,,,,""
2017-04-14 18:14:43.595 EDT,"postgres","tatp",2150,"127.0.0.1:58184",58f149cc.866,14,"COMMIT",2017-04-14 18:14:36 EDT,12/7,0,LOG,00000,"execute S_1: COMMIT",,,,,,,,,""
2017-04-14 18:14:43.693 EDT,"postgres","tatp",2136,"127.0.0.1:58174",58f149cc.858,13,"BEGIN",2017-04-14 18:14:36 EDT,2/13,0,LOG,00000,"execute <unnamed>: BEGIN",,,,,,,,,""
2017-04-14 18:14:43.694 EDT,"postgres","tatp",2136,"127.0.0.1:58174",58f149cc.858,14,"SELECT",2017-04-14 18:14:36 EDT,2/13,0,LOG,00000,"execute <unnamed>: SELECT data1, data2, data3, data4 FROM ""ACCESS_INFO"" WHERE s_id = $1 AND ai_type = $2","parameters: $1 = '40188', $2 = '1'",,,,,,,,""
2017-04-14 18:14:43.695 EDT,"postgres","tatp",2136,"127.0.0.1:58174",58f149cc.858,15,"COMMIT",2017-04-14 18:14:36 EDT,2/13,0,LOG,00000,"execute S_1: COMMIT",,,,,,,,,""
2017-04-14 18:14:43.794 EDT,"postgres","tatp",2159,"127.0.0.1:58193",58f149cc.86f,13,"BEGIN",2017-04-14 18:14:36 EDT,21/7,0,LOG,00000,"execute <unnamed>: BEGIN",,,,,,,,,""
2017-04-14 18:14:43.794 EDT,"postgres","tatp",2159,"127.0.0.1:58193",58f149cc.86f,14,"SELECT",2017-04-14 18:14:36 EDT,21/7,0,LOG,00000,"execute <unnamed>: SELECT data1, data2, data3, data4 FROM ""ACCESS_INFO"" WHERE s_id = $1 AND ai_type = $2","parameters: $1 = '26361', $2 = '2'",,,,,,,,""
2017-04-14 18:14:43.795 EDT,"postgres","tatp",2159,"127.0.0.1:58193",58f149cc.86f,15,"COMMIT",2017-04-14 18:14:36 EDT,21/7,0,LOG,00000,"execute S_1: COMMIT",,,,,,,,,""
2017-04-14 18:14:43.894 EDT,"postgres","tatp",2140,"127.0.0.1:58178",58f149cc.85c,12,"BEGIN",2017-04-14 18:14:36 EDT,6/7,0,LOG,00000,"execute <unnamed>: BEGIN",,,,,,,,,""
2017-04-14 18:14:43.894 EDT,"postgres","tatp",2140,"127.0.0.1:58178",58f149cc.85c,13,"SELECT",2017-04-14 18:14:36 EDT,6/7,0,LOG,00000,"execute <unnamed>: SELECT * FROM ""SUBSCRIBER"" WHERE s_id = $1","parameters: $1 = '12135'",,,,,,,,""
2017-04-14 18:14:43.895 EDT,"postgres","tatp",2140,"127.0.0.1:58178",58f149cc.85c,14,"COMMIT",2017-04-14 18:14:36 EDT,6/7,0,LOG,00000,"execute S_1: COMMIT",,,,,,,,,""
2017-04-14 18:14:43.994 EDT,"postgres","tatp",2141,"127.0.0.1:58179",58f149cc.85d,14,"BEGIN",2017-04-14 18:14:36 EDT,7/7,0,LOG,00000,"execute <unnamed>: BEGIN",,,,,,,,,""
2017-04-14 18:14:43.994 EDT,"postgres","tatp",2141,"127.0.0.1:58179",58f149cc.85d,15,"SELECT",2017-04-14 18:14:36 EDT,7/7,0,LOG,00000,"execute <unnamed>: SELECT data1, data2, data3, data4 FROM ""ACCESS_INFO"" WHERE s_id = $1 AND ai_type = $2","parameters: $1 = '90335', $2 = '3'",,,,,,,,""
2017-04-14 18:14:43.995 EDT,"postgres","tatp",2141,"127.0.0.1:58179",58f149cc.85d,16,"COMMIT",2017-04-14 18:14:36 EDT,7/7,0,LOG,00000,"execute S_1: COMMIT",,,,,,,,,""
2017-04-14 18:14:44.094 EDT,"postgres","tatp",2149,"127.0.0.1:58183",58f149cc.865,13,"BEGIN",2017-04-14 18:14:36 EDT,11/7,0,LOG,00000,"execute <unnamed>: BEGIN",,,,,,,,,""
2017-04-14 18:14:44.096 EDT,"postgres","tatp",2149,"127.0.0.1:58183",58f149cc.865,14,"SELECT",2017-04-14 18:14:36 EDT,11/7,0,LOG,00000,"execute <unnamed>: SELECT cf.numberx FROM ""SPECIAL_FACILITY"" sf, ""CALL_FORWARDING"" cf	WHERE sf.s_id = $1 AND sf.sf_type = $2 AND sf.is_active = 1 AND cf.s_id = sf.s_id AND cf.sf_type = sf.sf_type AND cf.start_time <= $3 AND cf.end_time > $4","parameters: $1 = '784', $2 = '2', $3 = '16', $4 = '15'",,,,,,,,""
2017-04-14 18:14:44.096 EDT,"postgres","tatp",2149,"127.0.0.1:58183",58f149cc.865,15,"COMMIT",2017-04-14 18:14:36 EDT,11/7,0,LOG,00000,"execute S_1: COMMIT",,,,,,,,,""
2017-04-14 18:14:44.194 EDT,"postgres","tatp",2146,"127.0.0.1:58182",58f149cc.862,13,"BEGIN",2017-04-14 18:14:36 EDT,10/7,0,LOG,00000,"execute <unnamed>: BEGIN",,,,,,,,,""
2017-04-14 18:14:44.195 EDT,"postgres","tatp",2146,"127.0.0.1:58182",58f149cc.862,14,"SELECT",2017-04-14 18:14:36 EDT,10/7,0,LOG,00000,"execute <unnamed>: SELECT data1, data2, data3, data4 FROM ""ACCESS_INFO"" WHERE s_id = $1 AND ai_type = $2","parameters: $1 = '85091', $2 = '2'",,,,,,,,""
2017-04-14 18:14:44.196 EDT,"postgres","tatp",2146,"127.0.0.1:58182",58f149cc.862,15,"COMMIT",2017-04-14 18:14:36 EDT,10/7,0,LOG,00000,"execute S_2: COMMIT",,,,,,,,,""
2017-04-14 18:14:44.294 EDT,"postgres","tatp",2138,"127.0.0.1:58176",58f149cc.85a,12,"BEGIN",2017-04-14 18:14:36 EDT,4/7,0,LOG,00000,"execute <unnamed>: BEGIN",,,,,,,,,""
2017-04-14 18:14:44.296 EDT,"postgres","tatp",2138,"127.0.0.1:58176",58f149cc.85a,13,"SELECT",2017-04-14 18:14:36 EDT,4/7,0,LOG,00000,"execute <unnamed>: SELECT s_id FROM ""SUBSCRIBER"" WHERE sub_nbr = $1","parameters: $1 = '000000000031680'",,,,,,,,""
2017-04-14 18:14:44.297 EDT,"postgres","tatp",2138,"127.0.0.1:58176",58f149cc.85a,14,"UPDATE",2017-04-14 18:14:36 EDT,4/7,0,LOG,00000,"execute <unnamed>: UPDATE ""SUBSCRIBER"" SET vlr_location = $1 WHERE s_id = $2","parameters: $1 = '1736037374', $2 = '31680'",,,,,,,,""
2017-04-14 18:14:44.298 EDT,"postgres","tatp",2138,"127.0.0.1:58176",58f149cc.85a,15,"COMMIT",2017-04-14 18:14:36 EDT,4/7,323722,LOG,00000,"execute S_1: COMMIT",,,,,,,,,""
2017-04-14 18:14:44.394 EDT,"postgres","tatp",2158,"127.0.0.1:58192",58f149cc.86e,16,"BEGIN",2017-04-14 18:14:36 EDT,20/8,0,LOG,00000,"execute <unnamed>: BEGIN",,,,,,,,,""
2017-04-14 18:14:44.394 EDT,"postgres","tatp",2158,"127.0.0.1:58192",58f149cc.86e,17,"SELECT",2017-04-14 18:14:36 EDT,20/8,0,LOG,00000,"execute <unnamed>: SELECT data1, data2, data3, data4 FROM ""ACCESS_INFO"" WHERE s_id = $1 AND ai_type = $2","parameters: $1 = '49222', $2 = '3'",,,,,,,,""
2017-04-14 18:14:44.395 EDT,"postgres","tatp",2158,"127.0.0.1:58192",58f149cc.86e,18,"COMMIT",2017-04-14 18:14:36 EDT,20/8,0,LOG,00000,"execute S_1: COMMIT",,,,,,,,,""
2017-04-14 18:14:44.494 EDT,"postgres","tatp",2157,"127.0.0.1:58191",58f149cc.86d,15,"BEGIN",2017-04-14 18:14:36 EDT,19/8,0,LOG,00000,"execute <unnamed>: BEGIN",,,,,,,,,""
2017-04-14 18:14:44.495 EDT,"postgres","tatp",2157,"127.0.0.1:58191",58f149cc.86d,16,"SELECT",2017-04-14 18:14:36 EDT,19/8,0,LOG,00000,"execute <unnamed>: SELECT * FROM ""SUBSCRIBER"" WHERE s_id = $1","parameters: $1 = '54341'",,,,,,,,""
2017-04-14 18:14:44.495 EDT,"postgres","tatp",2157,"127.0.0.1:58191",58f149cc.86d,17,"COMMIT",2017-04-14 18:14:36 EDT,19/8,0,LOG,00000,"execute S_1: COMMIT",,,,,,,,,""
2017-04-14 18:14:44.594 EDT,"postgres","tatp",2156,"127.0.0.1:58190",58f149cc.86c,16,"BEGIN",2017-04-14 18:14:36 EDT,18/8,0,LOG,00000,"execute <unnamed>: BEGIN",,,,,,,,,""
2017-04-14 18:14:44.595 EDT,"postgres","tatp",2156,"127.0.0.1:58190",58f149cc.86c,17,"SELECT",2017-04-14 18:14:36 EDT,18/8,0,LOG,00000,"execute <unnamed>: SELECT * FROM ""SUBSCRIBER"" WHERE s_id = $1","parameters: $1 = '80040'",,,,,,,,""
2017-04-14 18:14:44.596 EDT,"postgres","tatp",2156,"127.0.0.1:58190",58f149cc.86c,18,"COMMIT",2017-04-14 18:14:36 EDT,18/8,0,LOG,00000,"execute S_1: COMMIT",,,,,,,,,""
2017-04-14 18:14:44.693 EDT,"postgres","tatp",2155,"127.0.0.1:58189",58f149cc.86b,15,"BEGIN",2017-04-14 18:14:36 EDT,17/8,0,LOG,00000,"execute <unnamed>: BEGIN",,,,,,,,,""
2017-04-14 18:14:44.694 EDT,"postgres","tatp",2155,"127.0.0.1:58189",58f149cc.86b,16,"SELECT",2017-04-14 18:14:36 EDT,17/8,0,LOG,00000,"execute <unnamed>: SELECT cf.numberx FROM ""SPECIAL_FACILITY"" sf, ""CALL_FORWARDING"" cf	WHERE sf.s_id = $1 AND sf.sf_type = $2 AND sf.is_active = 1 AND cf.s_id = sf.s_id AND cf.sf_type = sf.sf_type AND cf.start_time <= $3 AND cf.end_time > $4","parameters: $1 = '46502', $2 = '3', $3 = '0', $4 = '10'",,,,,,,,""
2017-04-14 18:14:44.695 EDT,"postgres","tatp",2155,"127.0.0.1:58189",58f149cc.86b,17,"COMMIT",2017-04-14 18:14:36 EDT,17/8,0,LOG,00000,"execute S_1: COMMIT",,,,,,,,,""
2017-04-14 18:14:44.794 EDT,"postgres","tatp",2154,"127.0.0.1:58188",58f149cc.86a,15,"BEGIN",2017-04-14 18:14:36 EDT,16/8,0,LOG,00000,"execute <unnamed>: BEGIN",,,,,,,,,""
2017-04-14 18:14:44.794 EDT,"postgres","tatp",2154,"127.0.0.1:58188",58f149cc.86a,16,"SELECT",2017-04-14 18:14:36 EDT,16/8,0,LOG,00000,"execute <unnamed>: SELECT * FROM ""SUBSCRIBER"" WHERE s_id = $1","parameters: $1 = '83531'",,,,,,,,""
2017-04-14 18:14:44.795 EDT,"postgres","tatp",2154,"127.0.0.1:58188",58f149cc.86a,17,"COMMIT",2017-04-14 18:14:36 EDT,16/8,0,LOG,00000,"execute S_1: COMMIT",,,,,,,,,""
2017-04-14 18:14:44.894 EDT,"postgres","tatp",2142,"127.0.0.1:58180",58f149cc.85e,16,"BEGIN",2017-04-14 18:14:36 EDT,8/8,0,LOG,00000,"execute <unnamed>: BEGIN",,,,,,,,,""
2017-04-14 18:14:44.894 EDT,"postgres","tatp",2142,"127.0.0.1:58180",58f149cc.85e,17,"SELECT",2017-04-14 18:14:36 EDT,8/8,0,LOG,00000,"execute <unnamed>: SELECT s_id FROM ""SUBSCRIBER"" WHERE sub_nbr = $1","parameters: $1 = '000000000035578'",,,,,,,,""
2017-04-14 18:14:44.895 EDT,"postgres","tatp",2142,"127.0.0.1:58180",58f149cc.85e,18,"UPDATE",2017-04-14 18:14:36 EDT,8/8,0,LOG,00000,"execute <unnamed>: UPDATE ""SUBSCRIBER"" SET vlr_location = $1 WHERE s_id = $2","parameters: $1 = '1230825255', $2 = '35578'",,,,,,,,""
2017-04-14 18:14:44.896 EDT,"postgres","tatp",2142,"127.0.0.1:58180",58f149cc.85e,19,"COMMIT",2017-04-14 18:14:36 EDT,8/8,323723,LOG,00000,"execute S_1: COMMIT",,,,,,,,,""
2017-04-14 18:14:44.994 EDT,"postgres","tatp",2153,"127.0.0.1:58187",58f149cc.869,17,"BEGIN",2017-04-14 18:14:36 EDT,15/8,0,LOG,00000,"execute <unnamed>: BEGIN",,,,,,,,,""
2017-04-14 18:14:44.995 EDT,"postgres","tatp",2153,"127.0.0.1:58187",58f149cc.869,18,"SELECT",2017-04-14 18:14:36 EDT,15/8,0,LOG,00000,"execute <unnamed>: SELECT * FROM ""SUBSCRIBER"" WHERE s_id = $1","parameters: $1 = '59579'",,,,,,,,""
2017-04-14 18:14:44.995 EDT,"postgres","tatp",2153,"127.0.0.1:58187",58f149cc.869,19,"COMMIT",2017-04-14 18:14:36 EDT,15/8,0,LOG,00000,"execute S_1: COMMIT",,,,,,,,,""
2017-04-14 18:14:45.095 EDT,"postgres","tatp",2139,"127.0.0.1:58177",58f149cc.85b,16,"BEGIN",2017-04-14 18:14:36 EDT,5/8,0,LOG,00000,"execute <unnamed>: BEGIN",,,,,,,,,""
2017-04-14 18:14:45.097 EDT,"postgres","tatp",2139,"127.0.0.1:58177",58f149cc.85b,17,"SELECT",2017-04-14 18:14:36 EDT,5/8,0,LOG,00000,"execute <unnamed>: SELECT cf.numberx FROM ""SPECIAL_FACILITY"" sf, ""CALL_FORWARDING"" cf	WHERE sf.s_id = $1 AND sf.sf_type = $2 AND sf.is_active = 1 AND cf.s_id = sf.s_id AND cf.sf_type = sf.sf_type AND cf.start_time <= $3 AND cf.end_time > $4","parameters: $1 = '29683', $2 = '4', $3 = '16', $4 = '17'",,,,,,,,""
2017-04-14 18:14:45.097 EDT,"postgres","tatp",2139,"127.0.0.1:58177",58f149cc.85b,18,"COMMIT",2017-04-14 18:14:36 EDT,5/8,0,LOG,00000,"execute S_1: COMMIT",,,,,,,,,""
2017-04-14 18:14:45.194 EDT,"postgres","tatp",2137,"127.0.0.1:58175",58f149cc.859,16,"BEGIN",2017-04-14 18:14:36 EDT,3/8,0,LOG,00000,"execute <unnamed>: BEGIN",,,,,,,,,""
2017-04-14 18:14:45.194 EDT,"postgres","tatp",2137,"127.0.0.1:58175",58f149cc.859,17,"SELECT",2017-04-14 18:14:36 EDT,3/8,0,LOG,00000,"execute <unnamed>: SELECT * FROM ""SUBSCRIBER"" WHERE s_id = $1","parameters: $1 = '58441'",,,,,,,,""
2017-04-14 18:14:45.195 EDT,"postgres","tatp",2137,"127.0.0.1:58175",58f149cc.859,18,"COMMIT",2017-04-14 18:14:36 EDT,3/8,0,LOG,00000,"execute S_1: COMMIT",,,,,,,,,""
2017-04-14 18:14:45.294 EDT,"postgres","tatp",2152,"127.0.0.1:58186",58f149cc.868,17,"BEGIN",2017-04-14 18:14:36 EDT,14/8,0,LOG,00000,"execute <unnamed>: BEGIN",,,,,,,,,""
2017-04-14 18:14:45.294 EDT,"postgres","tatp",2152,"127.0.0.1:58186",58f149cc.868,18,"SELECT",2017-04-14 18:14:36 EDT,14/8,0,LOG,00000,"execute <unnamed>: SELECT * FROM ""SUBSCRIBER"" WHERE s_id = $1","parameters: $1 = '8124'",,,,,,,,""
2017-04-14 18:14:45.295 EDT,"postgres","tatp",2152,"127.0.0.1:58186",58f149cc.868,19,"COMMIT",2017-04-14 18:14:36 EDT,14/8,0,LOG,00000,"execute S_1: COMMIT",,,,,,,,,""
2017-04-14 18:14:45.394 EDT,"postgres","tatp",2143,"127.0.0.1:58181",58f149cc.85f,15,"BEGIN",2017-04-14 18:14:36 EDT,9/8,0,LOG,00000,"execute <unnamed>: BEGIN",,,,,,,,,""
2017-04-14 18:14:45.394 EDT,"postgres","tatp",2143,"127.0.0.1:58181",58f149cc.85f,16,"SELECT",2017-04-14 18:14:36 EDT,9/8,0,LOG,00000,"execute <unnamed>: SELECT * FROM ""SUBSCRIBER"" WHERE s_id = $1","parameters: $1 = '93849'",,,,,,,,""
2017-04-14 18:14:45.394 EDT,"postgres","tatp",2143,"127.0.0.1:58181",58f149cc.85f,17,"COMMIT",2017-04-14 18:14:36 EDT,9/8,0,LOG,00000,"execute S_1: COMMIT",,,,,,,,,""
2017-04-14 18:14:45.494 EDT,"postgres","tatp",2151,"127.0.0.1:58185",58f149cc.867,18,"BEGIN",2017-04-14 18:14:36 EDT,13/8,0,LOG,00000,"execute <unnamed>: BEGIN",,,,,,,,,""
2017-04-14 18:14:45.495 EDT,"postgres","tatp",2151,"127.0.0.1:58185",58f149cc.867,19,"SELECT",2017-04-14 18:14:36 EDT,13/8,0,LOG,00000,"execute <unnamed>: SELECT data1, data2, data3, data4 FROM ""ACCESS_INFO"" WHERE s_id = $1 AND ai_type = $2","parameters: $1 = '67822', $2 = '2'",,,,,,,,""
2017-04-14 18:14:45.495 EDT,"postgres","tatp",2151,"127.0.0.1:58185",58f149cc.867,20,"COMMIT",2017-04-14 18:14:36 EDT,13/8,0,LOG,00000,"execute S_1: COMMIT",,,,,,,,,""
2017-04-14 18:14:45.593 EDT,"postgres","tatp",2150,"127.0.0.1:58184",58f149cc.866,15,"BEGIN",2017-04-14 18:14:36 EDT,12/8,0,LOG,00000,"execute <unnamed>: BEGIN",,,,,,,,,""
2017-04-14 18:14:45.594 EDT,"postgres","tatp",2150,"127.0.0.1:58184",58f149cc.866,16,"SELECT",2017-04-14 18:14:36 EDT,12/8,0,LOG,00000,"execute <unnamed>: SELECT * FROM ""SUBSCRIBER"" WHERE s_id = $1","parameters: $1 = '29470'",,,,,,,,""
2017-04-14 18:14:45.594 EDT,"postgres","tatp",2150,"127.0.0.1:58184",58f149cc.866,17,"COMMIT",2017-04-14 18:14:36 EDT,12/8,0,LOG,00000,"execute S_1: COMMIT",,,,,,,,,""
2017-04-14 18:14:45.694 EDT,"postgres","tatp",2136,"127.0.0.1:58174",58f149cc.858,16,"BEGIN",2017-04-14 18:14:36 EDT,2/14,0,LOG,00000,"execute <unnamed>: BEGIN",,,,,,,,,""
2017-04-14 18:14:45.694 EDT,"postgres","tatp",2136,"127.0.0.1:58174",58f149cc.858,17,"SELECT",2017-04-14 18:14:36 EDT,2/14,0,LOG,00000,"execute <unnamed>: SELECT * FROM ""SUBSCRIBER"" WHERE s_id = $1","parameters: $1 = '45450'",,,,,,,,""
2017-04-14 18:14:45.695 EDT,"postgres","tatp",2136,"127.0.0.1:58174",58f149cc.858,18,"COMMIT",2017-04-14 18:14:36 EDT,2/14,0,LOG,00000,"execute S_1: COMMIT",,,,,,,,,""
2017-04-14 18:14:45.794 EDT,"postgres","tatp",2159,"127.0.0.1:58193",58f149cc.86f,16,"BEGIN",2017-04-14 18:14:36 EDT,21/8,0,LOG,00000,"execute <unnamed>: BEGIN",,,,,,,,,""
2017-04-14 18:14:45.794 EDT,"postgres","tatp",2159,"127.0.0.1:58193",58f149cc.86f,17,"SELECT",2017-04-14 18:14:36 EDT,21/8,0,LOG,00000,"execute <unnamed>: SELECT data1, data2, data3, data4 FROM ""ACCESS_INFO"" WHERE s_id = $1 AND ai_type = $2","parameters: $1 = '10624', $2 = '4'",,,,,,,,""
2017-04-14 18:14:45.795 EDT,"postgres","tatp",2159,"127.0.0.1:58193",58f149cc.86f,18,"COMMIT",2017-04-14 18:14:36 EDT,21/8,0,LOG,00000,"execute S_1: COMMIT",,,,,,,,,""
2017-04-14 18:14:45.894 EDT,"postgres","tatp",2140,"127.0.0.1:58178",58f149cc.85c,15,"BEGIN",2017-04-14 18:14:36 EDT,6/8,0,LOG,00000,"execute <unnamed>: BEGIN",,,,,,,,,""
2017-04-14 18:14:45.895 EDT,"postgres","tatp",2140,"127.0.0.1:58178",58f149cc.85c,16,"SELECT",2017-04-14 18:14:36 EDT,6/8,0,LOG,00000,"execute <unnamed>: SELECT data1, data2, data3, data4 FROM ""ACCESS_INFO"" WHERE s_id = $1 AND ai_type = $2","parameters: $1 = '12590', $2 = '2'",,,,,,,,""
2017-04-14 18:14:45.895 EDT,"postgres","tatp",2140,"127.0.0.1:58178",58f149cc.85c,17,"COMMIT",2017-04-14 18:14:36 EDT,6/8,0,LOG,00000,"execute S_1: COMMIT",,,,,,,,,""
2017-04-14 18:14:45.994 EDT,"postgres","tatp",2141,"127.0.0.1:58179",58f149cc.85d,17,"BEGIN",2017-04-14 18:14:36 EDT,7/8,0,LOG,00000,"execute <unnamed>: BEGIN",,,,,,,,,""
2017-04-14 18:14:45.995 EDT,"postgres","tatp",2141,"127.0.0.1:58179",58f149cc.85d,18,"SELECT",2017-04-14 18:14:36 EDT,7/8,0,LOG,00000,"execute <unnamed>: SELECT * FROM ""SUBSCRIBER"" WHERE s_id = $1","parameters: $1 = '30684'",,,,,,,,""
2017-04-14 18:14:45.995 EDT,"postgres","tatp",2141,"127.0.0.1:58179",58f149cc.85d,19,"COMMIT",2017-04-14 18:14:36 EDT,7/8,0,LOG,00000,"execute S_1: COMMIT",,,,,,,,,""
2017-04-14 18:14:46.093 EDT,"postgres","tatp",2149,"127.0.0.1:58183",58f149cc.865,16,"BEGIN",2017-04-14 18:14:36 EDT,11/8,0,LOG,00000,"execute <unnamed>: BEGIN",,,,,,,,,""
2017-04-14 18:14:46.094 EDT,"postgres","tatp",2149,"127.0.0.1:58183",58f149cc.865,17,"SELECT",2017-04-14 18:14:36 EDT,11/8,0,LOG,00000,"execute <unnamed>: SELECT * FROM ""SUBSCRIBER"" WHERE s_id = $1","parameters: $1 = '74618'",,,,,,,,""
2017-04-14 18:14:46.094 EDT,"postgres","tatp",2149,"127.0.0.1:58183",58f149cc.865,18,"COMMIT",2017-04-14 18:14:36 EDT,11/8,0,LOG,00000,"execute S_1: COMMIT",,,,,,,,,""
2017-04-14 18:14:46.194 EDT,"postgres","tatp",2146,"127.0.0.1:58182",58f149cc.862,16,"BEGIN",2017-04-14 18:14:36 EDT,10/8,0,LOG,00000,"execute <unnamed>: BEGIN",,,,,,,,,""
2017-04-14 18:14:46.194 EDT,"postgres","tatp",2146,"127.0.0.1:58182",58f149cc.862,17,"SELECT",2017-04-14 18:14:36 EDT,10/8,0,LOG,00000,"execute <unnamed>: SELECT * FROM ""SUBSCRIBER"" WHERE s_id = $1","parameters: $1 = '16941'",,,,,,,,""
2017-04-14 18:14:46.195 EDT,"postgres","tatp",2146,"127.0.0.1:58182",58f149cc.862,18,"COMMIT",2017-04-14 18:14:36 EDT,10/8,0,LOG,00000,"execute S_2: COMMIT",,,,,,,,,""
2017-04-14 18:14:46.294 EDT,"postgres","tatp",2138,"127.0.0.1:58176",58f149cc.85a,16,"BEGIN",2017-04-14 18:14:36 EDT,4/8,0,LOG,00000,"execute <unnamed>: BEGIN",,,,,,,,,""
2017-04-14 18:14:46.294 EDT,"postgres","tatp",2138,"127.0.0.1:58176",58f149cc.85a,17,"SELECT",2017-04-14 18:14:36 EDT,4/8,0,LOG,00000,"execute <unnamed>: SELECT data1, data2, data3, data4 FROM ""ACCESS_INFO"" WHERE s_id = $1 AND ai_type = $2","parameters: $1 = '95232', $2 = '2'",,,,,,,,""
2017-04-14 18:14:46.295 EDT,"postgres","tatp",2138,"127.0.0.1:58176",58f149cc.85a,18,"COMMIT",2017-04-14 18:14:36 EDT,4/8,0,LOG,00000,"execute S_1: COMMIT",,,,,,,,,""
2017-04-14 18:14:46.394 EDT,"postgres","tatp",2158,"127.0.0.1:58192",58f149cc.86e,19,"BEGIN",2017-04-14 18:14:36 EDT,20/9,0,LOG,00000,"execute <unnamed>: BEGIN",,,,,,,,,""
2017-04-14 18:14:46.395 EDT,"postgres","tatp",2158,"127.0.0.1:58192",58f149cc.86e,20,"SELECT",2017-04-14 18:14:36 EDT,20/9,0,LOG,00000,"execute <unnamed>: SELECT * FROM ""SUBSCRIBER"" WHERE s_id = $1","parameters: $1 = '48667'",,,,,,,,""
2017-04-14 18:14:46.395 EDT,"postgres","tatp",2158,"127.0.0.1:58192",58f149cc.86e,21,"COMMIT",2017-04-14 18:14:36 EDT,20/9,0,LOG,00000,"execute S_1: COMMIT",,,,,,,,,""
