2018-06-25 15:48:37.332 EDT,,,746,,5b314714.2ea,1,,2018-06-25 15:48:36 EDT,,0,LOG,00000,"ending log output to stderr",,"Future log output will go to log destination ""csvlog"".",,,,,,"PostmasterMain, postmaster.c:1280",""
2018-06-25 15:48:37.682 EDT,,,752,,5b314715.2f0,1,,2018-06-25 15:48:37 EDT,,0,LOG,00000,"database system was shut down at 2018-06-25 15:48:23 EDT",,,,,,,,"StartupXLOG, xlog.c:6236",""
2018-06-25 15:48:37.794 EDT,,,746,,5b314714.2ea,2,,2018-06-25 15:48:36 EDT,,0,LOG,00000,"database system is ready to accept connections",,,,,,,,"reaper, postmaster.c:2889",""
2018-06-25 15:49:38.810 EDT,"asma","demo",804,"[local]",5b31474f.324,1,"idle",2018-06-25 15:49:35 EDT,3/2,0,LOG,00000,"Node type: 221 227 227",,,,,,"select did, name from dists;",,"pg_parse_query, postgres.c:610","psql"
2018-06-25 15:49:38.811 EDT,"asma","demo",804,"[local]",5b31474f.324,2,"idle",2018-06-25 15:49:35 EDT,3/2,0,LOG,00000,"from: 96 96",,,,,,"select did, name from dists;",,"pg_parse_query, postgres.c:617","psql"
2018-06-25 15:49:38.811 EDT,"asma","demo",804,"[local]",5b31474f.324,3,"idle",2018-06-25 15:49:35 EDT,3/2,0,LOG,00000,"From rel: dists",,,,,,"select did, name from dists;",,"pg_parse_query, postgres.c:620","psql"
2018-06-25 15:49:38.811 EDT,"asma","demo",804,"[local]",5b31474f.324,4,"idle",2018-06-25 15:49:35 EDT,3/2,0,LOG,00000,"schema = (null)",,,,,,"select did, name from dists;",,"pg_parse_query, postgres.c:625","psql"
2018-06-25 15:49:38.830 EDT,"asma","demo",804,"[local]",5b31474f.324,5,"idle",2018-06-25 15:49:35 EDT,3/2,0,LOG,00000,"relId 41401",,,,,,"select did, name from dists;",,"pg_parse_query, postgres.c:629","psql"
2018-06-25 15:49:38.830 EDT,"asma","demo",804,"[local]",5b31474f.324,6,"idle",2018-06-25 15:49:35 EDT,3/2,0,LOG,00000,"pk = 9",,,,,,"select did, name from dists;",,"get_primary_key_attnos_list, pg_constraint.c:1114","psql"
2018-06-25 15:49:38.830 EDT,"asma","demo",804,"[local]",5b31474f.324,7,"idle",2018-06-25 15:49:35 EDT,3/2,0,LOG,00000,"l = 1",,,,,,"select did, name from dists;",,"get_primary_key_attnos_list, pg_constraint.c:1118","psql"
2018-06-25 15:49:38.830 EDT,"asma","demo",804,"[local]",5b31474f.324,8,"idle",2018-06-25 15:49:35 EDT,3/2,0,LOG,00000,"at end l = 1",,,,,,"select did, name from dists;",,"get_primary_key_attnos_list, pg_constraint.c:1131","psql"
2018-06-25 15:49:38.830 EDT,"asma","demo",804,"[local]",5b31474f.324,9,"idle",2018-06-25 15:49:35 EDT,3/2,0,LOG,00000,"pk att = 9",,,,,,"select did, name from dists;",,"pg_parse_query, postgres.c:639","psql"
2018-06-25 15:49:38.852 EDT,"asma","demo",804,"[local]",5b31474f.324,10,"idle",2018-06-25 15:49:35 EDT,3/2,0,LOG,00000,"Column name: did",,,,,,"select did, name from dists;",,"pg_parse_query, postgres.c:644","psql"
2018-06-25 15:49:38.852 EDT,"asma","demo",804,"[local]",5b31474f.324,11,"idle",2018-06-25 15:49:35 EDT,3/2,0,LOG,00000,"one att: 335 335",,,,,,"select did, name from dists;",,"pg_parse_query, postgres.c:663","psql"
2018-06-25 15:49:38.852 EDT,"asma","demo",804,"[local]",5b31474f.324,12,"idle",2018-06-25 15:49:35 EDT,3/2,0,LOG,00000,"lcc type: 214 214",,,,,,"select did, name from dists;",,"pg_parse_query, postgres.c:668","psql"
2018-06-25 15:49:38.852 EDT,"asma","demo",804,"[local]",5b31474f.324,13,"idle",2018-06-25 15:49:35 EDT,3/2,0,LOG,00000,"val = did",,,,,,"select did, name from dists;",,"pg_parse_query, postgres.c:669","psql"
2018-06-25 15:49:38.852 EDT,"asma","demo",804,"[local]",5b31474f.324,14,"idle",2018-06-25 15:49:35 EDT,3/2,0,LOG,00000,"one att: 335 335",,,,,,"select did, name from dists;",,"pg_parse_query, postgres.c:663","psql"
2018-06-25 15:49:38.853 EDT,"asma","demo",804,"[local]",5b31474f.324,15,"idle",2018-06-25 15:49:35 EDT,3/2,0,LOG,00000,"lcc type: 214 214",,,,,,"select did, name from dists;",,"pg_parse_query, postgres.c:668","psql"
2018-06-25 15:49:38.853 EDT,"asma","demo",804,"[local]",5b31474f.324,16,"idle",2018-06-25 15:49:35 EDT,3/2,0,LOG,00000,"val = name",,,,,,"select did, name from dists;",,"pg_parse_query, postgres.c:669","psql"
2018-06-25 15:49:38.853 EDT,"asma","demo",804,"[local]",5b31474f.324,17,"idle",2018-06-25 15:49:35 EDT,3/2,0,LOG,00000,"one att: 335 335",,,,,,"select did, name from dists;",,"pg_parse_query, postgres.c:663","psql"
2018-06-25 15:49:38.853 EDT,"asma","demo",804,"[local]",5b31474f.324,18,"idle",2018-06-25 15:49:35 EDT,3/2,0,LOG,00000,"lcc type: 214 214",,,,,,"select did, name from dists;",,"pg_parse_query, postgres.c:668","psql"
2018-06-25 15:49:38.853 EDT,"asma","demo",804,"[local]",5b31474f.324,19,"idle",2018-06-25 15:49:35 EDT,3/2,0,LOG,00000,"val = did",,,,,,"select did, name from dists;",,"pg_parse_query, postgres.c:669","psql"
2018-06-25 15:49:38.853 EDT,"asma","demo",804,"[local]",5b31474f.324,20,"SELECT",2018-06-25 15:49:35 EDT,3/2,0,LOG,00000,"tag = 23",,,,,,"select did, name from dists;",,"makeVar, makefuncs.c:95","psql"
2018-06-25 15:49:38.853 EDT,"asma","demo",804,"[local]",5b31474f.324,21,"SELECT",2018-06-25 15:49:35 EDT,3/2,0,LOG,00000,"tag = 1043",,,,,,"select did, name from dists;",,"makeVar, makefuncs.c:95","psql"
2018-06-25 15:49:38.853 EDT,"asma","demo",804,"[local]",5b31474f.324,22,"SELECT",2018-06-25 15:49:35 EDT,3/2,0,LOG,00000,"tag = 23",,,,,,"select did, name from dists;",,"makeVar, makefuncs.c:95","psql"
2018-06-25 15:49:38.870 EDT,"asma","demo",804,"[local]",5b31474f.324,23,"SELECT",2018-06-25 15:49:35 EDT,3/2,0,LOG,00000,"parse tree:","   {QUERY 
   :commandType 1 
   :querySource 0 
   :canSetTag true 
   :utilityStmt <> 
   :resultRelation 0 
   :hasAggs false 
   :hasWindowFuncs false 
   :hasTargetSRFs false 
   :hasSubLinks false 
   :hasDistinctOn false 
   :hasRecursive false 
   :hasModifyingCTE false 
   :hasForUpdate false 
   :hasRowSecurity false 
   :cteList <> 
   :rtable (
      {RTE 
      :alias <> 
      :eref 
         {ALIAS 
         :aliasname dists 
         :colnames (""did"" ""name"")
         }
      :rtekind 0 
      :relid 41401 
      :relkind r 
      :tablesample <> 
      :lateral false 
      :inh true 
      :inFromCl true 
      :requiredPerms 2 
      :checkAsUser 0 
      :selectedCols (b 9 10)
      :insertedCols (b)
      :updatedCols (b)
      :securityQuals <>
      }
   )
   :jointree 
      {FROMEXPR 
      :fromlist (
         {RANGETBLREF 
         :rtindex 1
         }
      )
      :quals <>
      }
   :targetList (
      {TARGETENTRY 
      :expr 
         {VAR 
         :varno 1 
         :varattno 1 
         :vartype 23 
         :vartypmod -1 
         :varcollid 0 
         :varlevelsup 0 
         :varnoold 1 
         :varoattno 1 
         :location 7
         }
      :resno 1 
      :resname did 
      :ressortgroupref 0 
      :resorigtbl 41401 
      :resorigcol 1 
      :resjunk false
      }
      {TARGETENTRY 
      :expr 
         {VAR 
         :varno 1 
         :varattno 2 
         :vartype 1043 
         :vartypmod 44 
         :varcollid 100 
         :varlevelsup 0 
         :varnoold 1 
         :varoattno 2 
         :location 12
         }
      :resno 2 
      :resname name 
      :ressortgroupref 0 
      :resorigtbl 41401 
      :resorigcol 2 
      :resjunk false
      }
      {TARGETENTRY 
      :expr 
         {VAR 
         :varno 1 
         :varattno 1 
         :vartype 23 
         :vartypmod -1 
         :varcollid 0 
         :varlevelsup 0 
         :varnoold 1 
         :varoattno 1 
         :location -1
         }
      :resno 3 
      :resname did 
      :ressortgroupref 0 
      :resorigtbl 41401 
      :resorigcol 1 
      :resjunk false
      }
   )
   :override 0 
   :onConflict <> 
   :returningList <> 
   :groupClause <> 
   :groupingSets <> 
   :havingQual <> 
   :windowClause <> 
   :distinctClause <> 
   :sortClause <> 
   :limitOffset <> 
   :limitCount <> 
   :rowMarks <> 
   :setOperations <> 
   :constraintDeps <> 
   :stmt_location 0 
   :stmt_len 27
   }
",,,,,"select did, name from dists;",,"elog_node_display, print.c:84","psql"
2018-06-25 15:49:38.870 EDT,"asma","demo",804,"[local]",5b31474f.324,24,"SELECT",2018-06-25 15:49:35 EDT,3/2,0,LOG,00000,"has returning: 0",,,,,,"select did, name from dists;",,"pg_plan_queries, postgres.c:920","psql"
2018-06-25 15:49:38.870 EDT,"asma","demo",804,"[local]",5b31474f.324,25,"SELECT",2018-06-25 15:49:35 EDT,3/2,0,LOG,00000,"n_atts: 3",,,,,,"select did, name from dists;",,"pg_plan_queries, postgres.c:943","psql"
2018-06-25 15:49:38.870 EDT,"asma","demo",804,"[local]",5b31474f.324,26,"SELECT",2018-06-25 15:49:35 EDT,3/2,0,LOG,00000,"Table: dists",,,,,,"select did, name from dists;",,"pg_plan_queries, postgres.c:952","psql"
2018-06-25 15:49:38.870 EDT,"asma","demo",804,"[local]",5b31474f.324,27,"SELECT",2018-06-25 15:49:35 EDT,3/2,0,LOG,00000,"pk = 9",,,,,,"select did, name from dists;",,"get_primary_key_attnos_list, pg_constraint.c:1114","psql"
2018-06-25 15:49:38.871 EDT,"asma","demo",804,"[local]",5b31474f.324,28,"SELECT",2018-06-25 15:49:35 EDT,3/2,0,LOG,00000,"l = 1",,,,,,"select did, name from dists;",,"get_primary_key_attnos_list, pg_constraint.c:1118","psql"
2018-06-25 15:49:38.871 EDT,"asma","demo",804,"[local]",5b31474f.324,29,"SELECT",2018-06-25 15:49:35 EDT,3/2,0,LOG,00000,"at end l = 1",,,,,,"select did, name from dists;",,"get_primary_key_attnos_list, pg_constraint.c:1131","psql"
2018-06-25 15:49:38.871 EDT,"asma","demo",804,"[local]",5b31474f.324,30,"SELECT",2018-06-25 15:49:35 EDT,3/2,0,LOG,00000,"l1 = 1",,,,,,"select did, name from dists;",,"pg_plan_queries, postgres.c:960","psql"
2018-06-25 15:49:38.871 EDT,"asma","demo",804,"[local]",5b31474f.324,31,"SELECT",2018-06-25 15:49:35 EDT,3/2,0,LOG,00000,"pk att = 9",,,,,,"select did, name from dists;",,"pg_plan_queries, postgres.c:969","psql"
2018-06-25 15:49:38.871 EDT,"asma","demo",804,"[local]",5b31474f.324,32,"SELECT",2018-06-25 15:49:35 EDT,3/2,0,LOG,00000,"rte->selectedCols = 3",,,,,,"select did, name from dists;",,"pg_plan_queries, postgres.c:973","psql"
2018-06-25 15:49:38.871 EDT,"asma","demo",804,"[local]",5b31474f.324,33,"SELECT",2018-06-25 15:49:35 EDT,3/2,0,LOG,00000,"tag = 23",,,,,,"select did, name from dists;",,"initVar, makefuncs.c:125","psql"
2018-06-25 15:49:38.871 EDT,"asma","demo",804,"[local]",5b31474f.324,34,"SELECT",2018-06-25 15:49:35 EDT,3/2,0,LOG,00000,"tag = 23",,,,,,"select did, name from dists;",,"pg_plan_queries, postgres.c:1000","psql"
2018-06-25 15:49:38.871 EDT,"asma","demo",804,"[local]",5b31474f.324,35,"SELECT",2018-06-25 15:49:35 EDT,3/2,0,LOG,00000,"Added: did",,,,,,"select did, name from dists;",,"pg_plan_queries, postgres.c:1017","psql"
2018-06-25 15:49:38.871 EDT,"asma","demo",804,"[local]",5b31474f.324,36,"SELECT",2018-06-25 15:49:35 EDT,3/2,0,LOG,00000,"target list length now is: 3",,,,,,"select did, name from dists;",,"pg_plan_queries, postgres.c:1027","psql"
2018-06-25 15:49:38.871 EDT,"asma","demo",804,"[local]",5b31474f.324,37,"SELECT",2018-06-25 15:49:35 EDT,3/2,0,LOG,00000,"--Column: did - 4 in Table dists",,,,,,"select did, name from dists;",,"pg_plan_queries, postgres.c:1028","psql"
2018-06-25 15:49:38.871 EDT,"asma","demo",804,"[local]",5b31474f.324,38,"SELECT",2018-06-25 15:49:35 EDT,3/2,0,LOG,00000,"Column: did - 1 in Table dists",,,,,,"select did, name from dists;",,"pg_plan_queries, postgres.c:1032","psql"
2018-06-25 15:49:38.871 EDT,"asma","demo",804,"[local]",5b31474f.324,39,"SELECT",2018-06-25 15:49:35 EDT,3/2,0,LOG,00000,"Column: name - 2 in Table dists",,,,,,"select did, name from dists;",,"pg_plan_queries, postgres.c:1032","psql"
2018-06-25 15:49:38.871 EDT,"asma","demo",804,"[local]",5b31474f.324,40,"SELECT",2018-06-25 15:49:35 EDT,3/2,0,LOG,00000,"Column: did - 3 in Table dists",,,,,,"select did, name from dists;",,"pg_plan_queries, postgres.c:1032","psql"
2018-06-25 15:49:38.871 EDT,"asma","demo",804,"[local]",5b31474f.324,41,"SELECT",2018-06-25 15:49:35 EDT,3/2,0,LOG,00000,"Before planning",,,,,,"select did, name from dists;",,"pg_plan_queries, postgres.c:1041","psql"
2018-06-25 15:49:38.871 EDT,"asma","demo",804,"[local]",5b31474f.324,42,"SELECT",2018-06-25 15:49:35 EDT,3/2,0,LOG,00000,"planning",,,,,,"select did, name from dists;",,"pg_plan_query, postgres.c:850","psql"
2018-06-25 15:49:38.871 EDT,"asma","demo",804,"[local]",5b31474f.324,43,"SELECT",2018-06-25 15:49:35 EDT,3/2,0,LOG,00000,"standard planning",,,,,,"select did, name from dists;",,"standard_planner, planner.c:227","psql"
2018-06-25 15:49:38.872 EDT,"asma","demo",804,"[local]",5b31474f.324,44,"SELECT",2018-06-25 15:49:35 EDT,3/2,0,LOG,00000,"node: {QUERY :commandType 1 :querySource 0 :canSetTag true :utilityStmt <> :resultRelation 0 :hasAggs false :hasWindowFuncs false :hasTargetSRFs false :hasSubLinks false :hasDistinctOn false :hasRecursive false :hasModifyingCTE false :hasForUpdate false :hasRowSecurity false :cteList <> :rtable ({RTE :alias <> :eref {ALIAS :aliasname dists :colnames (""did"" ""name"")} :rtekind 0 :relid 41401 :relkind r :tablesample <> :lateral false :inh true :inFromCl true :requiredPerms 2 :checkAsUser 0 :selectedCols (b 0 9 10) :insertedCols (b) :updatedCols (b) :securityQuals <>}) :jointree {FROMEXPR :fromlist ({RANGETBLREF :rtindex 1}) :quals <>} :targetList ({TARGETENTRY :expr {VAR :varno 1 :varattno 1 :vartype 23 :vartypmod -1 :varcollid 0 :varlevelsup 0 :varnoold 1 :varoattno 1 :location 7} :resno 1 :resname did :ressortgroupref 0 :resorigtbl 41401 :resorigcol 1 :resjunk false} {TARGETENTRY :expr {VAR :varno 1 :varattno 2 :vartype 1043 :vartypmod 44 :varcollid 100 :varlevelsup 0 :varnoold 1 :varoattno 2 :location 12} :resno 2 :resname name :ressortgroupref 0 :resorigtbl 41401 :resorigcol 2 :resjunk false} {TARGETENTRY :expr {VAR :varno 1 :varattno 1 :vartype 23 :vartypmod -1 :varcollid 0 :varlevelsup 0 :varnoold 1 :varoattno 1 :location -1} :resno 3 :resname did :ressortgroupref 0 :resorigtbl 41401 :resorigcol 1 :resjunk false}) :override 0 :onConflict <> :returningList <> :groupClause <> :groupingSets <> :havingQual <> :windowClause <> :distinctClause <> :sortClause <> :limitOffset <> :limitCount <> :rowMarks <> :setOperations <> :constraintDeps <> :stmt_location 0 :stmt_len 27}",,,,,,"select did, name from dists;",,"check_functions_in_node, nodeFuncs.c:1654","psql"
2018-06-25 15:49:38.872 EDT,"asma","demo",804,"[local]",5b31474f.324,45,"SELECT",2018-06-25 15:49:35 EDT,3/2,0,LOG,00000,"node: ({TARGETENTRY :expr {VAR :varno 1 :varattno 1 :vartype 23 :vartypmod -1 :varcollid 0 :varlevelsup 0 :varnoold 1 :varoattno 1 :location 7} :resno 1 :resname did :ressortgroupref 0 :resorigtbl 41401 :resorigcol 1 :resjunk false} {TARGETENTRY :expr {VAR :varno 1 :varattno 2 :vartype 1043 :vartypmod 44 :varcollid 100 :varlevelsup 0 :varnoold 1 :varoattno 2 :location 12} :resno 2 :resname name :ressortgroupref 0 :resorigtbl 41401 :resorigcol 2 :resjunk false} {TARGETENTRY :expr {VAR :varno 1 :varattno 1 :vartype 23 :vartypmod -1 :varcollid 0 :varlevelsup 0 :varnoold 1 :varoattno 1 :location -1} :resno 3 :resname did :ressortgroupref 0 :resorigtbl 41401 :resorigcol 1 :resjunk false})",,,,,,"select did, name from dists;",,"check_functions_in_node, nodeFuncs.c:1654","psql"
2018-06-25 15:49:38.872 EDT,"asma","demo",804,"[local]",5b31474f.324,46,"SELECT",2018-06-25 15:49:35 EDT,3/2,0,LOG,00000,"node: {TARGETENTRY :expr {VAR :varno 1 :varattno 1 :vartype 23 :vartypmod -1 :varcollid 0 :varlevelsup 0 :varnoold 1 :varoattno 1 :location 7} :resno 1 :resname did :ressortgroupref 0 :resorigtbl 41401 :resorigcol 1 :resjunk false}",,,,,,"select did, name from dists;",,"check_functions_in_node, nodeFuncs.c:1654","psql"
2018-06-25 15:49:38.872 EDT,"asma","demo",804,"[local]",5b31474f.324,47,"SELECT",2018-06-25 15:49:35 EDT,3/2,0,LOG,00000,"node: {VAR :varno 1 :varattno 1 :vartype 23 :vartypmod -1 :varcollid 0 :varlevelsup 0 :varnoold 1 :varoattno 1 :location 7}",,,,,,"select did, name from dists;",,"check_functions_in_node, nodeFuncs.c:1654","psql"
2018-06-25 15:49:38.872 EDT,"asma","demo",804,"[local]",5b31474f.324,48,"SELECT",2018-06-25 15:49:35 EDT,3/2,0,LOG,00000,"node: {TARGETENTRY :expr {VAR :varno 1 :varattno 2 :vartype 1043 :vartypmod 44 :varcollid 100 :varlevelsup 0 :varnoold 1 :varoattno 2 :location 12} :resno 2 :resname name :ressortgroupref 0 :resorigtbl 41401 :resorigcol 2 :resjunk false}",,,,,,"select did, name from dists;",,"check_functions_in_node, nodeFuncs.c:1654","psql"
2018-06-25 15:49:38.872 EDT,"asma","demo",804,"[local]",5b31474f.324,49,"SELECT",2018-06-25 15:49:35 EDT,3/2,0,LOG,00000,"node: {VAR :varno 1 :varattno 2 :vartype 1043 :vartypmod 44 :varcollid 100 :varlevelsup 0 :varnoold 1 :varoattno 2 :location 12}",,,,,,"select did, name from dists;",,"check_functions_in_node, nodeFuncs.c:1654","psql"
2018-06-25 15:49:38.872 EDT,"asma","demo",804,"[local]",5b31474f.324,50,"SELECT",2018-06-25 15:49:35 EDT,3/2,0,LOG,00000,"node: {TARGETENTRY :expr {VAR :varno 1 :varattno 1 :vartype 23 :vartypmod -1 :varcollid 0 :varlevelsup 0 :varnoold 1 :varoattno 1 :location -1} :resno 3 :resname did :ressortgroupref 0 :resorigtbl 41401 :resorigcol 1 :resjunk false}",,,,,,"select did, name from dists;",,"check_functions_in_node, nodeFuncs.c:1654","psql"
2018-06-25 15:49:38.873 EDT,"asma","demo",804,"[local]",5b31474f.324,51,"SELECT",2018-06-25 15:49:35 EDT,3/2,0,LOG,00000,"node: {VAR :varno 1 :varattno 1 :vartype 23 :vartypmod -1 :varcollid 0 :varlevelsup 0 :varnoold 1 :varoattno 1 :location -1}",,,,,,"select did, name from dists;",,"check_functions_in_node, nodeFuncs.c:1654","psql"
2018-06-25 15:49:38.873 EDT,"asma","demo",804,"[local]",5b31474f.324,52,"SELECT",2018-06-25 15:49:35 EDT,3/2,0,LOG,00000,"node: {FROMEXPR :fromlist ({RANGETBLREF :rtindex 1}) :quals <>}",,,,,,"select did, name from dists;",,"check_functions_in_node, nodeFuncs.c:1654","psql"
2018-06-25 15:49:38.873 EDT,"asma","demo",804,"[local]",5b31474f.324,53,"SELECT",2018-06-25 15:49:35 EDT,3/2,0,LOG,00000,"node: ({RANGETBLREF :rtindex 1})",,,,,,"select did, name from dists;",,"check_functions_in_node, nodeFuncs.c:1654","psql"
2018-06-25 15:49:38.873 EDT,"asma","demo",804,"[local]",5b31474f.324,54,"SELECT",2018-06-25 15:49:35 EDT,3/2,0,LOG,00000,"node: {RANGETBLREF :rtindex 1}",,,,,,"select did, name from dists;",,"check_functions_in_node, nodeFuncs.c:1654","psql"
2018-06-25 15:49:38.893 EDT,"asma","demo",804,"[local]",5b31474f.324,55,"SELECT",2018-06-25 15:49:35 EDT,3/2,0,LOG,00000,"tag = 23",,,,,,"select did, name from dists;",,"makeVar, makefuncs.c:95","psql"
2018-06-25 15:49:38.894 EDT,"asma","demo",804,"[local]",5b31474f.324,56,"SELECT",2018-06-25 15:49:35 EDT,3/2,0,LOG,00000,"dst = 1",,,,,,"select did, name from dists;",,"apply_tlist_labeling, tlist.c:330","psql"
2018-06-25 15:49:38.894 EDT,"asma","demo",804,"[local]",5b31474f.324,57,"SELECT",2018-06-25 15:49:35 EDT,3/2,0,LOG,00000,"dst = 2",,,,,,"select did, name from dists;",,"apply_tlist_labeling, tlist.c:330","psql"
2018-06-25 15:49:38.894 EDT,"asma","demo",804,"[local]",5b31474f.324,58,"SELECT",2018-06-25 15:49:35 EDT,3/2,0,LOG,00000,"dst = 3",,,,,,"select did, name from dists;",,"apply_tlist_labeling, tlist.c:330","psql"
2018-06-25 15:49:38.894 EDT,"asma","demo",804,"[local]",5b31474f.324,59,"SELECT",2018-06-25 15:49:35 EDT,3/2,0,LOG,00000,"src = 1",,,,,,"select did, name from dists;",,"apply_tlist_labeling, tlist.c:335","psql"
2018-06-25 15:49:38.894 EDT,"asma","demo",804,"[local]",5b31474f.324,60,"SELECT",2018-06-25 15:49:35 EDT,3/2,0,LOG,00000,"src = 2",,,,,,"select did, name from dists;",,"apply_tlist_labeling, tlist.c:335","psql"
2018-06-25 15:49:38.894 EDT,"asma","demo",804,"[local]",5b31474f.324,61,"SELECT",2018-06-25 15:49:35 EDT,3/2,0,LOG,00000,"src = 3",,,,,,"select did, name from dists;",,"apply_tlist_labeling, tlist.c:335","psql"
2018-06-25 15:49:38.894 EDT,"asma","demo",804,"[local]",5b31474f.324,62,"SELECT",2018-06-25 15:49:35 EDT,3/2,0,LOG,00000,"dst = 1, src = 1",,,,,,"select did, name from dists;",,"apply_tlist_labeling, tlist.c:342","psql"
2018-06-25 15:49:38.894 EDT,"asma","demo",804,"[local]",5b31474f.324,63,"SELECT",2018-06-25 15:49:35 EDT,3/2,0,LOG,00000,"dst = 2, src = 2",,,,,,"select did, name from dists;",,"apply_tlist_labeling, tlist.c:342","psql"
2018-06-25 15:49:38.894 EDT,"asma","demo",804,"[local]",5b31474f.324,64,"SELECT",2018-06-25 15:49:35 EDT,3/2,0,LOG,00000,"dst = 3, src = 3",,,,,,"select did, name from dists;",,"apply_tlist_labeling, tlist.c:342","psql"
2018-06-25 15:49:38.894 EDT,"asma","demo",804,"[local]",5b31474f.324,65,"SELECT",2018-06-25 15:49:35 EDT,3/2,0,LOG,00000,"plan:","   {PLANNEDSTMT 
   :commandType 1 
   :queryId 0 
   :hasReturning false 
   :hasModifyingCTE false 
   :canSetTag true 
   :transientPlan false 
   :dependsOnRole false 
   :parallelModeNeeded false 
   :planTree 
      {SEQSCAN 
      :startup_cost 0.00 
      :total_cost 16.20 
      :plan_rows 620 
      :plan_width 106 
      :parallel_aware false 
      :parallel_safe true 
      :plan_node_id 0 
      :targetlist (
         {TARGETENTRY 
         :expr 
            {VAR 
            :varno 1 
            :varattno 1 
            :vartype 23 
            :vartypmod -1 
            :varcollid 0 
            :varlevelsup 0 
            :varnoold 1 
            :varoattno 1 
            :location 7
            }
         :resno 1 
         :resname did 
         :ressortgroupref 0 
         :resorigtbl 41401 
         :resorigcol 1 
         :resjunk false
         }
         {TARGETENTRY 
         :expr 
            {VAR 
            :varno 1 
            :varattno 2 
            :vartype 1043 
            :vartypmod 44 
            :varcollid 100 
            :varlevelsup 0 
            :varnoold 1 
            :varoattno 2 
            :location 12
            }
         :resno 2 
         :resname name 
         :ressortgroupref 0 
         :resorigtbl 41401 
         :resorigcol 2 
         :resjunk false
         }
         {TARGETENTRY 
         :expr 
            {VAR 
            :varno 1 
            :varattno 1 
            :vartype 23 
            :vartypmod -1 
            :varcollid 0 
            :varlevelsup 0 
            :varnoold 1 
            :varoattno 1 
            :location -1
            }
         :resno 3 
         :resname did 
         :ressortgroupref 0 
         :resorigtbl 41401 
         :resorigcol 1 
         :resjunk false
         }
      )
      :qual <> 
      :lefttree <> 
      :righttree <> 
      :initPlan <> 
      :extParam (b)
      :allParam (b)
      :scanrelid 1
      }
   :rtable (
      {RTE 
      :alias <> 
      :eref 
         {ALIAS 
         :aliasname dists 
         :colnames (""did"" ""name"")
         }
      :rtekind 0 
      :relid 41401 
      :relkind r 
      :tablesample <> 
      :lateral false 
      :inh false 
      :inFromCl true 
      :requiredPerms 2 
      :checkAsUser 0 
      :selectedCols (b 0 9 10)
      :insertedCols (b)
      :updatedCols (b)
      :securityQuals <>
      }
   )
   :resultRelations <> 
   :nonleafResultRelations <> 
   :rootResultRelations <> 
   :subplans <> 
   :rewindPlanIDs (b)
   :rowMarks <> 
   :relationOids (o 41401)
   :invalItems <> 
   :nParamExec 0 
   :utilityStmt <> 
   :stmt_location 0 
   :stmt_len 27
   }
",,,,,"select did, name from dists;",,"elog_node_display, print.c:84","psql"
2018-06-25 15:49:38.894 EDT,"asma","demo",804,"[local]",5b31474f.324,66,"SELECT",2018-06-25 15:49:35 EDT,3/2,0,LOG,00000,"Planned",,,,,,"select did, name from dists;",,"pg_plan_query, postgres.c:898","psql"
2018-06-25 15:49:38.894 EDT,"asma","demo",804,"[local]",5b31474f.324,67,"SELECT",2018-06-25 15:49:35 EDT,3/2,0,LOG,00000,"end of pg_plan_queries",,,,,,"select did, name from dists;",,"pg_plan_queries, postgres.c:1047","psql"
2018-06-25 15:49:38.930 EDT,"asma","demo",804,"[local]",5b31474f.324,68,"SELECT",2018-06-25 15:49:35 EDT,3/2,0,LOG,00000,"attnum: 1",,,,,,"select did, name from dists;",,"get_last_attnums_walker, execExpr.c:2216","psql"
2018-06-25 15:49:38.930 EDT,"asma","demo",804,"[local]",5b31474f.324,69,"SELECT",2018-06-25 15:49:35 EDT,3/2,0,LOG,00000,"attnum: 2",,,,,,"select did, name from dists;",,"get_last_attnums_walker, execExpr.c:2216","psql"
2018-06-25 15:49:38.930 EDT,"asma","demo",804,"[local]",5b31474f.324,70,"SELECT",2018-06-25 15:49:35 EDT,3/2,0,LOG,00000,"attnum: 1",,,,,,"select did, name from dists;",,"get_last_attnums_walker, execExpr.c:2216","psql"
2018-06-25 15:49:38.930 EDT,"asma","demo",804,"[local]",5b31474f.324,71,"SELECT",2018-06-25 15:49:35 EDT,3/2,0,LOG,00000,"start of execution",,,,,,"select did, name from dists;",,"exec_simple_query, postgres.c:1244","psql"
2018-06-25 15:49:38.930 EDT,"asma","demo",804,"[local]",5b31474f.324,72,"SELECT",2018-06-25 15:49:35 EDT,3/2,0,LOG,00000,"PortalRunSelect",,,,,,"select did, name from dists;",,"PortalRun, pquery.c:774","psql"
2018-06-25 15:49:38.930 EDT,"asma","demo",804,"[local]",5b31474f.324,73,"SELECT",2018-06-25 15:49:35 EDT,3/2,0,LOG,00000,"standard executor",,,,,,"select did, name from dists;",,"standard_ExecutorRun, execMain.c:360","psql"
2018-06-25 15:49:38.930 EDT,"asma","demo",804,"[local]",5b31474f.324,74,"SELECT",2018-06-25 15:49:35 EDT,3/2,0,LOG,00000,"IN execMain",,,,,,"select did, name from dists;",,"ExecutePlan, execMain.c:1736","psql"
2018-06-25 15:49:38.930 EDT,"asma","demo",804,"[local]",5b31474f.324,75,"SELECT",2018-06-25 15:49:35 EDT,3/2,0,LOG,00000,"slot_getsomeattrs: att = 2",,,,,,"select did, name from dists;",,"slot_getsomeattrs, heaptuple.c:1287","psql"
2018-06-25 15:49:38.930 EDT,"asma","demo",804,"[local]",5b31474f.324,76,"SELECT",2018-06-25 15:49:35 EDT,3/2,0,LOG,00000,"tts_nvalid = 2",,,,,,"select did, name from dists;",,"slot_deform_tuple, heaptuple.c:1129","psql"
2018-06-25 15:49:38.930 EDT,"asma","demo",804,"[local]",5b31474f.324,77,"SELECT",2018-06-25 15:49:35 EDT,3/2,0,LOG,00000,"n = 2",,,,,,"select did, name from dists;",,"ExecutePlan, execMain.c:1810","psql"
2018-06-25 15:49:38.930 EDT,"asma","demo",804,"[local]",5b31474f.324,78,"SELECT",2018-06-25 15:49:35 EDT,3/2,0,LOG,00000,"type = 23",,,,,,"select did, name from dists;",,"ExecutePlan, execMain.c:1816","psql"
2018-06-25 15:49:38.931 EDT,"asma","demo",804,"[local]",5b31474f.324,79,"SELECT",2018-06-25 15:49:35 EDT,3/2,0,LOG,00000,"data = ,1
",,,,,,"select did, name from dists;",,"ExecutePlan, execMain.c:1832","psql"
2018-06-25 15:49:38.931 EDT,"asma","demo",804,"[local]",5b31474f.324,80,"SELECT",2018-06-25 15:49:35 EDT,3/2,0,LOG,00000,"slot_getsomeattrs: att = 2",,,,,,"select did, name from dists;",,"slot_getsomeattrs, heaptuple.c:1287","psql"
2018-06-25 15:49:38.931 EDT,"asma","demo",804,"[local]",5b31474f.324,81,"SELECT",2018-06-25 15:49:35 EDT,3/2,0,LOG,00000,"tts_nvalid = 2",,,,,,"select did, name from dists;",,"slot_deform_tuple, heaptuple.c:1129","psql"
2018-06-25 15:49:38.931 EDT,"asma","demo",804,"[local]",5b31474f.324,82,"SELECT",2018-06-25 15:49:35 EDT,3/2,0,LOG,00000,"n = 2",,,,,,"select did, name from dists;",,"ExecutePlan, execMain.c:1810","psql"
2018-06-25 15:49:38.931 EDT,"asma","demo",804,"[local]",5b31474f.324,83,"SELECT",2018-06-25 15:49:35 EDT,3/2,0,LOG,00000,"type = 23",,,,,,"select did, name from dists;",,"ExecutePlan, execMain.c:1816","psql"
2018-06-25 15:49:38.931 EDT,"asma","demo",804,"[local]",5b31474f.324,84,"SELECT",2018-06-25 15:49:35 EDT,3/2,0,LOG,00000,"data = ,2
",,,,,,"select did, name from dists;",,"ExecutePlan, execMain.c:1832","psql"
2018-06-25 15:49:38.931 EDT,"asma","demo",804,"[local]",5b31474f.324,85,"SELECT",2018-06-25 15:49:35 EDT,3/0,0,WARNING,01000,"relcache reference leak: relation ""dists"" not closed",,,,,,,,"PrintRelCacheLeakWarning, resowner.c:1042","psql"
2018-06-25 15:51:45.754 EDT,,,746,,5b314714.2ea,3,,2018-06-25 15:48:36 EDT,,0,LOG,00000,"received smart shutdown request",,,,,,,,"pmdie, postmaster.c:2617",""
2018-06-25 15:51:45.808 EDT,,,746,,5b314714.2ea,4,,2018-06-25 15:48:36 EDT,,0,LOG,00000,"worker process: logical replication launcher (PID 758) exited with exit code 1",,,,,,,,"LogChildExit, postmaster.c:3557",""
2018-06-25 15:51:46.756 EDT,"asma","demo",804,"[local]",5b31474f.324,86,"idle",2018-06-25 15:49:35 EDT,3/0,0,FATAL,57P01,"terminating connection due to unexpected postmaster exit",,,,,,,,"secure_read, be-secure.c:189","psql"
2018-06-25 15:51:46.757 EDT,"asma","demo",804,"[local]",5b31474f.324,87,"idle",2018-06-25 15:49:35 EDT,,0,LOG,XX000,"could not send data to client: Bad file descriptor",,,,,,,,"internal_flush, pqcomm.c:1464","psql"
