2018-06-20 20:21:01.910 EDT,,,20585,,5b2aef6d.5069,1,,2018-06-20 20:21:01 EDT,,0,LOG,00000,"ending log output to stderr",,"Future log output will go to log destination ""csvlog"".",,,,,,"PostmasterMain, postmaster.c:1280",""
2018-06-20 20:21:02.001 EDT,,,20593,,5b2aef6d.5071,1,,2018-06-20 20:21:01 EDT,,0,LOG,00000,"database system was shut down at 2018-06-20 20:20:51 EDT",,,,,,,,"StartupXLOG, xlog.c:6236",""
2018-06-20 20:21:02.057 EDT,,,20585,,5b2aef6d.5069,2,,2018-06-20 20:21:01 EDT,,0,LOG,00000,"database system is ready to accept connections",,,,,,,,"reaper, postmaster.c:2889",""
2018-06-20 20:21:24.044 EDT,"asma","demo",20612,"[local]",5b2aef7d.5084,1,"SELECT",2018-06-20 20:21:17 EDT,3/2,0,LOG,00000,"parse tree:","   {QUERY 
   :commandType 1 
   :querySource 0 
   :canSetTag true 
   :utilityStmt <> 
   :resultRelation 0 
   :hasAggs false 
   :hasWindowFuncs false 
   :hasTargetSRFs false 
   :hasSubLinks false 
   :hasDistinctOn false 
   :hasRecursive false 
   :hasModifyingCTE false 
   :hasForUpdate false 
   :hasRowSecurity false 
   :cteList <> 
   :rtable (
      {RTE 
      :alias <> 
      :eref 
         {ALIAS 
         :aliasname dists 
         :colnames (""did"" ""name"")
         }
      :rtekind 0 
      :relid 41401 
      :relkind r 
      :tablesample <> 
      :lateral false 
      :inh true 
      :inFromCl true 
      :requiredPerms 2 
      :checkAsUser 0 
      :selectedCols (b 9 10)
      :insertedCols (b)
      :updatedCols (b)
      :securityQuals <>
      }
   )
   :jointree 
      {FROMEXPR 
      :fromlist (
         {RANGETBLREF 
         :rtindex 1
         }
      )
      :quals <>
      }
   :targetList (
      {TARGETENTRY 
      :expr 
         {VAR 
         :varno 1 
         :varattno 1 
         :vartype 23 
         :vartypmod -1 
         :varcollid 0 
         :varlevelsup 0 
         :varnoold 1 
         :varoattno 1 
         :location 7
         }
      :resno 1 
      :resname did 
      :ressortgroupref 0 
      :resorigtbl 41401 
      :resorigcol 1 
      :resjunk false
      }
      {TARGETENTRY 
      :expr 
         {VAR 
         :varno 1 
         :varattno 2 
         :vartype 1043 
         :vartypmod 44 
         :varcollid 100 
         :varlevelsup 0 
         :varnoold 1 
         :varoattno 2 
         :location 11
         }
      :resno 2 
      :resname name 
      :ressortgroupref 0 
      :resorigtbl 41401 
      :resorigcol 2 
      :resjunk false
      }
   )
   :override 0 
   :onConflict <> 
   :returningList <> 
   :groupClause <> 
   :groupingSets <> 
   :havingQual <> 
   :windowClause <> 
   :distinctClause <> 
   :sortClause <> 
   :limitOffset <> 
   :limitCount <> 
   :rowMarks <> 
   :setOperations <> 
   :constraintDeps <> 
   :stmt_location 0 
   :stmt_len 26
   }
",,,,,"select did,name from dists;",,"elog_node_display, print.c:84","psql"
2018-06-20 20:21:24.045 EDT,"asma","demo",20612,"[local]",5b2aef7d.5084,2,"SELECT",2018-06-20 20:21:17 EDT,3/2,0,LOG,00000,"has returning: 0",,,,,,"select did,name from dists;",,"pg_plan_queries, postgres.c:851","psql"
2018-06-20 20:21:24.045 EDT,"asma","demo",20612,"[local]",5b2aef7d.5084,3,"SELECT",2018-06-20 20:21:17 EDT,3/2,0,LOG,00000,"n_atts: 2",,,,,,"select did,name from dists;",,"pg_plan_queries, postgres.c:874","psql"
2018-06-20 20:21:24.045 EDT,"asma","demo",20612,"[local]",5b2aef7d.5084,4,"SELECT",2018-06-20 20:21:17 EDT,3/2,0,LOG,00000,"Table: dists",,,,,,"select did,name from dists;",,"pg_plan_queries, postgres.c:883","psql"
2018-06-20 20:21:24.045 EDT,"asma","demo",20612,"[local]",5b2aef7d.5084,5,"SELECT",2018-06-20 20:21:17 EDT,3/2,0,LOG,00000,"pk = 9",,,,,,"select did,name from dists;",,"get_primary_key_attnos_list, pg_constraint.c:1114","psql"
2018-06-20 20:21:24.045 EDT,"asma","demo",20612,"[local]",5b2aef7d.5084,6,"SELECT",2018-06-20 20:21:17 EDT,3/2,0,LOG,00000,"l = 1",,,,,,"select did,name from dists;",,"get_primary_key_attnos_list, pg_constraint.c:1118","psql"
2018-06-20 20:21:24.045 EDT,"asma","demo",20612,"[local]",5b2aef7d.5084,7,"SELECT",2018-06-20 20:21:17 EDT,3/2,0,LOG,00000,"at end l = 1",,,,,,"select did,name from dists;",,"get_primary_key_attnos_list, pg_constraint.c:1131","psql"
2018-06-20 20:21:24.045 EDT,"asma","demo",20612,"[local]",5b2aef7d.5084,8,"SELECT",2018-06-20 20:21:17 EDT,3/2,0,LOG,00000,"l1 = 1",,,,,,"select did,name from dists;",,"pg_plan_queries, postgres.c:892","psql"
2018-06-20 20:21:24.045 EDT,"asma","demo",20612,"[local]",5b2aef7d.5084,9,"SELECT",2018-06-20 20:21:17 EDT,3/2,0,LOG,00000,"pk att = 9",,,,,,"select did,name from dists;",,"pg_plan_queries, postgres.c:899","psql"
2018-06-20 20:21:24.045 EDT,"asma","demo",20612,"[local]",5b2aef7d.5084,10,"SELECT",2018-06-20 20:21:17 EDT,3/2,0,LOG,00000,"Column: did - 1 in Table dists",,,,,,"select did,name from dists;",,"pg_plan_queries, postgres.c:951","psql"
2018-06-20 20:21:24.045 EDT,"asma","demo",20612,"[local]",5b2aef7d.5084,11,"SELECT",2018-06-20 20:21:17 EDT,3/2,0,LOG,00000,"Column: name - 2 in Table dists",,,,,,"select did,name from dists;",,"pg_plan_queries, postgres.c:951","psql"
2018-06-20 20:21:24.045 EDT,"asma","demo",20612,"[local]",5b2aef7d.5084,12,"SELECT",2018-06-20 20:21:17 EDT,3/2,0,LOG,00000,"Column: did - 3 in Table dists",,,,,,"select did,name from dists;",,"pg_plan_queries, postgres.c:951","psql"
2018-06-20 20:21:24.045 EDT,"asma","demo",20612,"[local]",5b2aef7d.5084,13,"SELECT",2018-06-20 20:21:17 EDT,3/2,0,LOG,00000,"Before planning",,,,,,"select did,name from dists;",,"pg_plan_queries, postgres.c:954","psql"
2018-06-20 20:21:24.045 EDT,"asma","demo",20612,"[local]",5b2aef7d.5084,14,"SELECT",2018-06-20 20:21:17 EDT,3/2,0,LOG,00000,"planning",,,,,,"select did,name from dists;",,"pg_plan_query, postgres.c:781","psql"
2018-06-20 20:21:24.045 EDT,"asma","demo",20612,"[local]",5b2aef7d.5084,15,"SELECT",2018-06-20 20:21:17 EDT,3/2,0,LOG,00000,"standard planning",,,,,,"select did,name from dists;",,"standard_planner, planner.c:227","psql"
2018-06-20 20:21:26.214 EDT,,,20585,,5b2aef6d.5069,3,,2018-06-20 20:21:01 EDT,,0,LOG,00000,"server process (PID 20612) was terminated by signal 11: Segmentation fault","Failed process was running: select did,name from dists;",,,,,,,"LogChildExit, postmaster.c:3579",""
2018-06-20 20:21:26.214 EDT,,,20585,,5b2aef6d.5069,4,,2018-06-20 20:21:01 EDT,,0,LOG,00000,"terminating any other active server processes",,,,,,,,"HandleChildCrash, postmaster.c:3299",""
2018-06-20 20:21:26.214 EDT,,,20597,,5b2aef6e.5075,1,,2018-06-20 20:21:02 EDT,2/0,0,WARNING,57P02,"terminating connection because of crash of another server process","The postmaster has commanded this server process to roll back the current transaction and exit, because another server process exited abnormally and possibly corrupted shared memory.","In a moment you should be able to reconnect to the database and repeat your command.",,,,,,"quickdie, postgres.c:2685",""
2018-06-20 20:21:26.215 EDT,"asma","demo",20615,"[local]",5b2aef86.5087,1,"",2018-06-20 20:21:26 EDT,,0,FATAL,57P03,"the database system is in recovery mode",,,,,,,,"ProcessStartupPacket, postmaster.c:2244",""
2018-06-20 20:21:26.215 EDT,,,20585,,5b2aef6d.5069,5,,2018-06-20 20:21:01 EDT,,0,LOG,00000,"all server processes terminated; reinitializing",,,,,,,,"PostmasterStateMachine, postmaster.c:3823",""
2018-06-20 20:21:26.318 EDT,,,20616,,5b2aef86.5088,1,,2018-06-20 20:21:26 EDT,,0,LOG,00000,"database system was interrupted; last known up at 2018-06-20 20:21:01 EDT",,,,,,,,"StartupXLOG, xlog.c:6261",""
2018-06-20 20:21:26.551 EDT,,,20616,,5b2aef86.5088,2,,2018-06-20 20:21:26 EDT,,0,LOG,00000,"database system was not properly shut down; automatic recovery in progress",,,,,,,,"StartupXLOG, xlog.c:6764",""
2018-06-20 20:21:26.596 EDT,,,20616,,5b2aef86.5088,3,,2018-06-20 20:21:26 EDT,,0,LOG,00000,"redo starts at 0/18AA630",,,,,,,,"StartupXLOG, xlog.c:7019",""
2018-06-20 20:21:26.597 EDT,,,20616,,5b2aef86.5088,4,,2018-06-20 20:21:26 EDT,,0,LOG,00000,"invalid record length at 0/18AA668: wanted 24, got 0",,,,,,,,"ReadRecord, xlog.c:4183",""
2018-06-20 20:21:26.597 EDT,,,20616,,5b2aef86.5088,5,,2018-06-20 20:21:26 EDT,,0,LOG,00000,"redo done at 0/18AA630",,,,,,,,"StartupXLOG, xlog.c:7291",""
2018-06-20 20:21:26.831 EDT,,,20585,,5b2aef6d.5069,6,,2018-06-20 20:21:01 EDT,,0,LOG,00000,"database system is ready to accept connections",,,,,,,,"reaper, postmaster.c:2889",""
2018-06-20 20:21:42.883 EDT,"asma","demo",20638,"[local]",5b2aef94.509e,1,"SELECT",2018-06-20 20:21:40 EDT,3/2,0,LOG,00000,"parse tree:","   {QUERY 
   :commandType 1 
   :querySource 0 
   :canSetTag true 
   :utilityStmt <> 
   :resultRelation 0 
   :hasAggs false 
   :hasWindowFuncs false 
   :hasTargetSRFs false 
   :hasSubLinks false 
   :hasDistinctOn false 
   :hasRecursive false 
   :hasModifyingCTE false 
   :hasForUpdate false 
   :hasRowSecurity false 
   :cteList <> 
   :rtable <> 
   :jointree 
      {FROMEXPR 
      :fromlist <> 
      :quals <>
      }
   :targetList (
      {TARGETENTRY 
      :expr 
         {FUNCEXPR 
         :funcid 2026 
         :funcresulttype 23 
         :funcretset false 
         :funcvariadic false 
         :funcformat 0 
         :funccollid 0 
         :inputcollid 0 
         :args <> 
         :location 7
         }
      :resno 1 
      :resname pg_backend_pid 
      :ressortgroupref 0 
      :resorigtbl 0 
      :resorigcol 0 
      :resjunk false
      }
   )
   :override 0 
   :onConflict <> 
   :returningList <> 
   :groupClause <> 
   :groupingSets <> 
   :havingQual <> 
   :windowClause <> 
   :distinctClause <> 
   :sortClause <> 
   :limitOffset <> 
   :limitCount <> 
   :rowMarks <> 
   :setOperations <> 
   :constraintDeps <> 
   :stmt_location 0 
   :stmt_len 23
   }
",,,,,"SELECT pg_backend_pid();",,"elog_node_display, print.c:84","psql"
2018-06-20 20:21:42.883 EDT,"asma","demo",20638,"[local]",5b2aef94.509e,2,"SELECT",2018-06-20 20:21:40 EDT,3/2,0,LOG,00000,"has returning: 0",,,,,,"SELECT pg_backend_pid();",,"pg_plan_queries, postgres.c:851","psql"
2018-06-20 20:21:42.883 EDT,"asma","demo",20638,"[local]",5b2aef94.509e,3,"SELECT",2018-06-20 20:21:40 EDT,3/2,0,LOG,00000,"n_atts: 1",,,,,,"SELECT pg_backend_pid();",,"pg_plan_queries, postgres.c:874","psql"
2018-06-20 20:21:42.883 EDT,"asma","demo",20638,"[local]",5b2aef94.509e,4,"SELECT",2018-06-20 20:21:40 EDT,3/2,0,LOG,00000,"Column: pg_backend_pid - 1 in Table (null)",,,,,,"SELECT pg_backend_pid();",,"pg_plan_queries, postgres.c:951","psql"
2018-06-20 20:21:42.883 EDT,"asma","demo",20638,"[local]",5b2aef94.509e,5,"SELECT",2018-06-20 20:21:40 EDT,3/2,0,LOG,00000,"Before planning",,,,,,"SELECT pg_backend_pid();",,"pg_plan_queries, postgres.c:954","psql"
2018-06-20 20:21:42.883 EDT,"asma","demo",20638,"[local]",5b2aef94.509e,6,"SELECT",2018-06-20 20:21:40 EDT,3/2,0,LOG,00000,"planning",,,,,,"SELECT pg_backend_pid();",,"pg_plan_query, postgres.c:781","psql"
2018-06-20 20:21:42.883 EDT,"asma","demo",20638,"[local]",5b2aef94.509e,7,"SELECT",2018-06-20 20:21:40 EDT,3/2,0,LOG,00000,"standard planning",,,,,,"SELECT pg_backend_pid();",,"standard_planner, planner.c:227","psql"
2018-06-20 20:21:42.884 EDT,"asma","demo",20638,"[local]",5b2aef94.509e,8,"SELECT",2018-06-20 20:21:40 EDT,3/2,0,LOG,00000,"node: {QUERY :commandType 1 :querySource 0 :canSetTag true :utilityStmt <> :resultRelation 0 :hasAggs false :hasWindowFuncs false :hasTargetSRFs false :hasSubLinks false :hasDistinctOn false :hasRecursive false :hasModifyingCTE false :hasForUpdate false :hasRowSecurity false :cteList <> :rtable <> :jointree {FROMEXPR :fromlist <> :quals <>} :targetList ({TARGETENTRY :expr {FUNCEXPR :funcid 2026 :funcresulttype 23 :funcretset false :funcvariadic false :funcformat 0 :funccollid 0 :inputcollid 0 :args <> :location 7} :resno 1 :resname pg_backend_pid :ressortgroupref 0 :resorigtbl 0 :resorigcol 0 :resjunk false}) :override 0 :onConflict <> :returningList <> :groupClause <> :groupingSets <> :havingQual <> :windowClause <> :distinctClause <> :sortClause <> :limitOffset <> :limitCount <> :rowMarks <> :setOperations <> :constraintDeps <> :stmt_location 0 :stmt_len 23}",,,,,,"SELECT pg_backend_pid();",,"check_functions_in_node, nodeFuncs.c:1654","psql"
2018-06-20 20:21:42.884 EDT,"asma","demo",20638,"[local]",5b2aef94.509e,9,"SELECT",2018-06-20 20:21:40 EDT,3/2,0,LOG,00000,"node: ({TARGETENTRY :expr {FUNCEXPR :funcid 2026 :funcresulttype 23 :funcretset false :funcvariadic false :funcformat 0 :funccollid 0 :inputcollid 0 :args <> :location 7} :resno 1 :resname pg_backend_pid :ressortgroupref 0 :resorigtbl 0 :resorigcol 0 :resjunk false})",,,,,,"SELECT pg_backend_pid();",,"check_functions_in_node, nodeFuncs.c:1654","psql"
2018-06-20 20:21:42.884 EDT,"asma","demo",20638,"[local]",5b2aef94.509e,10,"SELECT",2018-06-20 20:21:40 EDT,3/2,0,LOG,00000,"node: {TARGETENTRY :expr {FUNCEXPR :funcid 2026 :funcresulttype 23 :funcretset false :funcvariadic false :funcformat 0 :funccollid 0 :inputcollid 0 :args <> :location 7} :resno 1 :resname pg_backend_pid :ressortgroupref 0 :resorigtbl 0 :resorigcol 0 :resjunk false}",,,,,,"SELECT pg_backend_pid();",,"check_functions_in_node, nodeFuncs.c:1654","psql"
2018-06-20 20:21:42.884 EDT,"asma","demo",20638,"[local]",5b2aef94.509e,11,"SELECT",2018-06-20 20:21:40 EDT,3/2,0,LOG,00000,"node: {FUNCEXPR :funcid 2026 :funcresulttype 23 :funcretset false :funcvariadic false :funcformat 0 :funccollid 0 :inputcollid 0 :args <> :location 7}",,,,,,"SELECT pg_backend_pid();",,"check_functions_in_node, nodeFuncs.c:1654","psql"
2018-06-20 20:21:42.884 EDT,"asma","demo",20638,"[local]",5b2aef94.509e,12,"SELECT",2018-06-20 20:21:40 EDT,3/2,0,LOG,00000,"node: {FROMEXPR :fromlist <> :quals <>}",,,,,,"SELECT pg_backend_pid();",,"check_functions_in_node, nodeFuncs.c:1654","psql"
2018-06-20 20:21:42.884 EDT,"asma","demo",20638,"[local]",5b2aef94.509e,13,"SELECT",2018-06-20 20:21:40 EDT,3/2,0,LOG,00000,"node: ({FUNCEXPR :funcid 2026 :funcresulttype 23 :funcretset false :funcvariadic false :funcformat 0 :funccollid 0 :inputcollid 0 :args <> :location 7})",,,,,,"SELECT pg_backend_pid();",,"check_functions_in_node, nodeFuncs.c:1654","psql"
2018-06-20 20:21:42.884 EDT,"asma","demo",20638,"[local]",5b2aef94.509e,14,"SELECT",2018-06-20 20:21:40 EDT,3/2,0,LOG,00000,"node: {FUNCEXPR :funcid 2026 :funcresulttype 23 :funcretset false :funcvariadic false :funcformat 0 :funccollid 0 :inputcollid 0 :args <> :location 7}",,,,,,"SELECT pg_backend_pid();",,"check_functions_in_node, nodeFuncs.c:1654","psql"
2018-06-20 20:21:42.884 EDT,"asma","demo",20638,"[local]",5b2aef94.509e,15,"SELECT",2018-06-20 20:21:40 EDT,3/2,0,LOG,00000,"dst = 1",,,,,,"SELECT pg_backend_pid();",,"apply_tlist_labeling, tlist.c:330","psql"
2018-06-20 20:21:42.884 EDT,"asma","demo",20638,"[local]",5b2aef94.509e,16,"SELECT",2018-06-20 20:21:40 EDT,3/2,0,LOG,00000,"src = 1",,,,,,"SELECT pg_backend_pid();",,"apply_tlist_labeling, tlist.c:335","psql"
2018-06-20 20:21:42.884 EDT,"asma","demo",20638,"[local]",5b2aef94.509e,17,"SELECT",2018-06-20 20:21:40 EDT,3/2,0,LOG,00000,"dst = 1, src = 1",,,,,,"SELECT pg_backend_pid();",,"apply_tlist_labeling, tlist.c:342","psql"
2018-06-20 20:21:42.884 EDT,"asma","demo",20638,"[local]",5b2aef94.509e,18,"SELECT",2018-06-20 20:21:40 EDT,3/2,0,LOG,00000,"plan:","   {PLANNEDSTMT 
   :commandType 1 
   :queryId 0 
   :hasReturning false 
   :hasModifyingCTE false 
   :canSetTag true 
   :transientPlan false 
   :dependsOnRole false 
   :parallelModeNeeded false 
   :planTree 
      {RESULT 
      :startup_cost 0.00 
      :total_cost 0.01 
      :plan_rows 1 
      :plan_width 4 
      :parallel_aware false 
      :parallel_safe false 
      :plan_node_id 0 
      :targetlist (
         {TARGETENTRY 
         :expr 
            {FUNCEXPR 
            :funcid 2026 
            :funcresulttype 23 
            :funcretset false 
            :funcvariadic false 
            :funcformat 0 
            :funccollid 0 
            :inputcollid 0 
            :args <> 
            :location 7
            }
         :resno 1 
         :resname pg_backend_pid 
         :ressortgroupref 0 
         :resorigtbl 0 
         :resorigcol 0 
         :resjunk false
         }
      )
      :qual <> 
      :lefttree <> 
      :righttree <> 
      :initPlan <> 
      :extParam (b)
      :allParam (b)
      :resconstantqual <>
      }
   :rtable <> 
   :resultRelations <> 
   :nonleafResultRelations <> 
   :rootResultRelations <> 
   :subplans <> 
   :rewindPlanIDs (b)
   :rowMarks <> 
   :relationOids <> 
   :invalItems <> 
   :nParamExec 0 
   :utilityStmt <> 
   :stmt_location 0 
   :stmt_len 23
   }
",,,,,"SELECT pg_backend_pid();",,"elog_node_display, print.c:84","psql"
2018-06-20 20:21:42.885 EDT,"asma","demo",20638,"[local]",5b2aef94.509e,19,"SELECT",2018-06-20 20:21:40 EDT,3/2,0,LOG,00000,"Planned",,,,,,"SELECT pg_backend_pid();",,"pg_plan_query, postgres.c:829","psql"
2018-06-20 20:21:42.885 EDT,"asma","demo",20638,"[local]",5b2aef94.509e,20,"SELECT",2018-06-20 20:21:40 EDT,3/2,0,LOG,00000,"end of pg_plan_queries",,,,,,"SELECT pg_backend_pid();",,"pg_plan_queries, postgres.c:960","psql"
2018-06-20 20:21:42.885 EDT,"asma","demo",20638,"[local]",5b2aef94.509e,21,"SELECT",2018-06-20 20:21:40 EDT,3/2,0,LOG,00000,"start of execution",,,,,,"SELECT pg_backend_pid();",,"exec_simple_query, postgres.c:1157","psql"
2018-06-20 20:21:42.885 EDT,"asma","demo",20638,"[local]",5b2aef94.509e,22,"SELECT",2018-06-20 20:21:40 EDT,3/2,0,LOG,00000,"PortalRunSelect",,,,,,"SELECT pg_backend_pid();",,"PortalRun, pquery.c:774","psql"
2018-06-20 20:21:42.885 EDT,"asma","demo",20638,"[local]",5b2aef94.509e,23,"SELECT",2018-06-20 20:21:40 EDT,3/2,0,LOG,00000,"IN execMain",,,,,,"SELECT pg_backend_pid();",,"ExecutePlan, execMain.c:1734","psql"
2018-06-20 20:21:42.885 EDT,"asma","demo",20638,"[local]",5b2aef94.509e,24,"SELECT",2018-06-20 20:21:40 EDT,3/2,0,LOG,00000,"
Connection Failed 
",,,,,,"SELECT pg_backend_pid();",,"connect_to_detector, execMain.c:164","psql"
2018-06-20 20:21:42.885 EDT,"asma","demo",20638,"[local]",5b2aef94.509e,25,"SELECT",2018-06-20 20:21:40 EDT,3/2,0,LOG,00000,"Failed to connect to detector",,,,,,"SELECT pg_backend_pid();",,"ExecutePlan, execMain.c:1764","psql"
2018-06-20 20:21:42.885 EDT,"asma","demo",20638,"[local]",5b2aef94.509e,26,"SELECT",2018-06-20 20:21:40 EDT,3/2,0,LOG,00000,"n = 1",,,,,,"SELECT pg_backend_pid();",,"ExecutePlan, execMain.c:1808","psql"
2018-06-20 20:21:42.885 EDT,"asma","demo",20638,"[local]",5b2aef94.509e,27,"SELECT",2018-06-20 20:21:40 EDT,3/2,0,LOG,00000,"data = 
",,,,,,"SELECT pg_backend_pid();",,"ExecutePlan, execMain.c:1830","psql"
2018-06-20 20:22:24.928 EDT,"asma","demo",20638,"[local]",5b2aef94.509e,28,"SELECT",2018-06-20 20:21:40 EDT,3/3,0,LOG,00000,"parse tree:","   {QUERY 
   :commandType 1 
   :querySource 0 
   :canSetTag true 
   :utilityStmt <> 
   :resultRelation 0 
   :hasAggs false 
   :hasWindowFuncs false 
   :hasTargetSRFs false 
   :hasSubLinks false 
   :hasDistinctOn false 
   :hasRecursive false 
   :hasModifyingCTE false 
   :hasForUpdate false 
   :hasRowSecurity false 
   :cteList <> 
   :rtable (
      {RTE 
      :alias <> 
      :eref 
         {ALIAS 
         :aliasname dists 
         :colnames (""did"" ""name"")
         }
      :rtekind 0 
      :relid 41401 
      :relkind r 
      :tablesample <> 
      :lateral false 
      :inh true 
      :inFromCl true 
      :requiredPerms 2 
      :checkAsUser 0 
      :selectedCols (b 9 10)
      :insertedCols (b)
      :updatedCols (b)
      :securityQuals <>
      }
   )
   :jointree 
      {FROMEXPR 
      :fromlist (
         {RANGETBLREF 
         :rtindex 1
         }
      )
      :quals <>
      }
   :targetList (
      {TARGETENTRY 
      :expr 
         {VAR 
         :varno 1 
         :varattno 1 
         :vartype 23 
         :vartypmod -1 
         :varcollid 0 
         :varlevelsup 0 
         :varnoold 1 
         :varoattno 1 
         :location 7
         }
      :resno 1 
      :resname did 
      :ressortgroupref 0 
      :resorigtbl 41401 
      :resorigcol 1 
      :resjunk false
      }
      {TARGETENTRY 
      :expr 
         {VAR 
         :varno 1 
         :varattno 2 
         :vartype 1043 
         :vartypmod 44 
         :varcollid 100 
         :varlevelsup 0 
         :varnoold 1 
         :varoattno 2 
         :location 11
         }
      :resno 2 
      :resname name 
      :ressortgroupref 0 
      :resorigtbl 41401 
      :resorigcol 2 
      :resjunk false
      }
   )
   :override 0 
   :onConflict <> 
   :returningList <> 
   :groupClause <> 
   :groupingSets <> 
   :havingQual <> 
   :windowClause <> 
   :distinctClause <> 
   :sortClause <> 
   :limitOffset <> 
   :limitCount <> 
   :rowMarks <> 
   :setOperations <> 
   :constraintDeps <> 
   :stmt_location 0 
   :stmt_len 26
   }
",,,,,"select did,name from dists;",,"elog_node_display, print.c:84","psql"
2018-06-20 20:22:24.928 EDT,"asma","demo",20638,"[local]",5b2aef94.509e,29,"SELECT",2018-06-20 20:21:40 EDT,3/3,0,LOG,00000,"has returning: 0",,,,,,"select did,name from dists;",,"pg_plan_queries, postgres.c:851","psql"
2018-06-20 20:22:24.928 EDT,"asma","demo",20638,"[local]",5b2aef94.509e,30,"SELECT",2018-06-20 20:21:40 EDT,3/3,0,LOG,00000,"n_atts: 2",,,,,,"select did,name from dists;",,"pg_plan_queries, postgres.c:874","psql"
2018-06-20 20:22:24.928 EDT,"asma","demo",20638,"[local]",5b2aef94.509e,31,"SELECT",2018-06-20 20:21:40 EDT,3/3,0,LOG,00000,"Table: dists",,,,,,"select did,name from dists;",,"pg_plan_queries, postgres.c:883","psql"
2018-06-20 20:22:24.928 EDT,"asma","demo",20638,"[local]",5b2aef94.509e,32,"SELECT",2018-06-20 20:21:40 EDT,3/3,0,LOG,00000,"pk = 9",,,,,,"select did,name from dists;",,"get_primary_key_attnos_list, pg_constraint.c:1114","psql"
2018-06-20 20:22:24.928 EDT,"asma","demo",20638,"[local]",5b2aef94.509e,33,"SELECT",2018-06-20 20:21:40 EDT,3/3,0,LOG,00000,"l = 1",,,,,,"select did,name from dists;",,"get_primary_key_attnos_list, pg_constraint.c:1118","psql"
2018-06-20 20:22:24.928 EDT,"asma","demo",20638,"[local]",5b2aef94.509e,34,"SELECT",2018-06-20 20:21:40 EDT,3/3,0,LOG,00000,"at end l = 1",,,,,,"select did,name from dists;",,"get_primary_key_attnos_list, pg_constraint.c:1131","psql"
2018-06-20 20:22:24.928 EDT,"asma","demo",20638,"[local]",5b2aef94.509e,35,"SELECT",2018-06-20 20:21:40 EDT,3/3,0,LOG,00000,"l1 = 1",,,,,,"select did,name from dists;",,"pg_plan_queries, postgres.c:892","psql"
2018-06-20 20:22:24.928 EDT,"asma","demo",20638,"[local]",5b2aef94.509e,36,"SELECT",2018-06-20 20:21:40 EDT,3/3,0,LOG,00000,"pk att = 9",,,,,,"select did,name from dists;",,"pg_plan_queries, postgres.c:899","psql"
2018-06-20 20:22:24.929 EDT,"asma","demo",20638,"[local]",5b2aef94.509e,37,"SELECT",2018-06-20 20:21:40 EDT,3/3,0,LOG,00000,"Column: did - 1 in Table dists",,,,,,"select did,name from dists;",,"pg_plan_queries, postgres.c:951","psql"
2018-06-20 20:22:24.929 EDT,"asma","demo",20638,"[local]",5b2aef94.509e,38,"SELECT",2018-06-20 20:21:40 EDT,3/3,0,LOG,00000,"Column: name - 2 in Table dists",,,,,,"select did,name from dists;",,"pg_plan_queries, postgres.c:951","psql"
2018-06-20 20:22:24.929 EDT,"asma","demo",20638,"[local]",5b2aef94.509e,39,"SELECT",2018-06-20 20:21:40 EDT,3/3,0,LOG,00000,"Column: did - 3 in Table dists",,,,,,"select did,name from dists;",,"pg_plan_queries, postgres.c:951","psql"
2018-06-20 20:22:24.929 EDT,"asma","demo",20638,"[local]",5b2aef94.509e,40,"SELECT",2018-06-20 20:21:40 EDT,3/3,0,LOG,00000,"Before planning",,,,,,"select did,name from dists;",,"pg_plan_queries, postgres.c:954","psql"
2018-06-20 20:22:24.929 EDT,"asma","demo",20638,"[local]",5b2aef94.509e,41,"SELECT",2018-06-20 20:21:40 EDT,3/3,0,LOG,00000,"planning",,,,,,"select did,name from dists;",,"pg_plan_query, postgres.c:781","psql"
2018-06-20 20:22:24.929 EDT,"asma","demo",20638,"[local]",5b2aef94.509e,42,"SELECT",2018-06-20 20:21:40 EDT,3/3,0,LOG,00000,"standard planning",,,,,,"select did,name from dists;",,"standard_planner, planner.c:227","psql"
2018-06-20 20:26:32.217 EDT,,,20585,,5b2aef6d.5069,7,,2018-06-20 20:21:01 EDT,,0,LOG,00000,"received smart shutdown request",,,,,,,,"pmdie, postmaster.c:2617",""
2018-06-20 20:26:32.280 EDT,,,20585,,5b2aef6d.5069,8,,2018-06-20 20:21:01 EDT,,0,LOG,00000,"worker process: logical replication launcher (PID 20622) exited with exit code 1",,,,,,,,"LogChildExit, postmaster.c:3557",""
