2018-06-20 14:41:50.076 EDT,,,11136,,5b2a9fed.2b80,1,,2018-06-20 14:41:49 EDT,,0,LOG,00000,"ending log output to stderr",,"Future log output will go to log destination ""csvlog"".",,,,,,"PostmasterMain, postmaster.c:1280",""
2018-06-20 14:41:50.197 EDT,,,11147,,5b2a9fee.2b8b,1,,2018-06-20 14:41:50 EDT,,0,LOG,00000,"database system was shut down at 2018-06-20 14:41:28 EDT",,,,,,,,"StartupXLOG, xlog.c:6236",""
2018-06-20 14:41:50.352 EDT,,,11136,,5b2a9fed.2b80,2,,2018-06-20 14:41:49 EDT,,0,LOG,00000,"database system is ready to accept connections",,,,,,,,"reaper, postmaster.c:2889",""
2018-06-20 14:42:02.790 EDT,"asma","demo",11168,"[local]",5b2a9ff8.2ba0,1,"SELECT",2018-06-20 14:42:00 EDT,3/2,0,LOG,00000,"parse tree:","   {QUERY 
   :commandType 1 
   :querySource 0 
   :canSetTag true 
   :utilityStmt <> 
   :resultRelation 0 
   :hasAggs false 
   :hasWindowFuncs false 
   :hasTargetSRFs false 
   :hasSubLinks false 
   :hasDistinctOn false 
   :hasRecursive false 
   :hasModifyingCTE false 
   :hasForUpdate false 
   :hasRowSecurity false 
   :cteList <> 
   :rtable (
      {RTE 
      :alias <> 
      :eref 
         {ALIAS 
         :aliasname dists 
         :colnames (""did"" ""name"")
         }
      :rtekind 0 
      :relid 41401 
      :relkind r 
      :tablesample <> 
      :lateral false 
      :inh true 
      :inFromCl true 
      :requiredPerms 2 
      :checkAsUser 0 
      :selectedCols (b 10)
      :insertedCols (b)
      :updatedCols (b)
      :securityQuals <>
      }
   )
   :jointree 
      {FROMEXPR 
      :fromlist (
         {RANGETBLREF 
         :rtindex 1
         }
      )
      :quals <>
      }
   :targetList (
      {TARGETENTRY 
      :expr 
         {VAR 
         :varno 1 
         :varattno 2 
         :vartype 1043 
         :vartypmod 44 
         :varcollid 100 
         :varlevelsup 0 
         :varnoold 1 
         :varoattno 2 
         :location 7
         }
      :resno 1 
      :resname name 
      :ressortgroupref 0 
      :resorigtbl 41401 
      :resorigcol 2 
      :resjunk false
      }
   )
   :override 0 
   :onConflict <> 
   :returningList <> 
   :groupClause <> 
   :groupingSets <> 
   :havingQual <> 
   :windowClause <> 
   :distinctClause <> 
   :sortClause <> 
   :limitOffset <> 
   :limitCount <> 
   :rowMarks <> 
   :setOperations <> 
   :constraintDeps <> 
   :stmt_location 0 
   :stmt_len 22
   }
",,,,,"select name from dists;",,"elog_node_display, print.c:84","psql"
2018-06-20 14:42:02.790 EDT,"asma","demo",11168,"[local]",5b2a9ff8.2ba0,2,"SELECT",2018-06-20 14:42:00 EDT,3/2,0,LOG,00000,"has returning: 0",,,,,,"select name from dists;",,"pg_plan_queries, postgres.c:851","psql"
2018-06-20 14:42:02.790 EDT,"asma","demo",11168,"[local]",5b2a9ff8.2ba0,3,"SELECT",2018-06-20 14:42:00 EDT,3/2,0,LOG,00000,"n_atts: 1",,,,,,"select name from dists;",,"pg_plan_queries, postgres.c:874","psql"
2018-06-20 14:42:02.790 EDT,"asma","demo",11168,"[local]",5b2a9ff8.2ba0,4,"SELECT",2018-06-20 14:42:00 EDT,3/2,0,LOG,00000,"Table: dists",,,,,,"select name from dists;",,"pg_plan_queries, postgres.c:883","psql"
2018-06-20 14:42:02.790 EDT,"asma","demo",11168,"[local]",5b2a9ff8.2ba0,5,"SELECT",2018-06-20 14:42:00 EDT,3/2,0,LOG,00000,"pk = 9",,,,,,"select name from dists;",,"get_primary_key_attnos_list, pg_constraint.c:1113","psql"
2018-06-20 14:42:09.500 EDT,,,11136,,5b2a9fed.2b80,3,,2018-06-20 14:41:49 EDT,,0,LOG,00000,"server process (PID 11168) was terminated by signal 11: Segmentation fault","Failed process was running: select name from dists;",,,,,,,"LogChildExit, postmaster.c:3579",""
2018-06-20 14:42:09.500 EDT,,,11136,,5b2a9fed.2b80,4,,2018-06-20 14:41:49 EDT,,0,LOG,00000,"terminating any other active server processes",,,,,,,,"HandleChildCrash, postmaster.c:3299",""
2018-06-20 14:42:09.501 EDT,,,11151,,5b2a9fee.2b8f,1,,2018-06-20 14:41:50 EDT,1/0,0,WARNING,57P02,"terminating connection because of crash of another server process","The postmaster has commanded this server process to roll back the current transaction and exit, because another server process exited abnormally and possibly corrupted shared memory.","In a moment you should be able to reconnect to the database and repeat your command.",,,,,,"quickdie, postgres.c:2671",""
2018-06-20 14:42:09.502 EDT,"asma","demo",11171,"[local]",5b2aa001.2ba3,1,"",2018-06-20 14:42:09 EDT,,0,FATAL,57P03,"the database system is in recovery mode",,,,,,,,"ProcessStartupPacket, postmaster.c:2244",""
2018-06-20 14:42:09.502 EDT,,,11136,,5b2a9fed.2b80,5,,2018-06-20 14:41:49 EDT,,0,LOG,00000,"all server processes terminated; reinitializing",,,,,,,,"PostmasterStateMachine, postmaster.c:3823",""
2018-06-20 14:42:09.645 EDT,,,11172,,5b2aa001.2ba4,1,,2018-06-20 14:42:09 EDT,,0,LOG,00000,"database system was interrupted; last known up at 2018-06-20 14:41:50 EDT",,,,,,,,"StartupXLOG, xlog.c:6261",""
2018-06-20 14:42:10.318 EDT,,,11172,,5b2aa001.2ba4,2,,2018-06-20 14:42:09 EDT,,0,LOG,00000,"database system was not properly shut down; automatic recovery in progress",,,,,,,,"StartupXLOG, xlog.c:6764",""
2018-06-20 14:42:10.365 EDT,,,11172,,5b2aa001.2ba4,3,,2018-06-20 14:42:09 EDT,,0,LOG,00000,"redo starts at 0/18A9A80",,,,,,,,"StartupXLOG, xlog.c:7019",""
2018-06-20 14:42:10.365 EDT,,,11172,,5b2aa001.2ba4,4,,2018-06-20 14:42:09 EDT,,0,LOG,00000,"invalid record length at 0/18A9AB8: wanted 24, got 0",,,,,,,,"ReadRecord, xlog.c:4183",""
2018-06-20 14:42:10.365 EDT,,,11172,,5b2aa001.2ba4,5,,2018-06-20 14:42:09 EDT,,0,LOG,00000,"redo done at 0/18A9A80",,,,,,,,"StartupXLOG, xlog.c:7291",""
2018-06-20 14:42:10.601 EDT,,,11136,,5b2a9fed.2b80,6,,2018-06-20 14:41:49 EDT,,0,LOG,00000,"database system is ready to accept connections",,,,,,,,"reaper, postmaster.c:2889",""
2018-06-20 14:53:06.092 EDT,,,11136,,5b2a9fed.2b80,7,,2018-06-20 14:41:49 EDT,,0,LOG,00000,"received smart shutdown request",,,,,,,,"pmdie, postmaster.c:2617",""
2018-06-20 14:53:06.181 EDT,,,11136,,5b2a9fed.2b80,8,,2018-06-20 14:41:49 EDT,,0,LOG,00000,"worker process: logical replication launcher (PID 11178) exited with exit code 1",,,,,,,,"LogChildExit, postmaster.c:3557",""
2018-06-20 14:53:06.181 EDT,,,11173,,5b2aa002.2ba5,1,,2018-06-20 14:42:10 EDT,,0,LOG,00000,"shutting down",,,,,,,,"ShutdownXLOG, xlog.c:8330",""
2018-06-20 14:53:06.473 EDT,,,11136,,5b2a9fed.2b80,9,,2018-06-20 14:41:49 EDT,,0,LOG,00000,"database system is shut down",,,,,,,,"UnlinkLockFiles, miscinit.c:757",""
