2018-06-25 15:48:37.332 EDT [746] LOG:  00000: ending log output to stderr
2018-06-25 15:48:37.332 EDT [746] HINT:  Future log output will go to log destination "csvlog".
2018-06-25 15:48:37.332 EDT [746] LOCATION:  PostmasterMain, postmaster.c:1280
