2018-06-20 23:31:58.593 EDT,,,8676,,5b2b1c2e.21e4,1,,2018-06-20 23:31:58 EDT,,0,LOG,00000,"ending log output to stderr",,"Future log output will go to log destination ""csvlog"".",,,,,,"PostmasterMain, postmaster.c:1280",""
2018-06-20 23:31:58.865 EDT,,,8686,,5b2b1c2e.21ee,1,,2018-06-20 23:31:58 EDT,,0,LOG,00000,"database system was shut down at 2018-06-20 23:31:17 EDT",,,,,,,,"StartupXLOG, xlog.c:6236",""
2018-06-20 23:31:58.977 EDT,,,8676,,5b2b1c2e.21e4,2,,2018-06-20 23:31:58 EDT,,0,LOG,00000,"database system is ready to accept connections",,,,,,,,"reaper, postmaster.c:2889",""
2018-06-20 23:32:06.921 EDT,"asma","demo",8706,"[local]",5b2b1c35.2202,1,"SELECT",2018-06-20 23:32:05 EDT,3/2,0,LOG,00000,"tag = 23",,,,,,"select did from dists;",,"makeVar, makefuncs.c:95","psql"
2018-06-20 23:32:06.947 EDT,"asma","demo",8706,"[local]",5b2b1c35.2202,2,"SELECT",2018-06-20 23:32:05 EDT,3/2,0,LOG,00000,"parse tree:","   {QUERY 
   :commandType 1 
   :querySource 0 
   :canSetTag true 
   :utilityStmt <> 
   :resultRelation 0 
   :hasAggs false 
   :hasWindowFuncs false 
   :hasTargetSRFs false 
   :hasSubLinks false 
   :hasDistinctOn false 
   :hasRecursive false 
   :hasModifyingCTE false 
   :hasForUpdate false 
   :hasRowSecurity false 
   :cteList <> 
   :rtable (
      {RTE 
      :alias <> 
      :eref 
         {ALIAS 
         :aliasname dists 
         :colnames (""did"" ""name"")
         }
      :rtekind 0 
      :relid 41401 
      :relkind r 
      :tablesample <> 
      :lateral false 
      :inh true 
      :inFromCl true 
      :requiredPerms 2 
      :checkAsUser 0 
      :selectedCols (b 9)
      :insertedCols (b)
      :updatedCols (b)
      :securityQuals <>
      }
   )
   :jointree 
      {FROMEXPR 
      :fromlist (
         {RANGETBLREF 
         :rtindex 1
         }
      )
      :quals <>
      }
   :targetList (
      {TARGETENTRY 
      :expr 
         {VAR 
         :varno 1 
         :varattno 1 
         :vartype 23 
         :vartypmod -1 
         :varcollid 0 
         :varlevelsup 0 
         :varnoold 1 
         :varoattno 1 
         :location 7
         }
      :resno 1 
      :resname did 
      :ressortgroupref 0 
      :resorigtbl 41401 
      :resorigcol 1 
      :resjunk false
      }
   )
   :override 0 
   :onConflict <> 
   :returningList <> 
   :groupClause <> 
   :groupingSets <> 
   :havingQual <> 
   :windowClause <> 
   :distinctClause <> 
   :sortClause <> 
   :limitOffset <> 
   :limitCount <> 
   :rowMarks <> 
   :setOperations <> 
   :constraintDeps <> 
   :stmt_location 0 
   :stmt_len 21
   }
",,,,,"select did from dists;",,"elog_node_display, print.c:84","psql"
2018-06-20 23:32:06.947 EDT,"asma","demo",8706,"[local]",5b2b1c35.2202,3,"SELECT",2018-06-20 23:32:05 EDT,3/2,0,LOG,00000,"has returning: 0",,,,,,"select did from dists;",,"pg_plan_queries, postgres.c:851","psql"
2018-06-20 23:32:06.947 EDT,"asma","demo",8706,"[local]",5b2b1c35.2202,4,"SELECT",2018-06-20 23:32:05 EDT,3/2,0,LOG,00000,"n_atts: 1",,,,,,"select did from dists;",,"pg_plan_queries, postgres.c:874","psql"
2018-06-20 23:32:06.947 EDT,"asma","demo",8706,"[local]",5b2b1c35.2202,5,"SELECT",2018-06-20 23:32:05 EDT,3/2,0,LOG,00000,"Table: dists",,,,,,"select did from dists;",,"pg_plan_queries, postgres.c:883","psql"
2018-06-20 23:32:06.948 EDT,"asma","demo",8706,"[local]",5b2b1c35.2202,6,"SELECT",2018-06-20 23:32:05 EDT,3/2,0,LOG,00000,"pk = 9",,,,,,"select did from dists;",,"get_primary_key_attnos_list, pg_constraint.c:1114","psql"
2018-06-20 23:32:06.948 EDT,"asma","demo",8706,"[local]",5b2b1c35.2202,7,"SELECT",2018-06-20 23:32:05 EDT,3/2,0,LOG,00000,"l = 1",,,,,,"select did from dists;",,"get_primary_key_attnos_list, pg_constraint.c:1118","psql"
2018-06-20 23:32:06.948 EDT,"asma","demo",8706,"[local]",5b2b1c35.2202,8,"SELECT",2018-06-20 23:32:05 EDT,3/2,0,LOG,00000,"at end l = 1",,,,,,"select did from dists;",,"get_primary_key_attnos_list, pg_constraint.c:1131","psql"
2018-06-20 23:32:06.948 EDT,"asma","demo",8706,"[local]",5b2b1c35.2202,9,"SELECT",2018-06-20 23:32:05 EDT,3/2,0,LOG,00000,"l1 = 1",,,,,,"select did from dists;",,"pg_plan_queries, postgres.c:892","psql"
2018-06-20 23:32:06.948 EDT,"asma","demo",8706,"[local]",5b2b1c35.2202,10,"SELECT",2018-06-20 23:32:05 EDT,3/2,0,LOG,00000,"pk att = 9",,,,,,"select did from dists;",,"pg_plan_queries, postgres.c:899","psql"
2018-06-20 23:32:06.948 EDT,"asma","demo",8706,"[local]",5b2b1c35.2202,11,"SELECT",2018-06-20 23:32:05 EDT,3/2,0,LOG,00000,"tag = 23",,,,,,"select did from dists;",,"initVar, makefuncs.c:125","psql"
2018-06-20 23:32:06.948 EDT,"asma","demo",8706,"[local]",5b2b1c35.2202,12,"SELECT",2018-06-20 23:32:05 EDT,3/2,0,LOG,00000,"tag = 23",,,,,,"select did from dists;",,"pg_plan_queries, postgres.c:927","psql"
2018-06-20 23:32:06.948 EDT,"asma","demo",8706,"[local]",5b2b1c35.2202,13,"SELECT",2018-06-20 23:32:05 EDT,3/2,0,LOG,00000,"target list length now is: 2",,,,,,"select did from dists;",,"pg_plan_queries, postgres.c:947","psql"
2018-06-20 23:32:06.948 EDT,"asma","demo",8706,"[local]",5b2b1c35.2202,14,"SELECT",2018-06-20 23:32:05 EDT,3/2,0,LOG,00000,"Column: did - 1 in Table dists",,,,,,"select did from dists;",,"pg_plan_queries, postgres.c:959","psql"
2018-06-20 23:32:09.185 EDT,,,8676,,5b2b1c2e.21e4,3,,2018-06-20 23:31:58 EDT,,0,LOG,00000,"server process (PID 8706) was terminated by signal 6: Aborted","Failed process was running: select did from dists;",,,,,,,"LogChildExit, postmaster.c:3579",""
2018-06-20 23:32:09.185 EDT,,,8676,,5b2b1c2e.21e4,4,,2018-06-20 23:31:58 EDT,,0,LOG,00000,"terminating any other active server processes",,,,,,,,"HandleChildCrash, postmaster.c:3299",""
2018-06-20 23:32:09.186 EDT,,,8690,,5b2b1c2e.21f2,1,,2018-06-20 23:31:58 EDT,1/0,0,WARNING,57P02,"terminating connection because of crash of another server process","The postmaster has commanded this server process to roll back the current transaction and exit, because another server process exited abnormally and possibly corrupted shared memory.","In a moment you should be able to reconnect to the database and repeat your command.",,,,,,"quickdie, postgres.c:2693",""
2018-06-20 23:32:09.187 EDT,,,8676,,5b2b1c2e.21e4,5,,2018-06-20 23:31:58 EDT,,0,LOG,00000,"all server processes terminated; reinitializing",,,,,,,,"PostmasterStateMachine, postmaster.c:3823",""
2018-06-20 23:32:09.295 EDT,"asma","demo",8712,"[local]",5b2b1c39.2208,1,"",2018-06-20 23:32:09 EDT,,0,FATAL,57P03,"the database system is in recovery mode",,,,,,,,"ProcessStartupPacket, postmaster.c:2244",""
2018-06-20 23:32:09.295 EDT,,,8711,,5b2b1c39.2207,1,,2018-06-20 23:32:09 EDT,,0,LOG,00000,"database system was interrupted; last known up at 2018-06-20 23:31:58 EDT",,,,,,,,"StartupXLOG, xlog.c:6261",""
2018-06-20 23:32:09.630 EDT,,,8711,,5b2b1c39.2207,2,,2018-06-20 23:32:09 EDT,,0,LOG,00000,"database system was not properly shut down; automatic recovery in progress",,,,,,,,"StartupXLOG, xlog.c:6764",""
2018-06-20 23:32:09.675 EDT,,,8711,,5b2b1c39.2207,3,,2018-06-20 23:32:09 EDT,,0,LOG,00000,"invalid record length at 0/18AB938: wanted 24, got 0",,,,,,,,"ReadRecord, xlog.c:4183",""
2018-06-20 23:32:09.675 EDT,,,8711,,5b2b1c39.2207,4,,2018-06-20 23:32:09 EDT,,0,LOG,00000,"redo is not required",,,,,,,,"StartupXLOG, xlog.c:7304",""
2018-06-20 23:32:09.866 EDT,,,8676,,5b2b1c2e.21e4,6,,2018-06-20 23:31:58 EDT,,0,LOG,00000,"database system is ready to accept connections",,,,,,,,"reaper, postmaster.c:2889",""
2018-06-20 23:34:08.528 EDT,,,8676,,5b2b1c2e.21e4,7,,2018-06-20 23:31:58 EDT,,0,LOG,00000,"received smart shutdown request",,,,,,,,"pmdie, postmaster.c:2617",""
2018-06-20 23:34:08.578 EDT,,,8676,,5b2b1c2e.21e4,8,,2018-06-20 23:31:58 EDT,,0,LOG,00000,"worker process: logical replication launcher (PID 8718) exited with exit code 1",,,,,,,,"LogChildExit, postmaster.c:3557",""
2018-06-20 23:34:08.579 EDT,,,8713,,5b2b1c39.2209,1,,2018-06-20 23:32:09 EDT,,0,LOG,00000,"shutting down",,,,,,,,"ShutdownXLOG, xlog.c:8330",""
2018-06-20 23:34:08.814 EDT,,,8676,,5b2b1c2e.21e4,9,,2018-06-20 23:31:58 EDT,,0,LOG,00000,"database system is shut down",,,,,,,,"UnlinkLockFiles, miscinit.c:757",""
