0.00, 5.24, 0, 0, 0, 0.40, 0.01, 0.00, 0.00, 0.00
0.00, 6.29, 0.01, 0, 0, 0.40, 0.02, 0.00, 0.01, 0.00
0.00, 3.15, 0, 0, 0, 0.40, 0.01, 0.00, 0.01, 0.00
0.00, 4.90, 0, 0, 0, 0.40, 0.01, 0.00, 0.00, 0.00
0.00, 4.90, 0.00, 0, 0, 0.40, 0.02, 0.00, 0.01, 0.00
0.00, 6.64, 0.00, 0, 0, 0.40, 0.01, 0.00, 0.00, 0.00
0.00, 4.90, 0, 0, 0, 0.40, 0.01, 0.00, 0.00, 0.00
0.00, 4.55, 0.00, 0, 0, 0.81, 0.02, 0.00, 0.01, 0.00
0.00, 6.29, 0, 0, 0, 0.40, 0.01, 0.00, 0.01, 0.00
0.00, 5.59, 0.00, 0, 0, 0.40, 0.01, 0.00, 0.00, 0.00
0.00, 5.24, 0.00, 0, 0, 0.40, 0.02, 0.00, 0.00, 0.00
0.00, 3.50, 0.00, 0, 0, 0.81, 0.02, 0.00, 0.00, 0.00
0.00, 4.55, 0.00, 0, 0, 0.40, 0.01, 0.00, 0.00, 0.00
0.00, 5.24, 0, 0, 0, 0.40, 0.01, 0.00, 0.00, 0.00
0.00, 5.94, 0.00, 0, 0, 0.40, 0.02, 0.00, 0.01, 0.00
0.00, 4.90, 0.00, 0, 0, 0.40, 0.01, 0.00, 0.00, 0.00
0.00, 5.59, 0.00, 0, 0, 0.40, 0.01, 0.00, 0.01, 0.00
0.00, 5.24, 0.00, 0, 0, 0.40, 0.01, 0.00, 0.00, 0.00
0.00, 5.94, 0.00, 0, 0, 0.81, 0.02, 0.00, 0.01, 0.00
0.00, 4.20, 0, 0, 0, 0.40, 0.01, 0.00, 0.00, 0.00
