0,0,50.00,0,0,16.67,50000.00,100.00,500000.00
0,0,65.00,0,0,16.67,50000.00,130.00,500000.00
0,0,35.00,0,0,16.67,50000.00,70.00,500000.00
0,0,75.00,0,0,16.67,50000.00,150.00,500000.00
0,0,75.00,0,0,16.67,50000.00,150.00,500000.00
0,0,30.00,0,0,16.67,50000.00,60.00,500000.00
0,0,80.00,0,0,33.33,50000.00,160.00,500000.00
0,0,55.00,0,0,16.67,50000.00,110.00,500000.00
0,0,30.00,0,0,16.67,50000.00,60.00,500000.00
0,0,35.00,0,0,16.67,50000.00,70.00,500000.00
0,0,40.00,0,0,16.67,50000.00,80.00,500000.00
0,0,30.00,0,0,16.67,50000.00,60.00,500000.00
0,0,25.00,0,0,16.67,50000.00,50.00,500000.00
0,0,45.00,0,0,16.67,50000.00,90.00,500000.00
0,0,65.00,0,0,16.67,50000.00,130.00,500000.00
0,0,60.00,0,0,16.67,50000.00,120.00,500000.00
0,0,70.00,0,0,16.67,50000.00,140.00,500000.00
0,0,25.00,0,0,16.67,50000.00,50.00,500000.00
0,0,35.00,0,0,16.67,50000.00,70.00,500000.00
0,0,0,0,0,16.67,50000.00,0,500000.00
0,0,0,0,0,16.67,50000.00,0,500000.00
0,0,0,0,0,16.67,50000.00,0,500000.00
0,0,0,0,0,150.00,50000.00,0,500000.00
0,0,0,0,0,16.67,50000.00,0,500000.00
0,0,0,0,0,16.67,50000.00,0,500000.00
0,0,0,0,0,66.67,50000.00,0,500000.00
0,0,0,0,0,16.67,50000.00,0,500000.00
0,0,0,0,0,16.67,50000.00,0,500000.00
0,0,0,0,0,16.67,50000.00,0,500000.00
0,0,0,0,0,33.33,50000.00,0,500000.00
0,0,0,0,0,183.33,50000.00,0,500000.00
0,0,0,0,0,16.67,50000.00,0,500000.00
0,0,0,0,0,16.67,50000.00,0,500000.00
0,0,0,0,0,16.67,50000.00,0,500000.00
0,0,0,0,0,16.67,50000.00,0,500000.00
0,0,0,0,0,133.33,50000.00,0,500000.00
0,0,0,0,0,16.67,50000.00,0,500000.00
0,0,0,0,0,66.67,50000.00,0,500000.00
23.32,0,0,15.53,0,16.67,0,0,0
17.10,0,0,62.10,0,16.67,0,0,0
12.44,0,0,15.53,0,66.67,0,0,0
18.65,0,0,15.53,0,16.67,0,0,0
9.33,0,0,15.53,0,16.67,0,0,0
20.21,0,0,93.15,0,16.67,0,0,0
12.44,0,0,15.53,0,16.67,0,0,0
23.32,0,0,62.10,0,16.67,0,0,0
18.65,0,0,15.53,0,16.67,0,0,0
10.88,0,0,15.53,0,16.67,0,0,0
18.65,0,0,15.53,0,16.67,0,0,0
12.44,0,0,31.05,0,16.67,0,0,0
23.32,0,0,15.53,0,16.67,0,0,0
12.44,0,0,15.53,0,33.33,0,0,0
10.88,0,0,15.53,0,50.00,0,0,0
9.33,0,0,15.53,0,33.33,0,0,0
23.32,0,0,62.10,0,16.67,0,0,0
23.32,0,0,15.53,0,33.33,0,0,0
7.77,0,0,15.53,0,66.67,0,0,0
133.69,348762.84,0,139.73,0,0,0,0,0
77.73,10435.95,0,93.15,0,0,0,0,0
85.50,10435.95,0,93.15,0,0,0,0,0
93.27,10435.95,0,93.15,0,0,0,0,0
119.70,61605.79,0,108.68,0,0,0,0,0
85.50,61605.79,0,108.68,0,0,0,0,0
116.59,61605.79,0,108.68,0,0,0,0,0
107.26,61605.79,0,108.68,0,0,0,0,0
118.14,203164.47,0,124.20,0,0,0,0,0
118.14,99983.16,0,108.68,0,0,0,0,0
144.57,203164.47,0,124.20,0,0,0,0,0
127.47,203164.47,0,124.20,0,0,0,0,0
226.96,203164.47,0,248.40,0,0,0,0,0
130.58,203164.47,0,124.20,0,0,0,0,0
153.90,348762.84,0,139.73,0,0,0,0,0
99.49,10435.95,0,93.15,0,0,0,0,0
146.12,348762.84,0,139.73,0,0,0,0,0
82.39,0.00,0,77.63,0,0,0,0,0
0.00,0,0.00,0,0,0,50000.00,0,0
20.21,0,65.00,0,0,0,50000.00,0,0
6.22,0,20.00,0,0,0,50000.00,0,0
37.31,0,120.00,0,0,0,50000.00,0,0
26.43,0,85.00,0,0,0,50000.00,0,0
35.75,0,115.00,0,0,0,50000.00,0,0
20.21,0,65.00,0,0,0,50000.00,0,0
32.64,0,105.00,0,0,0,50000.00,0,0
32.64,0,105.00,0,0,0,50000.00,0,0
13.99,0,45.00,0,0,0,50000.00,0,0
35.75,0,115.00,0,0,0,50000.00,0,0
0.00,0,0.00,0,0,0,50000.00,0,0
7.77,0,25.00,0,0,0,50000.00,0,0
29.54,0,95.00,0,0,0,50000.00,0,0
12.44,0,35.00,0,0,0,50000.00,0,0
18.65,0,60.00,0,0,0,50000.00,0,0
24.87,0,80.00,0,0,0,50000.00,0,0
27.98,0,90.00,0,0,0,50000.00,0,0
0.00,0,0.00,0,0,0,50000.00,0,0
