--minTotalRows_outliers_hist--
0.0,2588,3369
3.6,286,1679
7.2,29,182
10.799999,11,84
14.4,1,21

--minTotalSels_outliers_hist--
0.0,2905,2905
0.004253915,9,1649
0.00850783,1,653
0.012761746,0,121
0.01701566,0,7

