SELECT
-29879
--order_linestock
----5.9999817E-5
---200000
---0
---0.0
--item
---1.0000003E-5
---100000
---0
---0.0
--oorder
---1.6659725E-4
---60025
---0
---0.0
--district
---0.0
---20
---0
---0.0
--order_line
---1.7332842E-4
---600017
---0
---0.0
--warehouse
---0.0
---2
---0
---0.0
--stock
---5.0000017E-6
---200000
---0
---0.0
--new_order
---0.049759325
---16620
---0
---0.0
--customer
---0.0
---60000
---0
---0.0
-29889
--order_linestock
----6.499982E-5
---200000
---0
---0.0
--item
---7.000001E-5
---100000
---0
---0.0
--oorder
---9.995835E-5
---60025
---0
---0.0
--district
---0.0
---20
---0
---0.0
--order_line
---1.11663496E-4
---600017
---0
---0.0
--warehouse
---0.0
---2
---0
---0.0
--stock
---3.5000005E-5
---200000
---0
---0.0
--new_order
---0.049759325
---16620
---0
---0.0
--customer
----3.3333334E-5
---60000
---0
---0.0
-29878
--order_linestock
----6.999982E-5
---200000
---0
---0.0
--item
---1.0000003E-5
---100000
---0
---0.0
--oorder
---1.6659725E-4
---60025
---0
---0.0
--district
---0.0
---20
---0
---0.0
--order_line
---1.7332842E-4
---600017
---0
---0.0
--warehouse
---0.0
---2
---0
---0.0
--stock
---5.0000017E-6
---200000
---0
---0.0
--new_order
---0.009747289
---16620
---0
---0.0
--customer
---1.6666667E-5
---60000
---0
---0.0
-29877
--order_linestock
----1.0499982E-4
---200000
---0
---0.0
--item
---8.0000005E-5
---100000
---0
---0.0
--oorder
---1.6659725E-4
---60025
---0
---0.0
--district
---0.0
---20
---0
---0.0
--order_line
---1.7332842E-4
---600017
---0
---0.0
--warehouse
---0.0
---2
---0
---0.0
--stock
---4.0000003E-5
---200000
---0
---0.0
--new_order
---0.009747289
---16620
---0
---0.0
--customer
---1.6666667E-5
---60000
---0
---0.0
-29888
--order_linestock
---1.8332813E-10
---200000
---0
---0.0
--item
---1.5E-4
---100000
---0
---0.0
--oorder
---8.3298626E-5
---60025
---0
---0.0
--district
---0.05
---20
---0
---0.0
--order_line
---8.666421E-5
---600017
---0
---0.0
--warehouse
---0.5
---2
---0
---0.0
--stock
---7.5E-5
---200000
---0
---0.0
--new_order
----0.20505416
---16620
---0
---0.0
--customer
---3.3333334E-5
---60000
---0
---0.0
-29876
--order_linestock
---1.8332813E-10
---200000
---0
---0.0
--item
---3.000001E-5
---100000
---0
---0.0
--oorder
---1.6659725E-4
---60025
---0
---0.0
--district
---0.0
---20
---0
---0.0
--order_line
---1.7332842E-4
---600017
---0
---0.0
--warehouse
---0.0
---2
---0
---0.0
--stock
---1.5000005E-5
---200000
---0
---0.0
--new_order
---0.009747289
---16620
---0
---0.0
--customer
---1.6666667E-5
---60000
---0
---0.0
-29887
--order_linestock
---1.8332813E-10
---200000
---0
---0.0
--item
---1.00000005E-4
---100000
---0
---0.0
--oorder
---1.6659725E-4
---60025
---0
---0.0
--district
---0.0
---20
---0
---0.0
--order_line
---1.7332842E-4
---600017
---0
---0.0
--warehouse
---0.0
---2
---0
---0.0
--stock
---5.0000002E-5
---200000
---0
---0.0
--new_order
---6.0167164E-5
---16620
---0
---0.0
--customer
---1.6666667E-5
---60000
---0
---0.0
-29893
--order_linestock
----6.499982E-5
---200000
---0
---0.0
--item
----4.9999988E-5
---100000
---0
---0.0
--oorder
----1.6659731E-5
---60025
---0
---0.0
--district
---0.0
---20
---0
---0.0
--order_line
----6.666478E-5
---600017
---0
---0.0
--warehouse
---0.0
---2
---0
---0.0
--stock
----2.4999994E-5
---200000
---0
---0.0
--new_order
----0.4613117
---16620
---0
---0.0
--customer
----1.6666665E-5
---60000
---0
---0.0
-29882
--order_linestock
----1.349998E-4
---200000
---0
---0.0
--item
---0.0
---100000
---0
---0.0
--oorder
---1.6659725E-4
---60025
---0
---0.0
--district
---0.0
---20
---0
---0.0
--order_line
---1.7332842E-4
---600017
---0
---0.0
--warehouse
---0.0
---2
---0
---0.0
--stock
---0.0
---200000
---0
---0.0
--new_order
---0.049759325
---16620
---0
---0.0
--customer
---1.6666667E-5
---60000
---0
---0.0
-29892
--order_linestock
----5.499982E-5
---200000
---0
---0.0
--item
---3.000001E-5
---100000
---0
---0.0
--oorder
---1.4993752E-4
---60025
---0
---0.0
--district
---0.0
---20
---0
---0.0
--order_line
---1.5666222E-4
---600017
---0
---0.0
--warehouse
---0.0
---2
---0
---0.0
--stock
---1.5000005E-5
---200000
---0
---0.0
--new_order
---0.049759325
---16620
---0
---0.0
--customer
---1.6666667E-5
---60000
---0
---0.0
-29881
--order_linestock
---1.8332813E-10
---200000
---0
---0.0
--item
---1.5E-4
---100000
---0
---0.0
--oorder
----1.1661809E-4
---60025
---0
---0.0
--district
---0.0
---20
---0
---0.0
--order_line
----1.0833028E-4
---600017
---0
---0.0
--warehouse
---0.0
---2
---0
---0.0
--stock
---7.5E-5
---200000
---0
---0.0
--new_order
----0.3327918
---16620
---0
---0.0
--customer
---1.6666667E-5
---60000
---0
---0.0
-29891
--order_linestock
---1.8332813E-10
---200000
---0
---0.0
--item
---8.0000005E-5
---100000
---0
---0.0
--oorder
---1.4993752E-4
---60025
---0
---0.0
--district
---0.0
---20
---0
---0.0
--order_line
---1.5166236E-4
---600017
---0
---0.0
--warehouse
---0.0
---2
---0
---0.0
--stock
---4.0000003E-5
---200000
---0
---0.0
--new_order
---6.0167164E-5
---16620
---0
---0.0
--customer
---1.6666667E-5
---60000
---0
---0.0
-29880
--order_linestock
---1.8332813E-10
---200000
---0
---0.0
--item
---8.0000005E-5
---100000
---0
---0.0
--oorder
---9.995835E-5
---60025
---0
---0.0
--district
---0.0
---20
---0
---0.0
--order_line
---9.4997304E-5
---600017
---0
---0.0
--warehouse
---0.0
---2
---0
---0.0
--stock
---4.0000003E-5
---200000
---0
---0.0
--new_order
---0.009747289
---16620
---0
---0.0
--customer
---0.0
---60000
---0
---0.0
-29890
--order_linestock
----2.9999816E-5
---200000
---0
---0.0
--item
----4.0E-5
---100000
---0
---0.0
--oorder
---1.6659725E-4
---60025
---0
---0.0
--district
---0.0
---20
---0
---0.0
--order_line
---1.7332842E-4
---600017
---0
---0.0
--warehouse
---0.0
---2
---0
---0.0
--stock
----2.0E-5
---200000
---0
---0.0
--new_order
---6.0167164E-5
---16620
---0
---0.0
--customer
---0.0
---60000
---0
---0.0
-29875
--order_linestock
----8.999982E-5
---200000
---0
---0.0
--item
---1.5E-4
---100000
---0
---0.0
--oorder
---1.16618074E-4
---60025
---0
---0.0
--district
---0.0
---20
---0
---0.0
--order_line
---1.2166321E-4
---600017
---0
---0.0
--warehouse
---0.0
---2
---0
---0.0
--stock
---7.5E-5
---200000
---0
---0.0
--new_order
----0.03742479
---16620
---0
---0.0
--customer
---1.6666667E-5
---60000
---0
---0.0
-29886
--order_linestock
---1.8332813E-10
---200000
---0
---0.0
--item
---1.5E-4
---100000
---0
---0.0
--oorder
---1.4993752E-4
---60025
---0
---0.0
--district
---0.05
---20
---0
---0.0
--order_line
---1.5999546E-4
---600017
---0
---0.0
--warehouse
---0.5
---2
---0
---0.0
--stock
---7.5E-5
---200000
---0
---0.0
--new_order
---6.0167164E-5
---16620
---0
---0.0
--customer
---3.3333334E-5
---60000
---0
---0.0
-29874
--order_linestock
---1.8332813E-10
---200000
---0
---0.0
--item
----1.1999998E-4
---100000
---0
---0.0
--oorder
---1.6659725E-4
---60025
---0
---0.0
--district
---0.0
---20
---0
---0.0
--order_line
---1.7332842E-4
---600017
---0
---0.0
--warehouse
---0.0
---2
---0
---0.0
--stock
----5.999999E-5
---200000
---0
---0.0
--new_order
---0.049759325
---16620
---0
---0.0
--customer
----3.3333334E-5
---60000
---0
---0.0
-29885
--order_linestock
----3.499982E-5
---200000
---0
---0.0
--item
---8.0000005E-5
---100000
---0
---0.0
--oorder
---1.4993752E-4
---60025
---0
---0.0
--district
---0.0
---20
---0
---0.0
--order_line
---1.5999546E-4
---600017
---0
---0.0
--warehouse
---0.0
---2
---0
---0.0
--stock
---4.0000003E-5
---200000
---0
---0.0
--new_order
---6.0167164E-5
---16620
---0
---0.0
--customer
---0.0
---60000
---0
---0.0
-29884
--order_linestock
----7.9999816E-5
---200000
---0
---0.0
--item
---5.000001E-5
---100000
---0
---0.0
--oorder
---1.16618074E-4
---60025
---0
---0.0
--district
---0.0
---20
---0
---0.0
--order_line
---1.14996736E-4
---600017
---0
---0.0
--warehouse
---0.0
---2
---0
---0.0
--stock
---2.5000005E-5
---200000
---0
---0.0
--new_order
---6.0167164E-5
---16620
---0
---0.0
--customer
----1.6666665E-5
---60000
---0
---0.0
-29883
--order_linestock
---1.8332813E-10
---200000
---0
---0.0
--item
----4.0E-5
---100000
---0
---0.0
--oorder
---1.4993752E-4
---60025
---0
---0.0
--district
---0.0
---20
---0
---0.0
--order_line
---1.4832913E-4
---600017
---0
---0.0
--warehouse
---0.0
---2
---0
---0.0
--stock
----2.0E-5
---200000
---0
---0.0
--new_order
---0.049759325
---16620
---0
---0.0
--customer
----1.6666665E-5
---60000
---0
---0.0
INSERT
-29879
--oorder
---0.0
---0
--order_line
---0.0
---0
--history
---0.0
---0
--new_order
---0.0
---0
-29889
--oorder
---0.0
---0
--order_line
---0.0
---0
--history
---0.0
---0
--new_order
---0.0
---0
-29878
--oorder
---0.0
---0
--order_line
---0.0
---0
--history
---0.0
---0
--new_order
---0.0
---0
-29877
--oorder
---0.0
---0
--order_line
---0.0
---0
--history
---0.0
---0
--new_order
---0.0
---0
-29888
--oorder
---0.0
---0
--order_line
---0.0
---0
--history
---0.0
---0
--new_order
---0.0
---0
-29876
--oorder
---0.0
---0
--order_line
---0.0
---0
--history
---0.0
---0
--new_order
---0.0
---0
-29887
--oorder
---0.0
---0
--order_line
---0.0
---0
--history
---0.0
---0
--new_order
---0.0
---0
-29893
--oorder
---0.0
---0
--order_line
---0.0
---0
--history
---0.0
---0
--new_order
---0.0
---0
-29882
--oorder
---0.0
---0
--order_line
---0.0
---0
--history
---0.0
---0
--new_order
---0.0
---0
-29892
--oorder
---0.0
---0
--order_line
---0.0
---0
--history
---0.0
---0
--new_order
---0.0
---0
-29881
--oorder
---0.0
---0
--order_line
---0.0
---0
--history
---0.0
---0
--new_order
---0.0
---0
-29891
--oorder
---0.0
---0
--order_line
---0.0
---0
--history
---0.0
---0
--new_order
---0.0
---0
-29880
--oorder
---0.0
---0
--order_line
---0.0
---0
--history
---0.0
---0
--new_order
---0.0
---0
-29890
--oorder
---0.0
---0
--order_line
---0.0
---0
--history
---0.0
---0
--new_order
---0.0
---0
-29875
--oorder
---0.0
---0
--order_line
---0.0
---0
--history
---0.0
---0
--new_order
---0.0
---0
-29886
--oorder
---0.0
---0
--order_line
---0.0
---0
--history
---0.0
---0
--new_order
---0.0
---0
-29874
--oorder
---0.0
---0
--order_line
---0.0
---0
--history
---0.0
---0
--new_order
---0.0
---0
-29885
--oorder
---0.0
---0
--order_line
---0.0
---0
--history
---0.0
---0
--new_order
---0.0
---0
-29884
--oorder
---0.0
---0
--order_line
---0.0
---0
--history
---0.0
---0
--new_order
---0.0
---0
-29883
--oorder
---0.0
---0
--order_line
---0.0
---0
--history
---0.0
---0
--new_order
---0.0
---0
DELETE
-29879
--new_order
---0.0
---0
-29889
--new_order
---0.0
---0
-29878
--new_order
---0.0
---0
-29877
--new_order
---0.0
---0
-29888
--new_order
---0.0
---0
-29876
--new_order
---0.0
---0
-29887
--new_order
---0.0
---0
-29893
--new_order
---0.0
---0
-29882
--new_order
---0.0
---0
-29892
--new_order
---0.0
---0
-29881
--new_order
---0.0
---0
-29891
--new_order
---0.0
---0
-29880
--new_order
---0.0
---0
-29890
--new_order
---0.0
---0
-29875
--new_order
---0.0
---0
-29886
--new_order
---0.0
---0
-29874
--new_order
---0.0
---0
-29885
--new_order
---0.0
---0
-29884
--new_order
---0.0
---0
-29883
--new_order
---0.0
---0
UPDATE
-29879
--oorder
---0.0
---0
--district
---0.0
---0
--order_line
---0.0
---0
--warehouse
---0.0
---0
--stock
---0.0
---0
--customer
---0.0
---0
-29889
--oorder
---0.0
---0
--district
---0.0
---0
--order_line
---0.0
---0
--warehouse
---0.0
---0
--stock
---0.0
---0
--customer
---0.0
---0
-29878
--oorder
---0.0
---0
--district
---0.0
---0
--order_line
---0.0
---0
--warehouse
---0.0
---0
--stock
---0.0
---0
--customer
---0.0
---0
-29877
--oorder
---0.0
---0
--district
---0.0
---0
--order_line
---0.0
---0
--warehouse
---0.0
---0
--stock
---0.0
---0
--customer
---0.0
---0
-29888
--oorder
---0.0
---0
--district
---0.0
---0
--order_line
---0.0
---0
--warehouse
---0.0
---0
--stock
---0.0
---0
--customer
---0.0
---0
-29876
--oorder
---0.0
---0
--district
---0.0
---0
--order_line
---0.0
---0
--warehouse
---0.0
---0
--stock
---0.0
---0
--customer
---0.0
---0
-29887
--oorder
---0.0
---0
--district
---0.0
---0
--order_line
---0.0
---0
--warehouse
---0.0
---0
--stock
---0.0
---0
--customer
---0.0
---0
-29893
--oorder
---0.0
---0
--district
---0.0
---0
--order_line
---0.0
---0
--warehouse
---0.0
---0
--stock
---0.0
---0
--customer
---0.0
---0
-29882
--oorder
---0.0
---0
--district
---0.0
---0
--order_line
---0.0
---0
--warehouse
---0.0
---0
--stock
---0.0
---0
--customer
---0.0
---0
-29892
--oorder
---0.0
---0
--district
---0.0
---0
--order_line
---0.0
---0
--warehouse
---0.0
---0
--stock
---0.0
---0
--customer
---0.0
---0
-29881
--oorder
---0.0
---0
--district
---0.0
---0
--order_line
---0.0
---0
--warehouse
---0.0
---0
--stock
---0.0
---0
--customer
---0.0
---0
-29891
--oorder
---0.0
---0
--district
---0.0
---0
--order_line
---0.0
---0
--warehouse
---0.0
---0
--stock
---0.0
---0
--customer
---0.0
---0
-29880
--oorder
---0.0
---0
--district
---0.0
---0
--order_line
---0.0
---0
--warehouse
---0.0
---0
--stock
---0.0
---0
--customer
---0.0
---0
-29890
--oorder
---0.0
---0
--district
---0.0
---0
--order_line
---0.0
---0
--warehouse
---0.0
---0
--stock
---0.0
---0
--customer
---0.0
---0
-29875
--oorder
---0.0
---0
--district
---0.0
---0
--order_line
---0.0
---0
--warehouse
---0.0
---0
--stock
---0.0
---0
--customer
---0.0
---0
-29886
--oorder
---0.0
---0
--district
---0.0
---0
--order_line
---0.0
---0
--warehouse
---0.0
---0
--stock
---0.0
---0
--customer
---0.0
---0
-29874
--oorder
---0.0
---0
--district
---0.0
---0
--order_line
---0.0
---0
--warehouse
---0.0
---0
--stock
---0.0
---0
--customer
---0.0
---0
-29885
--oorder
---0.0
---0
--district
---0.0
---0
--order_line
---0.0
---0
--warehouse
---0.0
---0
--stock
---0.0
---0
--customer
---0.0
---0
-29884
--oorder
---0.0
---0
--district
---0.0
---0
--order_line
---0.0
---0
--warehouse
---0.0
---0
--stock
---0.0
---0
--customer
---0.0
---0
-29883
--oorder
---0.0
---0
--district
---0.0
---0
--order_line
---0.0
---0
--warehouse
---0.0
---0
--stock
---0.0
---0
--customer
---0.0
---0
