0 0
1 0
2 0
3 0
4 0
5 0
6 0
7 0
8 0
9 0
10 0
11 0
12 0
13 0
14 0
15 0
16 0
17 0
18 0
19 0
20 0
21 0
22 0
23 0
24 0
25 0
26 0
27 0
28 0
29 0
30 0
31 0
32 1
33 1
34 1
35 1
36 1
37 1
38 1
39 1
40 1
41 1
42 1
43 1
44 1
45 1
46 1
47 1
48 1
49 1
50 1
51 1
52 1
53 1
54 1
55 1
56 1
57 2
58 2
59 2
60 2
61 2
62 2
63 2
64 2
65 2
66 2
67 2
68 2
69 2
70 2
71 2
72 2
73 2
74 2
75 2
76 2
77 2
78 2
79 2
80 2
81 2
82 3
83 3
84 3
85 3
86 3
87 3
88 3
89 3
90 3
91 3
92 3
93 3
94 3
95 3
96 3
97 3
98 3
99 4
100 4
101 4
102 4
103 4
104 4
105 4
106 4
107 4
108 4
109 4
110 4
111 4
112 4
113 4
114 4
115 4
116 4
117 4
118 4
119 4
120 4
121 4
122 4
123 4
124 5
125 5
126 5
127 5
128 5
129 5
130 5
131 5
132 5
133 5
134 5
135 5
136 5
137 5
138 5
139 5
140 5
141 5
142 5
143 5
144 5
145 5
146 5
147 5
148 5
149 5
150 5
151 5
152 5
153 5
154 5
155 5
156 5
157 5
158 5
159 5
160 6
161 6
162 6
163 6
164 6
165 6
166 6
167 6
168 6
169 6
170 6
171 6
172 6
173 6
174 6
175 6
176 6
177 6
178 6
179 6
180 6
181 6
182 6
183 6
184 6
185 6
186 6
187 6
188 6
189 6
190 6
191 6
192 6
193 6
194 6
195 6
196 6
197 6
198 6
199 6
200 6
201 6
202 6
203 6
204 7
205 7
206 7
207 7
208 7
209 7
210 7
211 7
212 7
213 7
214 7
215 7
216 7
217 7
218 7
219 7
220 7
221 7
222 7
223 7
224 7
225 7
226 7
227 7
228 7
229 7
230 7
231 7
232 7
233 7
234 7
235 7
236 7
237 7
238 7
239 8
240 8
241 8
242 8
243 8
244 8
245 8
246 8
247 8
248 8
249 9
250 9
251 9
252 9
253 9
254 9
255 10
256 10
257 10
258 10
259 10
260 10
261 10
262 10
263 10
264 10
265 10
266 11
267 11
268 11
269 11
270 11
271 11
272 11
273 11
274 11
275 11
276 11
277 11
278 11
279 11
280 11
281 11
282 11
283 11
284 11
285 11
286 11
287 11
288 12
289 12
290 12
291 12
292 12
293 12
294 12
295 12
296 12
297 12
298 12
299 12
300 12
301 12
302 12
303 12
304 12
305 12
306 12
307 12
308 12
309 12
310 12
311 12
312 12
313 12
314 12
315 12
316 12
317 12
318 12
319 12
320 12
321 12
322 12
323 12
324 12
325 12
326 12
327 12
328 12
329 12
330 13
331 13
332 13
333 13
334 13
335 13
336 14
337 14
338 15
339 15
340 15
341 15
342 15
343 15
344 15
345 15
346 15
347 16
348 16
349 16
350 16
351 16
352 16
353 17
354 18
355 19
356 19
357 19
358 19
359 19
360 19
361 19
362 19
363 19
364 19
365 19
366 19
367 19
368 19
369 19
370 19
371 19
372 19
373 19
374 19
375 19
376 19
377 19
378 19
379 19
380 19
381 19
382 19
383 19
384 19
385 19
386 19
387 19
388 19
389 19
390 19
391 19
392 19
393 19
394 20
395 20
396 20
397 20
398 20
399 20
400 20
401 20
402 20
403 20
404 20
405 20
406 20
407 20
408 20
409 20
410 20
411 20
412 20
413 20
414 20
415 20
416 20
417 20
418 20
419 20
420 20
421 20
422 20
423 20
424 20
425 20
426 20
427 20
428 20
429 20
430 20
431 20
432 20
433 20
434 20
435 20
436 20
437 20
438 20
439 20
440 20
441 20
442 20
443 20
444 20
445 20
446 20
447 20
448 20
449 20
450 20
451 20
452 20
453 20
454 20
455 20
456 20
457 20
458 20
459 20
460 20
461 20
462 20
463 20
464 20
465 20
466 20
467 20
468 20
469 20
470 20
471 20
472 20
473 20
474 20
475 20
476 20
477 20
478 20
479 20
480 20
481 20
482 20
483 20
484 20
485 20
486 20
487 20
488 20
489 20
490 20
491 20
492 20
493 20
494 20
495 20
496 20
497 20
498 20
499 21
500 21
501 21
502 21
503 21
504 21
505 21
506 21
507 21
508 21
509 21
510 21
511 21
512 21
513 21
514 21
515 21
516 21
517 21
518 21
519 21
520 21
521 21
522 21
523 21
524 21
525 21
526 21
527 21
528 21
529 21
530 21
531 21
532 21
533 21
534 21
535 21
536 21
537 21
538 21
539 21
540 21
541 21
542 21
543 21
544 21
545 21
546 21
547 21
548 21
549 21
550 21
551 21
552 21
553 21
554 21
555 21
556 21
557 22
558 23
559 23
560 23
561 23
562 23
563 23
564 23
565 23
566 23
567 24
568 24
569 24
570 24
571 24
572 24
573 24
574 24
575 24
576 24
577 24
578 24
579 24
580 24
581 24
582 24
583 24
584 24
585 25
586 25
587 25
588 25
589 26
590 26
591 27
592 27
593 27
594 27
595 27
596 27
597 27
598 27
599 27
600 27
601 27
602 27
603 27
604 27
605 27
606 27
607 27
608 27
609 27
610 27
611 27
612 27
613 27
614 27
615 27
616 27
617 27
618 27
619 27
620 27
621 28
622 28
623 28
624 28
625 28
626 28
627 29
628 29
629 29
630 29
631 29
632 29
633 29
634 29
635 29
636 29
637 29
638 29
639 29
640 29
641 29
642 29
643 29
644 29
645 29
646 29
647 29
648 29
649 29
650 29
651 29
652 29
653 29
654 29
655 29
656 29
657 29
658 29
659 29
660 29
661 29
662 30
663 31
664 32
665 32
666 32
667 32
668 32
669 32
670 32
671 32
672 32
673 32
674 32
675 32
676 32
677 32
678 32
679 32
680 32
681 32
682 32
683 32
684 32
685 32
686 32
687 32
688 32
689 32
690 32
691 32
692 32
693 32
694 32
695 32
696 32
697 32
698 32
699 32
700 32
701 32
702 32
703 32
704 32
705 32
706 32
707 32
708 32
709 32
710 32
711 32
712 32
713 32
714 32
715 32
716 32
717 32
718 32
719 32
720 33
721 33
722 33
723 33
724 33
725 33
726 33
727 33
728 33
729 33
730 33
731 33
732 33
733 33
734 33
735 33
736 33
737 33
738 33
739 33
740 33
741 33
742 33
743 33
744 33
745 33
746 33
747 34
748 34
749 35
750 35
751 35
752 35
753 35
754 35
755 35
756 35
757 35
758 36
759 36
760 36
761 36
762 36
763 36
764 36
765 36
766 36
767 36
768 36
769 36
770 36
771 36
772 36
773 36
774 36
775 36
776 36
777 36
778 36
779 36
780 36
781 36
782 36
783 36
784 36
785 36
786 36
787 36
788 36
789 36
790 36
791 36
792 36
793 36
794 36
795 36
796 36
797 36
798 36
799 36
800 36
801 36
802 36
803 36
804 36
805 36
806 36
807 36
808 36
809 36
810 36
811 36
812 36
813 36
814 36
815 36
816 36
817 36
818 36
819 36
820 36
821 36
822 36
823 36
824 36
825 36
826 36
827 36
828 36
829 36
830 37
831 37
832 37
833 37
834 38
835 38
836 38
837 38
838 39
839 39
840 39
841 39
842 39
843 39
844 39
845 39
846 39
847 39
848 39
849 39
850 39
851 39
852 39
853 39
854 39
855 39
856 39
857 40
858 40
859 40
860 40
861 40
862 40
863 40
864 40
865 40
866 40
867 40
868 40
869 40
870 40
871 40
872 40
873 40
874 40
875 40
876 40
877 40
878 40
879 40
880 40
881 40
882 40
883 41
884 41
885 41
886 41
887 41
888 41
889 41
890 41
891 42
892 42
893 42
894 42
895 42
896 42
897 42
898 42
899 43
900 43
901 44
902 44
903 45
904 45
905 45
906 45
907 45
908 45
909 45
910 46
911 46
912 46
913 46
914 46
915 46
916 46
917 46
918 46
919 46
920 46
921 47
922 47
923 47
924 48
925 48
926 49
927 49
928 49
929 49
930 50
931 50
932 50
933 50
934 51
935 52
936 52
937 52
938 53
939 53
940 53
941 53
942 53
943 53
944 53
945 53
946 53
947 53
948 53
949 53
950 53
951 54
952 55
953 56
954 56
955 56
956 57
957 57
958 57
959 57
960 57
961 57
962 57
963 58
964 58
965 58
966 59
967 59
968 59
969 59
970 59
971 59
972 59
973 59
974 59
975 59
976 59
977 59
978 59
979 59
980 59
981 59
982 59
983 59
984 59
985 59
986 59
987 59
988 59
989 59
990 59
991 59
992 60
993 60
994 61
995 61
996 62
997 62
998 62
999 62
1000 62
1001 62
1002 62
1003 62
1004 62
1005 62
1006 62
1007 62
1008 62
1009 62
1010 63
1011 64
1012 64
1013 64
1014 65
1015 65
1016 65
1017 66
1018 67
1019 67
1020 67
1021 67
1022 67
1023 68
1024 68
1025 68
1026 68
1027 68
1028 68
1029 68
1030 68
1031 68
1032 68
1033 68
1034 68
1035 68
1036 68
1037 68
1038 68
1039 68
1040 68
1041 68
1042 68
1043 68
1044 68
1045 68
1046 68
1047 69
1048 69
1049 70
1050 71
1051 72
1052 72
1053 72
1054 72
1055 72
1056 72
1057 72
1058 72
1059 72
1060 72
1061 72
1062 73
1063 74
1064 75
1065 76
1066 76
1067 76
1068 76
1069 76
1070 76
1071 76
1072 76
1073 77
1074 77
1075 77
1076 77
1077 77
1078 77
1079 77
1080 77
1081 77
1082 77
1083 77
1084 77
1085 77
1086 77
1087 77
1088 77
1089 77
1090 77
1091 77
1092 77
1093 77
1094 77
1095 78
1096 79
1097 79
1098 79
1099 80
1100 80
1101 80
1102 80
1103 81
1104 81
1105 81
1106 81
1107 81
1108 81
1109 81
1110 81
1111 81
1112 81
1113 81
1114 82
1115 82
1116 82
1117 82
1118 82
1119 82
1120 82
1121 82
1122 82
1123 82
1124 82
1125 82
1126 82
1127 82
1128 83
1129 83
1130 83
1131 83
1132 83
1133 84
1134 84
1135 84
1136 84
1137 85
1138 85
1139 85
1140 85
1141 85
1142 85
1143 85
1144 85
1145 85
1146 85
1147 86
1148 86
1149 86
1150 86
1151 86
1152 86
1153 86
1154 86
1155 86
1156 86
1157 86
1158 86
1159 86
1160 86
1161 86
1162 86
1163 86
1164 86
1165 86
1166 86
1167 86
1168 86
1169 86
1170 86
1171 86
1172 86
1173 86
1174 86
1175 86
1176 87
1177 87
1178 87
1179 87
1180 87
1181 87
1182 87
1183 87
1184 87
1185 88
1186 88
1187 88
1188 88
1189 88
1190 88
1191 89
1192 89
1193 89
1194 89
1195 89
1196 89
1197 89
1198 89
1199 89
1200 89
1201 89
1202 89
1203 89
1204 90
1205 90
1206 90
1207 91
1208 92
1209 92
1210 92
1211 92
1212 92
1213 92
1214 92
1215 92
1216 92
1217 93
1218 94
1219 94
1220 94
1221 94
1222 94
1223 94
1224 95
1225 96
1226 96
1227 96
1228 96
1229 96
1230 96
1231 96
1232 96
1233 96
1234 97
1235 97
1236 97
1237 97
1238 98
1239 99
1240 99
1241 100
1242 100
1243 100
1244 101
1245 101
1246 101
1247 101
1248 102
1249 102
1250 102
1251 102
1252 103
1253 103
1254 103
1255 104
1256 104
1257 104
1258 104
1259 105
1260 105
1261 105
1262 105
1263 105
1264 106
1265 106
1266 106
1267 106
1268 106
1269 106
1270 106
1271 106
1272 106
1273 106
1274 106
1275 106
1276 106
1277 106
1278 107
1279 108
1280 109
1281 109
1282 109
1283 109
1284 110
1285 110
1286 110
1287 110
1288 110
1289 110
1290 110
1291 110
1292 110
1293 110
1294 110
1295 110
1296 110
1297 110
1298 110
1299 110
1300 111
1301 111
1302 111
1303 112
1304 112
1305 113
1306 113
1307 114
1308 115
1309 115
1310 115
1311 115
1312 115
1313 115
1314 115
1315 115
1316 115
1317 115
1318 116
1319 117
1320 118
1321 119
1322 120
1323 120
1324 121
1325 121
1326 122
1327 123
1328 124
1329 125
1330 125
1331 125
1332 125
1333 125
1334 126
1335 126
1336 126
1337 126
1338 126
1339 126
1340 126
1341 126
1342 126
1343 126
1344 127
1345 128
1346 129
1347 130
1348 130
1349 130
1350 130
1351 130
1352 130
1353 130
1354 130
1355 130
1356 130
1357 130
1358 130
1359 130
1360 130
1361 130
1362 130
1363 130
1364 130
1365 130
1366 130
1367 130
1368 131
1369 132
1370 133
1371 134
1372 134
1373 135
1374 136
1375 136
1376 137
1377 137
1378 138
1379 139
1380 140
1381 141
1382 142
1383 142
1384 143
1385 144
1386 145
1387 146
1388 147
1389 147
1390 148
1391 149
1392 150
1393 151
1394 152
1395 153
1396 154
1397 155
1398 156
1399 157
1400 158
1401 159
1402 160
1403 161
1404 162
1405 163
1406 164
1407 165
1408 166
1409 167
1410 168
1411 169
1412 170
1413 171
1414 172
1415 173
1416 174
1417 175
1418 176
1419 177
1420 178
1421 179
1422 180
1423 181
1424 182
1425 183
1426 184
1427 185
1428 186
1429 187
1430 188
1431 189
1432 190
1433 191
1434 192
