2017-10-30 15:21:55.322 EDT,,,19345,,59f77bd2.4b91,1,,2017-10-30 15:21:54 EDT,,0,LOG,00000,"ending log output to stderr",,"Future log output will go to log destination ""csvlog"".",,,,,,,""
2017-10-30 15:21:55.323 EDT,,,19347,,59f77bd3.4b93,1,,2017-10-30 15:21:55 EDT,,0,LOG,00000,"database system was shut down at 2017-10-30 15:21:53 EDT",,,,,,,,,""
2017-10-30 15:21:55.328 EDT,,,19347,,59f77bd3.4b93,2,,2017-10-30 15:21:55 EDT,,0,LOG,00000,"MultiXact member wraparound protections are now enabled",,,,,,,,,""
2017-10-30 15:21:55.330 EDT,,,19345,,59f77bd2.4b91,2,,2017-10-30 15:21:54 EDT,,0,LOG,00000,"database system is ready to accept connections",,,,,,,,,""
2017-10-30 15:21:55.330 EDT,,,19351,,59f77bd3.4b97,1,,2017-10-30 15:21:55 EDT,,0,LOG,00000,"autovacuum launcher started",,,,,,,,,""
2017-10-30 15:21:55.786 EDT,,,19353,"[local]",59f77bd3.4b99,1,"",2017-10-30 15:21:55 EDT,,0,LOG,08P01,"incomplete startup packet",,,,,,,,,""
2017-10-30 15:21:56.300 EDT,"postgres","postgres",19356,"[local]",59f77bd4.4b9c,1,"idle",2017-10-30 15:21:56 EDT,2/2,0,LOG,00000,"statement: SELECT d.datname as ""Name"",
       pg_catalog.pg_get_userbyid(d.datdba) as ""Owner"",
       pg_catalog.pg_encoding_to_char(d.encoding) as ""Encoding"",
       d.datcollate as ""Collate"",
       d.datctype as ""Ctype"",
       pg_catalog.array_to_string(d.datacl, E'\n') AS ""Access privileges""
FROM pg_catalog.pg_database d
ORDER BY 1;",,,,,,,,,"psql"
2017-10-30 15:21:56.813 EDT,"postgres","postgres",19359,"[local]",59f77bd4.4b9f,1,"idle",2017-10-30 15:21:56 EDT,2/4,0,LOG,00000,"statement: SELECT d.datname as ""Name"",
       pg_catalog.pg_get_userbyid(d.datdba) as ""Owner"",
       pg_catalog.pg_encoding_to_char(d.encoding) as ""Encoding"",
       d.datcollate as ""Collate"",
       d.datctype as ""Ctype"",
       pg_catalog.array_to_string(d.datacl, E'\n') AS ""Access privileges""
FROM pg_catalog.pg_database d
ORDER BY 1;",,,,,,,,,"psql"
2017-10-30 15:21:57.320 EDT,"postgres","postgres",19362,"[local]",59f77bd5.4ba2,1,"idle",2017-10-30 15:21:57 EDT,2/6,0,LOG,00000,"statement: SELECT d.datname as ""Name"",
       pg_catalog.pg_get_userbyid(d.datdba) as ""Owner"",
       pg_catalog.pg_encoding_to_char(d.encoding) as ""Encoding"",
       d.datcollate as ""Collate"",
       d.datctype as ""Ctype"",
       pg_catalog.array_to_string(d.datacl, E'\n') AS ""Access privileges""
FROM pg_catalog.pg_database d
ORDER BY 1;",,,,,,,,,"psql"
2017-10-30 15:22:14.493 EDT,"postgres","seats",19386,"127.0.0.1:33784",59f77be6.4bba,1,"SET",2017-10-30 15:22:14 EDT,2/8,0,LOG,00000,"execute <unnamed>: SET extra_float_digits = 3",,,,,,,,,""
2017-10-30 15:22:14.513 EDT,"postgres","seats",19386,"127.0.0.1:33784",59f77be6.4bba,2,"SET",2017-10-30 15:22:14 EDT,2/9,0,LOG,00000,"execute <unnamed>: SET SESSION CHARACTERISTICS AS TRANSACTION ISOLATION LEVEL READ COMMITTED",,,,,,,,,""
2017-10-30 15:22:14.524 EDT,"postgres","seats",19386,"127.0.0.1:33784",59f77be6.4bba,3,"BEGIN",2017-10-30 15:22:14 EDT,2/10,0,LOG,00000,"execute <unnamed>: BEGIN",,,,,,,,,""
2017-10-30 15:22:14.524 EDT,"postgres","seats",19386,"127.0.0.1:33784",59f77be6.4bba,4,"SELECT",2017-10-30 15:22:14 EDT,2/10,0,LOG,00000,"execute <unnamed>: SELECT * FROM ""CONFIG_PROFILE""",,,,,,,,,""
2017-10-30 15:22:14.533 EDT,"postgres","seats",19386,"127.0.0.1:33784",59f77be6.4bba,5,"SELECT",2017-10-30 15:22:14 EDT,2/10,0,LOG,00000,"execute <unnamed>: SELECT * FROM ""CONFIG_HISTOGRAMS""",,,,,,,,,""
2017-10-30 15:22:14.535 EDT,"postgres","seats",19386,"127.0.0.1:33784",59f77be6.4bba,6,"SELECT",2017-10-30 15:22:14 EDT,2/10,0,LOG,00000,"execute <unnamed>: SELECT CO_ID, CO_CODE_3 FROM ""COUNTRY""",,,,,,,,,""
2017-10-30 15:22:14.536 EDT,"postgres","seats",19386,"127.0.0.1:33784",59f77be6.4bba,7,"SELECT",2017-10-30 15:22:14 EDT,2/10,0,LOG,00000,"execute <unnamed>: SELECT AP_ID, AP_CODE FROM ""AIRPORT""",,,,,,,,,""
2017-10-30 15:22:14.537 EDT,"postgres","seats",19386,"127.0.0.1:33784",59f77be6.4bba,8,"SELECT",2017-10-30 15:22:14 EDT,2/10,0,LOG,00000,"execute <unnamed>: SELECT AL_ID, AL_IATA_CODE FROM ""AIRLINE"" WHERE AL_IATA_CODE != ''",,,,,,,,,""
2017-10-30 15:22:14.539 EDT,"postgres","seats",19386,"127.0.0.1:33784",59f77be6.4bba,9,"SELECT",2017-10-30 15:22:14 EDT,2/10,0,LOG,00000,"execute <unnamed>: SELECT f_id FROM ""FLIGHT"" ORDER BY F_DEPART_TIME DESC  LIMIT 10000",,,,,,,,,""
2017-10-30 15:22:14.637 EDT,"postgres","seats",19386,"127.0.0.1:33784",59f77be6.4bba,10,"SELECT",2017-10-30 15:22:14 EDT,2/10,0,LOG,00000,"execute <unnamed>: SELECT F_STATUS, F_BASE_PRICE, F_SEATS_TOTAL, F_SEATS_LEFT,        (F_BASE_PRICE + (F_BASE_PRICE * (1 - (F_SEATS_LEFT / F_SEATS_TOTAL)))) AS F_PRICE   FROM ""FLIGHT"" WHERE F_ID = $1","parameters: $1 = '87327719975223387'",,,,,,,,""
2017-10-30 15:22:14.638 EDT,"postgres","seats",19386,"127.0.0.1:33784",59f77be6.4bba,11,"SELECT",2017-10-30 15:22:14 EDT,2/10,0,LOG,00000,"execute <unnamed>: SELECT R_ID, R_F_ID, R_SEAT   FROM ""RESERVATION"" WHERE R_F_ID = $1","parameters: $1 = '87327719975223387'",,,,,,,,""
2017-10-30 15:22:14.638 EDT,"postgres","seats",19386,"127.0.0.1:33784",59f77be6.4bba,12,"COMMIT",2017-10-30 15:22:14 EDT,2/10,0,LOG,00000,"execute S_1: COMMIT",,,,,,,,,""
