1.40E-45,1.40E-45,1.40E-45,1.40E-45,3.40E+38,3.40E+38,0,0,0
1.40E-45,1.40E-45,1.40E-45,1.40E-45,3.40E+38,3.40E+38,0,0,0
1.40E-45,1.40E-45,1.40E-45,1.40E-45,3.40E+38,3.40E+38,0,0,0
10,10,1000000,1000000,10,1000000,0,0,0
10,10,1000000,1000000,10,1000000,0,0,0
1.40E-45,1.40E-45,1.40E-45,1.40E-45,3.40E+38,3.40E+38,0,0,0
10,10,1000000,1000000,10,1000000,0,0,0
1.40E-45,1.40E-45,1.40E-45,1.40E-45,3.40E+38,3.40E+38,0,0,0
10,10,1000000,1000000,10,1000000,0,0,0
1.40E-45,1.40E-45,1.40E-45,1.40E-45,3.40E+38,3.40E+38,0,0,0
1.40E-45,1.40E-45,1.40E-45,1.40E-45,3.40E+38,3.40E+38,0,0,0
10,10,1000000,1000000,10,1000000,0,0,0
1.40E-45,1.40E-45,1.40E-45,1.40E-45,3.40E+38,3.40E+38,0,0,0
20,20,2000000,2000000,10,1000000,10,1000000,1
10,10,1000000,1000000,10,1000000,0,0,0
10,10,1000000,1000000,10,1000000,0,0,0
1.40E-45,1.40E-45,1.40E-45,1.40E-45,3.40E+38,3.40E+38,0,0,0
1.40E-45,1.40E-45,1.40E-45,1.40E-45,3.40E+38,3.40E+38,0,0,0
1.40E-45,1.40E-45,1.40E-45,1.40E-45,3.40E+38,3.40E+38,0,0,0
1.40E-45,1.40E-45,1.40E-45,1.40E-45,3.40E+38,3.40E+38,0,0,0
10,10,1000000,1000000,10,1000000,0,0,0
1.40E-45,1.40E-45,1.40E-45,1.40E-45,3.40E+38,3.40E+38,0,0,0
20,20,2000000,2000000,10,1000000,10,1000000,1
1.40E-45,1.40E-45,1.40E-45,1.40E-45,3.40E+38,3.40E+38,0,0,0
10,10,1000000,1000000,10,1000000,0,0,0
1.40E-45,1.40E-45,1.40E-45,1.40E-45,3.40E+38,3.40E+38,0,0,0
1.40E-45,1.40E-45,1.40E-45,1.40E-45,3.40E+38,3.40E+38,0,0,0
1.40E-45,1.40E-45,1.40E-45,1.40E-45,3.40E+38,3.40E+38,0,0,0
10,10,1000000,1000000,10,1000000,0,0,0
10,10,1000000,1000000,10,1000000,0,0,0
10,10,1000000,1000000,10,1000000,0,0,0
10,10,1000000,1000000,10,1000000,0,0,0
1.40E-45,1.40E-45,1.40E-45,1.40E-45,3.40E+38,3.40E+38,0,0,0
1.40E-45,1.40E-45,1.40E-45,1.40E-45,3.40E+38,3.40E+38,0,0,0
10,10,1000000,1000000,10,1000000,0,0,0
1.40E-45,1.40E-45,1.40E-45,1.40E-45,3.40E+38,3.40E+38,0,0,0
1.40E-45,1.40E-45,1.40E-45,1.40E-45,3.40E+38,3.40E+38,0,0,0
1.40E-45,1.40E-45,1.40E-45,1.40E-45,3.40E+38,3.40E+38,0,0,0
1.40E-45,1.40E-45,1.40E-45,1.40E-45,3.40E+38,3.40E+38,0,0,0
40,40,4000000,4000000,30,3000000,30,3000000,1
10,10,1000000,1000000,10,1000000,0,0,0
30,30,3000000,3000000,20,2000000,20,2000000,1
40,40,4000000,4000000,30,3000000,30,3000000,1
1.40E-45,1.40E-45,1.40E-45,1.40E-45,3.40E+38,3.40E+38,0,0,0
40,40,4000000,4000000,30,3000000,30,3000000,1
10,10,1000000,1000000,10,1000000,0,0,0
10,10,1000000,1000000,10,1000000,0,0,0
1.40E-45,1.40E-45,1.40E-45,1.40E-45,3.40E+38,3.40E+38,0,0,0
20,20,2000000,2000000,10,1000000,10,1000000,1
1.40E-45,1.40E-45,1.40E-45,1.40E-45,3.40E+38,3.40E+38,0,0,0
30,30,3000000,3000000,20,2000000,20,2000000,1
20,20,2000000,2000000,10,1000000,10,1000000,1
10,10,1000000,1000000,10,1000000,0,0,0
1.40E-45,1.40E-45,1.40E-45,1.40E-45,3.40E+38,3.40E+38,0,0,0
1.40E-45,1.40E-45,1.40E-45,1.40E-45,3.40E+38,3.40E+38,0,0,0
1.40E-45,1.40E-45,1.40E-45,1.40E-45,3.40E+38,3.40E+38,0,0,0
1.40E-45,1.40E-45,1.40E-45,1.40E-45,3.40E+38,3.40E+38,0,0,0
1.40E-45,1.40E-45,1.40E-45,1.40E-45,3.40E+38,3.40E+38,0,0,0
1.40E-45,1.40E-45,1.40E-45,1.40E-45,3.40E+38,3.40E+38,0,0,0
1.40E-45,1.40E-45,1.40E-45,1.40E-45,3.40E+38,3.40E+38,0,0,0
1.40E-45,1.40E-45,1.40E-45,1.40E-45,3.40E+38,3.40E+38,0,0,0
1.40E-45,1.40E-45,1.40E-45,1.40E-45,3.40E+38,3.40E+38,0,0,0
10,10,1000000,1000000,10,1000000,0,0,0
1.40E-45,1.40E-45,1.40E-45,1.40E-45,3.40E+38,3.40E+38,0,0,0
1.40E-45,1.40E-45,1.40E-45,1.40E-45,3.40E+38,3.40E+38,0,0,0
10,10,1000000,1000000,10,1000000,0,0,0
10,10,1000000,1000000,10,1000000,0,0,0
1.40E-45,1.40E-45,1.40E-45,1.40E-45,3.40E+38,3.40E+38,0,0,0
10,10,1000000,1000000,10,1000000,0,0,0
10,10,1000000,1000000,10,1000000,0,0,0
1.40E-45,1.40E-45,1.40E-45,1.40E-45,3.40E+38,3.40E+38,0,0,0
1.40E-45,1.40E-45,1.40E-45,1.40E-45,3.40E+38,3.40E+38,0,0,0
1.40E-45,1.40E-45,1.40E-45,1.40E-45,3.40E+38,3.40E+38,0,0,0
1.40E-45,1.40E-45,1.40E-45,1.40E-45,3.40E+38,3.40E+38,0,0,0
1.40E-45,1.40E-45,1.40E-45,1.40E-45,3.40E+38,3.40E+38,0,0,0
1.40E-45,1.40E-45,1.40E-45,1.40E-45,3.40E+38,3.40E+38,0,0,0
1.40E-45,1.40E-45,1.40E-45,1.40E-45,3.40E+38,3.40E+38,0,0,0
20,20,2000000,2000000,10,1000000,10,1000000,1
1.40E-45,1.40E-45,1.40E-45,1.40E-45,3.40E+38,3.40E+38,0,0,0
1.40E-45,1.40E-45,1.40E-45,1.40E-45,3.40E+38,3.40E+38,0,0,0
10,10,1000000,1000000,10,1000000,0,0,0
1.40E-45,1.40E-45,1.40E-45,1.40E-45,3.40E+38,3.40E+38,0,0,0
10,10,1000000,1000000,10,1000000,0,0,0
1.40E-45,1.40E-45,1.40E-45,1.40E-45,3.40E+38,3.40E+38,0,0,0
1.40E-45,1.40E-45,1.40E-45,1.40E-45,3.40E+38,3.40E+38,0,0,0
1.40E-45,1.40E-45,1.40E-45,1.40E-45,3.40E+38,3.40E+38,0,0,0
1.40E-45,1.40E-45,1.40E-45,1.40E-45,3.40E+38,3.40E+38,0,0,0
1.40E-45,1.40E-45,1.40E-45,1.40E-45,3.40E+38,3.40E+38,0,0,0
1.40E-45,1.40E-45,1.40E-45,1.40E-45,3.40E+38,3.40E+38,0,0,0
1.40E-45,1.40E-45,1.40E-45,1.40E-45,3.40E+38,3.40E+38,0,0,0
1.40E-45,1.40E-45,1.40E-45,1.40E-45,3.40E+38,3.40E+38,0,0,0
1.40E-45,1.40E-45,1.40E-45,1.40E-45,3.40E+38,3.40E+38,0,0,0
10,10,1000000,1000000,10,1000000,0,0,0
20,20,2000000,2000000,10,1000000,10,1000000,1
1.40E-45,1.40E-45,1.40E-45,1.40E-45,3.40E+38,3.40E+38,0,0,0
1.40E-45,1.40E-45,1.40E-45,1.40E-45,3.40E+38,3.40E+38,0,0,0
1.40E-45,1.40E-45,1.40E-45,1.40E-45,3.40E+38,3.40E+38,0,0,0
1.40E-45,1.40E-45,1.40E-45,1.40E-45,3.40E+38,3.40E+38,0,0,0
10,10,1000000,1000000,10,1000000,0,0,0
1.40E-45,1.40E-45,1.40E-45,1.40E-45,3.40E+38,3.40E+38,0,0,0
20,20,2000000,2000000,10,1000000,10,1000000,1
10,10,1000000,1000000,10,1000000,0,0,0
20,20,2000000,2000000,10,1000000,10,1000000,1
10,10,1000000,1000000,10,1000000,0,0,0
1.40E-45,1.40E-45,1.40E-45,1.40E-45,3.40E+38,3.40E+38,0,0,0
10,10,1000000,1000000,10,1000000,0,0,0
10,10,1000000,1000000,10,1000000,0,0,0
1.40E-45,1.40E-45,1.40E-45,1.40E-45,3.40E+38,3.40E+38,0,0,0
10,10,1000000,1000000,10,1000000,0,0,0
10,10,1000000,1000000,10,1000000,0,0,0
1.40E-45,1.40E-45,1.40E-45,1.40E-45,3.40E+38,3.40E+38,0,0,0
1.40E-45,1.40E-45,1.40E-45,1.40E-45,3.40E+38,3.40E+38,0,0,0
1.40E-45,1.40E-45,1.40E-45,1.40E-45,3.40E+38,3.40E+38,0,0,0
10,10,1000000,1000000,10,1000000,0,0,0
1.40E-45,1.40E-45,1.40E-45,1.40E-45,3.40E+38,3.40E+38,0,0,0
1.40E-45,1.40E-45,1.40E-45,1.40E-45,3.40E+38,3.40E+38,0,0,0
1.40E-45,1.40E-45,1.40E-45,1.40E-45,3.40E+38,3.40E+38,0,0,0
10,10,1000000,1000000,10,1000000,0,0,0
10,10,1000000,1000000,10,1000000,0,0,0
10,10,1000000,1000000,10,1000000,0,0,0
1.40E-45,1.40E-45,1.40E-45,1.40E-45,3.40E+38,3.40E+38,0,0,0
1.40E-45,1.40E-45,1.40E-45,1.40E-45,3.40E+38,3.40E+38,0,0,0
10,10,1000000,1000000,10,1000000,0,0,0
10,10,1000000,1000000,10,1000000,0,0,0
1.40E-45,1.40E-45,1.40E-45,1.40E-45,3.40E+38,3.40E+38,0,0,0
10,10,1000000,1000000,10,1000000,0,0,0
1.40E-45,1.40E-45,1.40E-45,1.40E-45,3.40E+38,3.40E+38,0,0,0
10,10,1000000,1000000,10,1000000,0,0,0
1.40E-45,1.40E-45,1.40E-45,1.40E-45,3.40E+38,3.40E+38,0,0,0
1.40E-45,1.40E-45,1.40E-45,1.40E-45,3.40E+38,3.40E+38,0,0,0
10,10,1000000,1000000,10,1000000,0,0,0
10,10,1000000,1000000,10,1000000,0,0,0
1.40E-45,1.40E-45,1.40E-45,1.40E-45,3.40E+38,3.40E+38,0,0,0
10,10,1000000,1000000,10,1000000,0,0,0
10,10,1000000,1000000,10,1000000,0,0,0
1.40E-45,1.40E-45,1.40E-45,1.40E-45,3.40E+38,3.40E+38,0,0,0
30,30,3000000,3000000,20,2000000,20,2000000,1
30,30,3000000,3000000,20,2000000,20,2000000,1
10,10,1000000,1000000,10,1000000,0,0,0
10,10,1000000,1000000,10,1000000,0,0,0
30,30,3000000,3000000,20,2000000,20,2000000,1
10,10,1000000,1000000,10,1000000,0,0,0
1.40E-45,1.40E-45,1.40E-45,1.40E-45,3.40E+38,3.40E+38,0,0,0
10,10,1000000,1000000,10,1000000,0,0,0
10,10,1000000,1000000,10,1000000,0,0,0
20,20,2000000,2000000,10,1000000,10,1000000,1
20,20,2000000,2000000,10,1000000,10,1000000,1
10,10,1000000,1000000,10,1000000,0,0,0
1.40E-45,1.40E-45,1.40E-45,1.40E-45,3.40E+38,3.40E+38,0,0,0
10,10,1000000,1000000,10,1000000,0,0,0
10,10,1000000,1000000,10,1000000,0,0,0
10,10,1000000,1000000,10,1000000,0,0,0
10,10,1000000,1000000,10,1000000,0,0,0
10,10,1000000,1000000,10,1000000,0,0,0
10,10,1000000,1000000,10,1000000,0,0,0
10,10,1000000,1000000,10,1000000,0,0,0
1.40E-45,1.40E-45,1.40E-45,1.40E-45,3.40E+38,3.40E+38,0,0,0
10,10,1000000,1000000,10,1000000,0,0,0
10,10,1000000,1000000,10,1000000,0,0,0
30,30,3000000,3000000,20,2000000,20,2000000,1
40,40,4000000,4000000,30,3000000,30,3000000,1
10,10,1000000,1000000,10,1000000,0,0,0
30,30,3000000,3000000,20,2000000,20,2000000,1
10,10,1000000,1000000,10,1000000,0,0,0
10,10,1000000,1000000,10,1000000,0,0,0
10,10,1000000,1000000,10,1000000,0,0,0
10,10,1000000,1000000,10,1000000,0,0,0
1.40E-45,1.40E-45,1.40E-45,1.40E-45,3.40E+38,3.40E+38,0,0,0
1.40E-45,1.40E-45,1.40E-45,1.40E-45,3.40E+38,3.40E+38,0,0,0
1.40E-45,1.40E-45,1.40E-45,1.40E-45,3.40E+38,3.40E+38,0,0,0
10,10,1000000,1000000,10,1000000,0,0,0
1.40E-45,1.40E-45,1.40E-45,1.40E-45,3.40E+38,3.40E+38,0,0,0
10,10,1000000,1000000,10,1000000,0,0,0
20,20,2000000,2000000,10,1000000,10,1000000,1
10,10,1000000,1000000,10,1000000,0,0,0
1.40E-45,1.40E-45,1.40E-45,1.40E-45,3.40E+38,3.40E+38,0,0,0
1.40E-45,1.40E-45,1.40E-45,1.40E-45,3.40E+38,3.40E+38,0,0,0
20,20,2000000,2000000,10,1000000,10,1000000,1
10,10,1000000,1000000,10,1000000,0,0,0
20,20,2000000,2000000,10,1000000,10,1000000,1
30,30,3000000,3000000,20,2000000,20,2000000,1
1.40E-45,1.40E-45,1.40E-45,1.40E-45,3.40E+38,3.40E+38,0,0,0
30,30,3000000,3000000,20,2000000,20,2000000,1
10,10,1000000,1000000,10,1000000,0,0,0
1.40E-45,1.40E-45,1.40E-45,1.40E-45,3.40E+38,3.40E+38,0,0,0
10,10,1000000,1000000,10,1000000,0,0,0
40,40,4000000,4000000,30,3000000,30,3000000,1
10,10,1000000,1000000,10,1000000,0,0,0
10,10,1000000,1000000,10,1000000,0,0,0
1.40E-45,1.40E-45,1.40E-45,1.40E-45,3.40E+38,3.40E+38,0,0,0
1.40E-45,1.40E-45,1.40E-45,1.40E-45,3.40E+38,3.40E+38,0,0,0
30,30,3000000,3000000,20,2000000,20,2000000,1
1.40E-45,1.40E-45,1.40E-45,1.40E-45,3.40E+38,3.40E+38,0,0,0
1.40E-45,1.40E-45,1.40E-45,1.40E-45,3.40E+38,3.40E+38,0,0,0
30,30,3000000,3000000,20,2000000,20,2000000,1
10,10,1000000,1000000,10,1000000,0,0,0
10,10,1000000,1000000,10,1000000,0,0,0
10,10,1000000,1000000,10,1000000,0,0,0
10,10,1000000,1000000,10,1000000,0,0,0
10,10,1000000,1000000,10,1000000,0,0,0
10,10,1000000,1000000,10,1000000,0,0,0
20,20,2000000,2000000,10,1000000,10,1000000,1
20,20,2000000,2000000,10,1000000,10,1000000,1
1.40E-45,1.40E-45,1.40E-45,1.40E-45,3.40E+38,3.40E+38,0,0,0
20,20,2000000,2000000,10,1000000,10,1000000,1
10,10,1000000,1000000,10,1000000,0,0,0
10,10,1000000,1000000,10,1000000,0,0,0
1.40E-45,1.40E-45,1.40E-45,1.40E-45,3.40E+38,3.40E+38,0,0,0
20,20,2000000,2000000,10,1000000,10,1000000,1
10,10,1000000,1000000,10,1000000,0,0,0
1.40E-45,1.40E-45,1.40E-45,1.40E-45,3.40E+38,3.40E+38,0,0,0
30,30,3000000,3000000,20,2000000,20,2000000,1
10,10,1000000,1000000,10,1000000,0,0,0
10,10,1000000,1000000,10,1000000,0,0,0
20,20,2000000,2000000,10,1000000,10,1000000,1
20,20,2000000,2000000,10,1000000,10,1000000,1
20,20,2000000,2000000,10,1000000,10,1000000,1
1.40E-45,1.40E-45,1.40E-45,1.40E-45,3.40E+38,3.40E+38,0,0,0
30,30,3000000,3000000,20,2000000,20,2000000,1
1.40E-45,1.40E-45,1.40E-45,1.40E-45,3.40E+38,3.40E+38,0,0,0
20,20,2000000,2000000,10,1000000,10,1000000,1
1.40E-45,1.40E-45,1.40E-45,1.40E-45,3.40E+38,3.40E+38,0,0,0
20,20,2000000,2000000,10,1000000,10,1000000,1
20,20,2000000,2000000,10,1000000,10,1000000,1
30,30,3000000,3000000,20,2000000,20,2000000,1
10,10,1000000,1000000,10,1000000,0,0,0
10,10,1000000,1000000,10,1000000,0,0,0
1.40E-45,1.40E-45,1.40E-45,1.40E-45,3.40E+38,3.40E+38,0,0,0
1.40E-45,1.40E-45,1.40E-45,1.40E-45,3.40E+38,3.40E+38,0,0,0
1.40E-45,1.40E-45,1.40E-45,1.40E-45,3.40E+38,3.40E+38,0,0,0
20,20,2000000,2000000,10,1000000,10,1000000,1
10,10,1000000,1000000,10,1000000,0,0,0
1.40E-45,1.40E-45,1.40E-45,1.40E-45,3.40E+38,3.40E+38,0,0,0
10,10,1000000,1000000,10,1000000,0,0,0
10,10,1000000,1000000,10,1000000,0,0,0
1.40E-45,1.40E-45,1.40E-45,1.40E-45,3.40E+38,3.40E+38,0,0,0
1.40E-45,1.40E-45,1.40E-45,1.40E-45,3.40E+38,3.40E+38,0,0,0
1.40E-45,1.40E-45,1.40E-45,1.40E-45,3.40E+38,3.40E+38,0,0,0
10,10,1000000,1000000,10,1000000,0,0,0
10,10,1000000,1000000,10,1000000,0,0,0
1.40E-45,1.40E-45,1.40E-45,1.40E-45,3.40E+38,3.40E+38,0,0,0
10,10,1000000,1000000,10,1000000,0,0,0
10,10,1000000,1000000,10,1000000,0,0,0
1.40E-45,1.40E-45,1.40E-45,1.40E-45,3.40E+38,3.40E+38,0,0,0
20,20,2000000,2000000,10,1000000,10,1000000,1
1.40E-45,1.40E-45,1.40E-45,1.40E-45,3.40E+38,3.40E+38,0,0,0
1.40E-45,1.40E-45,1.40E-45,1.40E-45,3.40E+38,3.40E+38,0,0,0
1.40E-45,1.40E-45,1.40E-45,1.40E-45,3.40E+38,3.40E+38,0,0,0
1.40E-45,1.40E-45,1.40E-45,1.40E-45,3.40E+38,3.40E+38,0,0,0
20,20,2000000,2000000,10,1000000,10,1000000,1
10,10,1000000,1000000,10,1000000,0,0,0
20,20,2000000,2000000,10,1000000,10,1000000,1
1.40E-45,1.40E-45,1.40E-45,1.40E-45,3.40E+38,3.40E+38,0,0,0
10,10,1000000,1000000,10,1000000,0,0,0
20,20,2000000,2000000,10,1000000,10,1000000,1
20,20,2000000,2000000,10,1000000,10,1000000,1
1.40E-45,1.40E-45,1.40E-45,1.40E-45,3.40E+38,3.40E+38,0,0,0
20,20,2000000,2000000,10,1000000,10,1000000,1
10,10,1000000,1000000,10,1000000,0,0,0
10,10,1000000,1000000,10,1000000,0,0,0
1.40E-45,1.40E-45,1.40E-45,1.40E-45,3.40E+38,3.40E+38,0,0,0
10,10,1000000,1000000,10,1000000,0,0,0
10,10,1000000,1000000,10,1000000,0,0,0
1.40E-45,1.40E-45,1.40E-45,1.40E-45,3.40E+38,3.40E+38,0,0,0
10,10,1000000,1000000,10,1000000,0,0,0
20,20,2000000,2000000,10,1000000,10,1000000,1
10,10,1000000,1000000,10,1000000,0,0,0
1.40E-45,1.40E-45,1.40E-45,1.40E-45,3.40E+38,3.40E+38,0,0,0
1.40E-45,1.40E-45,1.40E-45,1.40E-45,3.40E+38,3.40E+38,0,0,0
20,20,2000000,2000000,10,1000000,10,1000000,1
1.40E-45,1.40E-45,1.40E-45,1.40E-45,3.40E+38,3.40E+38,0,0,0
10,10,1000000,1000000,10,1000000,0,0,0
1.40E-45,1.40E-45,1.40E-45,1.40E-45,3.40E+38,3.40E+38,0,0,0
20,20,2000000,2000000,10,1000000,10,1000000,1
10,10,1000000,1000000,10,1000000,0,0,0
1.40E-45,1.40E-45,1.40E-45,1.40E-45,3.40E+38,3.40E+38,0,0,0
10,10,1000000,1000000,10,1000000,0,0,0
10,10,1000000,1000000,10,1000000,0,0,0
20,20,2000000,2000000,10,1000000,10,1000000,1
10,10,1000000,1000000,10,1000000,0,0,0
10,10,1000000,1000000,10,1000000,0,0,0
20,20,2000000,2000000,10,1000000,10,1000000,1
30,30,3000000,3000000,20,2000000,20,2000000,1
1.40E-45,1.40E-45,1.40E-45,1.40E-45,3.40E+38,3.40E+38,0,0,0
20,20,2000000,2000000,10,1000000,10,1000000,1
1.40E-45,1.40E-45,1.40E-45,1.40E-45,3.40E+38,3.40E+38,0,0,0
1.40E-45,1.40E-45,1.40E-45,1.40E-45,3.40E+38,3.40E+38,0,0,0
10,10,1000000,1000000,10,1000000,0,0,0
10,10,1000000,1000000,10,1000000,0,0,0
1.40E-45,1.40E-45,1.40E-45,1.40E-45,3.40E+38,3.40E+38,0,0,0
20,20,2000000,2000000,10,1000000,10,1000000,1
30,30,3000000,3000000,20,2000000,20,2000000,1
10,10,1000000,1000000,10,1000000,0,0,0
10,10,1000000,1000000,10,1000000,0,0,0
20,20,2000000,2000000,10,1000000,10,1000000,1
1.40E-45,1.40E-45,1.40E-45,1.40E-45,3.40E+38,3.40E+38,0,0,0
30,30,3000000,3000000,20,2000000,20,2000000,1
10,10,1000000,1000000,10,1000000,0,0,0
1.40E-45,1.40E-45,1.40E-45,1.40E-45,3.40E+38,3.40E+38,0,0,0
10,10,1000000,1000000,10,1000000,0,0,0
10,10,1000000,1000000,10,1000000,0,0,0
10,10,1000000,1000000,10,1000000,0,0,0
1.40E-45,1.40E-45,1.40E-45,1.40E-45,3.40E+38,3.40E+38,0,0,0
20,20,2000000,2000000,10,1000000,10,1000000,1
1.40E-45,1.40E-45,1.40E-45,1.40E-45,3.40E+38,3.40E+38,0,0,0
20,20,2000000,2000000,10,1000000,10,1000000,1
1.40E-45,1.40E-45,1.40E-45,1.40E-45,3.40E+38,3.40E+38,0,0,0
20,20,2000000,2000000,10,1000000,10,1000000,1
10,10,1000000,1000000,10,1000000,0,0,0
10,10,1000000,1000000,10,1000000,0,0,0
10,10,1000000,1000000,10,1000000,0,0,0
10,10,1000000,1000000,10,1000000,0,0,0
10,10,1000000,1000000,10,1000000,0,0,0
20,20,2000000,2000000,10,1000000,10,1000000,1
10,10,1000000,1000000,10,1000000,0,0,0
20,20,2000000,2000000,10,1000000,10,1000000,1
30,30,3000000,3000000,20,2000000,20,2000000,1
20,20,2000000,2000000,10,1000000,10,1000000,1
10,10,1000000,1000000,10,1000000,0,0,0
1.40E-45,1.40E-45,1.40E-45,1.40E-45,3.40E+38,3.40E+38,0,0,0
20,20,2000000,2000000,10,1000000,10,1000000,1
10,10,1000000,1000000,10,1000000,0,0,0
10,10,1000000,1000000,10,1000000,0,0,0
20,20,2000000,2000000,10,1000000,10,1000000,1
1.40E-45,1.40E-45,1.40E-45,1.40E-45,3.40E+38,3.40E+38,0,0,0
1.40E-45,1.40E-45,1.40E-45,1.40E-45,3.40E+38,3.40E+38,0,0,0
40,40,4000000,4000000,30,3000000,30,3000000,1
20,20,2000000,2000000,10,1000000,10,1000000,1
10,10,1000000,1000000,10,1000000,0,0,0
1.40E-45,1.40E-45,1.40E-45,1.40E-45,3.40E+38,3.40E+38,0,0,0
20,20,2000000,2000000,10,1000000,10,1000000,1
40,40,4000000,4000000,30,3000000,30,3000000,1
1.40E-45,1.40E-45,1.40E-45,1.40E-45,3.40E+38,3.40E+38,0,0,0
40,40,4000000,4000000,30,3000000,30,3000000,1
30,30,3000000,3000000,20,2000000,20,2000000,1
1.40E-45,1.40E-45,1.40E-45,1.40E-45,3.40E+38,3.40E+38,0,0,0
1.40E-45,1.40E-45,1.40E-45,1.40E-45,3.40E+38,3.40E+38,0,0,0
20,20,2000000,2000000,10,1000000,10,1000000,1
10,10,1000000,1000000,10,1000000,0,0,0
10,10,1000000,1000000,10,1000000,0,0,0
1.40E-45,1.40E-45,1.40E-45,1.40E-45,3.40E+38,3.40E+38,0,0,0
10,10,1000000,1000000,10,1000000,0,0,0
20,20,2000000,2000000,10,1000000,10,1000000,1
10,10,1000000,1000000,10,1000000,0,0,0
1.40E-45,1.40E-45,1.40E-45,1.40E-45,3.40E+38,3.40E+38,0,0,0
40,40,4000000,4000000,30,3000000,30,3000000,1
10,10,1000000,1000000,10,1000000,0,0,0
1.40E-45,1.40E-45,1.40E-45,1.40E-45,3.40E+38,3.40E+38,0,0,0
20,20,2000000,2000000,10,1000000,10,1000000,1
20,20,2000000,2000000,10,1000000,10,1000000,1
1.40E-45,1.40E-45,1.40E-45,1.40E-45,3.40E+38,3.40E+38,0,0,0
30,30,3000000,3000000,20,2000000,20,2000000,1
30,30,3000000,3000000,20,2000000,20,2000000,1
30,30,3000000,3000000,20,2000000,20,2000000,1
20,20,2000000,2000000,10,1000000,10,1000000,1
10,10,1000000,1000000,10,1000000,0,0,0
30,30,3000000,3000000,20,2000000,20,2000000,1
10,10,1000000,1000000,10,1000000,0,0,0
20,20,2000000,2000000,10,1000000,10,1000000,1
30,30,3000000,3000000,20,2000000,20,2000000,1
20,20,2000000,2000000,10,1000000,10,1000000,1
30,30,3000000,3000000,20,2000000,20,2000000,1
30,30,3000000,3000000,20,2000000,20,2000000,1
30,30,3000000,3000000,20,2000000,20,2000000,1
10,10,1000000,1000000,10,1000000,0,0,0
30,30,3000000,3000000,20,2000000,20,2000000,1
20,20,2000000,2000000,10,1000000,10,1000000,1
40,40,4000000,4000000,30,3000000,30,3000000,1
40,40,4000000,4000000,30,3000000,30,3000000,1
1.40E-45,1.40E-45,1.40E-45,1.40E-45,3.40E+38,3.40E+38,0,0,0
50,50,5000000,5000000,40,4000000,40,4000000,1
40,40,4000000,4000000,30,3000000,30,3000000,1
20,20,2000000,2000000,10,1000000,10,1000000,1
20,20,2000000,2000000,10,1000000,10,1000000,1
10,10,1000000,1000000,10,1000000,0,0,0
30,30,3000000,3000000,20,2000000,20,2000000,1
20,20,2000000,2000000,10,1000000,10,1000000,1
40,40,4000000,4000000,30,3000000,30,3000000,1
30,30,3000000,3000000,20,2000000,20,2000000,1
10,10,1000000,1000000,10,1000000,0,0,0
10,10,1000000,1000000,10,1000000,0,0,0
40,40,4000000,4000000,30,3000000,30,3000000,1
10,10,1000000,1000000,10,1000000,0,0,0
30,30,3000000,3000000,20,2000000,20,2000000,1
20,20,2000000,2000000,10,1000000,10,1000000,1
20,20,2000000,2000000,10,1000000,10,1000000,1
10,10,1000000,1000000,10,1000000,0,0,0
20,20,2000000,2000000,10,1000000,10,1000000,1
20,20,2000000,2000000,10,1000000,10,1000000,1
10,10,1000000,1000000,10,1000000,0,0,0
20,20,2000000,2000000,10,1000000,10,1000000,1
1.40E-45,1.40E-45,1.40E-45,1.40E-45,3.40E+38,3.40E+38,0,0,0
30,30,3000000,3000000,20,2000000,20,2000000,1
10,10,1000000,1000000,10,1000000,0,0,0
1.40E-45,1.40E-45,1.40E-45,1.40E-45,3.40E+38,3.40E+38,0,0,0
10,10,1000000,1000000,10,1000000,0,0,0
20,20,2000000,2000000,10,1000000,10,1000000,1
30,30,3000000,3000000,20,2000000,20,2000000,1
10,10,1000000,1000000,10,1000000,0,0,0
10,10,1000000,1000000,10,1000000,0,0,0
10,10,1000000,1000000,10,1000000,0,0,0
10,10,1000000,1000000,10,1000000,0,0,0
10,10,1000000,1000000,10,1000000,0,0,0
10,10,1000000,1000000,10,1000000,0,0,0
1.40E-45,1.40E-45,1.40E-45,1.40E-45,3.40E+38,3.40E+38,0,0,0
10,10,1000000,1000000,10,1000000,0,0,0
1.40E-45,1.40E-45,1.40E-45,1.40E-45,3.40E+38,3.40E+38,0,0,0
10,10,1000000,1000000,10,1000000,0,0,0
10,10,1000000,1000000,10,1000000,0,0,0
10,10,1000000,1000000,10,1000000,0,0,0
20,20,2000000,2000000,10,1000000,10,1000000,1
1.40E-45,1.40E-45,1.40E-45,1.40E-45,3.40E+38,3.40E+38,0,0,0
10,10,1000000,1000000,10,1000000,0,0,0
30,30,3000000,3000000,20,2000000,20,2000000,1
20,20,2000000,2000000,10,1000000,10,1000000,1
10,10,1000000,1000000,10,1000000,0,0,0
40,40,4000000,4000000,30,3000000,30,3000000,1
10,10,1000000,1000000,10,1000000,0,0,0
10,10,1000000,1000000,10,1000000,0,0,0
1.40E-45,1.40E-45,1.40E-45,1.40E-45,3.40E+38,3.40E+38,0,0,0
1.40E-45,1.40E-45,1.40E-45,1.40E-45,3.40E+38,3.40E+38,0,0,0
20,20,2000000,2000000,10,1000000,10,1000000,1
1.40E-45,1.40E-45,1.40E-45,1.40E-45,3.40E+38,3.40E+38,0,0,0
1.40E-45,1.40E-45,1.40E-45,1.40E-45,3.40E+38,3.40E+38,0,0,0
20,20,2000000,2000000,10,1000000,10,1000000,1
1.40E-45,1.40E-45,1.40E-45,1.40E-45,3.40E+38,3.40E+38,0,0,0
1.40E-45,1.40E-45,1.40E-45,1.40E-45,3.40E+38,3.40E+38,0,0,0
1.40E-45,1.40E-45,1.40E-45,1.40E-45,3.40E+38,3.40E+38,0,0,0
20,20,2000000,2000000,10,1000000,10,1000000,1
10,10,1000000,1000000,10,1000000,0,0,0
30,30,3000000,3000000,20,2000000,20,2000000,1
10,10,1000000,1000000,10,1000000,0,0,0
1.40E-45,1.40E-45,1.40E-45,1.40E-45,3.40E+38,3.40E+38,0,0,0
50,50,5000000,5000000,40,4000000,40,4000000,1
30,30,3000000,3000000,20,2000000,20,2000000,1
20,20,2000000,2000000,10,1000000,10,1000000,1
10,10,1000000,1000000,10,1000000,0,0,0
10,10,1000000,1000000,10,1000000,0,0,0
20,20,2000000,2000000,10,1000000,10,1000000,1
10,10,1000000,1000000,10,1000000,0,0,0
30,30,3000000,3000000,20,2000000,20,2000000,1
1.40E-45,1.40E-45,1.40E-45,1.40E-45,3.40E+38,3.40E+38,0,0,0
10,10,1000000,1000000,10,1000000,0,0,0
10,10,1000000,1000000,10,1000000,0,0,0
1.40E-45,1.40E-45,1.40E-45,1.40E-45,3.40E+38,3.40E+38,0,0,0
30,30,3000000,3000000,20,2000000,20,2000000,1
40,40,4000000,4000000,30,3000000,30,3000000,1
20,20,2000000,2000000,10,1000000,10,1000000,1
10,10,1000000,1000000,10,1000000,0,0,0
40,40,4000000,4000000,30,3000000,30,3000000,1
30,30,3000000,3000000,20,2000000,20,2000000,1
10,10,1000000,1000000,10,1000000,0,0,0
30,30,3000000,3000000,20,2000000,20,2000000,1
10,10,1000000,1000000,10,1000000,0,0,0
40,40,4000000,4000000,30,3000000,30,3000000,1
20,20,2000000,2000000,10,1000000,10,1000000,1
20,20,2000000,2000000,10,1000000,10,1000000,1
20,20,2000000,2000000,10,1000000,10,1000000,1
1.40E-45,1.40E-45,1.40E-45,1.40E-45,3.40E+38,3.40E+38,0,0,0
1.40E-45,1.40E-45,1.40E-45,1.40E-45,3.40E+38,3.40E+38,0,0,0
20,20,2000000,2000000,10,1000000,10,1000000,1
30,30,3000000,3000000,20,2000000,20,2000000,1
30,30,3000000,3000000,20,2000000,20,2000000,1
10,10,1000000,1000000,10,1000000,0,0,0
10,10,1000000,1000000,10,1000000,0,0,0
20,20,2000000,2000000,10,1000000,10,1000000,1
30,30,3000000,3000000,20,2000000,20,2000000,1
10,10,1000000,1000000,10,1000000,0,0,0
30,30,3000000,3000000,20,2000000,20,2000000,1
30,30,3000000,3000000,20,2000000,20,2000000,1
10,10,1000000,1000000,10,1000000,0,0,0
20,20,2000000,2000000,10,1000000,10,1000000,1
20,20,2000000,2000000,10,1000000,10,1000000,1
20,20,2000000,2000000,10,1000000,10,1000000,1
10,10,1000000,1000000,10,1000000,0,0,0
20,20,2000000,2000000,10,1000000,10,1000000,1
20,20,2000000,2000000,10,1000000,10,1000000,1
30,30,3000000,3000000,20,2000000,20,2000000,1
40,40,4000000,4000000,30,3000000,30,3000000,1
10,10,1000000,1000000,10,1000000,0,0,0
20,20,2000000,2000000,10,1000000,10,1000000,1
1.40E-45,1.40E-45,1.40E-45,1.40E-45,3.40E+38,3.40E+38,0,0,0
20,20,2000000,2000000,10,1000000,10,1000000,1
10,10,1000000,1000000,10,1000000,0,0,0
30,30,3000000,3000000,20,2000000,20,2000000,1
20,20,2000000,2000000,10,1000000,10,1000000,1
20,20,2000000,2000000,10,1000000,10,1000000,1
10,10,1000000,1000000,10,1000000,0,0,0
1.40E-45,1.40E-45,1.40E-45,1.40E-45,3.40E+38,3.40E+38,0,0,0
1.40E-45,1.40E-45,1.40E-45,1.40E-45,3.40E+38,3.40E+38,0,0,0
20,20,2000000,2000000,10,1000000,10,1000000,1
10,10,1000000,1000000,10,1000000,0,0,0
40,40,4000000,4000000,30,3000000,30,3000000,1
10,10,1000000,1000000,10,1000000,0,0,0
20,20,2000000,2000000,10,1000000,10,1000000,1
10,10,1000000,1000000,10,1000000,0,0,0
1.40E-45,1.40E-45,1.40E-45,1.40E-45,3.40E+38,3.40E+38,0,0,0
10,10,1000000,1000000,10,1000000,0,0,0
1.40E-45,1.40E-45,1.40E-45,1.40E-45,3.40E+38,3.40E+38,0,0,0
10,10,1000000,1000000,10,1000000,0,0,0
20,20,2000000,2000000,10,1000000,10,1000000,1
20,20,2000000,2000000,10,1000000,10,1000000,1
1.40E-45,1.40E-45,1.40E-45,1.40E-45,3.40E+38,3.40E+38,0,0,0
10,10,1000000,1000000,10,1000000,0,0,0
20,20,2000000,2000000,10,1000000,10,1000000,1
10,10,1000000,1000000,10,1000000,0,0,0
20,20,2000000,2000000,10,1000000,10,1000000,1
50,50,5000000,5000000,40,4000000,40,4000000,1
20,20,2000000,2000000,10,1000000,10,1000000,1
20,20,2000000,2000000,10,1000000,10,1000000,1
20,20,2000000,2000000,10,1000000,10,1000000,1
20,20,2000000,2000000,10,1000000,10,1000000,1
10,10,1000000,1000000,10,1000000,0,0,0
10,10,1000000,1000000,10,1000000,0,0,0
10,10,1000000,1000000,10,1000000,0,0,0
30,30,3000000,3000000,20,2000000,20,2000000,1
10,10,1000000,1000000,10,1000000,0,0,0
20,20,2000000,2000000,10,1000000,10,1000000,1
1.40E-45,1.40E-45,1.40E-45,1.40E-45,3.40E+38,3.40E+38,0,0,0
30,30,3000000,3000000,20,2000000,20,2000000,1
1.40E-45,1.40E-45,1.40E-45,1.40E-45,3.40E+38,3.40E+38,0,0,0
30,30,3000000,3000000,20,2000000,20,2000000,1
1.40E-45,1.40E-45,1.40E-45,1.40E-45,3.40E+38,3.40E+38,0,0,0
20,20,2000000,2000000,10,1000000,10,1000000,1
20,20,2000000,2000000,10,1000000,10,1000000,1
10,10,1000000,1000000,10,1000000,0,0,0
1.40E-45,1.40E-45,1.40E-45,1.40E-45,3.40E+38,3.40E+38,0,0,0
10,10,1000000,1000000,10,1000000,0,0,0
10,10,1000000,1000000,10,1000000,0,0,0
10,10,1000000,1000000,10,1000000,0,0,0
1.40E-45,1.40E-45,1.40E-45,1.40E-45,3.40E+38,3.40E+38,0,0,0
40,40,4000000,4000000,30,3000000,30,3000000,1
20,20,2000000,2000000,10,1000000,10,1000000,1
1.40E-45,1.40E-45,1.40E-45,1.40E-45,3.40E+38,3.40E+38,0,0,0
10,10,1000000,1000000,10,1000000,0,0,0
20,20,2000000,2000000,10,1000000,10,1000000,1
1.40E-45,1.40E-45,1.40E-45,1.40E-45,3.40E+38,3.40E+38,0,0,0
10,10,1000000,1000000,10,1000000,0,0,0
10,10,1000000,1000000,10,1000000,0,0,0
40,40,4000000,4000000,30,3000000,30,3000000,1
20,20,2000000,2000000,10,1000000,10,1000000,1
1.40E-45,1.40E-45,1.40E-45,1.40E-45,3.40E+38,3.40E+38,0,0,0
10,10,1000000,1000000,10,1000000,0,0,0
10,10,1000000,1000000,10,1000000,0,0,0
20,20,2000000,2000000,10,1000000,10,1000000,1
1.40E-45,1.40E-45,1.40E-45,1.40E-45,3.40E+38,3.40E+38,0,0,0
1.40E-45,1.40E-45,1.40E-45,1.40E-45,3.40E+38,3.40E+38,0,0,0
50,50,5000000,5000000,40,4000000,40,4000000,1
40,40,4000000,4000000,30,3000000,30,3000000,1
20,20,2000000,2000000,10,1000000,10,1000000,1
1.40E-45,1.40E-45,1.40E-45,1.40E-45,3.40E+38,3.40E+38,0,0,0
1.40E-45,1.40E-45,1.40E-45,1.40E-45,3.40E+38,3.40E+38,0,0,0
50,50,5000000,5000000,40,4000000,40,4000000,1
1.40E-45,1.40E-45,1.40E-45,1.40E-45,3.40E+38,3.40E+38,0,0,0
20,20,2000000,2000000,10,1000000,10,1000000,1
1.40E-45,1.40E-45,1.40E-45,1.40E-45,3.40E+38,3.40E+38,0,0,0
20,20,2000000,2000000,10,1000000,10,1000000,1
10,10,1000000,1000000,10,1000000,0,0,0
10,10,1000000,1000000,10,1000000,0,0,0
30,30,3000000,3000000,20,2000000,20,2000000,1
10,10,1000000,1000000,10,1000000,0,0,0
1.40E-45,1.40E-45,1.40E-45,1.40E-45,3.40E+38,3.40E+38,0,0,0
10,10,1000000,1000000,10,1000000,0,0,0
50,50,5000000,5000000,40,4000000,40,4000000,1
1.40E-45,1.40E-45,1.40E-45,1.40E-45,3.40E+38,3.40E+38,0,0,0
1.40E-45,1.40E-45,1.40E-45,1.40E-45,3.40E+38,3.40E+38,0,0,0
10,10,1000000,1000000,10,1000000,0,0,0
10,10,1000000,1000000,10,1000000,0,0,0
1.40E-45,1.40E-45,1.40E-45,1.40E-45,3.40E+38,3.40E+38,0,0,0
20,20,2000000,2000000,10,1000000,10,1000000,1
10,10,1000000,1000000,10,1000000,0,0,0
40,40,4000000,4000000,30,3000000,30,3000000,1
10,10,1000000,1000000,10,1000000,0,0,0
1.40E-45,1.40E-45,1.40E-45,1.40E-45,3.40E+38,3.40E+38,0,0,0
30,30,3000000,3000000,20,2000000,20,2000000,1
20,20,2000000,2000000,10,1000000,10,1000000,1
10,10,1000000,1000000,10,1000000,0,0,0
1.40E-45,1.40E-45,1.40E-45,1.40E-45,3.40E+38,3.40E+38,0,0,0
1.40E-45,1.40E-45,1.40E-45,1.40E-45,3.40E+38,3.40E+38,0,0,0
1.40E-45,1.40E-45,1.40E-45,1.40E-45,3.40E+38,3.40E+38,0,0,0
10,10,1000000,1000000,10,1000000,0,0,0
20,20,2000000,2000000,10,1000000,10,1000000,1
20,20,2000000,2000000,10,1000000,10,1000000,1
30,30,3000000,3000000,20,2000000,20,2000000,1
20,20,2000000,2000000,10,1000000,10,1000000,1
30,30,3000000,3000000,20,2000000,20,2000000,1
1.40E-45,1.40E-45,1.40E-45,1.40E-45,3.40E+38,3.40E+38,0,0,0
20,20,2000000,2000000,10,1000000,10,1000000,1
10,10,1000000,1000000,10,1000000,0,0,0
40,40,4000000,4000000,30,3000000,30,3000000,1
20,20,2000000,2000000,10,1000000,10,1000000,1
10,10,1000000,1000000,10,1000000,0,0,0
10,10,1000000,1000000,10,1000000,0,0,0
10,10,1000000,1000000,10,1000000,0,0,0
10,10,1000000,1000000,10,1000000,0,0,0
20,20,2000000,2000000,10,1000000,10,1000000,1
30,30,3000000,3000000,20,2000000,20,2000000,1
10,10,1000000,1000000,10,1000000,0,0,0
50,50,5000000,5000000,40,4000000,40,4000000,1
30,30,3000000,3000000,20,2000000,20,2000000,1
10,10,1000000,1000000,10,1000000,0,0,0
10,10,1000000,1000000,10,1000000,0,0,0
10,10,1000000,1000000,10,1000000,0,0,0
20,20,2000000,2000000,10,1000000,10,1000000,1
20,20,2000000,2000000,10,1000000,10,1000000,1
20,20,2000000,2000000,10,1000000,10,1000000,1
30,30,3000000,3000000,20,2000000,20,2000000,1
20,20,2000000,2000000,10,1000000,10,1000000,1
20,20,2000000,2000000,10,1000000,10,1000000,1
20,20,2000000,2000000,10,1000000,10,1000000,1
30,30,3000000,3000000,20,2000000,20,2000000,1
20,20,2000000,2000000,10,1000000,10,1000000,1
20,20,2000000,2000000,10,1000000,10,1000000,1
1.40E-45,1.40E-45,1.40E-45,1.40E-45,3.40E+38,3.40E+38,0,0,0
1.40E-45,1.40E-45,1.40E-45,1.40E-45,3.40E+38,3.40E+38,0,0,0
20,20,2000000,2000000,10,1000000,10,1000000,1
30,30,3000000,3000000,20,2000000,20,2000000,1
40,40,4000000,4000000,30,3000000,30,3000000,1
30,30,3000000,3000000,20,2000000,20,2000000,1
20,20,2000000,2000000,10,1000000,10,1000000,1
10,10,1000000,1000000,10,1000000,0,0,0
10,10,1000000,1000000,10,1000000,0,0,0
20,20,2000000,2000000,10,1000000,10,1000000,1
30,30,3000000,3000000,20,2000000,20,2000000,1
30,30,3000000,3000000,20,2000000,20,2000000,1
1.40E-45,1.40E-45,1.40E-45,1.40E-45,3.40E+38,3.40E+38,0,0,0
30,30,3000000,3000000,20,2000000,20,2000000,1
40,40,4000000,4000000,30,3000000,30,3000000,1
20,20,2000000,2000000,10,1000000,10,1000000,1
30,30,3000000,3000000,20,2000000,20,2000000,1
20,20,2000000,2000000,10,1000000,10,1000000,1
20,20,2000000,2000000,10,1000000,10,1000000,1
10,10,1000000,1000000,10,1000000,0,0,0
30,30,3000000,3000000,20,2000000,20,2000000,1
40,40,4000000,4000000,30,3000000,30,3000000,1
20,20,2000000,2000000,10,1000000,10,1000000,1
10,10,1000000,1000000,10,1000000,0,0,0
10,10,1000000,1000000,10,1000000,0,0,0
30,30,3000000,3000000,20,2000000,20,2000000,1
30,30,3000000,3000000,20,2000000,20,2000000,1
10,10,1000000,1000000,10,1000000,0,0,0
10,10,1000000,1000000,10,1000000,0,0,0
30,30,3000000,3000000,20,2000000,20,2000000,1
20,20,2000000,2000000,10,1000000,10,1000000,1
20,20,2000000,2000000,10,1000000,10,1000000,1
20,20,2000000,2000000,10,1000000,10,1000000,1
10,10,1000000,1000000,10,1000000,0,0,0
50,50,5000000,5000000,40,4000000,40,4000000,1
1.40E-45,1.40E-45,1.40E-45,1.40E-45,3.40E+38,3.40E+38,0,0,0
1.40E-45,1.40E-45,1.40E-45,1.40E-45,3.40E+38,3.40E+38,0,0,0
30,30,3000000,3000000,20,2000000,20,2000000,1
50,50,5000000,5000000,40,4000000,40,4000000,1
10,10,1000000,1000000,10,1000000,0,0,0
30,30,3000000,3000000,20,2000000,20,2000000,1
30,30,3000000,3000000,20,2000000,20,2000000,1
10,10,1000000,1000000,10,1000000,0,0,0
10,10,1000000,1000000,10,1000000,0,0,0
20,20,2000000,2000000,10,1000000,10,1000000,1
1.40E-45,1.40E-45,1.40E-45,1.40E-45,3.40E+38,3.40E+38,0,0,0
1.40E-45,1.40E-45,1.40E-45,1.40E-45,3.40E+38,3.40E+38,0,0,0
30,30,3000000,3000000,20,2000000,20,2000000,1
30,30,3000000,3000000,20,2000000,20,2000000,1
1.40E-45,1.40E-45,1.40E-45,1.40E-45,3.40E+38,3.40E+38,0,0,0
20,20,2000000,2000000,10,1000000,10,1000000,1
30,30,3000000,3000000,20,2000000,20,2000000,1
30,30,3000000,3000000,20,2000000,20,2000000,1
30,30,3000000,3000000,20,2000000,20,2000000,1
20,20,2000000,2000000,10,1000000,10,1000000,1
30,30,3000000,3000000,20,2000000,20,2000000,1
30,30,3000000,3000000,20,2000000,20,2000000,1
10,10,1000000,1000000,10,1000000,0,0,0
30,30,3000000,3000000,20,2000000,20,2000000,1
40,40,4000000,4000000,30,3000000,30,3000000,1
10,10,1000000,1000000,10,1000000,0,0,0
40,40,4000000,4000000,30,3000000,30,3000000,1
20,20,2000000,2000000,10,1000000,10,1000000,1
20,20,2000000,2000000,10,1000000,10,1000000,1
10,10,1000000,1000000,10,1000000,0,0,0
20,20,2000000,2000000,10,1000000,10,1000000,1
10,10,1000000,1000000,10,1000000,0,0,0
50,50,5000000,5000000,40,4000000,40,4000000,1
20,20,2000000,2000000,10,1000000,10,1000000,1
10,10,1000000,1000000,10,1000000,0,0,0
10,10,1000000,1000000,10,1000000,0,0,0
10,10,1000000,1000000,10,1000000,0,0,0
30,30,3000000,3000000,20,2000000,20,2000000,1
10,10,1000000,1000000,10,1000000,0,0,0
20,20,2000000,2000000,10,1000000,10,1000000,1
1.40E-45,1.40E-45,1.40E-45,1.40E-45,3.40E+38,3.40E+38,0,0,0
20,20,2000000,2000000,10,1000000,10,1000000,1
20,20,2000000,2000000,10,1000000,10,1000000,1
10,10,1000000,1000000,10,1000000,0,0,0
10,10,1000000,1000000,10,1000000,0,0,0
20,20,2000000,2000000,10,1000000,10,1000000,1
1.40E-45,1.40E-45,1.40E-45,1.40E-45,3.40E+38,3.40E+38,0,0,0
10,10,1000000,1000000,10,1000000,0,0,0
10,10,1000000,1000000,10,1000000,0,0,0
20,20,2000000,2000000,10,1000000,10,1000000,1
1.40E-45,1.40E-45,1.40E-45,1.40E-45,3.40E+38,3.40E+38,0,0,0
20,20,2000000,2000000,10,1000000,10,1000000,1
10,10,1000000,1000000,10,1000000,0,0,0
10,10,1000000,1000000,10,1000000,0,0,0
20,20,2000000,2000000,10,1000000,10,1000000,1
10,10,1000000,1000000,10,1000000,0,0,0
1.40E-45,1.40E-45,1.40E-45,1.40E-45,3.40E+38,3.40E+38,0,0,0
20,20,2000000,2000000,10,1000000,10,1000000,1
10,10,1000000,1000000,10,1000000,0,0,0
30,30,3000000,3000000,20,2000000,20,2000000,1
1.40E-45,1.40E-45,1.40E-45,1.40E-45,3.40E+38,3.40E+38,0,0,0
1.40E-45,1.40E-45,1.40E-45,1.40E-45,3.40E+38,3.40E+38,0,0,0
1.40E-45,1.40E-45,1.40E-45,1.40E-45,3.40E+38,3.40E+38,0,0,0
1.40E-45,1.40E-45,1.40E-45,1.40E-45,3.40E+38,3.40E+38,0,0,0
10,10,1000000,1000000,10,1000000,0,0,0
1.40E-45,1.40E-45,1.40E-45,1.40E-45,3.40E+38,3.40E+38,0,0,0
10,10,1000000,1000000,10,1000000,0,0,0
10,10,1000000,1000000,10,1000000,0,0,0
20,20,2000000,2000000,10,1000000,10,1000000,1
30,30,3000000,3000000,20,2000000,20,2000000,1
10,10,1000000,1000000,10,1000000,0,0,0
1.40E-45,1.40E-45,1.40E-45,1.40E-45,3.40E+38,3.40E+38,0,0,0
1.40E-45,1.40E-45,1.40E-45,1.40E-45,3.40E+38,3.40E+38,0,0,0
10,10,1000000,1000000,10,1000000,0,0,0
10,10,1000000,1000000,10,1000000,0,0,0
30,30,3000000,3000000,20,2000000,20,2000000,1
10,10,1000000,1000000,10,1000000,0,0,0
10,10,1000000,1000000,10,1000000,0,0,0
1.40E-45,1.40E-45,1.40E-45,1.40E-45,3.40E+38,3.40E+38,0,0,0
10,10,1000000,1000000,10,1000000,0,0,0
10,10,1000000,1000000,10,1000000,0,0,0
1.40E-45,1.40E-45,1.40E-45,1.40E-45,3.40E+38,3.40E+38,0,0,0
10,10,1000000,1000000,10,1000000,0,0,0
1.40E-45,1.40E-45,1.40E-45,1.40E-45,3.40E+38,3.40E+38,0,0,0
10,10,1000000,1000000,10,1000000,0,0,0
10,10,1000000,1000000,10,1000000,0,0,0
10,10,1000000,1000000,10,1000000,0,0,0
20,20,2000000,2000000,10,1000000,10,1000000,1
10,10,1000000,1000000,10,1000000,0,0,0
30,30,3000000,3000000,20,2000000,20,2000000,1
10,10,1000000,1000000,10,1000000,0,0,0
10,10,1000000,1000000,10,1000000,0,0,0
1.40E-45,1.40E-45,1.40E-45,1.40E-45,3.40E+38,3.40E+38,0,0,0
20,20,2000000,2000000,10,1000000,10,1000000,1
10,10,1000000,1000000,10,1000000,0,0,0
20,20,2000000,2000000,10,1000000,10,1000000,1
10,10,1000000,1000000,10,1000000,0,0,0
10,10,1000000,1000000,10,1000000,0,0,0
10,10,1000000,1000000,10,1000000,0,0,0
10,10,1000000,1000000,10,1000000,0,0,0
30,30,3000000,3000000,20,2000000,20,2000000,1
20,20,2000000,2000000,10,1000000,10,1000000,1
20,20,2000000,2000000,10,1000000,10,1000000,1
20,20,2000000,2000000,10,1000000,10,1000000,1
10,10,1000000,1000000,10,1000000,0,0,0
1.40E-45,1.40E-45,1.40E-45,1.40E-45,3.40E+38,3.40E+38,0,0,0
10,10,1000000,1000000,10,1000000,0,0,0
50,50,5000000,5000000,40,4000000,40,4000000,1
1.40E-45,1.40E-45,1.40E-45,1.40E-45,3.40E+38,3.40E+38,0,0,0
1.40E-45,1.40E-45,1.40E-45,1.40E-45,3.40E+38,3.40E+38,0,0,0
1.40E-45,1.40E-45,1.40E-45,1.40E-45,3.40E+38,3.40E+38,0,0,0
20,20,2000000,2000000,10,1000000,10,1000000,1
10,10,1000000,1000000,10,1000000,0,0,0
1.40E-45,1.40E-45,1.40E-45,1.40E-45,3.40E+38,3.40E+38,0,0,0
30,30,3000000,3000000,20,2000000,20,2000000,1
10,10,1000000,1000000,10,1000000,0,0,0
1.40E-45,1.40E-45,1.40E-45,1.40E-45,3.40E+38,3.40E+38,0,0,0
10,10,1000000,1000000,10,1000000,0,0,0
1.40E-45,1.40E-45,1.40E-45,1.40E-45,3.40E+38,3.40E+38,0,0,0
1.40E-45,1.40E-45,1.40E-45,1.40E-45,3.40E+38,3.40E+38,0,0,0
30,30,3000000,3000000,20,2000000,20,2000000,1
10,10,1000000,1000000,10,1000000,0,0,0
20,20,2000000,2000000,10,1000000,10,1000000,1
1.40E-45,1.40E-45,1.40E-45,1.40E-45,3.40E+38,3.40E+38,0,0,0
20,20,2000000,2000000,10,1000000,10,1000000,1
1.40E-45,1.40E-45,1.40E-45,1.40E-45,3.40E+38,3.40E+38,0,0,0
10,10,1000000,1000000,10,1000000,0,0,0
20,20,2000000,2000000,10,1000000,10,1000000,1
20,20,2000000,2000000,10,1000000,10,1000000,1
1.40E-45,1.40E-45,1.40E-45,1.40E-45,3.40E+38,3.40E+38,0,0,0
10,10,1000000,1000000,10,1000000,0,0,0
1.40E-45,1.40E-45,1.40E-45,1.40E-45,3.40E+38,3.40E+38,0,0,0
10,10,1000000,1000000,10,1000000,0,0,0
10,10,1000000,1000000,10,1000000,0,0,0
1.40E-45,1.40E-45,1.40E-45,1.40E-45,3.40E+38,3.40E+38,0,0,0
20,20,2000000,2000000,10,1000000,10,1000000,1
1.40E-45,1.40E-45,1.40E-45,1.40E-45,3.40E+38,3.40E+38,0,0,0
10,10,1000000,1000000,10,1000000,0,0,0
10,10,1000000,1000000,10,1000000,0,0,0
20,20,2000000,2000000,10,1000000,10,1000000,1
10,10,1000000,1000000,10,1000000,0,0,0
20,20,2000000,2000000,10,1000000,10,1000000,1
1.40E-45,1.40E-45,1.40E-45,1.40E-45,3.40E+38,3.40E+38,0,0,0
10,10,1000000,1000000,10,1000000,0,0,0
10,10,1000000,1000000,10,1000000,0,0,0
10,10,1000000,1000000,10,1000000,0,0,0
10,10,1000000,1000000,10,1000000,0,0,0
1.40E-45,1.40E-45,1.40E-45,1.40E-45,3.40E+38,3.40E+38,0,0,0
1.40E-45,1.40E-45,1.40E-45,1.40E-45,3.40E+38,3.40E+38,0,0,0
10,10,1000000,1000000,10,1000000,0,0,0
10,10,1000000,1000000,10,1000000,0,0,0
10,10,1000000,1000000,10,1000000,0,0,0
40,40,4000000,4000000,30,3000000,30,3000000,1
1.40E-45,1.40E-45,1.40E-45,1.40E-45,3.40E+38,3.40E+38,0,0,0
10,10,1000000,1000000,10,1000000,0,0,0
10,10,1000000,1000000,10,1000000,0,0,0
1.40E-45,1.40E-45,1.40E-45,1.40E-45,3.40E+38,3.40E+38,0,0,0
20,20,2000000,2000000,10,1000000,10,1000000,1
1.40E-45,1.40E-45,1.40E-45,1.40E-45,3.40E+38,3.40E+38,0,0,0
1.40E-45,1.40E-45,1.40E-45,1.40E-45,3.40E+38,3.40E+38,0,0,0
10,10,1000000,1000000,10,1000000,0,0,0
10,10,1000000,1000000,10,1000000,0,0,0
1.40E-45,1.40E-45,1.40E-45,1.40E-45,3.40E+38,3.40E+38,0,0,0
10,10,1000000,1000000,10,1000000,0,0,0
40,40,4000000,4000000,30,3000000,30,3000000,1
10,10,1000000,1000000,10,1000000,0,0,0
10,10,1000000,1000000,10,1000000,0,0,0
1.40E-45,1.40E-45,1.40E-45,1.40E-45,3.40E+38,3.40E+38,0,0,0
1.40E-45,1.40E-45,1.40E-45,1.40E-45,3.40E+38,3.40E+38,0,0,0
30,30,3000000,3000000,20,2000000,20,2000000,1
1.40E-45,1.40E-45,1.40E-45,1.40E-45,3.40E+38,3.40E+38,0,0,0
10,10,1000000,1000000,10,1000000,0,0,0
20,20,2000000,2000000,10,1000000,10,1000000,1
1.40E-45,1.40E-45,1.40E-45,1.40E-45,3.40E+38,3.40E+38,0,0,0
20,20,2000000,2000000,10,1000000,10,1000000,1
40,40,4000000,4000000,30,3000000,30,3000000,1
10,10,1000000,1000000,10,1000000,0,0,0
1.40E-45,1.40E-45,1.40E-45,1.40E-45,3.40E+38,3.40E+38,0,0,0
20,20,2000000,2000000,10,1000000,10,1000000,1
1.40E-45,1.40E-45,1.40E-45,1.40E-45,3.40E+38,3.40E+38,0,0,0
1.40E-45,1.40E-45,1.40E-45,1.40E-45,3.40E+38,3.40E+38,0,0,0
30,30,3000000,3000000,20,2000000,20,2000000,1
10,10,1000000,1000000,10,1000000,0,0,0
20,20,2000000,2000000,10,1000000,10,1000000,1
40,40,4000000,4000000,30,3000000,30,3000000,1
1.40E-45,1.40E-45,1.40E-45,1.40E-45,3.40E+38,3.40E+38,0,0,0
1.40E-45,1.40E-45,1.40E-45,1.40E-45,3.40E+38,3.40E+38,0,0,0
1.40E-45,1.40E-45,1.40E-45,1.40E-45,3.40E+38,3.40E+38,0,0,0
10,10,1000000,1000000,10,1000000,0,0,0
10,10,1000000,1000000,10,1000000,0,0,0
1.40E-45,1.40E-45,1.40E-45,1.40E-45,3.40E+38,3.40E+38,0,0,0
10,10,1000000,1000000,10,1000000,0,0,0
10,10,1000000,1000000,10,1000000,0,0,0
10,10,1000000,1000000,10,1000000,0,0,0
10,10,1000000,1000000,10,1000000,0,0,0
10,10,1000000,1000000,10,1000000,0,0,0
1.40E-45,1.40E-45,1.40E-45,1.40E-45,3.40E+38,3.40E+38,0,0,0
10,10,1000000,1000000,10,1000000,0,0,0
1.40E-45,1.40E-45,1.40E-45,1.40E-45,3.40E+38,3.40E+38,0,0,0
1.40E-45,1.40E-45,1.40E-45,1.40E-45,3.40E+38,3.40E+38,0,0,0
10,10,1000000,1000000,10,1000000,0,0,0
1.40E-45,1.40E-45,1.40E-45,1.40E-45,3.40E+38,3.40E+38,0,0,0
10,10,1000000,1000000,10,1000000,0,0,0
10,10,1000000,1000000,10,1000000,0,0,0
10,10,1000000,1000000,10,1000000,0,0,0
10,10,1000000,1000000,10,1000000,0,0,0
1.40E-45,1.40E-45,1.40E-45,1.40E-45,3.40E+38,3.40E+38,0,0,0
10,10,1000000,1000000,10,1000000,0,0,0
20,20,2000000,2000000,10,1000000,10,1000000,1
1.40E-45,1.40E-45,1.40E-45,1.40E-45,3.40E+38,3.40E+38,0,0,0
10,10,1000000,1000000,10,1000000,0,0,0
10,10,1000000,1000000,10,1000000,0,0,0
1.40E-45,1.40E-45,1.40E-45,1.40E-45,3.40E+38,3.40E+38,0,0,0
1.40E-45,1.40E-45,1.40E-45,1.40E-45,3.40E+38,3.40E+38,0,0,0
10,10,1000000,1000000,10,1000000,0,0,0
20,20,2000000,2000000,10,1000000,10,1000000,1
10,10,1000000,1000000,10,1000000,0,0,0
10,10,1000000,1000000,10,1000000,0,0,0
10,10,1000000,1000000,10,1000000,0,0,0
10,10,1000000,1000000,10,1000000,0,0,0
10,10,1000000,1000000,10,1000000,0,0,0
1.40E-45,1.40E-45,1.40E-45,1.40E-45,3.40E+38,3.40E+38,0,0,0
20,20,2000000,2000000,10,1000000,10,1000000,1
10,10,1000000,1000000,10,1000000,0,0,0
10,10,1000000,1000000,10,1000000,0,0,0
1.40E-45,1.40E-45,1.40E-45,1.40E-45,3.40E+38,3.40E+38,0,0,0
1.40E-45,1.40E-45,1.40E-45,1.40E-45,3.40E+38,3.40E+38,0,0,0
10,10,1000000,1000000,10,1000000,0,0,0
10,10,1000000,1000000,10,1000000,0,0,0
10,10,1000000,1000000,10,1000000,0,0,0
10,10,1000000,1000000,10,1000000,0,0,0
10,10,1000000,1000000,10,1000000,0,0,0
20,20,2000000,2000000,10,1000000,10,1000000,1
10,10,1000000,1000000,10,1000000,0,0,0
10,10,1000000,1000000,10,1000000,0,0,0
1.40E-45,1.40E-45,1.40E-45,1.40E-45,3.40E+38,3.40E+38,0,0,0
10,10,1000000,1000000,10,1000000,0,0,0
20,20,2000000,2000000,10,1000000,10,1000000,1
10,10,1000000,1000000,10,1000000,0,0,0
10,10,1000000,1000000,10,1000000,0,0,0
1.40E-45,1.40E-45,1.40E-45,1.40E-45,3.40E+38,3.40E+38,0,0,0
10,10,1000000,1000000,10,1000000,0,0,0
10,10,1000000,1000000,10,1000000,0,0,0
