2017-05-06 14:32:18.096 EDT,,,30605,,590e16b2.778d,1,,2017-05-06 14:32:18 EDT,,0,LOG,00000,"ending log output to stderr",,"Future log output will go to log destination ""csvlog"".",,,,,,,""
2017-05-06 14:32:18.097 EDT,,,30607,,590e16b2.778f,1,,2017-05-06 14:32:18 EDT,,0,LOG,00000,"database system was shut down at 2017-05-06 14:32:17 EDT",,,,,,,,,""
2017-05-06 14:32:18.102 EDT,,,30607,,590e16b2.778f,2,,2017-05-06 14:32:18 EDT,,0,LOG,00000,"MultiXact member wraparound protections are now enabled",,,,,,,,,""
2017-05-06 14:32:18.104 EDT,,,30605,,590e16b2.778d,2,,2017-05-06 14:32:18 EDT,,0,LOG,00000,"database system is ready to accept connections",,,,,,,,,""
2017-05-06 14:32:18.104 EDT,,,30611,,590e16b2.7793,1,,2017-05-06 14:32:18 EDT,,0,LOG,00000,"autovacuum launcher started",,,,,,,,,""
2017-05-06 14:32:18.568 EDT,,,30613,"[local]",590e16b2.7795,1,"",2017-05-06 14:32:18 EDT,,0,LOG,08P01,"incomplete startup packet",,,,,,,,,""
2017-05-06 14:32:19.088 EDT,"postgres","postgres",30616,"[local]",590e16b3.7798,1,"idle",2017-05-06 14:32:19 EDT,2/2,0,LOG,00000,"statement: SELECT d.datname as ""Name"",
       pg_catalog.pg_get_userbyid(d.datdba) as ""Owner"",
       pg_catalog.pg_encoding_to_char(d.encoding) as ""Encoding"",
       d.datcollate as ""Collate"",
       d.datctype as ""Ctype"",
       pg_catalog.array_to_string(d.datacl, E'\n') AS ""Access privileges""
FROM pg_catalog.pg_database d
ORDER BY 1;",,,,,,,,,"psql"
2017-05-06 14:32:19.600 EDT,"postgres","postgres",30619,"[local]",590e16b3.779b,1,"idle",2017-05-06 14:32:19 EDT,2/4,0,LOG,00000,"statement: SELECT d.datname as ""Name"",
       pg_catalog.pg_get_userbyid(d.datdba) as ""Owner"",
       pg_catalog.pg_encoding_to_char(d.encoding) as ""Encoding"",
       d.datcollate as ""Collate"",
       d.datctype as ""Ctype"",
       pg_catalog.array_to_string(d.datacl, E'\n') AS ""Access privileges""
FROM pg_catalog.pg_database d
ORDER BY 1;",,,,,,,,,"psql"
2017-05-06 14:32:20.114 EDT,"postgres","postgres",30622,"[local]",590e16b4.779e,1,"idle",2017-05-06 14:32:20 EDT,2/6,0,LOG,00000,"statement: SELECT d.datname as ""Name"",
       pg_catalog.pg_get_userbyid(d.datdba) as ""Owner"",
       pg_catalog.pg_encoding_to_char(d.encoding) as ""Encoding"",
       d.datcollate as ""Collate"",
       d.datctype as ""Ctype"",
       pg_catalog.array_to_string(d.datacl, E'\n') AS ""Access privileges""
FROM pg_catalog.pg_database d
ORDER BY 1;",,,,,,,,,"psql"
2017-05-06 14:32:40.054 EDT,"postgres","tatp",30626,"10.0.0.201:59584",590e16c7.77a2,1,"SET",2017-05-06 14:32:39 EDT,2/10,0,LOG,00000,"execute <unnamed>: SET extra_float_digits = 3",,,,,,,,,""
2017-05-06 14:32:40.126 EDT,"postgres","tatp",30626,"10.0.0.201:59584",590e16c7.77a2,2,"SET",2017-05-06 14:32:39 EDT,2/11,0,LOG,00000,"execute <unnamed>: SET SESSION CHARACTERISTICS AS TRANSACTION ISOLATION LEVEL READ COMMITTED",,,,,,,,,""
2017-05-06 14:32:40.284 EDT,"postgres","tatp",30626,"10.0.0.201:59584",590e16c7.77a2,3,"BEGIN",2017-05-06 14:32:39 EDT,2/12,0,LOG,00000,"execute <unnamed>: BEGIN",,,,,,,,,""
2017-05-06 14:32:40.287 EDT,"postgres","tatp",30626,"10.0.0.201:59584",590e16c7.77a2,4,"UPDATE",2017-05-06 14:32:39 EDT,2/12,0,LOG,00000,"execute <unnamed>: UPDATE ""SUBSCRIBER"" SET bit_1 = $1 WHERE s_id = $2","parameters: $1 = '0', $2 = '51044'",,,,,,,,""
2017-05-06 14:32:40.298 EDT,"postgres","tatp",30626,"10.0.0.201:59584",590e16c7.77a2,5,"UPDATE",2017-05-06 14:32:39 EDT,2/12,1170,LOG,00000,"execute <unnamed>: UPDATE ""SPECIAL_FACILITY"" SET data_a = $1 WHERE s_id = $2 AND sf_type = $3","parameters: $1 = '219', $2 = '51044', $3 = '1'",,,,,,,,""
2017-05-06 14:32:40.403 EDT,"postgres","tatp",30626,"10.0.0.201:59584",590e16c7.77a2,6,"ROLLBACK",2017-05-06 14:32:39 EDT,2/12,1170,LOG,00000,"execute S_1: ROLLBACK",,,,,,,,,""
2017-05-06 14:32:41.259 EDT,"postgres","tatp",30626,"10.0.0.201:59584",590e16c7.77a2,7,"BEGIN",2017-05-06 14:32:39 EDT,2/13,0,LOG,00000,"execute <unnamed>: BEGIN",,,,,,,,,""
2017-05-06 14:32:41.260 EDT,"postgres","tatp",30626,"10.0.0.201:59584",590e16c7.77a2,8,"UPDATE",2017-05-06 14:32:39 EDT,2/13,0,LOG,00000,"execute <unnamed>: UPDATE ""SUBSCRIBER"" SET bit_1 = $1 WHERE s_id = $2","parameters: $1 = '0', $2 = '97945'",,,,,,,,""
2017-05-06 14:32:41.273 EDT,"postgres","tatp",30626,"10.0.0.201:59584",590e16c7.77a2,9,"UPDATE",2017-05-06 14:32:39 EDT,2/13,1171,LOG,00000,"execute <unnamed>: UPDATE ""SPECIAL_FACILITY"" SET data_a = $1 WHERE s_id = $2 AND sf_type = $3","parameters: $1 = '178', $2 = '97945', $3 = '4'",,,,,,,,""
2017-05-06 14:32:41.374 EDT,"postgres","tatp",30626,"10.0.0.201:59584",590e16c7.77a2,10,"COMMIT",2017-05-06 14:32:39 EDT,2/13,1171,LOG,00000,"execute S_2: COMMIT",,,,,,,,,""
2017-05-06 14:32:42.258 EDT,"postgres","tatp",30626,"10.0.0.201:59584",590e16c7.77a2,11,"BEGIN",2017-05-06 14:32:39 EDT,2/14,0,LOG,00000,"execute <unnamed>: BEGIN",,,,,,,,,""
2017-05-06 14:32:42.259 EDT,"postgres","tatp",30626,"10.0.0.201:59584",590e16c7.77a2,12,"UPDATE",2017-05-06 14:32:39 EDT,2/14,0,LOG,00000,"execute <unnamed>: UPDATE ""SUBSCRIBER"" SET bit_1 = $1 WHERE s_id = $2","parameters: $1 = '0', $2 = '98296'",,,,,,,,""
2017-05-06 14:32:42.263 EDT,"postgres","tatp",30626,"10.0.0.201:59584",590e16c7.77a2,13,"UPDATE",2017-05-06 14:32:39 EDT,2/14,1172,LOG,00000,"execute <unnamed>: UPDATE ""SPECIAL_FACILITY"" SET data_a = $1 WHERE s_id = $2 AND sf_type = $3","parameters: $1 = '11', $2 = '98296', $3 = '2'",,,,,,,,""
2017-05-06 14:32:42.366 EDT,"postgres","tatp",30626,"10.0.0.201:59584",590e16c7.77a2,14,"COMMIT",2017-05-06 14:32:39 EDT,2/14,1172,LOG,00000,"execute S_2: COMMIT",,,,,,,,,""
2017-05-06 14:32:43.251 EDT,"postgres","tatp",30626,"10.0.0.201:59584",590e16c7.77a2,15,"BEGIN",2017-05-06 14:32:39 EDT,2/15,0,LOG,00000,"execute <unnamed>: BEGIN",,,,,,,,,""
2017-05-06 14:32:43.252 EDT,"postgres","tatp",30626,"10.0.0.201:59584",590e16c7.77a2,16,"UPDATE",2017-05-06 14:32:39 EDT,2/15,0,LOG,00000,"execute <unnamed>: UPDATE ""SUBSCRIBER"" SET bit_1 = $1 WHERE s_id = $2","parameters: $1 = '1', $2 = '7568'",,,,,,,,""
2017-05-06 14:32:43.256 EDT,"postgres","tatp",30626,"10.0.0.201:59584",590e16c7.77a2,17,"UPDATE",2017-05-06 14:32:39 EDT,2/15,1173,LOG,00000,"execute <unnamed>: UPDATE ""SPECIAL_FACILITY"" SET data_a = $1 WHERE s_id = $2 AND sf_type = $3","parameters: $1 = '37', $2 = '7568', $3 = '3'",,,,,,,,""
2017-05-06 14:32:43.358 EDT,"postgres","tatp",30626,"10.0.0.201:59584",590e16c7.77a2,18,"ROLLBACK",2017-05-06 14:32:39 EDT,2/15,1173,LOG,00000,"execute S_1: ROLLBACK",,,,,,,,,""
2017-05-06 14:32:44.252 EDT,"postgres","tatp",30626,"10.0.0.201:59584",590e16c7.77a2,19,"BEGIN",2017-05-06 14:32:39 EDT,2/16,0,LOG,00000,"execute S_3: BEGIN",,,,,,,,,""
2017-05-06 14:32:44.253 EDT,"postgres","tatp",30626,"10.0.0.201:59584",590e16c7.77a2,20,"UPDATE",2017-05-06 14:32:39 EDT,2/16,0,LOG,00000,"execute S_4: UPDATE ""SUBSCRIBER"" SET bit_1 = $1 WHERE s_id = $2","parameters: $1 = '1', $2 = '72093'",,,,,,,,""
2017-05-06 14:32:44.257 EDT,"postgres","tatp",30626,"10.0.0.201:59584",590e16c7.77a2,21,"UPDATE",2017-05-06 14:32:39 EDT,2/16,1174,LOG,00000,"execute S_5: UPDATE ""SPECIAL_FACILITY"" SET data_a = $1 WHERE s_id = $2 AND sf_type = $3","parameters: $1 = '123', $2 = '72093', $3 = '3'",,,,,,,,""
2017-05-06 14:32:44.357 EDT,"postgres","tatp",30626,"10.0.0.201:59584",590e16c7.77a2,22,"COMMIT",2017-05-06 14:32:39 EDT,2/16,1174,LOG,00000,"execute S_2: COMMIT",,,,,,,,,""
2017-05-06 14:32:45.252 EDT,"postgres","tatp",30626,"10.0.0.201:59584",590e16c7.77a2,23,"BEGIN",2017-05-06 14:32:39 EDT,2/17,0,LOG,00000,"execute S_3: BEGIN",,,,,,,,,""
2017-05-06 14:32:45.252 EDT,"postgres","tatp",30626,"10.0.0.201:59584",590e16c7.77a2,24,"UPDATE",2017-05-06 14:32:39 EDT,2/17,0,LOG,00000,"execute S_4: UPDATE ""SUBSCRIBER"" SET bit_1 = $1 WHERE s_id = $2","parameters: $1 = '0', $2 = '30707'",,,,,,,,""
2017-05-06 14:32:45.356 EDT,"postgres","tatp",30626,"10.0.0.201:59584",590e16c7.77a2,25,"UPDATE",2017-05-06 14:32:39 EDT,2/17,1175,LOG,00000,"execute S_5: UPDATE ""SPECIAL_FACILITY"" SET data_a = $1 WHERE s_id = $2 AND sf_type = $3","parameters: $1 = '87', $2 = '30707', $3 = '2'",,,,,,,,""
2017-05-06 14:32:45.457 EDT,"postgres","tatp",30626,"10.0.0.201:59584",590e16c7.77a2,26,"COMMIT",2017-05-06 14:32:39 EDT,2/17,1175,LOG,00000,"execute S_2: COMMIT",,,,,,,,,""
2017-05-06 14:32:46.251 EDT,"postgres","tatp",30626,"10.0.0.201:59584",590e16c7.77a2,27,"BEGIN",2017-05-06 14:32:39 EDT,2/18,0,LOG,00000,"execute S_3: BEGIN",,,,,,,,,""
2017-05-06 14:32:46.251 EDT,"postgres","tatp",30626,"10.0.0.201:59584",590e16c7.77a2,28,"UPDATE",2017-05-06 14:32:39 EDT,2/18,0,LOG,00000,"execute S_4: UPDATE ""SUBSCRIBER"" SET bit_1 = $1 WHERE s_id = $2","parameters: $1 = '1', $2 = '19849'",,,,,,,,""
2017-05-06 14:32:46.362 EDT,"postgres","tatp",30626,"10.0.0.201:59584",590e16c7.77a2,29,"UPDATE",2017-05-06 14:32:39 EDT,2/18,1176,LOG,00000,"execute S_5: UPDATE ""SPECIAL_FACILITY"" SET data_a = $1 WHERE s_id = $2 AND sf_type = $3","parameters: $1 = '11', $2 = '19849', $3 = '4'",,,,,,,,""
2017-05-06 14:32:46.461 EDT,"postgres","tatp",30626,"10.0.0.201:59584",590e16c7.77a2,30,"COMMIT",2017-05-06 14:32:39 EDT,2/18,1176,LOG,00000,"execute S_2: COMMIT",,,,,,,,,""
2017-05-06 14:32:47.250 EDT,"postgres","tatp",30626,"10.0.0.201:59584",590e16c7.77a2,31,"BEGIN",2017-05-06 14:32:39 EDT,2/19,0,LOG,00000,"execute S_3: BEGIN",,,,,,,,,""
2017-05-06 14:32:47.251 EDT,"postgres","tatp",30626,"10.0.0.201:59584",590e16c7.77a2,32,"UPDATE",2017-05-06 14:32:39 EDT,2/19,0,LOG,00000,"execute S_4: UPDATE ""SUBSCRIBER"" SET bit_1 = $1 WHERE s_id = $2","parameters: $1 = '1', $2 = '25858'",,,,,,,,""
2017-05-06 14:32:47.354 EDT,"postgres","tatp",30626,"10.0.0.201:59584",590e16c7.77a2,33,"UPDATE",2017-05-06 14:32:39 EDT,2/19,1177,LOG,00000,"execute S_5: UPDATE ""SPECIAL_FACILITY"" SET data_a = $1 WHERE s_id = $2 AND sf_type = $3","parameters: $1 = '73', $2 = '25858', $3 = '4'",,,,,,,,""
2017-05-06 14:32:47.486 EDT,"postgres","tatp",30626,"10.0.0.201:59584",590e16c7.77a2,34,"COMMIT",2017-05-06 14:32:39 EDT,2/19,1177,LOG,00000,"execute S_2: COMMIT",,,,,,,,,""
2017-05-06 14:32:48.264 EDT,"postgres","tatp",30626,"10.0.0.201:59584",590e16c7.77a2,35,"BEGIN",2017-05-06 14:32:39 EDT,2/20,0,LOG,00000,"execute S_3: BEGIN",,,,,,,,,""
2017-05-06 14:32:48.264 EDT,"postgres","tatp",30626,"10.0.0.201:59584",590e16c7.77a2,36,"UPDATE",2017-05-06 14:32:39 EDT,2/20,0,LOG,00000,"execute S_4: UPDATE ""SUBSCRIBER"" SET bit_1 = $1 WHERE s_id = $2","parameters: $1 = '0', $2 = '30211'",,,,,,,,""
2017-05-06 14:32:48.376 EDT,"postgres","tatp",30626,"10.0.0.201:59584",590e16c7.77a2,37,"UPDATE",2017-05-06 14:32:39 EDT,2/20,1178,LOG,00000,"execute S_5: UPDATE ""SPECIAL_FACILITY"" SET data_a = $1 WHERE s_id = $2 AND sf_type = $3","parameters: $1 = '222', $2 = '30211', $3 = '4'",,,,,,,,""
2017-05-06 14:32:48.478 EDT,"postgres","tatp",30626,"10.0.0.201:59584",590e16c7.77a2,38,"COMMIT",2017-05-06 14:32:39 EDT,2/20,1178,LOG,00000,"execute S_2: COMMIT",,,,,,,,,""
2017-05-06 14:32:49.259 EDT,"postgres","tatp",30626,"10.0.0.201:59584",590e16c7.77a2,39,"BEGIN",2017-05-06 14:32:39 EDT,2/21,0,LOG,00000,"execute S_3: BEGIN",,,,,,,,,""
2017-05-06 14:32:49.259 EDT,"postgres","tatp",30626,"10.0.0.201:59584",590e16c7.77a2,40,"UPDATE",2017-05-06 14:32:39 EDT,2/21,0,LOG,00000,"execute S_4: UPDATE ""SUBSCRIBER"" SET bit_1 = $1 WHERE s_id = $2","parameters: $1 = '1', $2 = '82603'",,,,,,,,""
2017-05-06 14:32:49.362 EDT,"postgres","tatp",30626,"10.0.0.201:59584",590e16c7.77a2,41,"UPDATE",2017-05-06 14:32:39 EDT,2/21,1179,LOG,00000,"execute S_5: UPDATE ""SPECIAL_FACILITY"" SET data_a = $1 WHERE s_id = $2 AND sf_type = $3","parameters: $1 = '108', $2 = '82603', $3 = '2'",,,,,,,,""
2017-05-06 14:32:49.367 EDT,"postgres","tatp",30626,"10.0.0.201:59584",590e16c7.77a2,42,"ROLLBACK",2017-05-06 14:32:39 EDT,2/21,1179,LOG,00000,"execute S_1: ROLLBACK",,,,,,,,,""
2017-05-06 14:32:50.252 EDT,"postgres","tatp",30626,"10.0.0.201:59584",590e16c7.77a2,43,"BEGIN",2017-05-06 14:32:39 EDT,2/22,0,LOG,00000,"execute S_3: BEGIN",,,,,,,,,""
2017-05-06 14:32:50.252 EDT,"postgres","tatp",30626,"10.0.0.201:59584",590e16c7.77a2,44,"UPDATE",2017-05-06 14:32:39 EDT,2/22,0,LOG,00000,"execute S_4: UPDATE ""SUBSCRIBER"" SET bit_1 = $1 WHERE s_id = $2","parameters: $1 = '1', $2 = '96476'",,,,,,,,""
2017-05-06 14:32:50.359 EDT,"postgres","tatp",30626,"10.0.0.201:59584",590e16c7.77a2,45,"UPDATE",2017-05-06 14:32:39 EDT,2/22,1180,LOG,00000,"execute S_5: UPDATE ""SPECIAL_FACILITY"" SET data_a = $1 WHERE s_id = $2 AND sf_type = $3","parameters: $1 = '246', $2 = '96476', $3 = '4'",,,,,,,,""
2017-05-06 14:32:50.462 EDT,"postgres","tatp",30626,"10.0.0.201:59584",590e16c7.77a2,46,"ROLLBACK",2017-05-06 14:32:39 EDT,2/22,1180,LOG,00000,"execute S_1: ROLLBACK",,,,,,,,,""
2017-05-06 14:32:51.258 EDT,"postgres","tatp",30626,"10.0.0.201:59584",590e16c7.77a2,47,"BEGIN",2017-05-06 14:32:39 EDT,2/23,0,LOG,00000,"execute S_3: BEGIN",,,,,,,,,""
2017-05-06 14:32:51.258 EDT,"postgres","tatp",30626,"10.0.0.201:59584",590e16c7.77a2,48,"UPDATE",2017-05-06 14:32:39 EDT,2/23,0,LOG,00000,"execute S_4: UPDATE ""SUBSCRIBER"" SET bit_1 = $1 WHERE s_id = $2","parameters: $1 = '0', $2 = '86823'",,,,,,,,""
2017-05-06 14:32:51.362 EDT,"postgres","tatp",30626,"10.0.0.201:59584",590e16c7.77a2,49,"UPDATE",2017-05-06 14:32:39 EDT,2/23,1181,LOG,00000,"execute S_5: UPDATE ""SPECIAL_FACILITY"" SET data_a = $1 WHERE s_id = $2 AND sf_type = $3","parameters: $1 = '219', $2 = '86823', $3 = '1'",,,,,,,,""
2017-05-06 14:32:51.462 EDT,"postgres","tatp",30626,"10.0.0.201:59584",590e16c7.77a2,50,"ROLLBACK",2017-05-06 14:32:39 EDT,2/23,1181,LOG,00000,"execute S_1: ROLLBACK",,,,,,,,,""
2017-05-06 14:32:52.255 EDT,"postgres","tatp",30626,"10.0.0.201:59584",590e16c7.77a2,51,"BEGIN",2017-05-06 14:32:39 EDT,2/24,0,LOG,00000,"execute S_3: BEGIN",,,,,,,,,""
2017-05-06 14:32:52.255 EDT,"postgres","tatp",30626,"10.0.0.201:59584",590e16c7.77a2,52,"UPDATE",2017-05-06 14:32:39 EDT,2/24,0,LOG,00000,"execute S_4: UPDATE ""SUBSCRIBER"" SET bit_1 = $1 WHERE s_id = $2","parameters: $1 = '1', $2 = '5577'",,,,,,,,""
2017-05-06 14:32:52.363 EDT,"postgres","tatp",30626,"10.0.0.201:59584",590e16c7.77a2,53,"UPDATE",2017-05-06 14:32:39 EDT,2/24,1182,LOG,00000,"execute S_5: UPDATE ""SPECIAL_FACILITY"" SET data_a = $1 WHERE s_id = $2 AND sf_type = $3","parameters: $1 = '201', $2 = '5577', $3 = '2'",,,,,,,,""
2017-05-06 14:32:52.466 EDT,"postgres","tatp",30626,"10.0.0.201:59584",590e16c7.77a2,54,"ROLLBACK",2017-05-06 14:32:39 EDT,2/24,1182,LOG,00000,"execute S_1: ROLLBACK",,,,,,,,,""
2017-05-06 14:32:53.251 EDT,"postgres","tatp",30626,"10.0.0.201:59584",590e16c7.77a2,55,"BEGIN",2017-05-06 14:32:39 EDT,2/25,0,LOG,00000,"execute S_3: BEGIN",,,,,,,,,""
2017-05-06 14:32:53.252 EDT,"postgres","tatp",30626,"10.0.0.201:59584",590e16c7.77a2,56,"UPDATE",2017-05-06 14:32:39 EDT,2/25,0,LOG,00000,"execute S_4: UPDATE ""SUBSCRIBER"" SET bit_1 = $1 WHERE s_id = $2","parameters: $1 = '1', $2 = '34088'",,,,,,,,""
2017-05-06 14:32:53.355 EDT,"postgres","tatp",30626,"10.0.0.201:59584",590e16c7.77a2,57,"UPDATE",2017-05-06 14:32:39 EDT,2/25,1183,LOG,00000,"execute S_5: UPDATE ""SPECIAL_FACILITY"" SET data_a = $1 WHERE s_id = $2 AND sf_type = $3","parameters: $1 = '130', $2 = '34088', $3 = '4'",,,,,,,,""
2017-05-06 14:32:53.458 EDT,"postgres","tatp",30626,"10.0.0.201:59584",590e16c7.77a2,58,"ROLLBACK",2017-05-06 14:32:39 EDT,2/25,1183,LOG,00000,"execute S_1: ROLLBACK",,,,,,,,,""
2017-05-06 14:32:54.260 EDT,"postgres","tatp",30626,"10.0.0.201:59584",590e16c7.77a2,59,"BEGIN",2017-05-06 14:32:39 EDT,2/26,0,LOG,00000,"execute S_3: BEGIN",,,,,,,,,""
2017-05-06 14:32:54.260 EDT,"postgres","tatp",30626,"10.0.0.201:59584",590e16c7.77a2,60,"UPDATE",2017-05-06 14:32:39 EDT,2/26,0,LOG,00000,"execute S_4: UPDATE ""SUBSCRIBER"" SET bit_1 = $1 WHERE s_id = $2","parameters: $1 = '1', $2 = '24027'",,,,,,,,""
2017-05-06 14:32:54.362 EDT,"postgres","tatp",30626,"10.0.0.201:59584",590e16c7.77a2,61,"UPDATE",2017-05-06 14:32:39 EDT,2/26,1184,LOG,00000,"execute S_5: UPDATE ""SPECIAL_FACILITY"" SET data_a = $1 WHERE s_id = $2 AND sf_type = $3","parameters: $1 = '32', $2 = '24027', $3 = '2'",,,,,,,,""
2017-05-06 14:32:54.466 EDT,"postgres","tatp",30626,"10.0.0.201:59584",590e16c7.77a2,62,"ROLLBACK",2017-05-06 14:32:39 EDT,2/26,1184,LOG,00000,"execute S_1: ROLLBACK",,,,,,,,,""
2017-05-06 14:32:55.251 EDT,"postgres","tatp",30626,"10.0.0.201:59584",590e16c7.77a2,63,"BEGIN",2017-05-06 14:32:39 EDT,2/27,0,LOG,00000,"execute S_3: BEGIN",,,,,,,,,""
2017-05-06 14:32:55.251 EDT,"postgres","tatp",30626,"10.0.0.201:59584",590e16c7.77a2,64,"UPDATE",2017-05-06 14:32:39 EDT,2/27,0,LOG,00000,"execute S_4: UPDATE ""SUBSCRIBER"" SET bit_1 = $1 WHERE s_id = $2","parameters: $1 = '0', $2 = '82049'",,,,,,,,""
2017-05-06 14:32:55.354 EDT,"postgres","tatp",30626,"10.0.0.201:59584",590e16c7.77a2,65,"UPDATE",2017-05-06 14:32:39 EDT,2/27,1185,LOG,00000,"execute S_5: UPDATE ""SPECIAL_FACILITY"" SET data_a = $1 WHERE s_id = $2 AND sf_type = $3","parameters: $1 = '85', $2 = '82049', $3 = '3'",,,,,,,,""
2017-05-06 14:32:55.458 EDT,"postgres","tatp",30626,"10.0.0.201:59584",590e16c7.77a2,66,"COMMIT",2017-05-06 14:32:39 EDT,2/27,1185,LOG,00000,"execute S_2: COMMIT",,,,,,,,,""
2017-05-06 14:32:56.250 EDT,"postgres","tatp",30626,"10.0.0.201:59584",590e16c7.77a2,67,"BEGIN",2017-05-06 14:32:39 EDT,2/28,0,LOG,00000,"execute S_3: BEGIN",,,,,,,,,""
2017-05-06 14:32:56.250 EDT,"postgres","tatp",30626,"10.0.0.201:59584",590e16c7.77a2,68,"UPDATE",2017-05-06 14:32:39 EDT,2/28,0,LOG,00000,"execute S_4: UPDATE ""SUBSCRIBER"" SET bit_1 = $1 WHERE s_id = $2","parameters: $1 = '1', $2 = '82310'",,,,,,,,""
2017-05-06 14:32:56.354 EDT,"postgres","tatp",30626,"10.0.0.201:59584",590e16c7.77a2,69,"UPDATE",2017-05-06 14:32:39 EDT,2/28,1186,LOG,00000,"execute S_5: UPDATE ""SPECIAL_FACILITY"" SET data_a = $1 WHERE s_id = $2 AND sf_type = $3","parameters: $1 = '147', $2 = '82310', $3 = '2'",,,,,,,,""
2017-05-06 14:32:56.460 EDT,"postgres","tatp",30626,"10.0.0.201:59584",590e16c7.77a2,70,"COMMIT",2017-05-06 14:32:39 EDT,2/28,1186,LOG,00000,"execute S_2: COMMIT",,,,,,,,,""
2017-05-06 14:32:57.250 EDT,"postgres","tatp",30626,"10.0.0.201:59584",590e16c7.77a2,71,"BEGIN",2017-05-06 14:32:39 EDT,2/29,0,LOG,00000,"execute S_3: BEGIN",,,,,,,,,""
2017-05-06 14:32:57.250 EDT,"postgres","tatp",30626,"10.0.0.201:59584",590e16c7.77a2,72,"UPDATE",2017-05-06 14:32:39 EDT,2/29,0,LOG,00000,"execute S_4: UPDATE ""SUBSCRIBER"" SET bit_1 = $1 WHERE s_id = $2","parameters: $1 = '0', $2 = '70180'",,,,,,,,""
2017-05-06 14:32:57.354 EDT,"postgres","tatp",30626,"10.0.0.201:59584",590e16c7.77a2,73,"UPDATE",2017-05-06 14:32:39 EDT,2/29,1187,LOG,00000,"execute S_5: UPDATE ""SPECIAL_FACILITY"" SET data_a = $1 WHERE s_id = $2 AND sf_type = $3","parameters: $1 = '57', $2 = '70180', $3 = '2'",,,,,,,,""
2017-05-06 14:32:57.458 EDT,"postgres","tatp",30626,"10.0.0.201:59584",590e16c7.77a2,74,"ROLLBACK",2017-05-06 14:32:39 EDT,2/29,1187,LOG,00000,"execute S_1: ROLLBACK",,,,,,,,,""
2017-05-06 14:32:58.257 EDT,"postgres","tatp",30626,"10.0.0.201:59584",590e16c7.77a2,75,"BEGIN",2017-05-06 14:32:39 EDT,2/30,0,LOG,00000,"execute S_3: BEGIN",,,,,,,,,""
2017-05-06 14:32:58.257 EDT,"postgres","tatp",30626,"10.0.0.201:59584",590e16c7.77a2,76,"UPDATE",2017-05-06 14:32:39 EDT,2/30,0,LOG,00000,"execute S_4: UPDATE ""SUBSCRIBER"" SET bit_1 = $1 WHERE s_id = $2","parameters: $1 = '1', $2 = '95301'",,,,,,,,""
2017-05-06 14:32:58.360 EDT,"postgres","tatp",30626,"10.0.0.201:59584",590e16c7.77a2,77,"UPDATE",2017-05-06 14:32:39 EDT,2/30,1188,LOG,00000,"execute S_5: UPDATE ""SPECIAL_FACILITY"" SET data_a = $1 WHERE s_id = $2 AND sf_type = $3","parameters: $1 = '155', $2 = '95301', $3 = '2'",,,,,,,,""
2017-05-06 14:32:58.463 EDT,"postgres","tatp",30626,"10.0.0.201:59584",590e16c7.77a2,78,"ROLLBACK",2017-05-06 14:32:39 EDT,2/30,1188,LOG,00000,"execute S_1: ROLLBACK",,,,,,,,,""
2017-05-06 14:32:59.265 EDT,"postgres","tatp",30626,"10.0.0.201:59584",590e16c7.77a2,79,"BEGIN",2017-05-06 14:32:39 EDT,2/31,0,LOG,00000,"execute S_3: BEGIN",,,,,,,,,""
2017-05-06 14:32:59.265 EDT,"postgres","tatp",30626,"10.0.0.201:59584",590e16c7.77a2,80,"UPDATE",2017-05-06 14:32:39 EDT,2/31,0,LOG,00000,"execute S_4: UPDATE ""SUBSCRIBER"" SET bit_1 = $1 WHERE s_id = $2","parameters: $1 = '1', $2 = '66436'",,,,,,,,""
2017-05-06 14:32:59.270 EDT,"postgres","tatp",30626,"10.0.0.201:59584",590e16c7.77a2,81,"UPDATE",2017-05-06 14:32:39 EDT,2/31,1189,LOG,00000,"execute S_5: UPDATE ""SPECIAL_FACILITY"" SET data_a = $1 WHERE s_id = $2 AND sf_type = $3","parameters: $1 = '49', $2 = '66436', $3 = '2'",,,,,,,,""
2017-05-06 14:32:59.374 EDT,"postgres","tatp",30626,"10.0.0.201:59584",590e16c7.77a2,82,"COMMIT",2017-05-06 14:32:39 EDT,2/31,1189,LOG,00000,"execute S_2: COMMIT",,,,,,,,,""
2017-05-06 14:33:00.250 EDT,"postgres","tatp",30626,"10.0.0.201:59584",590e16c7.77a2,83,"BEGIN",2017-05-06 14:32:39 EDT,2/32,0,LOG,00000,"execute S_3: BEGIN",,,,,,,,,""
2017-05-06 14:33:00.250 EDT,"postgres","tatp",30626,"10.0.0.201:59584",590e16c7.77a2,84,"UPDATE",2017-05-06 14:32:39 EDT,2/32,0,LOG,00000,"execute S_4: UPDATE ""SUBSCRIBER"" SET bit_1 = $1 WHERE s_id = $2","parameters: $1 = '0', $2 = '51150'",,,,,,,,""
2017-05-06 14:33:00.354 EDT,"postgres","tatp",30626,"10.0.0.201:59584",590e16c7.77a2,85,"UPDATE",2017-05-06 14:32:39 EDT,2/32,1190,LOG,00000,"execute S_5: UPDATE ""SPECIAL_FACILITY"" SET data_a = $1 WHERE s_id = $2 AND sf_type = $3","parameters: $1 = '104', $2 = '51150', $3 = '3'",,,,,,,,""
2017-05-06 14:33:00.455 EDT,"postgres","tatp",30626,"10.0.0.201:59584",590e16c7.77a2,86,"COMMIT",2017-05-06 14:32:39 EDT,2/32,1190,LOG,00000,"execute S_2: COMMIT",,,,,,,,,""
2017-05-06 14:33:01.251 EDT,"postgres","tatp",30626,"10.0.0.201:59584",590e16c7.77a2,87,"BEGIN",2017-05-06 14:32:39 EDT,2/33,0,LOG,00000,"execute S_3: BEGIN",,,,,,,,,""
2017-05-06 14:33:01.252 EDT,"postgres","tatp",30626,"10.0.0.201:59584",590e16c7.77a2,88,"UPDATE",2017-05-06 14:32:39 EDT,2/33,0,LOG,00000,"execute S_4: UPDATE ""SUBSCRIBER"" SET bit_1 = $1 WHERE s_id = $2","parameters: $1 = '1', $2 = '23605'",,,,,,,,""
2017-05-06 14:33:01.355 EDT,"postgres","tatp",30626,"10.0.0.201:59584",590e16c7.77a2,89,"UPDATE",2017-05-06 14:32:39 EDT,2/33,1191,LOG,00000,"execute S_5: UPDATE ""SPECIAL_FACILITY"" SET data_a = $1 WHERE s_id = $2 AND sf_type = $3","parameters: $1 = '208', $2 = '23605', $3 = '3'",,,,,,,,""
2017-05-06 14:33:01.458 EDT,"postgres","tatp",30626,"10.0.0.201:59584",590e16c7.77a2,90,"COMMIT",2017-05-06 14:32:39 EDT,2/33,1191,LOG,00000,"execute S_2: COMMIT",,,,,,,,,""
2017-05-06 14:33:02.250 EDT,"postgres","tatp",30626,"10.0.0.201:59584",590e16c7.77a2,91,"BEGIN",2017-05-06 14:32:39 EDT,2/34,0,LOG,00000,"execute S_3: BEGIN",,,,,,,,,""
2017-05-06 14:33:02.250 EDT,"postgres","tatp",30626,"10.0.0.201:59584",590e16c7.77a2,92,"UPDATE",2017-05-06 14:32:39 EDT,2/34,0,LOG,00000,"execute S_4: UPDATE ""SUBSCRIBER"" SET bit_1 = $1 WHERE s_id = $2","parameters: $1 = '1', $2 = '69148'",,,,,,,,""
2017-05-06 14:33:02.354 EDT,"postgres","tatp",30626,"10.0.0.201:59584",590e16c7.77a2,93,"UPDATE",2017-05-06 14:32:39 EDT,2/34,1192,LOG,00000,"execute S_5: UPDATE ""SPECIAL_FACILITY"" SET data_a = $1 WHERE s_id = $2 AND sf_type = $3","parameters: $1 = '240', $2 = '69148', $3 = '2'",,,,,,,,""
2017-05-06 14:33:02.459 EDT,"postgres","tatp",30626,"10.0.0.201:59584",590e16c7.77a2,94,"ROLLBACK",2017-05-06 14:32:39 EDT,2/34,1192,LOG,00000,"execute S_1: ROLLBACK",,,,,,,,,""
2017-05-06 14:33:03.250 EDT,"postgres","tatp",30626,"10.0.0.201:59584",590e16c7.77a2,95,"BEGIN",2017-05-06 14:32:39 EDT,2/35,0,LOG,00000,"execute S_3: BEGIN",,,,,,,,,""
2017-05-06 14:33:03.250 EDT,"postgres","tatp",30626,"10.0.0.201:59584",590e16c7.77a2,96,"UPDATE",2017-05-06 14:32:39 EDT,2/35,0,LOG,00000,"execute S_4: UPDATE ""SUBSCRIBER"" SET bit_1 = $1 WHERE s_id = $2","parameters: $1 = '1', $2 = '29449'",,,,,,,,""
2017-05-06 14:33:03.356 EDT,"postgres","tatp",30626,"10.0.0.201:59584",590e16c7.77a2,97,"UPDATE",2017-05-06 14:32:39 EDT,2/35,1193,LOG,00000,"execute S_5: UPDATE ""SPECIAL_FACILITY"" SET data_a = $1 WHERE s_id = $2 AND sf_type = $3","parameters: $1 = '161', $2 = '29449', $3 = '4'",,,,,,,,""
2017-05-06 14:33:03.460 EDT,"postgres","tatp",30626,"10.0.0.201:59584",590e16c7.77a2,98,"ROLLBACK",2017-05-06 14:32:39 EDT,2/35,1193,LOG,00000,"execute S_1: ROLLBACK",,,,,,,,,""
2017-05-06 14:33:04.258 EDT,"postgres","tatp",30626,"10.0.0.201:59584",590e16c7.77a2,99,"BEGIN",2017-05-06 14:32:39 EDT,2/36,0,LOG,00000,"execute S_3: BEGIN",,,,,,,,,""
2017-05-06 14:33:04.259 EDT,"postgres","tatp",30626,"10.0.0.201:59584",590e16c7.77a2,100,"UPDATE",2017-05-06 14:32:39 EDT,2/36,0,LOG,00000,"execute S_4: UPDATE ""SUBSCRIBER"" SET bit_1 = $1 WHERE s_id = $2","parameters: $1 = '1', $2 = '2650'",,,,,,,,""
2017-05-06 14:33:04.363 EDT,"postgres","tatp",30626,"10.0.0.201:59584",590e16c7.77a2,101,"UPDATE",2017-05-06 14:32:39 EDT,2/36,1194,LOG,00000,"execute S_5: UPDATE ""SPECIAL_FACILITY"" SET data_a = $1 WHERE s_id = $2 AND sf_type = $3","parameters: $1 = '16', $2 = '2650', $3 = '3'",,,,,,,,""
2017-05-06 14:33:04.466 EDT,"postgres","tatp",30626,"10.0.0.201:59584",590e16c7.77a2,102,"ROLLBACK",2017-05-06 14:32:39 EDT,2/36,1194,LOG,00000,"execute S_1: ROLLBACK",,,,,,,,,""
2017-05-06 14:33:05.250 EDT,"postgres","tatp",30626,"10.0.0.201:59584",590e16c7.77a2,103,"BEGIN",2017-05-06 14:32:39 EDT,2/37,0,LOG,00000,"execute S_3: BEGIN",,,,,,,,,""
2017-05-06 14:33:05.250 EDT,"postgres","tatp",30626,"10.0.0.201:59584",590e16c7.77a2,104,"UPDATE",2017-05-06 14:32:39 EDT,2/37,0,LOG,00000,"execute S_4: UPDATE ""SUBSCRIBER"" SET bit_1 = $1 WHERE s_id = $2","parameters: $1 = '1', $2 = '22607'",,,,,,,,""
2017-05-06 14:33:05.350 EDT,"postgres","tatp",30626,"10.0.0.201:59584",590e16c7.77a2,105,"UPDATE",2017-05-06 14:32:39 EDT,2/37,1195,LOG,00000,"execute S_5: UPDATE ""SPECIAL_FACILITY"" SET data_a = $1 WHERE s_id = $2 AND sf_type = $3","parameters: $1 = '160', $2 = '22607', $3 = '2'",,,,,,,,""
2017-05-06 14:33:05.451 EDT,"postgres","tatp",30626,"10.0.0.201:59584",590e16c7.77a2,106,"COMMIT",2017-05-06 14:32:39 EDT,2/37,1195,LOG,00000,"execute S_2: COMMIT",,,,,,,,,""
2017-05-06 14:33:06.251 EDT,"postgres","tatp",30626,"10.0.0.201:59584",590e16c7.77a2,107,"BEGIN",2017-05-06 14:32:39 EDT,2/38,0,LOG,00000,"execute S_3: BEGIN",,,,,,,,,""
2017-05-06 14:33:06.251 EDT,"postgres","tatp",30626,"10.0.0.201:59584",590e16c7.77a2,108,"UPDATE",2017-05-06 14:32:39 EDT,2/38,0,LOG,00000,"execute S_4: UPDATE ""SUBSCRIBER"" SET bit_1 = $1 WHERE s_id = $2","parameters: $1 = '0', $2 = '92365'",,,,,,,,""
2017-05-06 14:33:06.361 EDT,"postgres","tatp",30626,"10.0.0.201:59584",590e16c7.77a2,109,"UPDATE",2017-05-06 14:32:39 EDT,2/38,1196,LOG,00000,"execute S_5: UPDATE ""SPECIAL_FACILITY"" SET data_a = $1 WHERE s_id = $2 AND sf_type = $3","parameters: $1 = '38', $2 = '92365', $3 = '1'",,,,,,,,""
2017-05-06 14:33:06.462 EDT,"postgres","tatp",30626,"10.0.0.201:59584",590e16c7.77a2,110,"ROLLBACK",2017-05-06 14:32:39 EDT,2/38,1196,LOG,00000,"execute S_1: ROLLBACK",,,,,,,,,""
2017-05-06 14:33:07.250 EDT,"postgres","tatp",30626,"10.0.0.201:59584",590e16c7.77a2,111,"BEGIN",2017-05-06 14:32:39 EDT,2/39,0,LOG,00000,"execute S_3: BEGIN",,,,,,,,,""
2017-05-06 14:33:07.250 EDT,"postgres","tatp",30626,"10.0.0.201:59584",590e16c7.77a2,112,"UPDATE",2017-05-06 14:32:39 EDT,2/39,0,LOG,00000,"execute S_4: UPDATE ""SUBSCRIBER"" SET bit_1 = $1 WHERE s_id = $2","parameters: $1 = '0', $2 = '44135'",,,,,,,,""
2017-05-06 14:33:07.356 EDT,"postgres","tatp",30626,"10.0.0.201:59584",590e16c7.77a2,113,"UPDATE",2017-05-06 14:32:39 EDT,2/39,1197,LOG,00000,"execute S_5: UPDATE ""SPECIAL_FACILITY"" SET data_a = $1 WHERE s_id = $2 AND sf_type = $3","parameters: $1 = '117', $2 = '44135', $3 = '3'",,,,,,,,""
2017-05-06 14:33:07.472 EDT,"postgres","tatp",30626,"10.0.0.201:59584",590e16c7.77a2,114,"COMMIT",2017-05-06 14:32:39 EDT,2/39,1197,LOG,00000,"execute S_2: COMMIT",,,,,,,,,""
2017-05-06 14:33:08.259 EDT,"postgres","tatp",30626,"10.0.0.201:59584",590e16c7.77a2,115,"BEGIN",2017-05-06 14:32:39 EDT,2/40,0,LOG,00000,"execute S_3: BEGIN",,,,,,,,,""
2017-05-06 14:33:08.259 EDT,"postgres","tatp",30626,"10.0.0.201:59584",590e16c7.77a2,116,"UPDATE",2017-05-06 14:32:39 EDT,2/40,0,LOG,00000,"execute S_4: UPDATE ""SUBSCRIBER"" SET bit_1 = $1 WHERE s_id = $2","parameters: $1 = '0', $2 = '87261'",,,,,,,,""
2017-05-06 14:33:08.276 EDT,"postgres","tatp",30626,"10.0.0.201:59584",590e16c7.77a2,117,"UPDATE",2017-05-06 14:32:39 EDT,2/40,1198,LOG,00000,"execute S_5: UPDATE ""SPECIAL_FACILITY"" SET data_a = $1 WHERE s_id = $2 AND sf_type = $3","parameters: $1 = '178', $2 = '87261', $3 = '2'",,,,,,,,""
2017-05-06 14:33:08.379 EDT,"postgres","tatp",30626,"10.0.0.201:59584",590e16c7.77a2,118,"COMMIT",2017-05-06 14:32:39 EDT,2/40,1198,LOG,00000,"execute S_2: COMMIT",,,,,,,,,""
2017-05-06 14:33:09.253 EDT,"postgres","tatp",30626,"10.0.0.201:59584",590e16c7.77a2,119,"BEGIN",2017-05-06 14:32:39 EDT,2/41,0,LOG,00000,"execute S_3: BEGIN",,,,,,,,,""
2017-05-06 14:33:09.253 EDT,"postgres","tatp",30626,"10.0.0.201:59584",590e16c7.77a2,120,"UPDATE",2017-05-06 14:32:39 EDT,2/41,0,LOG,00000,"execute S_4: UPDATE ""SUBSCRIBER"" SET bit_1 = $1 WHERE s_id = $2","parameters: $1 = '0', $2 = '96586'",,,,,,,,""
2017-05-06 14:33:09.362 EDT,"postgres","tatp",30626,"10.0.0.201:59584",590e16c7.77a2,121,"UPDATE",2017-05-06 14:32:39 EDT,2/41,1199,LOG,00000,"execute S_5: UPDATE ""SPECIAL_FACILITY"" SET data_a = $1 WHERE s_id = $2 AND sf_type = $3","parameters: $1 = '255', $2 = '96586', $3 = '2'",,,,,,,,""
2017-05-06 14:33:09.466 EDT,"postgres","tatp",30626,"10.0.0.201:59584",590e16c7.77a2,122,"COMMIT",2017-05-06 14:32:39 EDT,2/41,1199,LOG,00000,"execute S_2: COMMIT",,,,,,,,,""
2017-05-06 14:33:10.261 EDT,"postgres","tatp",30626,"10.0.0.201:59584",590e16c7.77a2,123,"BEGIN",2017-05-06 14:32:39 EDT,2/42,0,LOG,00000,"execute S_3: BEGIN",,,,,,,,,""
2017-05-06 14:33:10.261 EDT,"postgres","tatp",30626,"10.0.0.201:59584",590e16c7.77a2,124,"UPDATE",2017-05-06 14:32:39 EDT,2/42,0,LOG,00000,"execute S_4: UPDATE ""SUBSCRIBER"" SET bit_1 = $1 WHERE s_id = $2","parameters: $1 = '0', $2 = '46775'",,,,,,,,""
2017-05-06 14:33:10.363 EDT,"postgres","tatp",30626,"10.0.0.201:59584",590e16c7.77a2,125,"UPDATE",2017-05-06 14:32:39 EDT,2/42,1200,LOG,00000,"execute S_5: UPDATE ""SPECIAL_FACILITY"" SET data_a = $1 WHERE s_id = $2 AND sf_type = $3","parameters: $1 = '59', $2 = '46775', $3 = '1'",,,,,,,,""
2017-05-06 14:33:10.473 EDT,"postgres","tatp",30626,"10.0.0.201:59584",590e16c7.77a2,126,"COMMIT",2017-05-06 14:32:39 EDT,2/42,1200,LOG,00000,"execute S_2: COMMIT",,,,,,,,,""
2017-05-06 14:33:11.250 EDT,"postgres","tatp",30626,"10.0.0.201:59584",590e16c7.77a2,127,"BEGIN",2017-05-06 14:32:39 EDT,2/43,0,LOG,00000,"execute S_3: BEGIN",,,,,,,,,""
2017-05-06 14:33:11.251 EDT,"postgres","tatp",30626,"10.0.0.201:59584",590e16c7.77a2,128,"UPDATE",2017-05-06 14:32:39 EDT,2/43,0,LOG,00000,"execute S_4: UPDATE ""SUBSCRIBER"" SET bit_1 = $1 WHERE s_id = $2","parameters: $1 = '1', $2 = '93643'",,,,,,,,""
2017-05-06 14:33:11.354 EDT,"postgres","tatp",30626,"10.0.0.201:59584",590e16c7.77a2,129,"UPDATE",2017-05-06 14:32:39 EDT,2/43,1201,LOG,00000,"execute S_5: UPDATE ""SPECIAL_FACILITY"" SET data_a = $1 WHERE s_id = $2 AND sf_type = $3","parameters: $1 = '217', $2 = '93643', $3 = '1'",,,,,,,,""
2017-05-06 14:33:11.464 EDT,"postgres","tatp",30626,"10.0.0.201:59584",590e16c7.77a2,130,"ROLLBACK",2017-05-06 14:32:39 EDT,2/43,1201,LOG,00000,"execute S_1: ROLLBACK",,,,,,,,,""
2017-05-06 14:33:12.250 EDT,"postgres","tatp",30626,"10.0.0.201:59584",590e16c7.77a2,131,"BEGIN",2017-05-06 14:32:39 EDT,2/44,0,LOG,00000,"execute S_3: BEGIN",,,,,,,,,""
2017-05-06 14:33:12.250 EDT,"postgres","tatp",30626,"10.0.0.201:59584",590e16c7.77a2,132,"UPDATE",2017-05-06 14:32:39 EDT,2/44,0,LOG,00000,"execute S_4: UPDATE ""SUBSCRIBER"" SET bit_1 = $1 WHERE s_id = $2","parameters: $1 = '1', $2 = '92041'",,,,,,,,""
2017-05-06 14:33:12.351 EDT,"postgres","tatp",30626,"10.0.0.201:59584",590e16c7.77a2,133,"UPDATE",2017-05-06 14:32:39 EDT,2/44,1202,LOG,00000,"execute S_5: UPDATE ""SPECIAL_FACILITY"" SET data_a = $1 WHERE s_id = $2 AND sf_type = $3","parameters: $1 = '9', $2 = '92041', $3 = '2'",,,,,,,,""
2017-05-06 14:33:12.454 EDT,"postgres","tatp",30626,"10.0.0.201:59584",590e16c7.77a2,134,"ROLLBACK",2017-05-06 14:32:39 EDT,2/44,1202,LOG,00000,"execute S_1: ROLLBACK",,,,,,,,,""
2017-05-06 14:33:13.255 EDT,"postgres","tatp",30626,"10.0.0.201:59584",590e16c7.77a2,135,"BEGIN",2017-05-06 14:32:39 EDT,2/45,0,LOG,00000,"execute S_3: BEGIN",,,,,,,,,""
2017-05-06 14:33:13.255 EDT,"postgres","tatp",30626,"10.0.0.201:59584",590e16c7.77a2,136,"UPDATE",2017-05-06 14:32:39 EDT,2/45,0,LOG,00000,"execute S_4: UPDATE ""SUBSCRIBER"" SET bit_1 = $1 WHERE s_id = $2","parameters: $1 = '0', $2 = '68218'",,,,,,,,""
2017-05-06 14:33:13.359 EDT,"postgres","tatp",30626,"10.0.0.201:59584",590e16c7.77a2,137,"UPDATE",2017-05-06 14:32:39 EDT,2/45,1203,LOG,00000,"execute S_5: UPDATE ""SPECIAL_FACILITY"" SET data_a = $1 WHERE s_id = $2 AND sf_type = $3","parameters: $1 = '202', $2 = '68218', $3 = '2'",,,,,,,,""
2017-05-06 14:33:13.478 EDT,"postgres","tatp",30626,"10.0.0.201:59584",590e16c7.77a2,138,"ROLLBACK",2017-05-06 14:32:39 EDT,2/45,1203,LOG,00000,"execute S_1: ROLLBACK",,,,,,,,,""
2017-05-06 14:33:14.255 EDT,"postgres","tatp",30626,"10.0.0.201:59584",590e16c7.77a2,139,"BEGIN",2017-05-06 14:32:39 EDT,2/46,0,LOG,00000,"execute S_3: BEGIN",,,,,,,,,""
2017-05-06 14:33:14.255 EDT,"postgres","tatp",30626,"10.0.0.201:59584",590e16c7.77a2,140,"UPDATE",2017-05-06 14:32:39 EDT,2/46,0,LOG,00000,"execute S_4: UPDATE ""SUBSCRIBER"" SET bit_1 = $1 WHERE s_id = $2","parameters: $1 = '1', $2 = '16588'",,,,,,,,""
2017-05-06 14:33:14.360 EDT,"postgres","tatp",30626,"10.0.0.201:59584",590e16c7.77a2,141,"UPDATE",2017-05-06 14:32:39 EDT,2/46,1204,LOG,00000,"execute S_5: UPDATE ""SPECIAL_FACILITY"" SET data_a = $1 WHERE s_id = $2 AND sf_type = $3","parameters: $1 = '42', $2 = '16588', $3 = '2'",,,,,,,,""
2017-05-06 14:33:14.462 EDT,"postgres","tatp",30626,"10.0.0.201:59584",590e16c7.77a2,142,"ROLLBACK",2017-05-06 14:32:39 EDT,2/46,1204,LOG,00000,"execute S_1: ROLLBACK",,,,,,,,,""
2017-05-06 14:33:15.252 EDT,"postgres","tatp",30626,"10.0.0.201:59584",590e16c7.77a2,143,"BEGIN",2017-05-06 14:32:39 EDT,2/47,0,LOG,00000,"execute S_3: BEGIN",,,,,,,,,""
2017-05-06 14:33:15.252 EDT,"postgres","tatp",30626,"10.0.0.201:59584",590e16c7.77a2,144,"UPDATE",2017-05-06 14:32:39 EDT,2/47,0,LOG,00000,"execute S_4: UPDATE ""SUBSCRIBER"" SET bit_1 = $1 WHERE s_id = $2","parameters: $1 = '1', $2 = '1073'",,,,,,,,""
2017-05-06 14:33:15.358 EDT,"postgres","tatp",30626,"10.0.0.201:59584",590e16c7.77a2,145,"UPDATE",2017-05-06 14:32:39 EDT,2/47,1205,LOG,00000,"execute S_5: UPDATE ""SPECIAL_FACILITY"" SET data_a = $1 WHERE s_id = $2 AND sf_type = $3","parameters: $1 = '141', $2 = '1073', $3 = '4'",,,,,,,,""
2017-05-06 14:33:15.459 EDT,"postgres","tatp",30626,"10.0.0.201:59584",590e16c7.77a2,146,"ROLLBACK",2017-05-06 14:32:39 EDT,2/47,1205,LOG,00000,"execute S_1: ROLLBACK",,,,,,,,,""
2017-05-06 14:33:16.252 EDT,"postgres","tatp",30626,"10.0.0.201:59584",590e16c7.77a2,147,"BEGIN",2017-05-06 14:32:39 EDT,2/48,0,LOG,00000,"execute S_3: BEGIN",,,,,,,,,""
2017-05-06 14:33:16.252 EDT,"postgres","tatp",30626,"10.0.0.201:59584",590e16c7.77a2,148,"UPDATE",2017-05-06 14:32:39 EDT,2/48,0,LOG,00000,"execute S_4: UPDATE ""SUBSCRIBER"" SET bit_1 = $1 WHERE s_id = $2","parameters: $1 = '1', $2 = '51293'",,,,,,,,""
2017-05-06 14:33:16.358 EDT,"postgres","tatp",30626,"10.0.0.201:59584",590e16c7.77a2,149,"UPDATE",2017-05-06 14:32:39 EDT,2/48,1206,LOG,00000,"execute S_5: UPDATE ""SPECIAL_FACILITY"" SET data_a = $1 WHERE s_id = $2 AND sf_type = $3","parameters: $1 = '41', $2 = '51293', $3 = '1'",,,,,,,,""
2017-05-06 14:33:16.459 EDT,"postgres","tatp",30626,"10.0.0.201:59584",590e16c7.77a2,150,"ROLLBACK",2017-05-06 14:32:39 EDT,2/48,1206,LOG,00000,"execute S_1: ROLLBACK",,,,,,,,,""
2017-05-06 14:33:17.250 EDT,"postgres","tatp",30626,"10.0.0.201:59584",590e16c7.77a2,151,"BEGIN",2017-05-06 14:32:39 EDT,2/49,0,LOG,00000,"execute S_3: BEGIN",,,,,,,,,""
2017-05-06 14:33:17.250 EDT,"postgres","tatp",30626,"10.0.0.201:59584",590e16c7.77a2,152,"UPDATE",2017-05-06 14:32:39 EDT,2/49,0,LOG,00000,"execute S_4: UPDATE ""SUBSCRIBER"" SET bit_1 = $1 WHERE s_id = $2","parameters: $1 = '0', $2 = '16753'",,,,,,,,""
2017-05-06 14:33:17.350 EDT,"postgres","tatp",30626,"10.0.0.201:59584",590e16c7.77a2,153,"UPDATE",2017-05-06 14:32:39 EDT,2/49,1207,LOG,00000,"execute S_5: UPDATE ""SPECIAL_FACILITY"" SET data_a = $1 WHERE s_id = $2 AND sf_type = $3","parameters: $1 = '44', $2 = '16753', $3 = '3'",,,,,,,,""
2017-05-06 14:33:17.451 EDT,"postgres","tatp",30626,"10.0.0.201:59584",590e16c7.77a2,154,"COMMIT",2017-05-06 14:32:39 EDT,2/49,1207,LOG,00000,"execute S_2: COMMIT",,,,,,,,,""
2017-05-06 14:33:18.252 EDT,"postgres","tatp",30626,"10.0.0.201:59584",590e16c7.77a2,155,"BEGIN",2017-05-06 14:32:39 EDT,2/50,0,LOG,00000,"execute S_3: BEGIN",,,,,,,,,""
2017-05-06 14:33:18.253 EDT,"postgres","tatp",30626,"10.0.0.201:59584",590e16c7.77a2,156,"UPDATE",2017-05-06 14:32:39 EDT,2/50,0,LOG,00000,"execute S_4: UPDATE ""SUBSCRIBER"" SET bit_1 = $1 WHERE s_id = $2","parameters: $1 = '0', $2 = '21257'",,,,,,,,""
2017-05-06 14:33:18.270 EDT,"postgres","tatp",30626,"10.0.0.201:59584",590e16c7.77a2,157,"UPDATE",2017-05-06 14:32:39 EDT,2/50,1208,LOG,00000,"execute S_5: UPDATE ""SPECIAL_FACILITY"" SET data_a = $1 WHERE s_id = $2 AND sf_type = $3","parameters: $1 = '192', $2 = '21257', $3 = '1'",,,,,,,,""
2017-05-06 14:33:18.374 EDT,"postgres","tatp",30626,"10.0.0.201:59584",590e16c7.77a2,158,"ROLLBACK",2017-05-06 14:32:39 EDT,2/50,1208,LOG,00000,"execute S_1: ROLLBACK",,,,,,,,,""
2017-05-06 14:33:19.250 EDT,"postgres","tatp",30626,"10.0.0.201:59584",590e16c7.77a2,159,"BEGIN",2017-05-06 14:32:39 EDT,2/51,0,LOG,00000,"execute S_3: BEGIN",,,,,,,,,""
2017-05-06 14:33:19.250 EDT,"postgres","tatp",30626,"10.0.0.201:59584",590e16c7.77a2,160,"UPDATE",2017-05-06 14:32:39 EDT,2/51,0,LOG,00000,"execute S_4: UPDATE ""SUBSCRIBER"" SET bit_1 = $1 WHERE s_id = $2","parameters: $1 = '0', $2 = '27117'",,,,,,,,""
2017-05-06 14:33:19.352 EDT,"postgres","tatp",30626,"10.0.0.201:59584",590e16c7.77a2,161,"UPDATE",2017-05-06 14:32:39 EDT,2/51,1209,LOG,00000,"execute S_5: UPDATE ""SPECIAL_FACILITY"" SET data_a = $1 WHERE s_id = $2 AND sf_type = $3","parameters: $1 = '63', $2 = '27117', $3 = '2'",,,,,,,,""
2017-05-06 14:33:19.455 EDT,"postgres","tatp",30626,"10.0.0.201:59584",590e16c7.77a2,162,"ROLLBACK",2017-05-06 14:32:39 EDT,2/51,1209,LOG,00000,"execute S_1: ROLLBACK",,,,,,,,,""
2017-05-06 14:33:20.253 EDT,"postgres","tatp",30626,"10.0.0.201:59584",590e16c7.77a2,163,"BEGIN",2017-05-06 14:32:39 EDT,2/52,0,LOG,00000,"execute S_3: BEGIN",,,,,,,,,""
2017-05-06 14:33:20.253 EDT,"postgres","tatp",30626,"10.0.0.201:59584",590e16c7.77a2,164,"UPDATE",2017-05-06 14:32:39 EDT,2/52,0,LOG,00000,"execute S_4: UPDATE ""SUBSCRIBER"" SET bit_1 = $1 WHERE s_id = $2","parameters: $1 = '0', $2 = '54569'",,,,,,,,""
2017-05-06 14:33:20.355 EDT,"postgres","tatp",30626,"10.0.0.201:59584",590e16c7.77a2,165,"UPDATE",2017-05-06 14:32:39 EDT,2/52,1210,LOG,00000,"execute S_5: UPDATE ""SPECIAL_FACILITY"" SET data_a = $1 WHERE s_id = $2 AND sf_type = $3","parameters: $1 = '105', $2 = '54569', $3 = '3'",,,,,,,,""
2017-05-06 14:33:20.458 EDT,"postgres","tatp",30626,"10.0.0.201:59584",590e16c7.77a2,166,"COMMIT",2017-05-06 14:32:39 EDT,2/52,1210,LOG,00000,"execute S_2: COMMIT",,,,,,,,,""
2017-05-06 14:33:21.251 EDT,"postgres","tatp",30626,"10.0.0.201:59584",590e16c7.77a2,167,"BEGIN",2017-05-06 14:32:39 EDT,2/53,0,LOG,00000,"execute S_3: BEGIN",,,,,,,,,""
2017-05-06 14:33:21.251 EDT,"postgres","tatp",30626,"10.0.0.201:59584",590e16c7.77a2,168,"UPDATE",2017-05-06 14:32:39 EDT,2/53,0,LOG,00000,"execute S_4: UPDATE ""SUBSCRIBER"" SET bit_1 = $1 WHERE s_id = $2","parameters: $1 = '1', $2 = '91735'",,,,,,,,""
2017-05-06 14:33:21.355 EDT,"postgres","tatp",30626,"10.0.0.201:59584",590e16c7.77a2,169,"UPDATE",2017-05-06 14:32:39 EDT,2/53,1211,LOG,00000,"execute S_5: UPDATE ""SPECIAL_FACILITY"" SET data_a = $1 WHERE s_id = $2 AND sf_type = $3","parameters: $1 = '201', $2 = '91735', $3 = '2'",,,,,,,,""
2017-05-06 14:33:21.463 EDT,"postgres","tatp",30626,"10.0.0.201:59584",590e16c7.77a2,170,"ROLLBACK",2017-05-06 14:32:39 EDT,2/53,1211,LOG,00000,"execute S_1: ROLLBACK",,,,,,,,,""
2017-05-06 14:33:22.250 EDT,"postgres","tatp",30626,"10.0.0.201:59584",590e16c7.77a2,171,"BEGIN",2017-05-06 14:32:39 EDT,2/54,0,LOG,00000,"execute S_3: BEGIN",,,,,,,,,""
2017-05-06 14:33:22.250 EDT,"postgres","tatp",30626,"10.0.0.201:59584",590e16c7.77a2,172,"UPDATE",2017-05-06 14:32:39 EDT,2/54,0,LOG,00000,"execute S_4: UPDATE ""SUBSCRIBER"" SET bit_1 = $1 WHERE s_id = $2","parameters: $1 = '0', $2 = '49769'",,,,,,,,""
2017-05-06 14:33:22.350 EDT,"postgres","tatp",30626,"10.0.0.201:59584",590e16c7.77a2,173,"UPDATE",2017-05-06 14:32:39 EDT,2/54,1212,LOG,00000,"execute S_5: UPDATE ""SPECIAL_FACILITY"" SET data_a = $1 WHERE s_id = $2 AND sf_type = $3","parameters: $1 = '21', $2 = '49769', $3 = '1'",,,,,,,,""
2017-05-06 14:33:22.450 EDT,"postgres","tatp",30626,"10.0.0.201:59584",590e16c7.77a2,174,"COMMIT",2017-05-06 14:32:39 EDT,2/54,1212,LOG,00000,"execute S_2: COMMIT",,,,,,,,,""
2017-05-06 14:33:23.259 EDT,"postgres","tatp",30626,"10.0.0.201:59584",590e16c7.77a2,175,"BEGIN",2017-05-06 14:32:39 EDT,2/55,0,LOG,00000,"execute S_3: BEGIN",,,,,,,,,""
2017-05-06 14:33:23.259 EDT,"postgres","tatp",30626,"10.0.0.201:59584",590e16c7.77a2,176,"UPDATE",2017-05-06 14:32:39 EDT,2/55,0,LOG,00000,"execute S_4: UPDATE ""SUBSCRIBER"" SET bit_1 = $1 WHERE s_id = $2","parameters: $1 = '0', $2 = '3682'",,,,,,,,""
2017-05-06 14:33:23.331 EDT,"postgres","tatp",30626,"10.0.0.201:59584",590e16c7.77a2,177,"UPDATE",2017-05-06 14:32:39 EDT,2/55,1213,LOG,00000,"execute S_5: UPDATE ""SPECIAL_FACILITY"" SET data_a = $1 WHERE s_id = $2 AND sf_type = $3","parameters: $1 = '217', $2 = '3682', $3 = '1'",,,,,,,,""
2017-05-06 14:33:23.362 EDT,"postgres","tatp",30626,"10.0.0.201:59584",590e16c7.77a2,178,"ROLLBACK",2017-05-06 14:32:39 EDT,2/55,1213,LOG,00000,"execute S_1: ROLLBACK",,,,,,,,,""
2017-05-06 14:33:24.255 EDT,"postgres","tatp",30626,"10.0.0.201:59584",590e16c7.77a2,179,"BEGIN",2017-05-06 14:32:39 EDT,2/56,0,LOG,00000,"execute S_3: BEGIN",,,,,,,,,""
2017-05-06 14:33:24.255 EDT,"postgres","tatp",30626,"10.0.0.201:59584",590e16c7.77a2,180,"UPDATE",2017-05-06 14:32:39 EDT,2/56,0,LOG,00000,"execute S_4: UPDATE ""SUBSCRIBER"" SET bit_1 = $1 WHERE s_id = $2","parameters: $1 = '0', $2 = '66828'",,,,,,,,""
2017-05-06 14:33:24.358 EDT,"postgres","tatp",30626,"10.0.0.201:59584",590e16c7.77a2,181,"UPDATE",2017-05-06 14:32:39 EDT,2/56,1214,LOG,00000,"execute S_5: UPDATE ""SPECIAL_FACILITY"" SET data_a = $1 WHERE s_id = $2 AND sf_type = $3","parameters: $1 = '198', $2 = '66828', $3 = '4'",,,,,,,,""
2017-05-06 14:33:24.458 EDT,"postgres","tatp",30626,"10.0.0.201:59584",590e16c7.77a2,182,"COMMIT",2017-05-06 14:32:39 EDT,2/56,1214,LOG,00000,"execute S_2: COMMIT",,,,,,,,,""
2017-05-06 14:33:25.253 EDT,"postgres","tatp",30626,"10.0.0.201:59584",590e16c7.77a2,183,"BEGIN",2017-05-06 14:32:39 EDT,2/57,0,LOG,00000,"execute S_3: BEGIN",,,,,,,,,""
2017-05-06 14:33:25.253 EDT,"postgres","tatp",30626,"10.0.0.201:59584",590e16c7.77a2,184,"UPDATE",2017-05-06 14:32:39 EDT,2/57,0,LOG,00000,"execute S_4: UPDATE ""SUBSCRIBER"" SET bit_1 = $1 WHERE s_id = $2","parameters: $1 = '0', $2 = '99648'",,,,,,,,""
2017-05-06 14:33:25.355 EDT,"postgres","tatp",30626,"10.0.0.201:59584",590e16c7.77a2,185,"UPDATE",2017-05-06 14:32:39 EDT,2/57,1215,LOG,00000,"execute S_5: UPDATE ""SPECIAL_FACILITY"" SET data_a = $1 WHERE s_id = $2 AND sf_type = $3","parameters: $1 = '10', $2 = '99648', $3 = '2'",,,,,,,,""
2017-05-06 14:33:25.460 EDT,"postgres","tatp",30626,"10.0.0.201:59584",590e16c7.77a2,186,"ROLLBACK",2017-05-06 14:32:39 EDT,2/57,1215,LOG,00000,"execute S_1: ROLLBACK",,,,,,,,,""
2017-05-06 14:33:26.250 EDT,"postgres","tatp",30626,"10.0.0.201:59584",590e16c7.77a2,187,"BEGIN",2017-05-06 14:32:39 EDT,2/58,0,LOG,00000,"execute S_3: BEGIN",,,,,,,,,""
2017-05-06 14:33:26.250 EDT,"postgres","tatp",30626,"10.0.0.201:59584",590e16c7.77a2,188,"UPDATE",2017-05-06 14:32:39 EDT,2/58,0,LOG,00000,"execute S_4: UPDATE ""SUBSCRIBER"" SET bit_1 = $1 WHERE s_id = $2","parameters: $1 = '0', $2 = '55958'",,,,,,,,""
2017-05-06 14:33:26.356 EDT,"postgres","tatp",30626,"10.0.0.201:59584",590e16c7.77a2,189,"UPDATE",2017-05-06 14:32:39 EDT,2/58,1216,LOG,00000,"execute S_5: UPDATE ""SPECIAL_FACILITY"" SET data_a = $1 WHERE s_id = $2 AND sf_type = $3","parameters: $1 = '64', $2 = '55958', $3 = '2'",,,,,,,,""
2017-05-06 14:33:26.460 EDT,"postgres","tatp",30626,"10.0.0.201:59584",590e16c7.77a2,190,"ROLLBACK",2017-05-06 14:32:39 EDT,2/58,1216,LOG,00000,"execute S_1: ROLLBACK",,,,,,,,,""
2017-05-06 14:33:27.249 EDT,"postgres","tatp",30626,"10.0.0.201:59584",590e16c7.77a2,191,"BEGIN",2017-05-06 14:32:39 EDT,2/59,0,LOG,00000,"execute S_3: BEGIN",,,,,,,,,""
2017-05-06 14:33:27.249 EDT,"postgres","tatp",30626,"10.0.0.201:59584",590e16c7.77a2,192,"UPDATE",2017-05-06 14:32:39 EDT,2/59,0,LOG,00000,"execute S_4: UPDATE ""SUBSCRIBER"" SET bit_1 = $1 WHERE s_id = $2","parameters: $1 = '0', $2 = '21273'",,,,,,,,""
2017-05-06 14:33:27.352 EDT,"postgres","tatp",30626,"10.0.0.201:59584",590e16c7.77a2,193,"UPDATE",2017-05-06 14:32:39 EDT,2/59,1217,LOG,00000,"execute S_5: UPDATE ""SPECIAL_FACILITY"" SET data_a = $1 WHERE s_id = $2 AND sf_type = $3","parameters: $1 = '18', $2 = '21273', $3 = '3'",,,,,,,,""
2017-05-06 14:33:27.455 EDT,"postgres","tatp",30626,"10.0.0.201:59584",590e16c7.77a2,194,"ROLLBACK",2017-05-06 14:32:39 EDT,2/59,1217,LOG,00000,"execute S_1: ROLLBACK",,,,,,,,,""
2017-05-06 14:33:28.259 EDT,"postgres","tatp",30626,"10.0.0.201:59584",590e16c7.77a2,195,"BEGIN",2017-05-06 14:32:39 EDT,2/60,0,LOG,00000,"execute S_3: BEGIN",,,,,,,,,""
2017-05-06 14:33:28.259 EDT,"postgres","tatp",30626,"10.0.0.201:59584",590e16c7.77a2,196,"UPDATE",2017-05-06 14:32:39 EDT,2/60,0,LOG,00000,"execute S_4: UPDATE ""SUBSCRIBER"" SET bit_1 = $1 WHERE s_id = $2","parameters: $1 = '0', $2 = '71770'",,,,,,,,""
2017-05-06 14:33:28.362 EDT,"postgres","tatp",30626,"10.0.0.201:59584",590e16c7.77a2,197,"UPDATE",2017-05-06 14:32:39 EDT,2/60,1218,LOG,00000,"execute S_5: UPDATE ""SPECIAL_FACILITY"" SET data_a = $1 WHERE s_id = $2 AND sf_type = $3","parameters: $1 = '6', $2 = '71770', $3 = '2'",,,,,,,,""
2017-05-06 14:33:28.465 EDT,"postgres","tatp",30626,"10.0.0.201:59584",590e16c7.77a2,198,"ROLLBACK",2017-05-06 14:32:39 EDT,2/60,1218,LOG,00000,"execute S_1: ROLLBACK",,,,,,,,,""
2017-05-06 14:33:29.264 EDT,"postgres","tatp",30626,"10.0.0.201:59584",590e16c7.77a2,199,"BEGIN",2017-05-06 14:32:39 EDT,2/61,0,LOG,00000,"execute S_3: BEGIN",,,,,,,,,""
2017-05-06 14:33:29.264 EDT,"postgres","tatp",30626,"10.0.0.201:59584",590e16c7.77a2,200,"UPDATE",2017-05-06 14:32:39 EDT,2/61,0,LOG,00000,"execute S_4: UPDATE ""SUBSCRIBER"" SET bit_1 = $1 WHERE s_id = $2","parameters: $1 = '1', $2 = '2808'",,,,,,,,""
2017-05-06 14:33:29.372 EDT,"postgres","tatp",30626,"10.0.0.201:59584",590e16c7.77a2,201,"UPDATE",2017-05-06 14:32:39 EDT,2/61,1219,LOG,00000,"execute S_5: UPDATE ""SPECIAL_FACILITY"" SET data_a = $1 WHERE s_id = $2 AND sf_type = $3","parameters: $1 = '154', $2 = '2808', $3 = '4'",,,,,,,,""
2017-05-06 14:33:29.475 EDT,"postgres","tatp",30626,"10.0.0.201:59584",590e16c7.77a2,202,"ROLLBACK",2017-05-06 14:32:39 EDT,2/61,1219,LOG,00000,"execute S_1: ROLLBACK",,,,,,,,,""
2017-05-06 14:33:30.253 EDT,"postgres","tatp",30626,"10.0.0.201:59584",590e16c7.77a2,203,"BEGIN",2017-05-06 14:32:39 EDT,2/62,0,LOG,00000,"execute S_3: BEGIN",,,,,,,,,""
2017-05-06 14:33:30.254 EDT,"postgres","tatp",30626,"10.0.0.201:59584",590e16c7.77a2,204,"UPDATE",2017-05-06 14:32:39 EDT,2/62,0,LOG,00000,"execute S_4: UPDATE ""SUBSCRIBER"" SET bit_1 = $1 WHERE s_id = $2","parameters: $1 = '0', $2 = '26293'",,,,,,,,""
2017-05-06 14:33:30.356 EDT,"postgres","tatp",30626,"10.0.0.201:59584",590e16c7.77a2,205,"UPDATE",2017-05-06 14:32:39 EDT,2/62,1220,LOG,00000,"execute S_5: UPDATE ""SPECIAL_FACILITY"" SET data_a = $1 WHERE s_id = $2 AND sf_type = $3","parameters: $1 = '90', $2 = '26293', $3 = '2'",,,,,,,,""
2017-05-06 14:33:30.458 EDT,"postgres","tatp",30626,"10.0.0.201:59584",590e16c7.77a2,206,"ROLLBACK",2017-05-06 14:32:39 EDT,2/62,1220,LOG,00000,"execute S_1: ROLLBACK",,,,,,,,,""
2017-05-06 14:33:31.249 EDT,"postgres","tatp",30626,"10.0.0.201:59584",590e16c7.77a2,207,"BEGIN",2017-05-06 14:32:39 EDT,2/63,0,LOG,00000,"execute S_3: BEGIN",,,,,,,,,""
2017-05-06 14:33:31.249 EDT,"postgres","tatp",30626,"10.0.0.201:59584",590e16c7.77a2,208,"UPDATE",2017-05-06 14:32:39 EDT,2/63,0,LOG,00000,"execute S_4: UPDATE ""SUBSCRIBER"" SET bit_1 = $1 WHERE s_id = $2","parameters: $1 = '0', $2 = '41481'",,,,,,,,""
2017-05-06 14:33:31.351 EDT,"postgres","tatp",30626,"10.0.0.201:59584",590e16c7.77a2,209,"UPDATE",2017-05-06 14:32:39 EDT,2/63,1221,LOG,00000,"execute S_5: UPDATE ""SPECIAL_FACILITY"" SET data_a = $1 WHERE s_id = $2 AND sf_type = $3","parameters: $1 = '23', $2 = '41481', $3 = '4'",,,,,,,,""
2017-05-06 14:33:31.454 EDT,"postgres","tatp",30626,"10.0.0.201:59584",590e16c7.77a2,210,"COMMIT",2017-05-06 14:32:39 EDT,2/63,1221,LOG,00000,"execute S_2: COMMIT",,,,,,,,,""
2017-05-06 14:33:32.259 EDT,"postgres","tatp",30626,"10.0.0.201:59584",590e16c7.77a2,211,"BEGIN",2017-05-06 14:32:39 EDT,2/64,0,LOG,00000,"execute S_3: BEGIN",,,,,,,,,""
2017-05-06 14:33:32.259 EDT,"postgres","tatp",30626,"10.0.0.201:59584",590e16c7.77a2,212,"UPDATE",2017-05-06 14:32:39 EDT,2/64,0,LOG,00000,"execute S_4: UPDATE ""SUBSCRIBER"" SET bit_1 = $1 WHERE s_id = $2","parameters: $1 = '0', $2 = '85200'",,,,,,,,""
2017-05-06 14:33:32.362 EDT,"postgres","tatp",30626,"10.0.0.201:59584",590e16c7.77a2,213,"UPDATE",2017-05-06 14:32:39 EDT,2/64,1222,LOG,00000,"execute S_5: UPDATE ""SPECIAL_FACILITY"" SET data_a = $1 WHERE s_id = $2 AND sf_type = $3","parameters: $1 = '64', $2 = '85200', $3 = '3'",,,,,,,,""
2017-05-06 14:33:32.462 EDT,"postgres","tatp",30626,"10.0.0.201:59584",590e16c7.77a2,214,"COMMIT",2017-05-06 14:32:39 EDT,2/64,1222,LOG,00000,"execute S_2: COMMIT",,,,,,,,,""
2017-05-06 14:33:33.261 EDT,"postgres","tatp",30626,"10.0.0.201:59584",590e16c7.77a2,215,"BEGIN",2017-05-06 14:32:39 EDT,2/65,0,LOG,00000,"execute S_3: BEGIN",,,,,,,,,""
2017-05-06 14:33:33.261 EDT,"postgres","tatp",30626,"10.0.0.201:59584",590e16c7.77a2,216,"UPDATE",2017-05-06 14:32:39 EDT,2/65,0,LOG,00000,"execute S_4: UPDATE ""SUBSCRIBER"" SET bit_1 = $1 WHERE s_id = $2","parameters: $1 = '0', $2 = '78489'",,,,,,,,""
2017-05-06 14:33:33.366 EDT,"postgres","tatp",30626,"10.0.0.201:59584",590e16c7.77a2,217,"UPDATE",2017-05-06 14:32:39 EDT,2/65,1223,LOG,00000,"execute S_5: UPDATE ""SPECIAL_FACILITY"" SET data_a = $1 WHERE s_id = $2 AND sf_type = $3","parameters: $1 = '99', $2 = '78489', $3 = '2'",,,,,,,,""
2017-05-06 14:33:33.468 EDT,"postgres","tatp",30626,"10.0.0.201:59584",590e16c7.77a2,218,"COMMIT",2017-05-06 14:32:39 EDT,2/65,1223,LOG,00000,"execute S_2: COMMIT",,,,,,,,,""
2017-05-06 14:33:34.252 EDT,"postgres","tatp",30626,"10.0.0.201:59584",590e16c7.77a2,219,"BEGIN",2017-05-06 14:32:39 EDT,2/66,0,LOG,00000,"execute S_3: BEGIN",,,,,,,,,""
2017-05-06 14:33:34.252 EDT,"postgres","tatp",30626,"10.0.0.201:59584",590e16c7.77a2,220,"UPDATE",2017-05-06 14:32:39 EDT,2/66,0,LOG,00000,"execute S_4: UPDATE ""SUBSCRIBER"" SET bit_1 = $1 WHERE s_id = $2","parameters: $1 = '0', $2 = '96017'",,,,,,,,""
2017-05-06 14:33:34.354 EDT,"postgres","tatp",30626,"10.0.0.201:59584",590e16c7.77a2,221,"UPDATE",2017-05-06 14:32:39 EDT,2/66,1224,LOG,00000,"execute S_5: UPDATE ""SPECIAL_FACILITY"" SET data_a = $1 WHERE s_id = $2 AND sf_type = $3","parameters: $1 = '133', $2 = '96017', $3 = '3'",,,,,,,,""
2017-05-06 14:33:34.455 EDT,"postgres","tatp",30626,"10.0.0.201:59584",590e16c7.77a2,222,"ROLLBACK",2017-05-06 14:32:39 EDT,2/66,1224,LOG,00000,"execute S_1: ROLLBACK",,,,,,,,,""
2017-05-06 14:33:35.249 EDT,"postgres","tatp",30626,"10.0.0.201:59584",590e16c7.77a2,223,"BEGIN",2017-05-06 14:32:39 EDT,2/67,0,LOG,00000,"execute S_3: BEGIN",,,,,,,,,""
2017-05-06 14:33:35.250 EDT,"postgres","tatp",30626,"10.0.0.201:59584",590e16c7.77a2,224,"UPDATE",2017-05-06 14:32:39 EDT,2/67,0,LOG,00000,"execute S_4: UPDATE ""SUBSCRIBER"" SET bit_1 = $1 WHERE s_id = $2","parameters: $1 = '0', $2 = '2700'",,,,,,,,""
2017-05-06 14:33:35.351 EDT,"postgres","tatp",30626,"10.0.0.201:59584",590e16c7.77a2,225,"UPDATE",2017-05-06 14:32:39 EDT,2/67,1225,LOG,00000,"execute S_5: UPDATE ""SPECIAL_FACILITY"" SET data_a = $1 WHERE s_id = $2 AND sf_type = $3","parameters: $1 = '109', $2 = '2700', $3 = '1'",,,,,,,,""
2017-05-06 14:33:35.454 EDT,"postgres","tatp",30626,"10.0.0.201:59584",590e16c7.77a2,226,"ROLLBACK",2017-05-06 14:32:39 EDT,2/67,1225,LOG,00000,"execute S_1: ROLLBACK",,,,,,,,,""
2017-05-06 14:33:36.259 EDT,"postgres","tatp",30626,"10.0.0.201:59584",590e16c7.77a2,227,"BEGIN",2017-05-06 14:32:39 EDT,2/68,0,LOG,00000,"execute S_3: BEGIN",,,,,,,,,""
2017-05-06 14:33:36.260 EDT,"postgres","tatp",30626,"10.0.0.201:59584",590e16c7.77a2,228,"UPDATE",2017-05-06 14:32:39 EDT,2/68,0,LOG,00000,"execute S_4: UPDATE ""SUBSCRIBER"" SET bit_1 = $1 WHERE s_id = $2","parameters: $1 = '0', $2 = '66301'",,,,,,,,""
2017-05-06 14:33:36.363 EDT,"postgres","tatp",30626,"10.0.0.201:59584",590e16c7.77a2,229,"UPDATE",2017-05-06 14:32:39 EDT,2/68,1226,LOG,00000,"execute S_5: UPDATE ""SPECIAL_FACILITY"" SET data_a = $1 WHERE s_id = $2 AND sf_type = $3","parameters: $1 = '141', $2 = '66301', $3 = '1'",,,,,,,,""
2017-05-06 14:33:36.467 EDT,"postgres","tatp",30626,"10.0.0.201:59584",590e16c7.77a2,230,"ROLLBACK",2017-05-06 14:32:39 EDT,2/68,1226,LOG,00000,"execute S_1: ROLLBACK",,,,,,,,,""
2017-05-06 14:33:37.249 EDT,"postgres","tatp",30626,"10.0.0.201:59584",590e16c7.77a2,231,"BEGIN",2017-05-06 14:32:39 EDT,2/69,0,LOG,00000,"execute S_3: BEGIN",,,,,,,,,""
2017-05-06 14:33:37.249 EDT,"postgres","tatp",30626,"10.0.0.201:59584",590e16c7.77a2,232,"UPDATE",2017-05-06 14:32:39 EDT,2/69,0,LOG,00000,"execute S_4: UPDATE ""SUBSCRIBER"" SET bit_1 = $1 WHERE s_id = $2","parameters: $1 = '1', $2 = '32341'",,,,,,,,""
2017-05-06 14:33:37.256 EDT,"postgres","tatp",30626,"10.0.0.201:59584",590e16c7.77a2,233,"UPDATE",2017-05-06 14:32:39 EDT,2/69,1227,LOG,00000,"execute S_5: UPDATE ""SPECIAL_FACILITY"" SET data_a = $1 WHERE s_id = $2 AND sf_type = $3","parameters: $1 = '25', $2 = '32341', $3 = '2'",,,,,,,,""
2017-05-06 14:33:37.358 EDT,"postgres","tatp",30626,"10.0.0.201:59584",590e16c7.77a2,234,"ROLLBACK",2017-05-06 14:32:39 EDT,2/69,1227,LOG,00000,"execute S_1: ROLLBACK",,,,,,,,,""
2017-05-06 14:33:38.258 EDT,"postgres","tatp",30626,"10.0.0.201:59584",590e16c7.77a2,235,"BEGIN",2017-05-06 14:32:39 EDT,2/70,0,LOG,00000,"execute S_3: BEGIN",,,,,,,,,""
2017-05-06 14:33:38.258 EDT,"postgres","tatp",30626,"10.0.0.201:59584",590e16c7.77a2,236,"UPDATE",2017-05-06 14:32:39 EDT,2/70,0,LOG,00000,"execute S_4: UPDATE ""SUBSCRIBER"" SET bit_1 = $1 WHERE s_id = $2","parameters: $1 = '0', $2 = '45504'",,,,,,,,""
2017-05-06 14:33:38.361 EDT,"postgres","tatp",30626,"10.0.0.201:59584",590e16c7.77a2,237,"UPDATE",2017-05-06 14:32:39 EDT,2/70,1228,LOG,00000,"execute S_5: UPDATE ""SPECIAL_FACILITY"" SET data_a = $1 WHERE s_id = $2 AND sf_type = $3","parameters: $1 = '70', $2 = '45504', $3 = '3'",,,,,,,,""
2017-05-06 14:33:38.463 EDT,"postgres","tatp",30626,"10.0.0.201:59584",590e16c7.77a2,238,"COMMIT",2017-05-06 14:32:39 EDT,2/70,1228,LOG,00000,"execute S_2: COMMIT",,,,,,,,,""
2017-05-06 14:33:39.256 EDT,"postgres","tatp",30626,"10.0.0.201:59584",590e16c7.77a2,239,"BEGIN",2017-05-06 14:32:39 EDT,2/71,0,LOG,00000,"execute S_3: BEGIN",,,,,,,,,""
2017-05-06 14:33:39.256 EDT,"postgres","tatp",30626,"10.0.0.201:59584",590e16c7.77a2,240,"UPDATE",2017-05-06 14:32:39 EDT,2/71,0,LOG,00000,"execute S_4: UPDATE ""SUBSCRIBER"" SET bit_1 = $1 WHERE s_id = $2","parameters: $1 = '1', $2 = '20952'",,,,,,,,""
2017-05-06 14:33:39.369 EDT,"postgres","tatp",30626,"10.0.0.201:59584",590e16c7.77a2,241,"UPDATE",2017-05-06 14:32:39 EDT,2/71,1229,LOG,00000,"execute S_5: UPDATE ""SPECIAL_FACILITY"" SET data_a = $1 WHERE s_id = $2 AND sf_type = $3","parameters: $1 = '8', $2 = '20952', $3 = '1'",,,,,,,,""
2017-05-06 14:33:39.472 EDT,"postgres","tatp",30626,"10.0.0.201:59584",590e16c7.77a2,242,"ROLLBACK",2017-05-06 14:32:39 EDT,2/71,1229,LOG,00000,"execute S_1: ROLLBACK",,,,,,,,,""
2017-05-06 14:33:40.255 EDT,"postgres","tatp",30626,"10.0.0.201:59584",590e16c7.77a2,243,"BEGIN",2017-05-06 14:32:39 EDT,2/72,0,LOG,00000,"execute S_3: BEGIN",,,,,,,,,""
2017-05-06 14:33:40.255 EDT,"postgres","tatp",30626,"10.0.0.201:59584",590e16c7.77a2,244,"UPDATE",2017-05-06 14:32:39 EDT,2/72,0,LOG,00000,"execute S_4: UPDATE ""SUBSCRIBER"" SET bit_1 = $1 WHERE s_id = $2","parameters: $1 = '1', $2 = '60695'",,,,,,,,""
2017-05-06 14:33:40.362 EDT,"postgres","tatp",30626,"10.0.0.201:59584",590e16c7.77a2,245,"UPDATE",2017-05-06 14:32:39 EDT,2/72,1230,LOG,00000,"execute S_5: UPDATE ""SPECIAL_FACILITY"" SET data_a = $1 WHERE s_id = $2 AND sf_type = $3","parameters: $1 = '251', $2 = '60695', $3 = '1'",,,,,,,,""
2017-05-06 14:33:40.465 EDT,"postgres","tatp",30626,"10.0.0.201:59584",590e16c7.77a2,246,"ROLLBACK",2017-05-06 14:32:39 EDT,2/72,1230,LOG,00000,"execute S_1: ROLLBACK",,,,,,,,,""
2017-05-06 14:33:41.252 EDT,"postgres","tatp",30626,"10.0.0.201:59584",590e16c7.77a2,247,"BEGIN",2017-05-06 14:32:39 EDT,2/73,0,LOG,00000,"execute S_3: BEGIN",,,,,,,,,""
2017-05-06 14:33:41.252 EDT,"postgres","tatp",30626,"10.0.0.201:59584",590e16c7.77a2,248,"UPDATE",2017-05-06 14:32:39 EDT,2/73,0,LOG,00000,"execute S_4: UPDATE ""SUBSCRIBER"" SET bit_1 = $1 WHERE s_id = $2","parameters: $1 = '0', $2 = '16379'",,,,,,,,""
2017-05-06 14:33:41.354 EDT,"postgres","tatp",30626,"10.0.0.201:59584",590e16c7.77a2,249,"UPDATE",2017-05-06 14:32:39 EDT,2/73,1231,LOG,00000,"execute S_5: UPDATE ""SPECIAL_FACILITY"" SET data_a = $1 WHERE s_id = $2 AND sf_type = $3","parameters: $1 = '159', $2 = '16379', $3 = '4'",,,,,,,,""
2017-05-06 14:33:41.455 EDT,"postgres","tatp",30626,"10.0.0.201:59584",590e16c7.77a2,250,"ROLLBACK",2017-05-06 14:32:39 EDT,2/73,1231,LOG,00000,"execute S_1: ROLLBACK",,,,,,,,,""
2017-05-06 14:33:42.253 EDT,"postgres","tatp",30626,"10.0.0.201:59584",590e16c7.77a2,251,"BEGIN",2017-05-06 14:32:39 EDT,2/74,0,LOG,00000,"execute S_3: BEGIN",,,,,,,,,""
2017-05-06 14:33:42.254 EDT,"postgres","tatp",30626,"10.0.0.201:59584",590e16c7.77a2,252,"UPDATE",2017-05-06 14:32:39 EDT,2/74,0,LOG,00000,"execute S_4: UPDATE ""SUBSCRIBER"" SET bit_1 = $1 WHERE s_id = $2","parameters: $1 = '0', $2 = '96315'",,,,,,,,""
2017-05-06 14:33:42.355 EDT,"postgres","tatp",30626,"10.0.0.201:59584",590e16c7.77a2,253,"UPDATE",2017-05-06 14:32:39 EDT,2/74,1232,LOG,00000,"execute S_5: UPDATE ""SPECIAL_FACILITY"" SET data_a = $1 WHERE s_id = $2 AND sf_type = $3","parameters: $1 = '48', $2 = '96315', $3 = '4'",,,,,,,,""
2017-05-06 14:33:42.458 EDT,"postgres","tatp",30626,"10.0.0.201:59584",590e16c7.77a2,254,"ROLLBACK",2017-05-06 14:32:39 EDT,2/74,1232,LOG,00000,"execute S_1: ROLLBACK",,,,,,,,,""
2017-05-06 14:33:43.251 EDT,"postgres","tatp",30626,"10.0.0.201:59584",590e16c7.77a2,255,"BEGIN",2017-05-06 14:32:39 EDT,2/75,0,LOG,00000,"execute S_3: BEGIN",,,,,,,,,""
2017-05-06 14:33:43.251 EDT,"postgres","tatp",30626,"10.0.0.201:59584",590e16c7.77a2,256,"UPDATE",2017-05-06 14:32:39 EDT,2/75,0,LOG,00000,"execute S_4: UPDATE ""SUBSCRIBER"" SET bit_1 = $1 WHERE s_id = $2","parameters: $1 = '1', $2 = '27341'",,,,,,,,""
2017-05-06 14:33:43.355 EDT,"postgres","tatp",30626,"10.0.0.201:59584",590e16c7.77a2,257,"UPDATE",2017-05-06 14:32:39 EDT,2/75,1233,LOG,00000,"execute S_5: UPDATE ""SPECIAL_FACILITY"" SET data_a = $1 WHERE s_id = $2 AND sf_type = $3","parameters: $1 = '0', $2 = '27341', $3 = '2'",,,,,,,,""
2017-05-06 14:33:43.458 EDT,"postgres","tatp",30626,"10.0.0.201:59584",590e16c7.77a2,258,"COMMIT",2017-05-06 14:32:39 EDT,2/75,1233,LOG,00000,"execute S_2: COMMIT",,,,,,,,,""
2017-05-06 14:33:44.249 EDT,"postgres","tatp",30626,"10.0.0.201:59584",590e16c7.77a2,259,"BEGIN",2017-05-06 14:32:39 EDT,2/76,0,LOG,00000,"execute S_3: BEGIN",,,,,,,,,""
2017-05-06 14:33:44.249 EDT,"postgres","tatp",30626,"10.0.0.201:59584",590e16c7.77a2,260,"UPDATE",2017-05-06 14:32:39 EDT,2/76,0,LOG,00000,"execute S_4: UPDATE ""SUBSCRIBER"" SET bit_1 = $1 WHERE s_id = $2","parameters: $1 = '1', $2 = '77793'",,,,,,,,""
2017-05-06 14:33:44.353 EDT,"postgres","tatp",30626,"10.0.0.201:59584",590e16c7.77a2,261,"UPDATE",2017-05-06 14:32:39 EDT,2/76,1234,LOG,00000,"execute S_5: UPDATE ""SPECIAL_FACILITY"" SET data_a = $1 WHERE s_id = $2 AND sf_type = $3","parameters: $1 = '65', $2 = '77793', $3 = '2'",,,,,,,,""
2017-05-06 14:33:44.454 EDT,"postgres","tatp",30626,"10.0.0.201:59584",590e16c7.77a2,262,"ROLLBACK",2017-05-06 14:32:39 EDT,2/76,1234,LOG,00000,"execute S_1: ROLLBACK",,,,,,,,,""
2017-05-06 14:33:45.248 EDT,"postgres","tatp",30626,"10.0.0.201:59584",590e16c7.77a2,263,"BEGIN",2017-05-06 14:32:39 EDT,2/77,0,LOG,00000,"execute S_3: BEGIN",,,,,,,,,""
2017-05-06 14:33:45.248 EDT,"postgres","tatp",30626,"10.0.0.201:59584",590e16c7.77a2,264,"UPDATE",2017-05-06 14:32:39 EDT,2/77,0,LOG,00000,"execute S_4: UPDATE ""SUBSCRIBER"" SET bit_1 = $1 WHERE s_id = $2","parameters: $1 = '1', $2 = '46358'",,,,,,,,""
2017-05-06 14:33:45.350 EDT,"postgres","tatp",30626,"10.0.0.201:59584",590e16c7.77a2,265,"UPDATE",2017-05-06 14:32:39 EDT,2/77,1235,LOG,00000,"execute S_5: UPDATE ""SPECIAL_FACILITY"" SET data_a = $1 WHERE s_id = $2 AND sf_type = $3","parameters: $1 = '242', $2 = '46358', $3 = '1'",,,,,,,,""
2017-05-06 14:33:45.451 EDT,"postgres","tatp",30626,"10.0.0.201:59584",590e16c7.77a2,266,"ROLLBACK",2017-05-06 14:32:39 EDT,2/77,1235,LOG,00000,"execute S_1: ROLLBACK",,,,,,,,,""
2017-05-06 14:33:46.256 EDT,"postgres","tatp",30626,"10.0.0.201:59584",590e16c7.77a2,267,"BEGIN",2017-05-06 14:32:39 EDT,2/78,0,LOG,00000,"execute S_3: BEGIN",,,,,,,,,""
2017-05-06 14:33:46.256 EDT,"postgres","tatp",30626,"10.0.0.201:59584",590e16c7.77a2,268,"UPDATE",2017-05-06 14:32:39 EDT,2/78,0,LOG,00000,"execute S_4: UPDATE ""SUBSCRIBER"" SET bit_1 = $1 WHERE s_id = $2","parameters: $1 = '1', $2 = '35034'",,,,,,,,""
2017-05-06 14:33:46.361 EDT,"postgres","tatp",30626,"10.0.0.201:59584",590e16c7.77a2,269,"UPDATE",2017-05-06 14:32:39 EDT,2/78,1236,LOG,00000,"execute S_5: UPDATE ""SPECIAL_FACILITY"" SET data_a = $1 WHERE s_id = $2 AND sf_type = $3","parameters: $1 = '11', $2 = '35034', $3 = '2'",,,,,,,,""
2017-05-06 14:33:46.462 EDT,"postgres","tatp",30626,"10.0.0.201:59584",590e16c7.77a2,270,"ROLLBACK",2017-05-06 14:32:39 EDT,2/78,1236,LOG,00000,"execute S_1: ROLLBACK",,,,,,,,,""
2017-05-06 14:33:47.249 EDT,"postgres","tatp",30626,"10.0.0.201:59584",590e16c7.77a2,271,"BEGIN",2017-05-06 14:32:39 EDT,2/79,0,LOG,00000,"execute S_3: BEGIN",,,,,,,,,""
2017-05-06 14:33:47.249 EDT,"postgres","tatp",30626,"10.0.0.201:59584",590e16c7.77a2,272,"UPDATE",2017-05-06 14:32:39 EDT,2/79,0,LOG,00000,"execute S_4: UPDATE ""SUBSCRIBER"" SET bit_1 = $1 WHERE s_id = $2","parameters: $1 = '1', $2 = '72797'",,,,,,,,""
2017-05-06 14:33:47.254 EDT,"postgres","tatp",30626,"10.0.0.201:59584",590e16c7.77a2,273,"UPDATE",2017-05-06 14:32:39 EDT,2/79,1237,LOG,00000,"execute S_5: UPDATE ""SPECIAL_FACILITY"" SET data_a = $1 WHERE s_id = $2 AND sf_type = $3","parameters: $1 = '148', $2 = '72797', $3 = '4'",,,,,,,,""
2017-05-06 14:33:47.354 EDT,"postgres","tatp",30626,"10.0.0.201:59584",590e16c7.77a2,274,"COMMIT",2017-05-06 14:32:39 EDT,2/79,1237,LOG,00000,"execute S_2: COMMIT",,,,,,,,,""
2017-05-06 14:33:48.252 EDT,"postgres","tatp",30626,"10.0.0.201:59584",590e16c7.77a2,275,"BEGIN",2017-05-06 14:32:39 EDT,2/80,0,LOG,00000,"execute S_3: BEGIN",,,,,,,,,""
2017-05-06 14:33:48.252 EDT,"postgres","tatp",30626,"10.0.0.201:59584",590e16c7.77a2,276,"UPDATE",2017-05-06 14:32:39 EDT,2/80,0,LOG,00000,"execute S_4: UPDATE ""SUBSCRIBER"" SET bit_1 = $1 WHERE s_id = $2","parameters: $1 = '1', $2 = '51176'",,,,,,,,""
2017-05-06 14:33:48.357 EDT,"postgres","tatp",30626,"10.0.0.201:59584",590e16c7.77a2,277,"UPDATE",2017-05-06 14:32:39 EDT,2/80,1238,LOG,00000,"execute S_5: UPDATE ""SPECIAL_FACILITY"" SET data_a = $1 WHERE s_id = $2 AND sf_type = $3","parameters: $1 = '213', $2 = '51176', $3 = '2'",,,,,,,,""
2017-05-06 14:33:48.459 EDT,"postgres","tatp",30626,"10.0.0.201:59584",590e16c7.77a2,278,"ROLLBACK",2017-05-06 14:32:39 EDT,2/80,1238,LOG,00000,"execute S_1: ROLLBACK",,,,,,,,,""
2017-05-06 14:33:49.257 EDT,"postgres","tatp",30626,"10.0.0.201:59584",590e16c7.77a2,279,"BEGIN",2017-05-06 14:32:39 EDT,2/81,0,LOG,00000,"execute S_3: BEGIN",,,,,,,,,""
2017-05-06 14:33:49.258 EDT,"postgres","tatp",30626,"10.0.0.201:59584",590e16c7.77a2,280,"UPDATE",2017-05-06 14:32:39 EDT,2/81,0,LOG,00000,"execute S_4: UPDATE ""SUBSCRIBER"" SET bit_1 = $1 WHERE s_id = $2","parameters: $1 = '0', $2 = '82971'",,,,,,,,""
2017-05-06 14:33:49.368 EDT,"postgres","tatp",30626,"10.0.0.201:59584",590e16c7.77a2,281,"UPDATE",2017-05-06 14:32:39 EDT,2/81,1239,LOG,00000,"execute S_5: UPDATE ""SPECIAL_FACILITY"" SET data_a = $1 WHERE s_id = $2 AND sf_type = $3","parameters: $1 = '131', $2 = '82971', $3 = '4'",,,,,,,,""
2017-05-06 14:33:49.476 EDT,"postgres","tatp",30626,"10.0.0.201:59584",590e16c7.77a2,282,"ROLLBACK",2017-05-06 14:32:39 EDT,2/81,1239,LOG,00000,"execute S_1: ROLLBACK",,,,,,,,,""
2017-05-06 14:33:50.260 EDT,"postgres","tatp",30626,"10.0.0.201:59584",590e16c7.77a2,283,"BEGIN",2017-05-06 14:32:39 EDT,2/82,0,LOG,00000,"execute S_3: BEGIN",,,,,,,,,""
2017-05-06 14:33:50.260 EDT,"postgres","tatp",30626,"10.0.0.201:59584",590e16c7.77a2,284,"UPDATE",2017-05-06 14:32:39 EDT,2/82,0,LOG,00000,"execute S_4: UPDATE ""SUBSCRIBER"" SET bit_1 = $1 WHERE s_id = $2","parameters: $1 = '1', $2 = '70030'",,,,,,,,""
2017-05-06 14:33:50.364 EDT,"postgres","tatp",30626,"10.0.0.201:59584",590e16c7.77a2,285,"UPDATE",2017-05-06 14:32:39 EDT,2/82,1240,LOG,00000,"execute S_5: UPDATE ""SPECIAL_FACILITY"" SET data_a = $1 WHERE s_id = $2 AND sf_type = $3","parameters: $1 = '33', $2 = '70030', $3 = '1'",,,,,,,,""
2017-05-06 14:33:50.466 EDT,"postgres","tatp",30626,"10.0.0.201:59584",590e16c7.77a2,286,"ROLLBACK",2017-05-06 14:32:39 EDT,2/82,1240,LOG,00000,"execute S_1: ROLLBACK",,,,,,,,,""
2017-05-06 14:33:51.249 EDT,"postgres","tatp",30626,"10.0.0.201:59584",590e16c7.77a2,287,"BEGIN",2017-05-06 14:32:39 EDT,2/83,0,LOG,00000,"execute S_3: BEGIN",,,,,,,,,""
2017-05-06 14:33:51.249 EDT,"postgres","tatp",30626,"10.0.0.201:59584",590e16c7.77a2,288,"UPDATE",2017-05-06 14:32:39 EDT,2/83,0,LOG,00000,"execute S_4: UPDATE ""SUBSCRIBER"" SET bit_1 = $1 WHERE s_id = $2","parameters: $1 = '1', $2 = '77564'",,,,,,,,""
2017-05-06 14:33:51.351 EDT,"postgres","tatp",30626,"10.0.0.201:59584",590e16c7.77a2,289,"UPDATE",2017-05-06 14:32:39 EDT,2/83,1241,LOG,00000,"execute S_5: UPDATE ""SPECIAL_FACILITY"" SET data_a = $1 WHERE s_id = $2 AND sf_type = $3","parameters: $1 = '155', $2 = '77564', $3 = '2'",,,,,,,,""
2017-05-06 14:33:51.454 EDT,"postgres","tatp",30626,"10.0.0.201:59584",590e16c7.77a2,290,"ROLLBACK",2017-05-06 14:32:39 EDT,2/83,1241,LOG,00000,"execute S_1: ROLLBACK",,,,,,,,,""
2017-05-06 14:33:52.249 EDT,"postgres","tatp",30626,"10.0.0.201:59584",590e16c7.77a2,291,"BEGIN",2017-05-06 14:32:39 EDT,2/84,0,LOG,00000,"execute S_3: BEGIN",,,,,,,,,""
2017-05-06 14:33:52.249 EDT,"postgres","tatp",30626,"10.0.0.201:59584",590e16c7.77a2,292,"UPDATE",2017-05-06 14:32:39 EDT,2/84,0,LOG,00000,"execute S_4: UPDATE ""SUBSCRIBER"" SET bit_1 = $1 WHERE s_id = $2","parameters: $1 = '1', $2 = '89927'",,,,,,,,""
2017-05-06 14:33:52.352 EDT,"postgres","tatp",30626,"10.0.0.201:59584",590e16c7.77a2,293,"UPDATE",2017-05-06 14:32:39 EDT,2/84,1242,LOG,00000,"execute S_5: UPDATE ""SPECIAL_FACILITY"" SET data_a = $1 WHERE s_id = $2 AND sf_type = $3","parameters: $1 = '164', $2 = '89927', $3 = '3'",,,,,,,,""
2017-05-06 14:33:52.454 EDT,"postgres","tatp",30626,"10.0.0.201:59584",590e16c7.77a2,294,"ROLLBACK",2017-05-06 14:32:39 EDT,2/84,1242,LOG,00000,"execute S_1: ROLLBACK",,,,,,,,,""
2017-05-06 14:33:53.260 EDT,"postgres","tatp",30626,"10.0.0.201:59584",590e16c7.77a2,295,"BEGIN",2017-05-06 14:32:39 EDT,2/85,0,LOG,00000,"execute S_3: BEGIN",,,,,,,,,""
2017-05-06 14:33:53.260 EDT,"postgres","tatp",30626,"10.0.0.201:59584",590e16c7.77a2,296,"UPDATE",2017-05-06 14:32:39 EDT,2/85,0,LOG,00000,"execute S_4: UPDATE ""SUBSCRIBER"" SET bit_1 = $1 WHERE s_id = $2","parameters: $1 = '0', $2 = '1044'",,,,,,,,""
2017-05-06 14:33:53.363 EDT,"postgres","tatp",30626,"10.0.0.201:59584",590e16c7.77a2,297,"UPDATE",2017-05-06 14:32:39 EDT,2/85,1243,LOG,00000,"execute S_5: UPDATE ""SPECIAL_FACILITY"" SET data_a = $1 WHERE s_id = $2 AND sf_type = $3","parameters: $1 = '6', $2 = '1044', $3 = '3'",,,,,,,,""
2017-05-06 14:33:53.464 EDT,"postgres","tatp",30626,"10.0.0.201:59584",590e16c7.77a2,298,"ROLLBACK",2017-05-06 14:32:39 EDT,2/85,1243,LOG,00000,"execute S_1: ROLLBACK",,,,,,,,,""
2017-05-06 14:33:54.249 EDT,"postgres","tatp",30626,"10.0.0.201:59584",590e16c7.77a2,299,"BEGIN",2017-05-06 14:32:39 EDT,2/86,0,LOG,00000,"execute S_3: BEGIN",,,,,,,,,""
2017-05-06 14:33:54.249 EDT,"postgres","tatp",30626,"10.0.0.201:59584",590e16c7.77a2,300,"UPDATE",2017-05-06 14:32:39 EDT,2/86,0,LOG,00000,"execute S_4: UPDATE ""SUBSCRIBER"" SET bit_1 = $1 WHERE s_id = $2","parameters: $1 = '0', $2 = '34720'",,,,,,,,""
2017-05-06 14:33:54.354 EDT,"postgres","tatp",30626,"10.0.0.201:59584",590e16c7.77a2,301,"UPDATE",2017-05-06 14:32:39 EDT,2/86,1244,LOG,00000,"execute S_5: UPDATE ""SPECIAL_FACILITY"" SET data_a = $1 WHERE s_id = $2 AND sf_type = $3","parameters: $1 = '203', $2 = '34720', $3 = '1'",,,,,,,,""
2017-05-06 14:33:54.459 EDT,"postgres","tatp",30626,"10.0.0.201:59584",590e16c7.77a2,302,"ROLLBACK",2017-05-06 14:32:39 EDT,2/86,1244,LOG,00000,"execute S_1: ROLLBACK",,,,,,,,,""
2017-05-06 14:33:55.250 EDT,"postgres","tatp",30626,"10.0.0.201:59584",590e16c7.77a2,303,"BEGIN",2017-05-06 14:32:39 EDT,2/87,0,LOG,00000,"execute S_3: BEGIN",,,,,,,,,""
2017-05-06 14:33:55.250 EDT,"postgres","tatp",30626,"10.0.0.201:59584",590e16c7.77a2,304,"UPDATE",2017-05-06 14:32:39 EDT,2/87,0,LOG,00000,"execute S_4: UPDATE ""SUBSCRIBER"" SET bit_1 = $1 WHERE s_id = $2","parameters: $1 = '1', $2 = '58874'",,,,,,,,""
2017-05-06 14:33:55.358 EDT,"postgres","tatp",30626,"10.0.0.201:59584",590e16c7.77a2,305,"UPDATE",2017-05-06 14:32:39 EDT,2/87,1245,LOG,00000,"execute S_5: UPDATE ""SPECIAL_FACILITY"" SET data_a = $1 WHERE s_id = $2 AND sf_type = $3","parameters: $1 = '3', $2 = '58874', $3 = '2'",,,,,,,,""
2017-05-06 14:33:55.463 EDT,"postgres","tatp",30626,"10.0.0.201:59584",590e16c7.77a2,306,"ROLLBACK",2017-05-06 14:32:39 EDT,2/87,1245,LOG,00000,"execute S_1: ROLLBACK",,,,,,,,,""
2017-05-06 14:33:56.257 EDT,"postgres","tatp",30626,"10.0.0.201:59584",590e16c7.77a2,307,"BEGIN",2017-05-06 14:32:39 EDT,2/88,0,LOG,00000,"execute S_3: BEGIN",,,,,,,,,""
2017-05-06 14:33:56.257 EDT,"postgres","tatp",30626,"10.0.0.201:59584",590e16c7.77a2,308,"UPDATE",2017-05-06 14:32:39 EDT,2/88,0,LOG,00000,"execute S_4: UPDATE ""SUBSCRIBER"" SET bit_1 = $1 WHERE s_id = $2","parameters: $1 = '1', $2 = '88678'",,,,,,,,""
2017-05-06 14:33:56.361 EDT,"postgres","tatp",30626,"10.0.0.201:59584",590e16c7.77a2,309,"UPDATE",2017-05-06 14:32:39 EDT,2/88,1246,LOG,00000,"execute S_5: UPDATE ""SPECIAL_FACILITY"" SET data_a = $1 WHERE s_id = $2 AND sf_type = $3","parameters: $1 = '111', $2 = '88678', $3 = '4'",,,,,,,,""
2017-05-06 14:33:56.462 EDT,"postgres","tatp",30626,"10.0.0.201:59584",590e16c7.77a2,310,"COMMIT",2017-05-06 14:32:39 EDT,2/88,1246,LOG,00000,"execute S_2: COMMIT",,,,,,,,,""
2017-05-06 14:33:57.257 EDT,"postgres","tatp",30626,"10.0.0.201:59584",590e16c7.77a2,311,"BEGIN",2017-05-06 14:32:39 EDT,2/89,0,LOG,00000,"execute S_3: BEGIN",,,,,,,,,""
2017-05-06 14:33:57.257 EDT,"postgres","tatp",30626,"10.0.0.201:59584",590e16c7.77a2,312,"UPDATE",2017-05-06 14:32:39 EDT,2/89,0,LOG,00000,"execute S_4: UPDATE ""SUBSCRIBER"" SET bit_1 = $1 WHERE s_id = $2","parameters: $1 = '0', $2 = '32903'",,,,,,,,""
2017-05-06 14:33:57.266 EDT,"postgres","tatp",30626,"10.0.0.201:59584",590e16c7.77a2,313,"UPDATE",2017-05-06 14:32:39 EDT,2/89,1247,LOG,00000,"execute S_5: UPDATE ""SPECIAL_FACILITY"" SET data_a = $1 WHERE s_id = $2 AND sf_type = $3","parameters: $1 = '191', $2 = '32903', $3 = '4'",,,,,,,,""
2017-05-06 14:33:57.366 EDT,"postgres","tatp",30626,"10.0.0.201:59584",590e16c7.77a2,314,"COMMIT",2017-05-06 14:32:39 EDT,2/89,1247,LOG,00000,"execute S_2: COMMIT",,,,,,,,,""
2017-05-06 14:33:58.248 EDT,"postgres","tatp",30626,"10.0.0.201:59584",590e16c7.77a2,315,"BEGIN",2017-05-06 14:32:39 EDT,2/90,0,LOG,00000,"execute S_3: BEGIN",,,,,,,,,""
2017-05-06 14:33:58.248 EDT,"postgres","tatp",30626,"10.0.0.201:59584",590e16c7.77a2,316,"UPDATE",2017-05-06 14:32:39 EDT,2/90,0,LOG,00000,"execute S_4: UPDATE ""SUBSCRIBER"" SET bit_1 = $1 WHERE s_id = $2","parameters: $1 = '0', $2 = '90684'",,,,,,,,""
2017-05-06 14:33:58.351 EDT,"postgres","tatp",30626,"10.0.0.201:59584",590e16c7.77a2,317,"UPDATE",2017-05-06 14:32:39 EDT,2/90,1248,LOG,00000,"execute S_5: UPDATE ""SPECIAL_FACILITY"" SET data_a = $1 WHERE s_id = $2 AND sf_type = $3","parameters: $1 = '244', $2 = '90684', $3 = '2'",,,,,,,,""
2017-05-06 14:33:58.454 EDT,"postgres","tatp",30626,"10.0.0.201:59584",590e16c7.77a2,318,"ROLLBACK",2017-05-06 14:32:39 EDT,2/90,1248,LOG,00000,"execute S_1: ROLLBACK",,,,,,,,,""
2017-05-06 14:33:59.250 EDT,"postgres","tatp",30626,"10.0.0.201:59584",590e16c7.77a2,319,"BEGIN",2017-05-06 14:32:39 EDT,2/91,0,LOG,00000,"execute S_3: BEGIN",,,,,,,,,""
2017-05-06 14:33:59.250 EDT,"postgres","tatp",30626,"10.0.0.201:59584",590e16c7.77a2,320,"UPDATE",2017-05-06 14:32:39 EDT,2/91,0,LOG,00000,"execute S_4: UPDATE ""SUBSCRIBER"" SET bit_1 = $1 WHERE s_id = $2","parameters: $1 = '0', $2 = '48773'",,,,,,,,""
2017-05-06 14:33:59.354 EDT,"postgres","tatp",30626,"10.0.0.201:59584",590e16c7.77a2,321,"UPDATE",2017-05-06 14:32:39 EDT,2/91,1249,LOG,00000,"execute S_5: UPDATE ""SPECIAL_FACILITY"" SET data_a = $1 WHERE s_id = $2 AND sf_type = $3","parameters: $1 = '163', $2 = '48773', $3 = '2'",,,,,,,,""
2017-05-06 14:33:59.456 EDT,"postgres","tatp",30626,"10.0.0.201:59584",590e16c7.77a2,322,"COMMIT",2017-05-06 14:32:39 EDT,2/91,1249,LOG,00000,"execute S_2: COMMIT",,,,,,,,,""
2017-05-06 14:34:00.261 EDT,"postgres","tatp",30626,"10.0.0.201:59584",590e16c7.77a2,323,"BEGIN",2017-05-06 14:32:39 EDT,2/92,0,LOG,00000,"execute S_3: BEGIN",,,,,,,,,""
2017-05-06 14:34:00.261 EDT,"postgres","tatp",30626,"10.0.0.201:59584",590e16c7.77a2,324,"UPDATE",2017-05-06 14:32:39 EDT,2/92,0,LOG,00000,"execute S_4: UPDATE ""SUBSCRIBER"" SET bit_1 = $1 WHERE s_id = $2","parameters: $1 = '0', $2 = '17581'",,,,,,,,""
2017-05-06 14:34:00.364 EDT,"postgres","tatp",30626,"10.0.0.201:59584",590e16c7.77a2,325,"UPDATE",2017-05-06 14:32:39 EDT,2/92,1250,LOG,00000,"execute S_5: UPDATE ""SPECIAL_FACILITY"" SET data_a = $1 WHERE s_id = $2 AND sf_type = $3","parameters: $1 = '220', $2 = '17581', $3 = '3'",,,,,,,,""
2017-05-06 14:34:00.467 EDT,"postgres","tatp",30626,"10.0.0.201:59584",590e16c7.77a2,326,"ROLLBACK",2017-05-06 14:32:39 EDT,2/92,1250,LOG,00000,"execute S_1: ROLLBACK",,,,,,,,,""
2017-05-06 14:34:01.250 EDT,"postgres","tatp",30626,"10.0.0.201:59584",590e16c7.77a2,327,"BEGIN",2017-05-06 14:32:39 EDT,2/93,0,LOG,00000,"execute S_3: BEGIN",,,,,,,,,""
2017-05-06 14:34:01.250 EDT,"postgres","tatp",30626,"10.0.0.201:59584",590e16c7.77a2,328,"UPDATE",2017-05-06 14:32:39 EDT,2/93,0,LOG,00000,"execute S_4: UPDATE ""SUBSCRIBER"" SET bit_1 = $1 WHERE s_id = $2","parameters: $1 = '0', $2 = '85757'",,,,,,,,""
2017-05-06 14:34:01.356 EDT,"postgres","tatp",30626,"10.0.0.201:59584",590e16c7.77a2,329,"UPDATE",2017-05-06 14:32:39 EDT,2/93,1251,LOG,00000,"execute S_5: UPDATE ""SPECIAL_FACILITY"" SET data_a = $1 WHERE s_id = $2 AND sf_type = $3","parameters: $1 = '192', $2 = '85757', $3 = '1'",,,,,,,,""
2017-05-06 14:34:01.462 EDT,"postgres","tatp",30626,"10.0.0.201:59584",590e16c7.77a2,330,"COMMIT",2017-05-06 14:32:39 EDT,2/93,1251,LOG,00000,"execute S_2: COMMIT",,,,,,,,,""
2017-05-06 14:34:02.251 EDT,"postgres","tatp",30626,"10.0.0.201:59584",590e16c7.77a2,331,"BEGIN",2017-05-06 14:32:39 EDT,2/94,0,LOG,00000,"execute S_3: BEGIN",,,,,,,,,""
2017-05-06 14:34:02.251 EDT,"postgres","tatp",30626,"10.0.0.201:59584",590e16c7.77a2,332,"UPDATE",2017-05-06 14:32:39 EDT,2/94,0,LOG,00000,"execute S_4: UPDATE ""SUBSCRIBER"" SET bit_1 = $1 WHERE s_id = $2","parameters: $1 = '0', $2 = '47225'",,,,,,,,""
2017-05-06 14:34:02.358 EDT,"postgres","tatp",30626,"10.0.0.201:59584",590e16c7.77a2,333,"UPDATE",2017-05-06 14:32:39 EDT,2/94,1252,LOG,00000,"execute S_5: UPDATE ""SPECIAL_FACILITY"" SET data_a = $1 WHERE s_id = $2 AND sf_type = $3","parameters: $1 = '251', $2 = '47225', $3 = '4'",,,,,,,,""
2017-05-06 14:34:02.461 EDT,"postgres","tatp",30626,"10.0.0.201:59584",590e16c7.77a2,334,"ROLLBACK",2017-05-06 14:32:39 EDT,2/94,1252,LOG,00000,"execute S_1: ROLLBACK",,,,,,,,,""
2017-05-06 14:34:03.249 EDT,"postgres","tatp",30626,"10.0.0.201:59584",590e16c7.77a2,335,"BEGIN",2017-05-06 14:32:39 EDT,2/95,0,LOG,00000,"execute S_3: BEGIN",,,,,,,,,""
2017-05-06 14:34:03.249 EDT,"postgres","tatp",30626,"10.0.0.201:59584",590e16c7.77a2,336,"UPDATE",2017-05-06 14:32:39 EDT,2/95,0,LOG,00000,"execute S_4: UPDATE ""SUBSCRIBER"" SET bit_1 = $1 WHERE s_id = $2","parameters: $1 = '0', $2 = '51387'",,,,,,,,""
2017-05-06 14:34:03.356 EDT,"postgres","tatp",30626,"10.0.0.201:59584",590e16c7.77a2,337,"UPDATE",2017-05-06 14:32:39 EDT,2/95,1253,LOG,00000,"execute S_5: UPDATE ""SPECIAL_FACILITY"" SET data_a = $1 WHERE s_id = $2 AND sf_type = $3","parameters: $1 = '116', $2 = '51387', $3 = '1'",,,,,,,,""
2017-05-06 14:34:03.463 EDT,"postgres","tatp",30626,"10.0.0.201:59584",590e16c7.77a2,338,"COMMIT",2017-05-06 14:32:39 EDT,2/95,1253,LOG,00000,"execute S_2: COMMIT",,,,,,,,,""
2017-05-06 14:34:04.248 EDT,"postgres","tatp",30626,"10.0.0.201:59584",590e16c7.77a2,339,"BEGIN",2017-05-06 14:32:39 EDT,2/96,0,LOG,00000,"execute S_3: BEGIN",,,,,,,,,""
2017-05-06 14:34:04.248 EDT,"postgres","tatp",30626,"10.0.0.201:59584",590e16c7.77a2,340,"UPDATE",2017-05-06 14:32:39 EDT,2/96,0,LOG,00000,"execute S_4: UPDATE ""SUBSCRIBER"" SET bit_1 = $1 WHERE s_id = $2","parameters: $1 = '0', $2 = '58885'",,,,,,,,""
2017-05-06 14:34:04.325 EDT,"postgres","tatp",30626,"10.0.0.201:59584",590e16c7.77a2,341,"UPDATE",2017-05-06 14:32:39 EDT,2/96,1254,LOG,00000,"execute S_5: UPDATE ""SPECIAL_FACILITY"" SET data_a = $1 WHERE s_id = $2 AND sf_type = $3","parameters: $1 = '148', $2 = '58885', $3 = '2'",,,,,,,,""
2017-05-06 14:34:04.350 EDT,"postgres","tatp",30626,"10.0.0.201:59584",590e16c7.77a2,342,"ROLLBACK",2017-05-06 14:32:39 EDT,2/96,1254,LOG,00000,"execute S_1: ROLLBACK",,,,,,,,,""
2017-05-06 14:34:05.250 EDT,"postgres","tatp",30626,"10.0.0.201:59584",590e16c7.77a2,343,"BEGIN",2017-05-06 14:32:39 EDT,2/97,0,LOG,00000,"execute S_3: BEGIN",,,,,,,,,""
2017-05-06 14:34:05.250 EDT,"postgres","tatp",30626,"10.0.0.201:59584",590e16c7.77a2,344,"UPDATE",2017-05-06 14:32:39 EDT,2/97,0,LOG,00000,"execute S_4: UPDATE ""SUBSCRIBER"" SET bit_1 = $1 WHERE s_id = $2","parameters: $1 = '0', $2 = '75865'",,,,,,,,""
2017-05-06 14:34:05.352 EDT,"postgres","tatp",30626,"10.0.0.201:59584",590e16c7.77a2,345,"UPDATE",2017-05-06 14:32:39 EDT,2/97,1255,LOG,00000,"execute S_5: UPDATE ""SPECIAL_FACILITY"" SET data_a = $1 WHERE s_id = $2 AND sf_type = $3","parameters: $1 = '221', $2 = '75865', $3 = '1'",,,,,,,,""
2017-05-06 14:34:05.456 EDT,"postgres","tatp",30626,"10.0.0.201:59584",590e16c7.77a2,346,"ROLLBACK",2017-05-06 14:32:39 EDT,2/97,1255,LOG,00000,"execute S_1: ROLLBACK",,,,,,,,,""
2017-05-06 14:34:06.250 EDT,"postgres","tatp",30626,"10.0.0.201:59584",590e16c7.77a2,347,"BEGIN",2017-05-06 14:32:39 EDT,2/98,0,LOG,00000,"execute S_3: BEGIN",,,,,,,,,""
2017-05-06 14:34:06.250 EDT,"postgres","tatp",30626,"10.0.0.201:59584",590e16c7.77a2,348,"UPDATE",2017-05-06 14:32:39 EDT,2/98,0,LOG,00000,"execute S_4: UPDATE ""SUBSCRIBER"" SET bit_1 = $1 WHERE s_id = $2","parameters: $1 = '0', $2 = '84623'",,,,,,,,""
2017-05-06 14:34:06.353 EDT,"postgres","tatp",30626,"10.0.0.201:59584",590e16c7.77a2,349,"UPDATE",2017-05-06 14:32:39 EDT,2/98,1256,LOG,00000,"execute S_5: UPDATE ""SPECIAL_FACILITY"" SET data_a = $1 WHERE s_id = $2 AND sf_type = $3","parameters: $1 = '178', $2 = '84623', $3 = '1'",,,,,,,,""
2017-05-06 14:34:06.454 EDT,"postgres","tatp",30626,"10.0.0.201:59584",590e16c7.77a2,350,"COMMIT",2017-05-06 14:32:39 EDT,2/98,1256,LOG,00000,"execute S_2: COMMIT",,,,,,,,,""
2017-05-06 14:34:07.249 EDT,"postgres","tatp",30626,"10.0.0.201:59584",590e16c7.77a2,351,"BEGIN",2017-05-06 14:32:39 EDT,2/99,0,LOG,00000,"execute S_3: BEGIN",,,,,,,,,""
2017-05-06 14:34:07.249 EDT,"postgres","tatp",30626,"10.0.0.201:59584",590e16c7.77a2,352,"UPDATE",2017-05-06 14:32:39 EDT,2/99,0,LOG,00000,"execute S_4: UPDATE ""SUBSCRIBER"" SET bit_1 = $1 WHERE s_id = $2","parameters: $1 = '1', $2 = '82522'",,,,,,,,""
2017-05-06 14:34:07.254 EDT,"postgres","tatp",30626,"10.0.0.201:59584",590e16c7.77a2,353,"UPDATE",2017-05-06 14:32:39 EDT,2/99,1257,LOG,00000,"execute S_5: UPDATE ""SPECIAL_FACILITY"" SET data_a = $1 WHERE s_id = $2 AND sf_type = $3","parameters: $1 = '167', $2 = '82522', $3 = '1'",,,,,,,,""
2017-05-06 14:34:07.361 EDT,"postgres","tatp",30626,"10.0.0.201:59584",590e16c7.77a2,354,"ROLLBACK",2017-05-06 14:32:39 EDT,2/99,1257,LOG,00000,"execute S_1: ROLLBACK",,,,,,,,,""
2017-05-06 14:34:08.248 EDT,"postgres","tatp",30626,"10.0.0.201:59584",590e16c7.77a2,355,"BEGIN",2017-05-06 14:32:39 EDT,2/100,0,LOG,00000,"execute S_3: BEGIN",,,,,,,,,""
2017-05-06 14:34:08.248 EDT,"postgres","tatp",30626,"10.0.0.201:59584",590e16c7.77a2,356,"UPDATE",2017-05-06 14:32:39 EDT,2/100,0,LOG,00000,"execute S_4: UPDATE ""SUBSCRIBER"" SET bit_1 = $1 WHERE s_id = $2","parameters: $1 = '0', $2 = '18709'",,,,,,,,""
2017-05-06 14:34:08.350 EDT,"postgres","tatp",30626,"10.0.0.201:59584",590e16c7.77a2,357,"UPDATE",2017-05-06 14:32:39 EDT,2/100,1258,LOG,00000,"execute S_5: UPDATE ""SPECIAL_FACILITY"" SET data_a = $1 WHERE s_id = $2 AND sf_type = $3","parameters: $1 = '215', $2 = '18709', $3 = '3'",,,,,,,,""
2017-05-06 14:34:08.450 EDT,"postgres","tatp",30626,"10.0.0.201:59584",590e16c7.77a2,358,"ROLLBACK",2017-05-06 14:32:39 EDT,2/100,1258,LOG,00000,"execute S_1: ROLLBACK",,,,,,,,,""
2017-05-06 14:34:09.248 EDT,"postgres","tatp",30626,"10.0.0.201:59584",590e16c7.77a2,359,"BEGIN",2017-05-06 14:32:39 EDT,2/101,0,LOG,00000,"execute S_3: BEGIN",,,,,,,,,""
2017-05-06 14:34:09.249 EDT,"postgres","tatp",30626,"10.0.0.201:59584",590e16c7.77a2,360,"UPDATE",2017-05-06 14:32:39 EDT,2/101,0,LOG,00000,"execute S_4: UPDATE ""SUBSCRIBER"" SET bit_1 = $1 WHERE s_id = $2","parameters: $1 = '1', $2 = '25795'",,,,,,,,""
2017-05-06 14:34:09.330 EDT,"postgres","tatp",30626,"10.0.0.201:59584",590e16c7.77a2,361,"UPDATE",2017-05-06 14:32:39 EDT,2/101,1259,LOG,00000,"execute S_5: UPDATE ""SPECIAL_FACILITY"" SET data_a = $1 WHERE s_id = $2 AND sf_type = $3","parameters: $1 = '2', $2 = '25795', $3 = '1'",,,,,,,,""
2017-05-06 14:34:09.350 EDT,"postgres","tatp",30626,"10.0.0.201:59584",590e16c7.77a2,362,"ROLLBACK",2017-05-06 14:32:39 EDT,2/101,1259,LOG,00000,"execute S_1: ROLLBACK",,,,,,,,,""
2017-05-06 14:34:10.248 EDT,"postgres","tatp",30626,"10.0.0.201:59584",590e16c7.77a2,363,"BEGIN",2017-05-06 14:32:39 EDT,2/102,0,LOG,00000,"execute S_3: BEGIN",,,,,,,,,""
2017-05-06 14:34:10.248 EDT,"postgres","tatp",30626,"10.0.0.201:59584",590e16c7.77a2,364,"UPDATE",2017-05-06 14:32:39 EDT,2/102,0,LOG,00000,"execute S_4: UPDATE ""SUBSCRIBER"" SET bit_1 = $1 WHERE s_id = $2","parameters: $1 = '0', $2 = '38687'",,,,,,,,""
2017-05-06 14:34:10.351 EDT,"postgres","tatp",30626,"10.0.0.201:59584",590e16c7.77a2,365,"UPDATE",2017-05-06 14:32:39 EDT,2/102,1260,LOG,00000,"execute S_5: UPDATE ""SPECIAL_FACILITY"" SET data_a = $1 WHERE s_id = $2 AND sf_type = $3","parameters: $1 = '186', $2 = '38687', $3 = '2'",,,,,,,,""
2017-05-06 14:34:10.455 EDT,"postgres","tatp",30626,"10.0.0.201:59584",590e16c7.77a2,366,"COMMIT",2017-05-06 14:32:39 EDT,2/102,1260,LOG,00000,"execute S_2: COMMIT",,,,,,,,,""
2017-05-06 14:34:11.255 EDT,"postgres","tatp",30626,"10.0.0.201:59584",590e16c7.77a2,367,"BEGIN",2017-05-06 14:32:39 EDT,2/103,0,LOG,00000,"execute S_3: BEGIN",,,,,,,,,""
2017-05-06 14:34:11.255 EDT,"postgres","tatp",30626,"10.0.0.201:59584",590e16c7.77a2,368,"UPDATE",2017-05-06 14:32:39 EDT,2/103,0,LOG,00000,"execute S_4: UPDATE ""SUBSCRIBER"" SET bit_1 = $1 WHERE s_id = $2","parameters: $1 = '0', $2 = '25422'",,,,,,,,""
2017-05-06 14:34:11.358 EDT,"postgres","tatp",30626,"10.0.0.201:59584",590e16c7.77a2,369,"UPDATE",2017-05-06 14:32:39 EDT,2/103,1261,LOG,00000,"execute S_5: UPDATE ""SPECIAL_FACILITY"" SET data_a = $1 WHERE s_id = $2 AND sf_type = $3","parameters: $1 = '200', $2 = '25422', $3 = '2'",,,,,,,,""
2017-05-06 14:34:11.459 EDT,"postgres","tatp",30626,"10.0.0.201:59584",590e16c7.77a2,370,"ROLLBACK",2017-05-06 14:32:39 EDT,2/103,1261,LOG,00000,"execute S_1: ROLLBACK",,,,,,,,,""
2017-05-06 14:34:12.248 EDT,"postgres","tatp",30626,"10.0.0.201:59584",590e16c7.77a2,371,"BEGIN",2017-05-06 14:32:39 EDT,2/104,0,LOG,00000,"execute S_3: BEGIN",,,,,,,,,""
2017-05-06 14:34:12.248 EDT,"postgres","tatp",30626,"10.0.0.201:59584",590e16c7.77a2,372,"UPDATE",2017-05-06 14:32:39 EDT,2/104,0,LOG,00000,"execute S_4: UPDATE ""SUBSCRIBER"" SET bit_1 = $1 WHERE s_id = $2","parameters: $1 = '0', $2 = '29733'",,,,,,,,""
2017-05-06 14:34:12.352 EDT,"postgres","tatp",30626,"10.0.0.201:59584",590e16c7.77a2,373,"UPDATE",2017-05-06 14:32:39 EDT,2/104,1262,LOG,00000,"execute S_5: UPDATE ""SPECIAL_FACILITY"" SET data_a = $1 WHERE s_id = $2 AND sf_type = $3","parameters: $1 = '252', $2 = '29733', $3 = '1'",,,,,,,,""
2017-05-06 14:34:12.461 EDT,"postgres","tatp",30626,"10.0.0.201:59584",590e16c7.77a2,374,"COMMIT",2017-05-06 14:32:39 EDT,2/104,1262,LOG,00000,"execute S_2: COMMIT",,,,,,,,,""
2017-05-06 14:34:13.252 EDT,"postgres","tatp",30626,"10.0.0.201:59584",590e16c7.77a2,375,"BEGIN",2017-05-06 14:32:39 EDT,2/105,0,LOG,00000,"execute S_3: BEGIN",,,,,,,,,""
2017-05-06 14:34:13.252 EDT,"postgres","tatp",30626,"10.0.0.201:59584",590e16c7.77a2,376,"UPDATE",2017-05-06 14:32:39 EDT,2/105,0,LOG,00000,"execute S_4: UPDATE ""SUBSCRIBER"" SET bit_1 = $1 WHERE s_id = $2","parameters: $1 = '1', $2 = '8640'",,,,,,,,""
2017-05-06 14:34:13.356 EDT,"postgres","tatp",30626,"10.0.0.201:59584",590e16c7.77a2,377,"UPDATE",2017-05-06 14:32:39 EDT,2/105,1263,LOG,00000,"execute S_5: UPDATE ""SPECIAL_FACILITY"" SET data_a = $1 WHERE s_id = $2 AND sf_type = $3","parameters: $1 = '105', $2 = '8640', $3 = '1'",,,,,,,,""
2017-05-06 14:34:13.462 EDT,"postgres","tatp",30626,"10.0.0.201:59584",590e16c7.77a2,378,"COMMIT",2017-05-06 14:32:39 EDT,2/105,1263,LOG,00000,"execute S_2: COMMIT",,,,,,,,,""
2017-05-06 14:34:14.250 EDT,"postgres","tatp",30626,"10.0.0.201:59584",590e16c7.77a2,379,"BEGIN",2017-05-06 14:32:39 EDT,2/106,0,LOG,00000,"execute S_3: BEGIN",,,,,,,,,""
2017-05-06 14:34:14.250 EDT,"postgres","tatp",30626,"10.0.0.201:59584",590e16c7.77a2,380,"UPDATE",2017-05-06 14:32:39 EDT,2/106,0,LOG,00000,"execute S_4: UPDATE ""SUBSCRIBER"" SET bit_1 = $1 WHERE s_id = $2","parameters: $1 = '0', $2 = '24042'",,,,,,,,""
2017-05-06 14:34:14.350 EDT,"postgres","tatp",30626,"10.0.0.201:59584",590e16c7.77a2,381,"UPDATE",2017-05-06 14:32:39 EDT,2/106,1264,LOG,00000,"execute S_5: UPDATE ""SPECIAL_FACILITY"" SET data_a = $1 WHERE s_id = $2 AND sf_type = $3","parameters: $1 = '46', $2 = '24042', $3 = '4'",,,,,,,,""
2017-05-06 14:34:14.483 EDT,"postgres","tatp",30626,"10.0.0.201:59584",590e16c7.77a2,382,"ROLLBACK",2017-05-06 14:32:39 EDT,2/106,1264,LOG,00000,"execute S_1: ROLLBACK",,,,,,,,,""
2017-05-06 14:34:15.249 EDT,"postgres","tatp",30626,"10.0.0.201:59584",590e16c7.77a2,383,"BEGIN",2017-05-06 14:32:39 EDT,2/107,0,LOG,00000,"execute S_3: BEGIN",,,,,,,,,""
2017-05-06 14:34:15.249 EDT,"postgres","tatp",30626,"10.0.0.201:59584",590e16c7.77a2,384,"UPDATE",2017-05-06 14:32:39 EDT,2/107,0,LOG,00000,"execute S_4: UPDATE ""SUBSCRIBER"" SET bit_1 = $1 WHERE s_id = $2","parameters: $1 = '1', $2 = '85059'",,,,,,,,""
2017-05-06 14:34:15.351 EDT,"postgres","tatp",30626,"10.0.0.201:59584",590e16c7.77a2,385,"UPDATE",2017-05-06 14:32:39 EDT,2/107,1265,LOG,00000,"execute S_5: UPDATE ""SPECIAL_FACILITY"" SET data_a = $1 WHERE s_id = $2 AND sf_type = $3","parameters: $1 = '251', $2 = '85059', $3 = '3'",,,,,,,,""
2017-05-06 14:34:15.452 EDT,"postgres","tatp",30626,"10.0.0.201:59584",590e16c7.77a2,386,"ROLLBACK",2017-05-06 14:32:39 EDT,2/107,1265,LOG,00000,"execute S_1: ROLLBACK",,,,,,,,,""
2017-05-06 14:34:16.248 EDT,"postgres","tatp",30626,"10.0.0.201:59584",590e16c7.77a2,387,"BEGIN",2017-05-06 14:32:39 EDT,2/108,0,LOG,00000,"execute S_3: BEGIN",,,,,,,,,""
2017-05-06 14:34:16.248 EDT,"postgres","tatp",30626,"10.0.0.201:59584",590e16c7.77a2,388,"UPDATE",2017-05-06 14:32:39 EDT,2/108,0,LOG,00000,"execute S_4: UPDATE ""SUBSCRIBER"" SET bit_1 = $1 WHERE s_id = $2","parameters: $1 = '0', $2 = '35428'",,,,,,,,""
2017-05-06 14:34:16.352 EDT,"postgres","tatp",30626,"10.0.0.201:59584",590e16c7.77a2,389,"UPDATE",2017-05-06 14:32:39 EDT,2/108,1266,LOG,00000,"execute S_5: UPDATE ""SPECIAL_FACILITY"" SET data_a = $1 WHERE s_id = $2 AND sf_type = $3","parameters: $1 = '204', $2 = '35428', $3 = '1'",,,,,,,,""
2017-05-06 14:34:16.455 EDT,"postgres","tatp",30626,"10.0.0.201:59584",590e16c7.77a2,390,"ROLLBACK",2017-05-06 14:32:39 EDT,2/108,1266,LOG,00000,"execute S_1: ROLLBACK",,,,,,,,,""
2017-05-06 14:34:17.494 EDT,"postgres","tatp",30626,"10.0.0.201:59584",590e16c7.77a2,391,"BEGIN",2017-05-06 14:32:39 EDT,2/109,0,LOG,00000,"execute S_3: BEGIN",,,,,,,,,""
2017-05-06 14:34:17.494 EDT,"postgres","tatp",30626,"10.0.0.201:59584",590e16c7.77a2,392,"UPDATE",2017-05-06 14:32:39 EDT,2/109,0,LOG,00000,"execute S_4: UPDATE ""SUBSCRIBER"" SET bit_1 = $1 WHERE s_id = $2","parameters: $1 = '0', $2 = '43615'",,,,,,,,""
2017-05-06 14:34:17.663 EDT,"postgres","tatp",30626,"10.0.0.201:59584",590e16c7.77a2,393,"UPDATE",2017-05-06 14:32:39 EDT,2/109,1267,LOG,00000,"execute S_5: UPDATE ""SPECIAL_FACILITY"" SET data_a = $1 WHERE s_id = $2 AND sf_type = $3","parameters: $1 = '126', $2 = '43615', $3 = '1'",,,,,,,,""
2017-05-06 14:34:17.983 EDT,"postgres","tatp",30626,"10.0.0.201:59584",590e16c7.77a2,394,"COMMIT",2017-05-06 14:32:39 EDT,2/109,1267,LOG,00000,"execute S_2: COMMIT",,,,,,,,,""
2017-05-06 14:34:18.419 EDT,"postgres","tatp",30626,"10.0.0.201:59584",590e16c7.77a2,395,"BEGIN",2017-05-06 14:32:39 EDT,2/110,0,LOG,00000,"execute S_3: BEGIN",,,,,,,,,""
2017-05-06 14:34:18.419 EDT,"postgres","tatp",30626,"10.0.0.201:59584",590e16c7.77a2,396,"UPDATE",2017-05-06 14:32:39 EDT,2/110,0,LOG,00000,"execute S_4: UPDATE ""SUBSCRIBER"" SET bit_1 = $1 WHERE s_id = $2","parameters: $1 = '0', $2 = '38964'",,,,,,,,""
2017-05-06 14:34:19.276 EDT,"postgres","tatp",30626,"10.0.0.201:59584",590e16c7.77a2,397,"UPDATE",2017-05-06 14:32:39 EDT,2/110,1268,LOG,00000,"execute S_5: UPDATE ""SPECIAL_FACILITY"" SET data_a = $1 WHERE s_id = $2 AND sf_type = $3","parameters: $1 = '148', $2 = '38964', $3 = '4'",,,,,,,,""
2017-05-06 14:34:19.579 EDT,"postgres","tatp",30626,"10.0.0.201:59584",590e16c7.77a2,398,"ROLLBACK",2017-05-06 14:32:39 EDT,2/110,1268,LOG,00000,"execute S_1: ROLLBACK",,,,,,,,,""
2017-05-06 14:34:20.252 EDT,"postgres","tatp",30626,"10.0.0.201:59584",590e16c7.77a2,399,"BEGIN",2017-05-06 14:32:39 EDT,2/111,0,LOG,00000,"execute S_3: BEGIN",,,,,,,,,""
2017-05-06 14:34:20.252 EDT,"postgres","tatp",30626,"10.0.0.201:59584",590e16c7.77a2,400,"UPDATE",2017-05-06 14:32:39 EDT,2/111,0,LOG,00000,"execute S_4: UPDATE ""SUBSCRIBER"" SET bit_1 = $1 WHERE s_id = $2","parameters: $1 = '0', $2 = '3950'",,,,,,,,""
2017-05-06 14:34:20.384 EDT,"postgres","tatp",30626,"10.0.0.201:59584",590e16c7.77a2,401,"UPDATE",2017-05-06 14:32:39 EDT,2/111,1269,LOG,00000,"execute S_5: UPDATE ""SPECIAL_FACILITY"" SET data_a = $1 WHERE s_id = $2 AND sf_type = $3","parameters: $1 = '137', $2 = '3950', $3 = '2'",,,,,,,,""
2017-05-06 14:34:20.487 EDT,"postgres","tatp",30626,"10.0.0.201:59584",590e16c7.77a2,402,"ROLLBACK",2017-05-06 14:32:39 EDT,2/111,1269,LOG,00000,"execute S_1: ROLLBACK",,,,,,,,,""
2017-05-06 14:34:20.590 EDT,"postgres","tatp",30626,"10.0.0.201:59584",590e16c7.77a2,403,"BEGIN",2017-05-06 14:32:39 EDT,2/112,0,LOG,00000,"execute S_3: BEGIN",,,,,,,,,""
2017-05-06 14:34:20.591 EDT,"postgres","tatp",30626,"10.0.0.201:59584",590e16c7.77a2,404,"UPDATE",2017-05-06 14:32:39 EDT,2/112,0,LOG,00000,"execute S_4: UPDATE ""SUBSCRIBER"" SET bit_1 = $1 WHERE s_id = $2","parameters: $1 = '1', $2 = '583'",,,,,,,,""
2017-05-06 14:34:20.691 EDT,"postgres","tatp",30626,"10.0.0.201:59584",590e16c7.77a2,405,"UPDATE",2017-05-06 14:32:39 EDT,2/112,1270,LOG,00000,"execute S_5: UPDATE ""SPECIAL_FACILITY"" SET data_a = $1 WHERE s_id = $2 AND sf_type = $3","parameters: $1 = '129', $2 = '583', $3 = '3'",,,,,,,,""
2017-05-06 14:34:20.791 EDT,"postgres","tatp",30626,"10.0.0.201:59584",590e16c7.77a2,406,"COMMIT",2017-05-06 14:32:39 EDT,2/112,1270,LOG,00000,"execute S_2: COMMIT",,,,,,,,,""
2017-05-06 14:34:21.248 EDT,"postgres","tatp",30626,"10.0.0.201:59584",590e16c7.77a2,407,"BEGIN",2017-05-06 14:32:39 EDT,2/113,0,LOG,00000,"execute S_3: BEGIN",,,,,,,,,""
2017-05-06 14:34:21.248 EDT,"postgres","tatp",30626,"10.0.0.201:59584",590e16c7.77a2,408,"UPDATE",2017-05-06 14:32:39 EDT,2/113,0,LOG,00000,"execute S_4: UPDATE ""SUBSCRIBER"" SET bit_1 = $1 WHERE s_id = $2","parameters: $1 = '1', $2 = '54545'",,,,,,,,""
2017-05-06 14:34:21.351 EDT,"postgres","tatp",30626,"10.0.0.201:59584",590e16c7.77a2,409,"UPDATE",2017-05-06 14:32:39 EDT,2/113,1271,LOG,00000,"execute S_5: UPDATE ""SPECIAL_FACILITY"" SET data_a = $1 WHERE s_id = $2 AND sf_type = $3","parameters: $1 = '173', $2 = '54545', $3 = '1'",,,,,,,,""
2017-05-06 14:34:21.452 EDT,"postgres","tatp",30626,"10.0.0.201:59584",590e16c7.77a2,410,"ROLLBACK",2017-05-06 14:32:39 EDT,2/113,1271,LOG,00000,"execute S_1: ROLLBACK",,,,,,,,,""
