2017-05-02 19:07:33.470 EDT,,,9582,,59091135.256e,1,,2017-05-02 19:07:33 EDT,,0,LOG,00000,"ending log output to stderr",,"Future log output will go to log destination ""csvlog"".",,,,,,,""
2017-05-02 19:07:33.470 EDT,,,9584,,59091135.2570,1,,2017-05-02 19:07:33 EDT,,0,LOG,00000,"database system was shut down at 2017-05-02 19:07:32 EDT",,,,,,,,,""
2017-05-02 19:07:33.474 EDT,,,9584,,59091135.2570,2,,2017-05-02 19:07:33 EDT,,0,LOG,00000,"MultiXact member wraparound protections are now enabled",,,,,,,,,""
2017-05-02 19:07:33.476 EDT,,,9588,,59091135.2574,1,,2017-05-02 19:07:33 EDT,,0,LOG,00000,"autovacuum launcher started",,,,,,,,,""
2017-05-02 19:07:33.476 EDT,,,9582,,59091135.256e,2,,2017-05-02 19:07:33 EDT,,0,LOG,00000,"database system is ready to accept connections",,,,,,,,,""
2017-05-02 19:07:33.936 EDT,,,9590,"[local]",59091135.2576,1,"",2017-05-02 19:07:33 EDT,,0,LOG,08P01,"incomplete startup packet",,,,,,,,,""
2017-05-02 19:07:34.454 EDT,"postgres","postgres",9593,"[local]",59091136.2579,1,"idle",2017-05-02 19:07:34 EDT,2/2,0,LOG,00000,"statement: SELECT d.datname as ""Name"",
       pg_catalog.pg_get_userbyid(d.datdba) as ""Owner"",
       pg_catalog.pg_encoding_to_char(d.encoding) as ""Encoding"",
       d.datcollate as ""Collate"",
       d.datctype as ""Ctype"",
       pg_catalog.array_to_string(d.datacl, E'\n') AS ""Access privileges""
FROM pg_catalog.pg_database d
ORDER BY 1;",,,,,,,,,"psql"
2017-05-02 19:07:34.969 EDT,"postgres","postgres",9596,"[local]",59091136.257c,1,"idle",2017-05-02 19:07:34 EDT,2/4,0,LOG,00000,"statement: SELECT d.datname as ""Name"",
       pg_catalog.pg_get_userbyid(d.datdba) as ""Owner"",
       pg_catalog.pg_encoding_to_char(d.encoding) as ""Encoding"",
       d.datcollate as ""Collate"",
       d.datctype as ""Ctype"",
       pg_catalog.array_to_string(d.datacl, E'\n') AS ""Access privileges""
FROM pg_catalog.pg_database d
ORDER BY 1;",,,,,,,,,"psql"
2017-05-02 19:07:35.484 EDT,"postgres","postgres",9599,"[local]",59091137.257f,1,"idle",2017-05-02 19:07:35 EDT,2/6,0,LOG,00000,"statement: SELECT d.datname as ""Name"",
       pg_catalog.pg_get_userbyid(d.datdba) as ""Owner"",
       pg_catalog.pg_encoding_to_char(d.encoding) as ""Encoding"",
       d.datcollate as ""Collate"",
       d.datctype as ""Ctype"",
       pg_catalog.array_to_string(d.datacl, E'\n') AS ""Access privileges""
FROM pg_catalog.pg_database d
ORDER BY 1;",,,,,,,,,"psql"
2017-05-02 19:08:02.910 EDT,"postgres","epinions",9604,"10.0.0.201:52744",59091152.2584,1,"SET",2017-05-02 19:08:02 EDT,2/8,0,LOG,00000,"execute <unnamed>: SET extra_float_digits = 3",,,,,,,,,""
2017-05-02 19:08:03.051 EDT,"postgres","epinions",9604,"10.0.0.201:52744",59091152.2584,2,"SELECT",2017-05-02 19:08:02 EDT,2/9,0,LOG,00000,"execute <unnamed>: SELECT u_id FROM ""user""",,,,,,,,,""
2017-05-02 19:08:04.521 EDT,"postgres","epinions",9604,"10.0.0.201:52744",59091152.2584,3,"SELECT",2017-05-02 19:08:02 EDT,2/10,0,LOG,00000,"execute <unnamed>: SELECT i_id FROM ""item""",,,,,,,,,""
2017-05-02 19:08:05.248 EDT,"postgres","epinions",9606,"10.0.0.201:52745",59091155.2586,1,"SET",2017-05-02 19:08:05 EDT,2/12,0,LOG,00000,"execute <unnamed>: SET extra_float_digits = 3",,,,,,,,,""
2017-05-02 19:08:05.342 EDT,"postgres","epinions",9606,"10.0.0.201:52745",59091155.2586,2,"SET",2017-05-02 19:08:05 EDT,2/13,0,LOG,00000,"execute <unnamed>: SET SESSION CHARACTERISTICS AS TRANSACTION ISOLATION LEVEL READ COMMITTED",,,,,,,,,""
2017-05-02 19:08:05.482 EDT,"postgres","epinions",9606,"10.0.0.201:52745",59091155.2586,3,"BEGIN",2017-05-02 19:08:05 EDT,2/14,0,LOG,00000,"execute <unnamed>: BEGIN",,,,,,,,,""
2017-05-02 19:08:05.484 EDT,"postgres","epinions",9606,"10.0.0.201:52745",59091155.2586,4,"SELECT",2017-05-02 19:08:05 EDT,2/14,0,LOG,00000,"execute <unnamed>: SELECT avg(rating) FROM review r WHERE r.i_id=$1","parameters: $1 = '23559'",,,,,,,,""
2017-05-02 19:08:05.658 EDT,"postgres","epinions",9606,"10.0.0.201:52745",59091155.2586,5,"COMMIT",2017-05-02 19:08:05 EDT,2/14,0,LOG,00000,"execute S_1: COMMIT",,,,,,,,,""
2017-05-02 19:08:06.466 EDT,"postgres","epinions",9606,"10.0.0.201:52745",59091155.2586,6,"BEGIN",2017-05-02 19:08:05 EDT,2/15,0,LOG,00000,"execute <unnamed>: BEGIN",,,,,,,,,""
2017-05-02 19:08:06.466 EDT,"postgres","epinions",9606,"10.0.0.201:52745",59091155.2586,7,"SELECT",2017-05-02 19:08:05 EDT,2/15,0,LOG,00000,"execute <unnamed>: SELECT avg(rating) FROM review r WHERE r.i_id=$1","parameters: $1 = '8281'",,,,,,,,""
2017-05-02 19:08:06.638 EDT,"postgres","epinions",9606,"10.0.0.201:52745",59091155.2586,8,"COMMIT",2017-05-02 19:08:05 EDT,2/15,0,LOG,00000,"execute S_1: COMMIT",,,,,,,,,""
2017-05-02 19:08:07.470 EDT,"postgres","epinions",9606,"10.0.0.201:52745",59091155.2586,9,"BEGIN",2017-05-02 19:08:05 EDT,2/16,0,LOG,00000,"execute <unnamed>: BEGIN",,,,,,,,,""
2017-05-02 19:08:07.471 EDT,"postgres","epinions",9606,"10.0.0.201:52745",59091155.2586,10,"SELECT",2017-05-02 19:08:05 EDT,2/16,0,LOG,00000,"execute <unnamed>: SELECT avg(rating) FROM review r WHERE r.i_id=$1","parameters: $1 = '64015'",,,,,,,,""
2017-05-02 19:08:07.649 EDT,"postgres","epinions",9606,"10.0.0.201:52745",59091155.2586,11,"COMMIT",2017-05-02 19:08:05 EDT,2/16,0,LOG,00000,"execute S_1: COMMIT",,,,,,,,,""
2017-05-02 19:08:08.464 EDT,"postgres","epinions",9606,"10.0.0.201:52745",59091155.2586,12,"BEGIN",2017-05-02 19:08:05 EDT,2/17,0,LOG,00000,"execute <unnamed>: BEGIN",,,,,,,,,""
2017-05-02 19:08:08.465 EDT,"postgres","epinions",9606,"10.0.0.201:52745",59091155.2586,13,"SELECT",2017-05-02 19:08:05 EDT,2/17,0,LOG,00000,"execute <unnamed>: SELECT avg(rating) FROM review r WHERE r.i_id=$1","parameters: $1 = '64864'",,,,,,,,""
2017-05-02 19:08:08.633 EDT,"postgres","epinions",9606,"10.0.0.201:52745",59091155.2586,14,"COMMIT",2017-05-02 19:08:05 EDT,2/17,0,LOG,00000,"execute S_1: COMMIT",,,,,,,,,""
2017-05-02 19:08:09.463 EDT,"postgres","epinions",9606,"10.0.0.201:52745",59091155.2586,15,"BEGIN",2017-05-02 19:08:05 EDT,2/18,0,LOG,00000,"execute S_2: BEGIN",,,,,,,,,""
2017-05-02 19:08:09.464 EDT,"postgres","epinions",9606,"10.0.0.201:52745",59091155.2586,16,"SELECT",2017-05-02 19:08:05 EDT,2/18,0,LOG,00000,"execute S_3: SELECT avg(rating) FROM review r WHERE r.i_id=$1","parameters: $1 = '47089'",,,,,,,,""
2017-05-02 19:08:09.640 EDT,"postgres","epinions",9606,"10.0.0.201:52745",59091155.2586,17,"COMMIT",2017-05-02 19:08:05 EDT,2/18,0,LOG,00000,"execute S_1: COMMIT",,,,,,,,,""
2017-05-02 19:08:10.465 EDT,"postgres","epinions",9606,"10.0.0.201:52745",59091155.2586,18,"BEGIN",2017-05-02 19:08:05 EDT,2/19,0,LOG,00000,"execute S_2: BEGIN",,,,,,,,,""
2017-05-02 19:08:10.465 EDT,"postgres","epinions",9606,"10.0.0.201:52745",59091155.2586,19,"SELECT",2017-05-02 19:08:05 EDT,2/19,0,LOG,00000,"execute S_3: SELECT avg(rating) FROM review r WHERE r.i_id=$1","parameters: $1 = '99876'",,,,,,,,""
2017-05-02 19:08:10.638 EDT,"postgres","epinions",9606,"10.0.0.201:52745",59091155.2586,20,"COMMIT",2017-05-02 19:08:05 EDT,2/19,0,LOG,00000,"execute S_1: COMMIT",,,,,,,,,""
2017-05-02 19:08:11.466 EDT,"postgres","epinions",9606,"10.0.0.201:52745",59091155.2586,21,"BEGIN",2017-05-02 19:08:05 EDT,2/20,0,LOG,00000,"execute S_2: BEGIN",,,,,,,,,""
2017-05-02 19:08:11.466 EDT,"postgres","epinions",9606,"10.0.0.201:52745",59091155.2586,22,"SELECT",2017-05-02 19:08:05 EDT,2/20,0,LOG,00000,"execute S_3: SELECT avg(rating) FROM review r WHERE r.i_id=$1","parameters: $1 = '19781'",,,,,,,,""
2017-05-02 19:08:11.653 EDT,"postgres","epinions",9606,"10.0.0.201:52745",59091155.2586,23,"COMMIT",2017-05-02 19:08:05 EDT,2/20,0,LOG,00000,"execute S_1: COMMIT",,,,,,,,,""
2017-05-02 19:08:12.465 EDT,"postgres","epinions",9606,"10.0.0.201:52745",59091155.2586,24,"BEGIN",2017-05-02 19:08:05 EDT,2/21,0,LOG,00000,"execute S_2: BEGIN",,,,,,,,,""
2017-05-02 19:08:12.465 EDT,"postgres","epinions",9606,"10.0.0.201:52745",59091155.2586,25,"SELECT",2017-05-02 19:08:05 EDT,2/21,0,LOG,00000,"execute S_3: SELECT avg(rating) FROM review r WHERE r.i_id=$1","parameters: $1 = '68796'",,,,,,,,""
2017-05-02 19:08:12.636 EDT,"postgres","epinions",9606,"10.0.0.201:52745",59091155.2586,26,"COMMIT",2017-05-02 19:08:05 EDT,2/21,0,LOG,00000,"execute S_1: COMMIT",,,,,,,,,""
2017-05-02 19:08:13.485 EDT,"postgres","epinions",9606,"10.0.0.201:52745",59091155.2586,27,"BEGIN",2017-05-02 19:08:05 EDT,2/22,0,LOG,00000,"execute S_2: BEGIN",,,,,,,,,""
2017-05-02 19:08:13.486 EDT,"postgres","epinions",9606,"10.0.0.201:52745",59091155.2586,28,"SELECT",2017-05-02 19:08:05 EDT,2/22,0,LOG,00000,"execute S_3: SELECT avg(rating) FROM review r WHERE r.i_id=$1","parameters: $1 = '9118'",,,,,,,,""
2017-05-02 19:08:13.661 EDT,"postgres","epinions",9606,"10.0.0.201:52745",59091155.2586,29,"COMMIT",2017-05-02 19:08:05 EDT,2/22,0,LOG,00000,"execute S_1: COMMIT",,,,,,,,,""
2017-05-02 19:08:14.469 EDT,"postgres","epinions",9606,"10.0.0.201:52745",59091155.2586,30,"BEGIN",2017-05-02 19:08:05 EDT,2/23,0,LOG,00000,"execute S_2: BEGIN",,,,,,,,,""
2017-05-02 19:08:14.469 EDT,"postgres","epinions",9606,"10.0.0.201:52745",59091155.2586,31,"SELECT",2017-05-02 19:08:05 EDT,2/23,0,LOG,00000,"execute S_3: SELECT avg(rating) FROM review r WHERE r.i_id=$1","parameters: $1 = '62103'",,,,,,,,""
2017-05-02 19:08:14.651 EDT,"postgres","epinions",9606,"10.0.0.201:52745",59091155.2586,32,"COMMIT",2017-05-02 19:08:05 EDT,2/23,0,LOG,00000,"execute S_1: COMMIT",,,,,,,,,""
2017-05-02 19:08:15.465 EDT,"postgres","epinions",9606,"10.0.0.201:52745",59091155.2586,33,"BEGIN",2017-05-02 19:08:05 EDT,2/24,0,LOG,00000,"execute S_2: BEGIN",,,,,,,,,""
2017-05-02 19:08:15.466 EDT,"postgres","epinions",9606,"10.0.0.201:52745",59091155.2586,34,"SELECT",2017-05-02 19:08:05 EDT,2/24,0,LOG,00000,"execute S_3: SELECT avg(rating) FROM review r WHERE r.i_id=$1","parameters: $1 = '56902'",,,,,,,,""
2017-05-02 19:08:15.645 EDT,"postgres","epinions",9606,"10.0.0.201:52745",59091155.2586,35,"COMMIT",2017-05-02 19:08:05 EDT,2/24,0,LOG,00000,"execute S_1: COMMIT",,,,,,,,,""
2017-05-02 19:08:16.464 EDT,"postgres","epinions",9606,"10.0.0.201:52745",59091155.2586,36,"BEGIN",2017-05-02 19:08:05 EDT,2/25,0,LOG,00000,"execute S_2: BEGIN",,,,,,,,,""
2017-05-02 19:08:16.464 EDT,"postgres","epinions",9606,"10.0.0.201:52745",59091155.2586,37,"SELECT",2017-05-02 19:08:05 EDT,2/25,0,LOG,00000,"execute S_3: SELECT avg(rating) FROM review r WHERE r.i_id=$1","parameters: $1 = '67573'",,,,,,,,""
2017-05-02 19:08:16.655 EDT,"postgres","epinions",9606,"10.0.0.201:52745",59091155.2586,38,"COMMIT",2017-05-02 19:08:05 EDT,2/25,0,LOG,00000,"execute S_1: COMMIT",,,,,,,,,""
2017-05-02 19:08:17.464 EDT,"postgres","epinions",9606,"10.0.0.201:52745",59091155.2586,39,"BEGIN",2017-05-02 19:08:05 EDT,2/26,0,LOG,00000,"execute S_2: BEGIN",,,,,,,,,""
2017-05-02 19:08:17.464 EDT,"postgres","epinions",9606,"10.0.0.201:52745",59091155.2586,40,"SELECT",2017-05-02 19:08:05 EDT,2/26,0,LOG,00000,"execute S_3: SELECT avg(rating) FROM review r WHERE r.i_id=$1","parameters: $1 = '22283'",,,,,,,,""
2017-05-02 19:08:17.640 EDT,"postgres","epinions",9606,"10.0.0.201:52745",59091155.2586,41,"COMMIT",2017-05-02 19:08:05 EDT,2/26,0,LOG,00000,"execute S_1: COMMIT",,,,,,,,,""
2017-05-02 19:08:18.465 EDT,"postgres","epinions",9606,"10.0.0.201:52745",59091155.2586,42,"BEGIN",2017-05-02 19:08:05 EDT,2/27,0,LOG,00000,"execute S_2: BEGIN",,,,,,,,,""
2017-05-02 19:08:18.465 EDT,"postgres","epinions",9606,"10.0.0.201:52745",59091155.2586,43,"SELECT",2017-05-02 19:08:05 EDT,2/27,0,LOG,00000,"execute S_3: SELECT avg(rating) FROM review r WHERE r.i_id=$1","parameters: $1 = '42619'",,,,,,,,""
2017-05-02 19:08:18.645 EDT,"postgres","epinions",9606,"10.0.0.201:52745",59091155.2586,44,"COMMIT",2017-05-02 19:08:05 EDT,2/27,0,LOG,00000,"execute S_1: COMMIT",,,,,,,,,""
2017-05-02 19:08:19.464 EDT,"postgres","epinions",9606,"10.0.0.201:52745",59091155.2586,45,"BEGIN",2017-05-02 19:08:05 EDT,2/28,0,LOG,00000,"execute S_2: BEGIN",,,,,,,,,""
2017-05-02 19:08:19.464 EDT,"postgres","epinions",9606,"10.0.0.201:52745",59091155.2586,46,"SELECT",2017-05-02 19:08:05 EDT,2/28,0,LOG,00000,"execute S_3: SELECT avg(rating) FROM review r WHERE r.i_id=$1","parameters: $1 = '87758'",,,,,,,,""
2017-05-02 19:08:19.640 EDT,"postgres","epinions",9606,"10.0.0.201:52745",59091155.2586,47,"COMMIT",2017-05-02 19:08:05 EDT,2/28,0,LOG,00000,"execute S_1: COMMIT",,,,,,,,,""
2017-05-02 19:08:20.468 EDT,"postgres","epinions",9606,"10.0.0.201:52745",59091155.2586,48,"BEGIN",2017-05-02 19:08:05 EDT,2/29,0,LOG,00000,"execute S_2: BEGIN",,,,,,,,,""
2017-05-02 19:08:20.468 EDT,"postgres","epinions",9606,"10.0.0.201:52745",59091155.2586,49,"SELECT",2017-05-02 19:08:05 EDT,2/29,0,LOG,00000,"execute S_3: SELECT avg(rating) FROM review r WHERE r.i_id=$1","parameters: $1 = '16033'",,,,,,,,""
2017-05-02 19:08:20.648 EDT,"postgres","epinions",9606,"10.0.0.201:52745",59091155.2586,50,"COMMIT",2017-05-02 19:08:05 EDT,2/29,0,LOG,00000,"execute S_1: COMMIT",,,,,,,,,""
2017-05-02 19:08:21.467 EDT,"postgres","epinions",9606,"10.0.0.201:52745",59091155.2586,51,"BEGIN",2017-05-02 19:08:05 EDT,2/30,0,LOG,00000,"execute S_2: BEGIN",,,,,,,,,""
2017-05-02 19:08:21.467 EDT,"postgres","epinions",9606,"10.0.0.201:52745",59091155.2586,52,"SELECT",2017-05-02 19:08:05 EDT,2/30,0,LOG,00000,"execute S_3: SELECT avg(rating) FROM review r WHERE r.i_id=$1","parameters: $1 = '93737'",,,,,,,,""
2017-05-02 19:08:21.645 EDT,"postgres","epinions",9606,"10.0.0.201:52745",59091155.2586,53,"COMMIT",2017-05-02 19:08:05 EDT,2/30,0,LOG,00000,"execute S_1: COMMIT",,,,,,,,,""
2017-05-02 19:08:22.466 EDT,"postgres","epinions",9606,"10.0.0.201:52745",59091155.2586,54,"BEGIN",2017-05-02 19:08:05 EDT,2/31,0,LOG,00000,"execute S_2: BEGIN",,,,,,,,,""
2017-05-02 19:08:22.466 EDT,"postgres","epinions",9606,"10.0.0.201:52745",59091155.2586,55,"SELECT",2017-05-02 19:08:05 EDT,2/31,0,LOG,00000,"execute S_3: SELECT avg(rating) FROM review r WHERE r.i_id=$1","parameters: $1 = '75786'",,,,,,,,""
2017-05-02 19:08:22.647 EDT,"postgres","epinions",9606,"10.0.0.201:52745",59091155.2586,56,"COMMIT",2017-05-02 19:08:05 EDT,2/31,0,LOG,00000,"execute S_1: COMMIT",,,,,,,,,""
2017-05-02 19:08:23.470 EDT,"postgres","epinions",9606,"10.0.0.201:52745",59091155.2586,57,"BEGIN",2017-05-02 19:08:05 EDT,2/32,0,LOG,00000,"execute S_2: BEGIN",,,,,,,,,""
2017-05-02 19:08:23.471 EDT,"postgres","epinions",9606,"10.0.0.201:52745",59091155.2586,58,"SELECT",2017-05-02 19:08:05 EDT,2/32,0,LOG,00000,"execute S_3: SELECT avg(rating) FROM review r WHERE r.i_id=$1","parameters: $1 = '97821'",,,,,,,,""
2017-05-02 19:08:23.657 EDT,"postgres","epinions",9606,"10.0.0.201:52745",59091155.2586,59,"COMMIT",2017-05-02 19:08:05 EDT,2/32,0,LOG,00000,"execute S_1: COMMIT",,,,,,,,,""
2017-05-02 19:08:24.475 EDT,"postgres","epinions",9606,"10.0.0.201:52745",59091155.2586,60,"BEGIN",2017-05-02 19:08:05 EDT,2/33,0,LOG,00000,"execute S_2: BEGIN",,,,,,,,,""
2017-05-02 19:08:24.475 EDT,"postgres","epinions",9606,"10.0.0.201:52745",59091155.2586,61,"SELECT",2017-05-02 19:08:05 EDT,2/33,0,LOG,00000,"execute S_3: SELECT avg(rating) FROM review r WHERE r.i_id=$1","parameters: $1 = '91843'",,,,,,,,""
2017-05-02 19:08:24.658 EDT,"postgres","epinions",9606,"10.0.0.201:52745",59091155.2586,62,"COMMIT",2017-05-02 19:08:05 EDT,2/33,0,LOG,00000,"execute S_1: COMMIT",,,,,,,,,""
2017-05-02 19:08:25.469 EDT,"postgres","epinions",9606,"10.0.0.201:52745",59091155.2586,63,"BEGIN",2017-05-02 19:08:05 EDT,2/34,0,LOG,00000,"execute S_2: BEGIN",,,,,,,,,""
2017-05-02 19:08:25.469 EDT,"postgres","epinions",9606,"10.0.0.201:52745",59091155.2586,64,"SELECT",2017-05-02 19:08:05 EDT,2/34,0,LOG,00000,"execute S_3: SELECT avg(rating) FROM review r WHERE r.i_id=$1","parameters: $1 = '59909'",,,,,,,,""
2017-05-02 19:08:25.642 EDT,"postgres","epinions",9606,"10.0.0.201:52745",59091155.2586,65,"COMMIT",2017-05-02 19:08:05 EDT,2/34,0,LOG,00000,"execute S_1: COMMIT",,,,,,,,,""
2017-05-02 19:08:26.486 EDT,"postgres","epinions",9606,"10.0.0.201:52745",59091155.2586,66,"BEGIN",2017-05-02 19:08:05 EDT,2/35,0,LOG,00000,"execute S_2: BEGIN",,,,,,,,,""
2017-05-02 19:08:26.486 EDT,"postgres","epinions",9606,"10.0.0.201:52745",59091155.2586,67,"SELECT",2017-05-02 19:08:05 EDT,2/35,0,LOG,00000,"execute S_3: SELECT avg(rating) FROM review r WHERE r.i_id=$1","parameters: $1 = '87598'",,,,,,,,""
2017-05-02 19:08:26.662 EDT,"postgres","epinions",9606,"10.0.0.201:52745",59091155.2586,68,"COMMIT",2017-05-02 19:08:05 EDT,2/35,0,LOG,00000,"execute S_1: COMMIT",,,,,,,,,""
2017-05-02 19:08:27.464 EDT,"postgres","epinions",9606,"10.0.0.201:52745",59091155.2586,69,"BEGIN",2017-05-02 19:08:05 EDT,2/36,0,LOG,00000,"execute S_2: BEGIN",,,,,,,,,""
2017-05-02 19:08:27.464 EDT,"postgres","epinions",9606,"10.0.0.201:52745",59091155.2586,70,"SELECT",2017-05-02 19:08:05 EDT,2/36,0,LOG,00000,"execute S_3: SELECT avg(rating) FROM review r WHERE r.i_id=$1","parameters: $1 = '63792'",,,,,,,,""
2017-05-02 19:08:27.651 EDT,"postgres","epinions",9606,"10.0.0.201:52745",59091155.2586,71,"COMMIT",2017-05-02 19:08:05 EDT,2/36,0,LOG,00000,"execute S_1: COMMIT",,,,,,,,,""
2017-05-02 19:08:28.469 EDT,"postgres","epinions",9606,"10.0.0.201:52745",59091155.2586,72,"BEGIN",2017-05-02 19:08:05 EDT,2/37,0,LOG,00000,"execute S_2: BEGIN",,,,,,,,,""
2017-05-02 19:08:28.469 EDT,"postgres","epinions",9606,"10.0.0.201:52745",59091155.2586,73,"SELECT",2017-05-02 19:08:05 EDT,2/37,0,LOG,00000,"execute S_3: SELECT avg(rating) FROM review r WHERE r.i_id=$1","parameters: $1 = '84636'",,,,,,,,""
2017-05-02 19:08:28.641 EDT,"postgres","epinions",9606,"10.0.0.201:52745",59091155.2586,74,"COMMIT",2017-05-02 19:08:05 EDT,2/37,0,LOG,00000,"execute S_1: COMMIT",,,,,,,,,""
2017-05-02 19:08:29.698 EDT,"postgres","epinions",9606,"10.0.0.201:52745",59091155.2586,75,"BEGIN",2017-05-02 19:08:05 EDT,2/38,0,LOG,00000,"execute S_2: BEGIN",,,,,,,,,""
2017-05-02 19:08:29.699 EDT,"postgres","epinions",9606,"10.0.0.201:52745",59091155.2586,76,"SELECT",2017-05-02 19:08:05 EDT,2/38,0,LOG,00000,"execute S_3: SELECT avg(rating) FROM review r WHERE r.i_id=$1","parameters: $1 = '9362'",,,,,,,,""
2017-05-02 19:08:29.942 EDT,"postgres","epinions",9606,"10.0.0.201:52745",59091155.2586,77,"COMMIT",2017-05-02 19:08:05 EDT,2/38,0,LOG,00000,"execute S_1: COMMIT",,,,,,,,,""
2017-05-02 19:08:30.561 EDT,"postgres","epinions",9606,"10.0.0.201:52745",59091155.2586,78,"BEGIN",2017-05-02 19:08:05 EDT,2/39,0,LOG,00000,"execute S_2: BEGIN",,,,,,,,,""
2017-05-02 19:08:30.561 EDT,"postgres","epinions",9606,"10.0.0.201:52745",59091155.2586,79,"SELECT",2017-05-02 19:08:05 EDT,2/39,0,LOG,00000,"execute S_3: SELECT avg(rating) FROM review r WHERE r.i_id=$1","parameters: $1 = '96961'",,,,,,,,""
2017-05-02 19:08:30.866 EDT,"postgres","epinions",9606,"10.0.0.201:52745",59091155.2586,80,"COMMIT",2017-05-02 19:08:05 EDT,2/39,0,LOG,00000,"execute S_1: COMMIT",,,,,,,,,""
2017-05-02 19:08:31.477 EDT,"postgres","epinions",9606,"10.0.0.201:52745",59091155.2586,81,"BEGIN",2017-05-02 19:08:05 EDT,2/40,0,LOG,00000,"execute S_2: BEGIN",,,,,,,,,""
2017-05-02 19:08:31.477 EDT,"postgres","epinions",9606,"10.0.0.201:52745",59091155.2586,82,"SELECT",2017-05-02 19:08:05 EDT,2/40,0,LOG,00000,"execute S_3: SELECT avg(rating) FROM review r WHERE r.i_id=$1","parameters: $1 = '11227'",,,,,,,,""
2017-05-02 19:08:31.788 EDT,"postgres","epinions",9606,"10.0.0.201:52745",59091155.2586,83,"COMMIT",2017-05-02 19:08:05 EDT,2/40,0,LOG,00000,"execute S_1: COMMIT",,,,,,,,,""
2017-05-02 19:08:32.464 EDT,"postgres","epinions",9606,"10.0.0.201:52745",59091155.2586,84,"BEGIN",2017-05-02 19:08:05 EDT,2/41,0,LOG,00000,"execute S_2: BEGIN",,,,,,,,,""
2017-05-02 19:08:32.464 EDT,"postgres","epinions",9606,"10.0.0.201:52745",59091155.2586,85,"SELECT",2017-05-02 19:08:05 EDT,2/41,0,LOG,00000,"execute S_3: SELECT avg(rating) FROM review r WHERE r.i_id=$1","parameters: $1 = '95867'",,,,,,,,""
2017-05-02 19:08:32.637 EDT,"postgres","epinions",9606,"10.0.0.201:52745",59091155.2586,86,"COMMIT",2017-05-02 19:08:05 EDT,2/41,0,LOG,00000,"execute S_1: COMMIT",,,,,,,,,""
2017-05-02 19:08:33.469 EDT,"postgres","epinions",9606,"10.0.0.201:52745",59091155.2586,87,"BEGIN",2017-05-02 19:08:05 EDT,2/42,0,LOG,00000,"execute S_2: BEGIN",,,,,,,,,""
2017-05-02 19:08:33.469 EDT,"postgres","epinions",9606,"10.0.0.201:52745",59091155.2586,88,"SELECT",2017-05-02 19:08:05 EDT,2/42,0,LOG,00000,"execute S_3: SELECT avg(rating) FROM review r WHERE r.i_id=$1","parameters: $1 = '29684'",,,,,,,,""
2017-05-02 19:08:33.644 EDT,"postgres","epinions",9606,"10.0.0.201:52745",59091155.2586,89,"COMMIT",2017-05-02 19:08:05 EDT,2/42,0,LOG,00000,"execute S_1: COMMIT",,,,,,,,,""
2017-05-02 19:08:34.464 EDT,"postgres","epinions",9606,"10.0.0.201:52745",59091155.2586,90,"BEGIN",2017-05-02 19:08:05 EDT,2/43,0,LOG,00000,"execute S_2: BEGIN",,,,,,,,,""
2017-05-02 19:08:34.464 EDT,"postgres","epinions",9606,"10.0.0.201:52745",59091155.2586,91,"SELECT",2017-05-02 19:08:05 EDT,2/43,0,LOG,00000,"execute S_3: SELECT avg(rating) FROM review r WHERE r.i_id=$1","parameters: $1 = '96308'",,,,,,,,""
2017-05-02 19:08:34.639 EDT,"postgres","epinions",9606,"10.0.0.201:52745",59091155.2586,92,"COMMIT",2017-05-02 19:08:05 EDT,2/43,0,LOG,00000,"execute S_1: COMMIT",,,,,,,,,""
2017-05-02 19:08:35.470 EDT,"postgres","epinions",9606,"10.0.0.201:52745",59091155.2586,93,"BEGIN",2017-05-02 19:08:05 EDT,2/44,0,LOG,00000,"execute S_2: BEGIN",,,,,,,,,""
2017-05-02 19:08:35.471 EDT,"postgres","epinions",9606,"10.0.0.201:52745",59091155.2586,94,"SELECT",2017-05-02 19:08:05 EDT,2/44,0,LOG,00000,"execute S_3: SELECT avg(rating) FROM review r WHERE r.i_id=$1","parameters: $1 = '8198'",,,,,,,,""
2017-05-02 19:08:35.648 EDT,"postgres","epinions",9606,"10.0.0.201:52745",59091155.2586,95,"COMMIT",2017-05-02 19:08:05 EDT,2/44,0,LOG,00000,"execute S_1: COMMIT",,,,,,,,,""
2017-05-02 19:08:36.472 EDT,"postgres","epinions",9606,"10.0.0.201:52745",59091155.2586,96,"BEGIN",2017-05-02 19:08:05 EDT,2/45,0,LOG,00000,"execute S_2: BEGIN",,,,,,,,,""
2017-05-02 19:08:36.472 EDT,"postgres","epinions",9606,"10.0.0.201:52745",59091155.2586,97,"SELECT",2017-05-02 19:08:05 EDT,2/45,0,LOG,00000,"execute S_3: SELECT avg(rating) FROM review r WHERE r.i_id=$1","parameters: $1 = '48272'",,,,,,,,""
2017-05-02 19:08:36.645 EDT,"postgres","epinions",9606,"10.0.0.201:52745",59091155.2586,98,"COMMIT",2017-05-02 19:08:05 EDT,2/45,0,LOG,00000,"execute S_1: COMMIT",,,,,,,,,""
2017-05-02 19:08:37.466 EDT,"postgres","epinions",9606,"10.0.0.201:52745",59091155.2586,99,"BEGIN",2017-05-02 19:08:05 EDT,2/46,0,LOG,00000,"execute S_2: BEGIN",,,,,,,,,""
2017-05-02 19:08:37.466 EDT,"postgres","epinions",9606,"10.0.0.201:52745",59091155.2586,100,"SELECT",2017-05-02 19:08:05 EDT,2/46,0,LOG,00000,"execute S_3: SELECT avg(rating) FROM review r WHERE r.i_id=$1","parameters: $1 = '38700'",,,,,,,,""
2017-05-02 19:08:37.651 EDT,"postgres","epinions",9606,"10.0.0.201:52745",59091155.2586,101,"COMMIT",2017-05-02 19:08:05 EDT,2/46,0,LOG,00000,"execute S_1: COMMIT",,,,,,,,,""
2017-05-02 19:08:38.464 EDT,"postgres","epinions",9606,"10.0.0.201:52745",59091155.2586,102,"BEGIN",2017-05-02 19:08:05 EDT,2/47,0,LOG,00000,"execute S_2: BEGIN",,,,,,,,,""
2017-05-02 19:08:38.465 EDT,"postgres","epinions",9606,"10.0.0.201:52745",59091155.2586,103,"SELECT",2017-05-02 19:08:05 EDT,2/47,0,LOG,00000,"execute S_3: SELECT avg(rating) FROM review r WHERE r.i_id=$1","parameters: $1 = '38380'",,,,,,,,""
2017-05-02 19:08:38.636 EDT,"postgres","epinions",9606,"10.0.0.201:52745",59091155.2586,104,"COMMIT",2017-05-02 19:08:05 EDT,2/47,0,LOG,00000,"execute S_1: COMMIT",,,,,,,,,""
2017-05-02 19:08:39.465 EDT,"postgres","epinions",9606,"10.0.0.201:52745",59091155.2586,105,"BEGIN",2017-05-02 19:08:05 EDT,2/48,0,LOG,00000,"execute S_2: BEGIN",,,,,,,,,""
2017-05-02 19:08:39.465 EDT,"postgres","epinions",9606,"10.0.0.201:52745",59091155.2586,106,"SELECT",2017-05-02 19:08:05 EDT,2/48,0,LOG,00000,"execute S_3: SELECT avg(rating) FROM review r WHERE r.i_id=$1","parameters: $1 = '55329'",,,,,,,,""
2017-05-02 19:08:39.645 EDT,"postgres","epinions",9606,"10.0.0.201:52745",59091155.2586,107,"COMMIT",2017-05-02 19:08:05 EDT,2/48,0,LOG,00000,"execute S_1: COMMIT",,,,,,,,,""
2017-05-02 19:08:40.465 EDT,"postgres","epinions",9606,"10.0.0.201:52745",59091155.2586,108,"BEGIN",2017-05-02 19:08:05 EDT,2/49,0,LOG,00000,"execute S_2: BEGIN",,,,,,,,,""
2017-05-02 19:08:40.465 EDT,"postgres","epinions",9606,"10.0.0.201:52745",59091155.2586,109,"SELECT",2017-05-02 19:08:05 EDT,2/49,0,LOG,00000,"execute S_3: SELECT avg(rating) FROM review r WHERE r.i_id=$1","parameters: $1 = '26270'",,,,,,,,""
2017-05-02 19:08:40.640 EDT,"postgres","epinions",9606,"10.0.0.201:52745",59091155.2586,110,"COMMIT",2017-05-02 19:08:05 EDT,2/49,0,LOG,00000,"execute S_1: COMMIT",,,,,,,,,""
2017-05-02 19:08:41.467 EDT,"postgres","epinions",9606,"10.0.0.201:52745",59091155.2586,111,"BEGIN",2017-05-02 19:08:05 EDT,2/50,0,LOG,00000,"execute S_2: BEGIN",,,,,,,,,""
2017-05-02 19:08:41.467 EDT,"postgres","epinions",9606,"10.0.0.201:52745",59091155.2586,112,"SELECT",2017-05-02 19:08:05 EDT,2/50,0,LOG,00000,"execute S_3: SELECT avg(rating) FROM review r WHERE r.i_id=$1","parameters: $1 = '75931'",,,,,,,,""
2017-05-02 19:08:41.646 EDT,"postgres","epinions",9606,"10.0.0.201:52745",59091155.2586,113,"COMMIT",2017-05-02 19:08:05 EDT,2/50,0,LOG,00000,"execute S_1: COMMIT",,,,,,,,,""
2017-05-02 19:08:42.463 EDT,"postgres","epinions",9606,"10.0.0.201:52745",59091155.2586,114,"BEGIN",2017-05-02 19:08:05 EDT,2/51,0,LOG,00000,"execute S_2: BEGIN",,,,,,,,,""
2017-05-02 19:08:42.463 EDT,"postgres","epinions",9606,"10.0.0.201:52745",59091155.2586,115,"SELECT",2017-05-02 19:08:05 EDT,2/51,0,LOG,00000,"execute S_3: SELECT avg(rating) FROM review r WHERE r.i_id=$1","parameters: $1 = '98631'",,,,,,,,""
2017-05-02 19:08:42.642 EDT,"postgres","epinions",9606,"10.0.0.201:52745",59091155.2586,116,"COMMIT",2017-05-02 19:08:05 EDT,2/51,0,LOG,00000,"execute S_1: COMMIT",,,,,,,,,""
2017-05-02 19:08:43.473 EDT,"postgres","epinions",9606,"10.0.0.201:52745",59091155.2586,117,"BEGIN",2017-05-02 19:08:05 EDT,2/52,0,LOG,00000,"execute S_2: BEGIN",,,,,,,,,""
2017-05-02 19:08:43.473 EDT,"postgres","epinions",9606,"10.0.0.201:52745",59091155.2586,118,"SELECT",2017-05-02 19:08:05 EDT,2/52,0,LOG,00000,"execute S_3: SELECT avg(rating) FROM review r WHERE r.i_id=$1","parameters: $1 = '7589'",,,,,,,,""
2017-05-02 19:08:43.651 EDT,"postgres","epinions",9606,"10.0.0.201:52745",59091155.2586,119,"COMMIT",2017-05-02 19:08:05 EDT,2/52,0,LOG,00000,"execute S_1: COMMIT",,,,,,,,,""
2017-05-02 19:08:44.467 EDT,"postgres","epinions",9606,"10.0.0.201:52745",59091155.2586,120,"BEGIN",2017-05-02 19:08:05 EDT,2/53,0,LOG,00000,"execute S_2: BEGIN",,,,,,,,,""
2017-05-02 19:08:44.467 EDT,"postgres","epinions",9606,"10.0.0.201:52745",59091155.2586,121,"SELECT",2017-05-02 19:08:05 EDT,2/53,0,LOG,00000,"execute S_3: SELECT avg(rating) FROM review r WHERE r.i_id=$1","parameters: $1 = '77678'",,,,,,,,""
2017-05-02 19:08:44.650 EDT,"postgres","epinions",9606,"10.0.0.201:52745",59091155.2586,122,"COMMIT",2017-05-02 19:08:05 EDT,2/53,0,LOG,00000,"execute S_1: COMMIT",,,,,,,,,""
2017-05-02 19:08:45.469 EDT,"postgres","epinions",9606,"10.0.0.201:52745",59091155.2586,123,"BEGIN",2017-05-02 19:08:05 EDT,2/54,0,LOG,00000,"execute S_2: BEGIN",,,,,,,,,""
2017-05-02 19:08:45.470 EDT,"postgres","epinions",9606,"10.0.0.201:52745",59091155.2586,124,"SELECT",2017-05-02 19:08:05 EDT,2/54,0,LOG,00000,"execute S_3: SELECT avg(rating) FROM review r WHERE r.i_id=$1","parameters: $1 = '13365'",,,,,,,,""
2017-05-02 19:08:45.644 EDT,"postgres","epinions",9606,"10.0.0.201:52745",59091155.2586,125,"COMMIT",2017-05-02 19:08:05 EDT,2/54,0,LOG,00000,"execute S_1: COMMIT",,,,,,,,,""
2017-05-02 19:08:46.464 EDT,"postgres","epinions",9606,"10.0.0.201:52745",59091155.2586,126,"BEGIN",2017-05-02 19:08:05 EDT,2/55,0,LOG,00000,"execute S_2: BEGIN",,,,,,,,,""
2017-05-02 19:08:46.464 EDT,"postgres","epinions",9606,"10.0.0.201:52745",59091155.2586,127,"SELECT",2017-05-02 19:08:05 EDT,2/55,0,LOG,00000,"execute S_3: SELECT avg(rating) FROM review r WHERE r.i_id=$1","parameters: $1 = '7037'",,,,,,,,""
2017-05-02 19:08:46.645 EDT,"postgres","epinions",9606,"10.0.0.201:52745",59091155.2586,128,"COMMIT",2017-05-02 19:08:05 EDT,2/55,0,LOG,00000,"execute S_1: COMMIT",,,,,,,,,""
2017-05-02 19:08:47.464 EDT,"postgres","epinions",9606,"10.0.0.201:52745",59091155.2586,129,"BEGIN",2017-05-02 19:08:05 EDT,2/56,0,LOG,00000,"execute S_2: BEGIN",,,,,,,,,""
2017-05-02 19:08:47.464 EDT,"postgres","epinions",9606,"10.0.0.201:52745",59091155.2586,130,"SELECT",2017-05-02 19:08:05 EDT,2/56,0,LOG,00000,"execute S_3: SELECT avg(rating) FROM review r WHERE r.i_id=$1","parameters: $1 = '78025'",,,,,,,,""
2017-05-02 19:08:47.638 EDT,"postgres","epinions",9606,"10.0.0.201:52745",59091155.2586,131,"COMMIT",2017-05-02 19:08:05 EDT,2/56,0,LOG,00000,"execute S_1: COMMIT",,,,,,,,,""
2017-05-02 19:08:48.464 EDT,"postgres","epinions",9606,"10.0.0.201:52745",59091155.2586,132,"BEGIN",2017-05-02 19:08:05 EDT,2/57,0,LOG,00000,"execute S_2: BEGIN",,,,,,,,,""
2017-05-02 19:08:48.464 EDT,"postgres","epinions",9606,"10.0.0.201:52745",59091155.2586,133,"SELECT",2017-05-02 19:08:05 EDT,2/57,0,LOG,00000,"execute S_3: SELECT avg(rating) FROM review r WHERE r.i_id=$1","parameters: $1 = '82208'",,,,,,,,""
2017-05-02 19:08:48.644 EDT,"postgres","epinions",9606,"10.0.0.201:52745",59091155.2586,134,"COMMIT",2017-05-02 19:08:05 EDT,2/57,0,LOG,00000,"execute S_1: COMMIT",,,,,,,,,""
2017-05-02 19:08:49.469 EDT,"postgres","epinions",9606,"10.0.0.201:52745",59091155.2586,135,"BEGIN",2017-05-02 19:08:05 EDT,2/58,0,LOG,00000,"execute S_2: BEGIN",,,,,,,,,""
2017-05-02 19:08:49.469 EDT,"postgres","epinions",9606,"10.0.0.201:52745",59091155.2586,136,"SELECT",2017-05-02 19:08:05 EDT,2/58,0,LOG,00000,"execute S_3: SELECT avg(rating) FROM review r WHERE r.i_id=$1","parameters: $1 = '52580'",,,,,,,,""
2017-05-02 19:08:49.640 EDT,"postgres","epinions",9606,"10.0.0.201:52745",59091155.2586,137,"COMMIT",2017-05-02 19:08:05 EDT,2/58,0,LOG,00000,"execute S_1: COMMIT",,,,,,,,,""
2017-05-02 19:08:50.464 EDT,"postgres","epinions",9606,"10.0.0.201:52745",59091155.2586,138,"BEGIN",2017-05-02 19:08:05 EDT,2/59,0,LOG,00000,"execute S_2: BEGIN",,,,,,,,,""
2017-05-02 19:08:50.464 EDT,"postgres","epinions",9606,"10.0.0.201:52745",59091155.2586,139,"SELECT",2017-05-02 19:08:05 EDT,2/59,0,LOG,00000,"execute S_3: SELECT avg(rating) FROM review r WHERE r.i_id=$1","parameters: $1 = '14977'",,,,,,,,""
2017-05-02 19:08:50.651 EDT,"postgres","epinions",9606,"10.0.0.201:52745",59091155.2586,140,"COMMIT",2017-05-02 19:08:05 EDT,2/59,0,LOG,00000,"execute S_1: COMMIT",,,,,,,,,""
2017-05-02 19:08:51.475 EDT,"postgres","epinions",9606,"10.0.0.201:52745",59091155.2586,141,"BEGIN",2017-05-02 19:08:05 EDT,2/60,0,LOG,00000,"execute S_2: BEGIN",,,,,,,,,""
2017-05-02 19:08:51.476 EDT,"postgres","epinions",9606,"10.0.0.201:52745",59091155.2586,142,"SELECT",2017-05-02 19:08:05 EDT,2/60,0,LOG,00000,"execute S_3: SELECT avg(rating) FROM review r WHERE r.i_id=$1","parameters: $1 = '766'",,,,,,,,""
2017-05-02 19:08:51.671 EDT,"postgres","epinions",9606,"10.0.0.201:52745",59091155.2586,143,"COMMIT",2017-05-02 19:08:05 EDT,2/60,0,LOG,00000,"execute S_1: COMMIT",,,,,,,,,""
2017-05-02 19:08:52.469 EDT,"postgres","epinions",9606,"10.0.0.201:52745",59091155.2586,144,"BEGIN",2017-05-02 19:08:05 EDT,2/61,0,LOG,00000,"execute S_2: BEGIN",,,,,,,,,""
2017-05-02 19:08:52.469 EDT,"postgres","epinions",9606,"10.0.0.201:52745",59091155.2586,145,"SELECT",2017-05-02 19:08:05 EDT,2/61,0,LOG,00000,"execute S_3: SELECT avg(rating) FROM review r WHERE r.i_id=$1","parameters: $1 = '66013'",,,,,,,,""
2017-05-02 19:08:52.650 EDT,"postgres","epinions",9606,"10.0.0.201:52745",59091155.2586,146,"COMMIT",2017-05-02 19:08:05 EDT,2/61,0,LOG,00000,"execute S_1: COMMIT",,,,,,,,,""
2017-05-02 19:08:53.466 EDT,"postgres","epinions",9606,"10.0.0.201:52745",59091155.2586,147,"BEGIN",2017-05-02 19:08:05 EDT,2/62,0,LOG,00000,"execute S_2: BEGIN",,,,,,,,,""
2017-05-02 19:08:53.466 EDT,"postgres","epinions",9606,"10.0.0.201:52745",59091155.2586,148,"SELECT",2017-05-02 19:08:05 EDT,2/62,0,LOG,00000,"execute S_3: SELECT avg(rating) FROM review r WHERE r.i_id=$1","parameters: $1 = '4726'",,,,,,,,""
2017-05-02 19:08:53.645 EDT,"postgres","epinions",9606,"10.0.0.201:52745",59091155.2586,149,"COMMIT",2017-05-02 19:08:05 EDT,2/62,0,LOG,00000,"execute S_1: COMMIT",,,,,,,,,""
2017-05-02 19:08:54.463 EDT,"postgres","epinions",9606,"10.0.0.201:52745",59091155.2586,150,"BEGIN",2017-05-02 19:08:05 EDT,2/63,0,LOG,00000,"execute S_2: BEGIN",,,,,,,,,""
2017-05-02 19:08:54.464 EDT,"postgres","epinions",9606,"10.0.0.201:52745",59091155.2586,151,"SELECT",2017-05-02 19:08:05 EDT,2/63,0,LOG,00000,"execute S_3: SELECT avg(rating) FROM review r WHERE r.i_id=$1","parameters: $1 = '42533'",,,,,,,,""
2017-05-02 19:08:54.643 EDT,"postgres","epinions",9606,"10.0.0.201:52745",59091155.2586,152,"COMMIT",2017-05-02 19:08:05 EDT,2/63,0,LOG,00000,"execute S_1: COMMIT",,,,,,,,,""
2017-05-02 19:08:55.468 EDT,"postgres","epinions",9606,"10.0.0.201:52745",59091155.2586,153,"BEGIN",2017-05-02 19:08:05 EDT,2/64,0,LOG,00000,"execute S_2: BEGIN",,,,,,,,,""
2017-05-02 19:08:55.468 EDT,"postgres","epinions",9606,"10.0.0.201:52745",59091155.2586,154,"SELECT",2017-05-02 19:08:05 EDT,2/64,0,LOG,00000,"execute S_3: SELECT avg(rating) FROM review r WHERE r.i_id=$1","parameters: $1 = '74023'",,,,,,,,""
2017-05-02 19:08:55.650 EDT,"postgres","epinions",9606,"10.0.0.201:52745",59091155.2586,155,"COMMIT",2017-05-02 19:08:05 EDT,2/64,0,LOG,00000,"execute S_1: COMMIT",,,,,,,,,""
2017-05-02 19:08:56.466 EDT,"postgres","epinions",9606,"10.0.0.201:52745",59091155.2586,156,"BEGIN",2017-05-02 19:08:05 EDT,2/65,0,LOG,00000,"execute S_2: BEGIN",,,,,,,,,""
2017-05-02 19:08:56.467 EDT,"postgres","epinions",9606,"10.0.0.201:52745",59091155.2586,157,"SELECT",2017-05-02 19:08:05 EDT,2/65,0,LOG,00000,"execute S_3: SELECT avg(rating) FROM review r WHERE r.i_id=$1","parameters: $1 = '6536'",,,,,,,,""
2017-05-02 19:08:56.646 EDT,"postgres","epinions",9606,"10.0.0.201:52745",59091155.2586,158,"COMMIT",2017-05-02 19:08:05 EDT,2/65,0,LOG,00000,"execute S_1: COMMIT",,,,,,,,,""
2017-05-02 19:08:57.467 EDT,"postgres","epinions",9606,"10.0.0.201:52745",59091155.2586,159,"BEGIN",2017-05-02 19:08:05 EDT,2/66,0,LOG,00000,"execute S_2: BEGIN",,,,,,,,,""
2017-05-02 19:08:57.467 EDT,"postgres","epinions",9606,"10.0.0.201:52745",59091155.2586,160,"SELECT",2017-05-02 19:08:05 EDT,2/66,0,LOG,00000,"execute S_3: SELECT avg(rating) FROM review r WHERE r.i_id=$1","parameters: $1 = '79876'",,,,,,,,""
2017-05-02 19:08:57.652 EDT,"postgres","epinions",9606,"10.0.0.201:52745",59091155.2586,161,"COMMIT",2017-05-02 19:08:05 EDT,2/66,0,LOG,00000,"execute S_1: COMMIT",,,,,,,,,""
2017-05-02 19:08:58.471 EDT,"postgres","epinions",9606,"10.0.0.201:52745",59091155.2586,162,"BEGIN",2017-05-02 19:08:05 EDT,2/67,0,LOG,00000,"execute S_2: BEGIN",,,,,,,,,""
2017-05-02 19:08:58.471 EDT,"postgres","epinions",9606,"10.0.0.201:52745",59091155.2586,163,"SELECT",2017-05-02 19:08:05 EDT,2/67,0,LOG,00000,"execute S_3: SELECT avg(rating) FROM review r WHERE r.i_id=$1","parameters: $1 = '72317'",,,,,,,,""
2017-05-02 19:08:58.650 EDT,"postgres","epinions",9606,"10.0.0.201:52745",59091155.2586,164,"COMMIT",2017-05-02 19:08:05 EDT,2/67,0,LOG,00000,"execute S_1: COMMIT",,,,,,,,,""
2017-05-02 19:08:59.464 EDT,"postgres","epinions",9606,"10.0.0.201:52745",59091155.2586,165,"BEGIN",2017-05-02 19:08:05 EDT,2/68,0,LOG,00000,"execute S_2: BEGIN",,,,,,,,,""
2017-05-02 19:08:59.464 EDT,"postgres","epinions",9606,"10.0.0.201:52745",59091155.2586,166,"SELECT",2017-05-02 19:08:05 EDT,2/68,0,LOG,00000,"execute S_3: SELECT avg(rating) FROM review r WHERE r.i_id=$1","parameters: $1 = '82840'",,,,,,,,""
2017-05-02 19:08:59.639 EDT,"postgres","epinions",9606,"10.0.0.201:52745",59091155.2586,167,"COMMIT",2017-05-02 19:08:05 EDT,2/68,0,LOG,00000,"execute S_1: COMMIT",,,,,,,,,""
2017-05-02 19:09:00.467 EDT,"postgres","epinions",9606,"10.0.0.201:52745",59091155.2586,168,"BEGIN",2017-05-02 19:08:05 EDT,2/69,0,LOG,00000,"execute S_2: BEGIN",,,,,,,,,""
2017-05-02 19:09:00.468 EDT,"postgres","epinions",9606,"10.0.0.201:52745",59091155.2586,169,"SELECT",2017-05-02 19:08:05 EDT,2/69,0,LOG,00000,"execute S_3: SELECT avg(rating) FROM review r WHERE r.i_id=$1","parameters: $1 = '48179'",,,,,,,,""
2017-05-02 19:09:00.645 EDT,"postgres","epinions",9606,"10.0.0.201:52745",59091155.2586,170,"COMMIT",2017-05-02 19:08:05 EDT,2/69,0,LOG,00000,"execute S_1: COMMIT",,,,,,,,,""
2017-05-02 19:09:01.465 EDT,"postgres","epinions",9606,"10.0.0.201:52745",59091155.2586,171,"BEGIN",2017-05-02 19:08:05 EDT,2/70,0,LOG,00000,"execute S_2: BEGIN",,,,,,,,,""
2017-05-02 19:09:01.465 EDT,"postgres","epinions",9606,"10.0.0.201:52745",59091155.2586,172,"SELECT",2017-05-02 19:08:05 EDT,2/70,0,LOG,00000,"execute S_3: SELECT avg(rating) FROM review r WHERE r.i_id=$1","parameters: $1 = '42111'",,,,,,,,""
2017-05-02 19:09:01.651 EDT,"postgres","epinions",9606,"10.0.0.201:52745",59091155.2586,173,"COMMIT",2017-05-02 19:08:05 EDT,2/70,0,LOG,00000,"execute S_1: COMMIT",,,,,,,,,""
2017-05-02 19:09:02.468 EDT,"postgres","epinions",9606,"10.0.0.201:52745",59091155.2586,174,"BEGIN",2017-05-02 19:08:05 EDT,2/71,0,LOG,00000,"execute S_2: BEGIN",,,,,,,,,""
2017-05-02 19:09:02.469 EDT,"postgres","epinions",9606,"10.0.0.201:52745",59091155.2586,175,"SELECT",2017-05-02 19:08:05 EDT,2/71,0,LOG,00000,"execute S_3: SELECT avg(rating) FROM review r WHERE r.i_id=$1","parameters: $1 = '63517'",,,,,,,,""
2017-05-02 19:09:02.649 EDT,"postgres","epinions",9606,"10.0.0.201:52745",59091155.2586,176,"COMMIT",2017-05-02 19:08:05 EDT,2/71,0,LOG,00000,"execute S_1: COMMIT",,,,,,,,,""
2017-05-02 19:09:03.464 EDT,"postgres","epinions",9606,"10.0.0.201:52745",59091155.2586,177,"BEGIN",2017-05-02 19:08:05 EDT,2/72,0,LOG,00000,"execute S_2: BEGIN",,,,,,,,,""
2017-05-02 19:09:03.464 EDT,"postgres","epinions",9606,"10.0.0.201:52745",59091155.2586,178,"SELECT",2017-05-02 19:08:05 EDT,2/72,0,LOG,00000,"execute S_3: SELECT avg(rating) FROM review r WHERE r.i_id=$1","parameters: $1 = '2986'",,,,,,,,""
2017-05-02 19:09:03.652 EDT,"postgres","epinions",9606,"10.0.0.201:52745",59091155.2586,179,"COMMIT",2017-05-02 19:08:05 EDT,2/72,0,LOG,00000,"execute S_1: COMMIT",,,,,,,,,""
2017-05-02 19:09:04.468 EDT,"postgres","epinions",9606,"10.0.0.201:52745",59091155.2586,180,"BEGIN",2017-05-02 19:08:05 EDT,2/73,0,LOG,00000,"execute S_2: BEGIN",,,,,,,,,""
2017-05-02 19:09:04.469 EDT,"postgres","epinions",9606,"10.0.0.201:52745",59091155.2586,181,"SELECT",2017-05-02 19:08:05 EDT,2/73,0,LOG,00000,"execute S_3: SELECT avg(rating) FROM review r WHERE r.i_id=$1","parameters: $1 = '89453'",,,,,,,,""
2017-05-02 19:09:04.643 EDT,"postgres","epinions",9606,"10.0.0.201:52745",59091155.2586,182,"COMMIT",2017-05-02 19:08:05 EDT,2/73,0,LOG,00000,"execute S_1: COMMIT",,,,,,,,,""
2017-05-02 19:09:05.465 EDT,"postgres","epinions",9606,"10.0.0.201:52745",59091155.2586,183,"BEGIN",2017-05-02 19:08:05 EDT,2/74,0,LOG,00000,"execute S_2: BEGIN",,,,,,,,,""
2017-05-02 19:09:05.465 EDT,"postgres","epinions",9606,"10.0.0.201:52745",59091155.2586,184,"SELECT",2017-05-02 19:08:05 EDT,2/74,0,LOG,00000,"execute S_3: SELECT avg(rating) FROM review r WHERE r.i_id=$1","parameters: $1 = '14233'",,,,,,,,""
2017-05-02 19:09:05.641 EDT,"postgres","epinions",9606,"10.0.0.201:52745",59091155.2586,185,"COMMIT",2017-05-02 19:08:05 EDT,2/74,0,LOG,00000,"execute S_1: COMMIT",,,,,,,,,""
2017-05-02 19:09:06.464 EDT,"postgres","epinions",9606,"10.0.0.201:52745",59091155.2586,186,"BEGIN",2017-05-02 19:08:05 EDT,2/75,0,LOG,00000,"execute S_2: BEGIN",,,,,,,,,""
2017-05-02 19:09:06.464 EDT,"postgres","epinions",9606,"10.0.0.201:52745",59091155.2586,187,"SELECT",2017-05-02 19:08:05 EDT,2/75,0,LOG,00000,"execute S_3: SELECT avg(rating) FROM review r WHERE r.i_id=$1","parameters: $1 = '97820'",,,,,,,,""
2017-05-02 19:09:06.641 EDT,"postgres","epinions",9606,"10.0.0.201:52745",59091155.2586,188,"COMMIT",2017-05-02 19:08:05 EDT,2/75,0,LOG,00000,"execute S_1: COMMIT",,,,,,,,,""
2017-05-02 19:09:07.491 EDT,"postgres","epinions",9606,"10.0.0.201:52745",59091155.2586,189,"BEGIN",2017-05-02 19:08:05 EDT,2/76,0,LOG,00000,"execute S_2: BEGIN",,,,,,,,,""
2017-05-02 19:09:07.491 EDT,"postgres","epinions",9606,"10.0.0.201:52745",59091155.2586,190,"SELECT",2017-05-02 19:08:05 EDT,2/76,0,LOG,00000,"execute S_3: SELECT avg(rating) FROM review r WHERE r.i_id=$1","parameters: $1 = '85368'",,,,,,,,""
2017-05-02 19:09:07.663 EDT,"postgres","epinions",9606,"10.0.0.201:52745",59091155.2586,191,"COMMIT",2017-05-02 19:08:05 EDT,2/76,0,LOG,00000,"execute S_1: COMMIT",,,,,,,,,""
2017-05-02 19:09:08.464 EDT,"postgres","epinions",9606,"10.0.0.201:52745",59091155.2586,192,"BEGIN",2017-05-02 19:08:05 EDT,2/77,0,LOG,00000,"execute S_2: BEGIN",,,,,,,,,""
2017-05-02 19:09:08.464 EDT,"postgres","epinions",9606,"10.0.0.201:52745",59091155.2586,193,"SELECT",2017-05-02 19:08:05 EDT,2/77,0,LOG,00000,"execute S_3: SELECT avg(rating) FROM review r WHERE r.i_id=$1","parameters: $1 = '37177'",,,,,,,,""
2017-05-02 19:09:08.635 EDT,"postgres","epinions",9606,"10.0.0.201:52745",59091155.2586,194,"COMMIT",2017-05-02 19:08:05 EDT,2/77,0,LOG,00000,"execute S_1: COMMIT",,,,,,,,,""
2017-05-02 19:09:09.464 EDT,"postgres","epinions",9606,"10.0.0.201:52745",59091155.2586,195,"BEGIN",2017-05-02 19:08:05 EDT,2/78,0,LOG,00000,"execute S_2: BEGIN",,,,,,,,,""
2017-05-02 19:09:09.464 EDT,"postgres","epinions",9606,"10.0.0.201:52745",59091155.2586,196,"SELECT",2017-05-02 19:08:05 EDT,2/78,0,LOG,00000,"execute S_3: SELECT avg(rating) FROM review r WHERE r.i_id=$1","parameters: $1 = '19789'",,,,,,,,""
2017-05-02 19:09:09.638 EDT,"postgres","epinions",9606,"10.0.0.201:52745",59091155.2586,197,"COMMIT",2017-05-02 19:08:05 EDT,2/78,0,LOG,00000,"execute S_1: COMMIT",,,,,,,,,""
2017-05-02 19:09:10.470 EDT,"postgres","epinions",9606,"10.0.0.201:52745",59091155.2586,198,"BEGIN",2017-05-02 19:08:05 EDT,2/79,0,LOG,00000,"execute S_2: BEGIN",,,,,,,,,""
2017-05-02 19:09:10.470 EDT,"postgres","epinions",9606,"10.0.0.201:52745",59091155.2586,199,"SELECT",2017-05-02 19:08:05 EDT,2/79,0,LOG,00000,"execute S_3: SELECT avg(rating) FROM review r WHERE r.i_id=$1","parameters: $1 = '91609'",,,,,,,,""
2017-05-02 19:09:10.638 EDT,"postgres","epinions",9606,"10.0.0.201:52745",59091155.2586,200,"COMMIT",2017-05-02 19:08:05 EDT,2/79,0,LOG,00000,"execute S_1: COMMIT",,,,,,,,,""
2017-05-02 19:09:11.471 EDT,"postgres","epinions",9606,"10.0.0.201:52745",59091155.2586,201,"BEGIN",2017-05-02 19:08:05 EDT,2/80,0,LOG,00000,"execute S_2: BEGIN",,,,,,,,,""
2017-05-02 19:09:11.471 EDT,"postgres","epinions",9606,"10.0.0.201:52745",59091155.2586,202,"SELECT",2017-05-02 19:08:05 EDT,2/80,0,LOG,00000,"execute S_3: SELECT avg(rating) FROM review r WHERE r.i_id=$1","parameters: $1 = '93433'",,,,,,,,""
2017-05-02 19:09:11.644 EDT,"postgres","epinions",9606,"10.0.0.201:52745",59091155.2586,203,"COMMIT",2017-05-02 19:08:05 EDT,2/80,0,LOG,00000,"execute S_1: COMMIT",,,,,,,,,""
2017-05-02 19:09:12.463 EDT,"postgres","epinions",9606,"10.0.0.201:52745",59091155.2586,204,"BEGIN",2017-05-02 19:08:05 EDT,2/81,0,LOG,00000,"execute S_2: BEGIN",,,,,,,,,""
2017-05-02 19:09:12.463 EDT,"postgres","epinions",9606,"10.0.0.201:52745",59091155.2586,205,"SELECT",2017-05-02 19:08:05 EDT,2/81,0,LOG,00000,"execute S_3: SELECT avg(rating) FROM review r WHERE r.i_id=$1","parameters: $1 = '83226'",,,,,,,,""
2017-05-02 19:09:12.654 EDT,"postgres","epinions",9606,"10.0.0.201:52745",59091155.2586,206,"COMMIT",2017-05-02 19:08:05 EDT,2/81,0,LOG,00000,"execute S_1: COMMIT",,,,,,,,,""
2017-05-02 19:09:13.473 EDT,"postgres","epinions",9606,"10.0.0.201:52745",59091155.2586,207,"BEGIN",2017-05-02 19:08:05 EDT,2/82,0,LOG,00000,"execute S_2: BEGIN",,,,,,,,,""
2017-05-02 19:09:13.473 EDT,"postgres","epinions",9606,"10.0.0.201:52745",59091155.2586,208,"SELECT",2017-05-02 19:08:05 EDT,2/82,0,LOG,00000,"execute S_3: SELECT avg(rating) FROM review r WHERE r.i_id=$1","parameters: $1 = '845'",,,,,,,,""
2017-05-02 19:09:13.652 EDT,"postgres","epinions",9606,"10.0.0.201:52745",59091155.2586,209,"COMMIT",2017-05-02 19:08:05 EDT,2/82,0,LOG,00000,"execute S_1: COMMIT",,,,,,,,,""
2017-05-02 19:09:14.463 EDT,"postgres","epinions",9606,"10.0.0.201:52745",59091155.2586,210,"BEGIN",2017-05-02 19:08:05 EDT,2/83,0,LOG,00000,"execute S_2: BEGIN",,,,,,,,,""
2017-05-02 19:09:14.463 EDT,"postgres","epinions",9606,"10.0.0.201:52745",59091155.2586,211,"SELECT",2017-05-02 19:08:05 EDT,2/83,0,LOG,00000,"execute S_3: SELECT avg(rating) FROM review r WHERE r.i_id=$1","parameters: $1 = '71484'",,,,,,,,""
2017-05-02 19:09:14.635 EDT,"postgres","epinions",9606,"10.0.0.201:52745",59091155.2586,212,"COMMIT",2017-05-02 19:08:05 EDT,2/83,0,LOG,00000,"execute S_1: COMMIT",,,,,,,,,""
2017-05-02 19:09:15.465 EDT,"postgres","epinions",9606,"10.0.0.201:52745",59091155.2586,213,"BEGIN",2017-05-02 19:08:05 EDT,2/84,0,LOG,00000,"execute S_2: BEGIN",,,,,,,,,""
2017-05-02 19:09:15.465 EDT,"postgres","epinions",9606,"10.0.0.201:52745",59091155.2586,214,"SELECT",2017-05-02 19:08:05 EDT,2/84,0,LOG,00000,"execute S_3: SELECT avg(rating) FROM review r WHERE r.i_id=$1","parameters: $1 = '53050'",,,,,,,,""
2017-05-02 19:09:15.641 EDT,"postgres","epinions",9606,"10.0.0.201:52745",59091155.2586,215,"COMMIT",2017-05-02 19:08:05 EDT,2/84,0,LOG,00000,"execute S_1: COMMIT",,,,,,,,,""
2017-05-02 19:09:16.463 EDT,"postgres","epinions",9606,"10.0.0.201:52745",59091155.2586,216,"BEGIN",2017-05-02 19:08:05 EDT,2/85,0,LOG,00000,"execute S_2: BEGIN",,,,,,,,,""
2017-05-02 19:09:16.463 EDT,"postgres","epinions",9606,"10.0.0.201:52745",59091155.2586,217,"SELECT",2017-05-02 19:08:05 EDT,2/85,0,LOG,00000,"execute S_3: SELECT avg(rating) FROM review r WHERE r.i_id=$1","parameters: $1 = '66506'",,,,,,,,""
2017-05-02 19:09:16.637 EDT,"postgres","epinions",9606,"10.0.0.201:52745",59091155.2586,218,"COMMIT",2017-05-02 19:08:05 EDT,2/85,0,LOG,00000,"execute S_1: COMMIT",,,,,,,,,""
2017-05-02 19:09:17.468 EDT,"postgres","epinions",9606,"10.0.0.201:52745",59091155.2586,219,"BEGIN",2017-05-02 19:08:05 EDT,2/86,0,LOG,00000,"execute S_2: BEGIN",,,,,,,,,""
2017-05-02 19:09:17.469 EDT,"postgres","epinions",9606,"10.0.0.201:52745",59091155.2586,220,"SELECT",2017-05-02 19:08:05 EDT,2/86,0,LOG,00000,"execute S_3: SELECT avg(rating) FROM review r WHERE r.i_id=$1","parameters: $1 = '26918'",,,,,,,,""
2017-05-02 19:09:17.646 EDT,"postgres","epinions",9606,"10.0.0.201:52745",59091155.2586,221,"COMMIT",2017-05-02 19:08:05 EDT,2/86,0,LOG,00000,"execute S_1: COMMIT",,,,,,,,,""
2017-05-02 19:09:18.470 EDT,"postgres","epinions",9606,"10.0.0.201:52745",59091155.2586,222,"BEGIN",2017-05-02 19:08:05 EDT,2/87,0,LOG,00000,"execute S_2: BEGIN",,,,,,,,,""
2017-05-02 19:09:18.470 EDT,"postgres","epinions",9606,"10.0.0.201:52745",59091155.2586,223,"SELECT",2017-05-02 19:08:05 EDT,2/87,0,LOG,00000,"execute S_3: SELECT avg(rating) FROM review r WHERE r.i_id=$1","parameters: $1 = '53206'",,,,,,,,""
2017-05-02 19:09:18.645 EDT,"postgres","epinions",9606,"10.0.0.201:52745",59091155.2586,224,"COMMIT",2017-05-02 19:08:05 EDT,2/87,0,LOG,00000,"execute S_1: COMMIT",,,,,,,,,""
2017-05-02 19:09:19.465 EDT,"postgres","epinions",9606,"10.0.0.201:52745",59091155.2586,225,"BEGIN",2017-05-02 19:08:05 EDT,2/88,0,LOG,00000,"execute S_2: BEGIN",,,,,,,,,""
2017-05-02 19:09:19.466 EDT,"postgres","epinions",9606,"10.0.0.201:52745",59091155.2586,226,"SELECT",2017-05-02 19:08:05 EDT,2/88,0,LOG,00000,"execute S_3: SELECT avg(rating) FROM review r WHERE r.i_id=$1","parameters: $1 = '631'",,,,,,,,""
2017-05-02 19:09:19.637 EDT,"postgres","epinions",9606,"10.0.0.201:52745",59091155.2586,227,"COMMIT",2017-05-02 19:08:05 EDT,2/88,0,LOG,00000,"execute S_1: COMMIT",,,,,,,,,""
2017-05-02 19:09:20.464 EDT,"postgres","epinions",9606,"10.0.0.201:52745",59091155.2586,228,"BEGIN",2017-05-02 19:08:05 EDT,2/89,0,LOG,00000,"execute S_2: BEGIN",,,,,,,,,""
2017-05-02 19:09:20.464 EDT,"postgres","epinions",9606,"10.0.0.201:52745",59091155.2586,229,"SELECT",2017-05-02 19:08:05 EDT,2/89,0,LOG,00000,"execute S_3: SELECT avg(rating) FROM review r WHERE r.i_id=$1","parameters: $1 = '4298'",,,,,,,,""
2017-05-02 19:09:20.635 EDT,"postgres","epinions",9606,"10.0.0.201:52745",59091155.2586,230,"COMMIT",2017-05-02 19:08:05 EDT,2/89,0,LOG,00000,"execute S_1: COMMIT",,,,,,,,,""
2017-05-02 19:09:21.464 EDT,"postgres","epinions",9606,"10.0.0.201:52745",59091155.2586,231,"BEGIN",2017-05-02 19:08:05 EDT,2/90,0,LOG,00000,"execute S_2: BEGIN",,,,,,,,,""
2017-05-02 19:09:21.465 EDT,"postgres","epinions",9606,"10.0.0.201:52745",59091155.2586,232,"SELECT",2017-05-02 19:08:05 EDT,2/90,0,LOG,00000,"execute S_3: SELECT avg(rating) FROM review r WHERE r.i_id=$1","parameters: $1 = '27698'",,,,,,,,""
2017-05-02 19:09:21.642 EDT,"postgres","epinions",9606,"10.0.0.201:52745",59091155.2586,233,"COMMIT",2017-05-02 19:08:05 EDT,2/90,0,LOG,00000,"execute S_1: COMMIT",,,,,,,,,""
2017-05-02 19:09:22.466 EDT,"postgres","epinions",9606,"10.0.0.201:52745",59091155.2586,234,"BEGIN",2017-05-02 19:08:05 EDT,2/91,0,LOG,00000,"execute S_2: BEGIN",,,,,,,,,""
2017-05-02 19:09:22.466 EDT,"postgres","epinions",9606,"10.0.0.201:52745",59091155.2586,235,"SELECT",2017-05-02 19:08:05 EDT,2/91,0,LOG,00000,"execute S_3: SELECT avg(rating) FROM review r WHERE r.i_id=$1","parameters: $1 = '4546'",,,,,,,,""
2017-05-02 19:09:22.641 EDT,"postgres","epinions",9606,"10.0.0.201:52745",59091155.2586,236,"COMMIT",2017-05-02 19:08:05 EDT,2/91,0,LOG,00000,"execute S_1: COMMIT",,,,,,,,,""
2017-05-02 19:09:23.472 EDT,"postgres","epinions",9606,"10.0.0.201:52745",59091155.2586,237,"BEGIN",2017-05-02 19:08:05 EDT,2/92,0,LOG,00000,"execute S_2: BEGIN",,,,,,,,,""
2017-05-02 19:09:23.472 EDT,"postgres","epinions",9606,"10.0.0.201:52745",59091155.2586,238,"SELECT",2017-05-02 19:08:05 EDT,2/92,0,LOG,00000,"execute S_3: SELECT avg(rating) FROM review r WHERE r.i_id=$1","parameters: $1 = '36182'",,,,,,,,""
2017-05-02 19:09:23.645 EDT,"postgres","epinions",9606,"10.0.0.201:52745",59091155.2586,239,"COMMIT",2017-05-02 19:08:05 EDT,2/92,0,LOG,00000,"execute S_1: COMMIT",,,,,,,,,""
2017-05-02 19:09:24.466 EDT,"postgres","epinions",9606,"10.0.0.201:52745",59091155.2586,240,"BEGIN",2017-05-02 19:08:05 EDT,2/93,0,LOG,00000,"execute S_2: BEGIN",,,,,,,,,""
2017-05-02 19:09:24.466 EDT,"postgres","epinions",9606,"10.0.0.201:52745",59091155.2586,241,"SELECT",2017-05-02 19:08:05 EDT,2/93,0,LOG,00000,"execute S_3: SELECT avg(rating) FROM review r WHERE r.i_id=$1","parameters: $1 = '52787'",,,,,,,,""
2017-05-02 19:09:24.643 EDT,"postgres","epinions",9606,"10.0.0.201:52745",59091155.2586,242,"COMMIT",2017-05-02 19:08:05 EDT,2/93,0,LOG,00000,"execute S_1: COMMIT",,,,,,,,,""
2017-05-02 19:09:25.466 EDT,"postgres","epinions",9606,"10.0.0.201:52745",59091155.2586,243,"BEGIN",2017-05-02 19:08:05 EDT,2/94,0,LOG,00000,"execute S_2: BEGIN",,,,,,,,,""
2017-05-02 19:09:25.466 EDT,"postgres","epinions",9606,"10.0.0.201:52745",59091155.2586,244,"SELECT",2017-05-02 19:08:05 EDT,2/94,0,LOG,00000,"execute S_3: SELECT avg(rating) FROM review r WHERE r.i_id=$1","parameters: $1 = '13273'",,,,,,,,""
2017-05-02 19:09:25.638 EDT,"postgres","epinions",9606,"10.0.0.201:52745",59091155.2586,245,"COMMIT",2017-05-02 19:08:05 EDT,2/94,0,LOG,00000,"execute S_1: COMMIT",,,,,,,,,""
2017-05-02 19:09:26.469 EDT,"postgres","epinions",9606,"10.0.0.201:52745",59091155.2586,246,"BEGIN",2017-05-02 19:08:05 EDT,2/95,0,LOG,00000,"execute S_2: BEGIN",,,,,,,,,""
2017-05-02 19:09:26.469 EDT,"postgres","epinions",9606,"10.0.0.201:52745",59091155.2586,247,"SELECT",2017-05-02 19:08:05 EDT,2/95,0,LOG,00000,"execute S_3: SELECT avg(rating) FROM review r WHERE r.i_id=$1","parameters: $1 = '77069'",,,,,,,,""
2017-05-02 19:09:26.655 EDT,"postgres","epinions",9606,"10.0.0.201:52745",59091155.2586,248,"COMMIT",2017-05-02 19:08:05 EDT,2/95,0,LOG,00000,"execute S_1: COMMIT",,,,,,,,,""
2017-05-02 19:09:27.464 EDT,"postgres","epinions",9606,"10.0.0.201:52745",59091155.2586,249,"BEGIN",2017-05-02 19:08:05 EDT,2/96,0,LOG,00000,"execute S_2: BEGIN",,,,,,,,,""
2017-05-02 19:09:27.465 EDT,"postgres","epinions",9606,"10.0.0.201:52745",59091155.2586,250,"SELECT",2017-05-02 19:08:05 EDT,2/96,0,LOG,00000,"execute S_3: SELECT avg(rating) FROM review r WHERE r.i_id=$1","parameters: $1 = '16321'",,,,,,,,""
2017-05-02 19:09:27.657 EDT,"postgres","epinions",9606,"10.0.0.201:52745",59091155.2586,251,"COMMIT",2017-05-02 19:08:05 EDT,2/96,0,LOG,00000,"execute S_1: COMMIT",,,,,,,,,""
2017-05-02 19:09:28.469 EDT,"postgres","epinions",9606,"10.0.0.201:52745",59091155.2586,252,"BEGIN",2017-05-02 19:08:05 EDT,2/97,0,LOG,00000,"execute S_2: BEGIN",,,,,,,,,""
2017-05-02 19:09:28.470 EDT,"postgres","epinions",9606,"10.0.0.201:52745",59091155.2586,253,"SELECT",2017-05-02 19:08:05 EDT,2/97,0,LOG,00000,"execute S_3: SELECT avg(rating) FROM review r WHERE r.i_id=$1","parameters: $1 = '15564'",,,,,,,,""
2017-05-02 19:09:28.642 EDT,"postgres","epinions",9606,"10.0.0.201:52745",59091155.2586,254,"COMMIT",2017-05-02 19:08:05 EDT,2/97,0,LOG,00000,"execute S_1: COMMIT",,,,,,,,,""
2017-05-02 19:09:29.470 EDT,"postgres","epinions",9606,"10.0.0.201:52745",59091155.2586,255,"BEGIN",2017-05-02 19:08:05 EDT,2/98,0,LOG,00000,"execute S_2: BEGIN",,,,,,,,,""
2017-05-02 19:09:29.470 EDT,"postgres","epinions",9606,"10.0.0.201:52745",59091155.2586,256,"SELECT",2017-05-02 19:08:05 EDT,2/98,0,LOG,00000,"execute S_3: SELECT avg(rating) FROM review r WHERE r.i_id=$1","parameters: $1 = '83109'",,,,,,,,""
2017-05-02 19:09:29.652 EDT,"postgres","epinions",9606,"10.0.0.201:52745",59091155.2586,257,"COMMIT",2017-05-02 19:08:05 EDT,2/98,0,LOG,00000,"execute S_1: COMMIT",,,,,,,,,""
2017-05-02 19:09:30.467 EDT,"postgres","epinions",9606,"10.0.0.201:52745",59091155.2586,258,"BEGIN",2017-05-02 19:08:05 EDT,2/99,0,LOG,00000,"execute S_2: BEGIN",,,,,,,,,""
2017-05-02 19:09:30.467 EDT,"postgres","epinions",9606,"10.0.0.201:52745",59091155.2586,259,"SELECT",2017-05-02 19:08:05 EDT,2/99,0,LOG,00000,"execute S_3: SELECT avg(rating) FROM review r WHERE r.i_id=$1","parameters: $1 = '2225'",,,,,,,,""
2017-05-02 19:09:30.643 EDT,"postgres","epinions",9606,"10.0.0.201:52745",59091155.2586,260,"COMMIT",2017-05-02 19:08:05 EDT,2/99,0,LOG,00000,"execute S_1: COMMIT",,,,,,,,,""
2017-05-02 19:09:31.464 EDT,"postgres","epinions",9606,"10.0.0.201:52745",59091155.2586,261,"BEGIN",2017-05-02 19:08:05 EDT,2/100,0,LOG,00000,"execute S_2: BEGIN",,,,,,,,,""
2017-05-02 19:09:31.464 EDT,"postgres","epinions",9606,"10.0.0.201:52745",59091155.2586,262,"SELECT",2017-05-02 19:08:05 EDT,2/100,0,LOG,00000,"execute S_3: SELECT avg(rating) FROM review r WHERE r.i_id=$1","parameters: $1 = '84190'",,,,,,,,""
2017-05-02 19:09:31.649 EDT,"postgres","epinions",9606,"10.0.0.201:52745",59091155.2586,263,"COMMIT",2017-05-02 19:08:05 EDT,2/100,0,LOG,00000,"execute S_1: COMMIT",,,,,,,,,""
2017-05-02 19:09:32.468 EDT,"postgres","epinions",9606,"10.0.0.201:52745",59091155.2586,264,"BEGIN",2017-05-02 19:08:05 EDT,2/101,0,LOG,00000,"execute S_2: BEGIN",,,,,,,,,""
2017-05-02 19:09:32.468 EDT,"postgres","epinions",9606,"10.0.0.201:52745",59091155.2586,265,"SELECT",2017-05-02 19:08:05 EDT,2/101,0,LOG,00000,"execute S_3: SELECT avg(rating) FROM review r WHERE r.i_id=$1","parameters: $1 = '72085'",,,,,,,,""
2017-05-02 19:09:32.646 EDT,"postgres","epinions",9606,"10.0.0.201:52745",59091155.2586,266,"COMMIT",2017-05-02 19:08:05 EDT,2/101,0,LOG,00000,"execute S_1: COMMIT",,,,,,,,,""
2017-05-02 19:09:33.464 EDT,"postgres","epinions",9606,"10.0.0.201:52745",59091155.2586,267,"BEGIN",2017-05-02 19:08:05 EDT,2/102,0,LOG,00000,"execute S_2: BEGIN",,,,,,,,,""
2017-05-02 19:09:33.464 EDT,"postgres","epinions",9606,"10.0.0.201:52745",59091155.2586,268,"SELECT",2017-05-02 19:08:05 EDT,2/102,0,LOG,00000,"execute S_3: SELECT avg(rating) FROM review r WHERE r.i_id=$1","parameters: $1 = '41409'",,,,,,,,""
2017-05-02 19:09:33.669 EDT,"postgres","epinions",9606,"10.0.0.201:52745",59091155.2586,269,"COMMIT",2017-05-02 19:08:05 EDT,2/102,0,LOG,00000,"execute S_1: COMMIT",,,,,,,,,""
2017-05-02 19:09:34.466 EDT,"postgres","epinions",9606,"10.0.0.201:52745",59091155.2586,270,"BEGIN",2017-05-02 19:08:05 EDT,2/103,0,LOG,00000,"execute S_2: BEGIN",,,,,,,,,""
2017-05-02 19:09:34.466 EDT,"postgres","epinions",9606,"10.0.0.201:52745",59091155.2586,271,"SELECT",2017-05-02 19:08:05 EDT,2/103,0,LOG,00000,"execute S_3: SELECT avg(rating) FROM review r WHERE r.i_id=$1","parameters: $1 = '6845'",,,,,,,,""
2017-05-02 19:09:34.646 EDT,"postgres","epinions",9606,"10.0.0.201:52745",59091155.2586,272,"COMMIT",2017-05-02 19:08:05 EDT,2/103,0,LOG,00000,"execute S_1: COMMIT",,,,,,,,,""
2017-05-02 19:09:35.464 EDT,"postgres","epinions",9606,"10.0.0.201:52745",59091155.2586,273,"BEGIN",2017-05-02 19:08:05 EDT,2/104,0,LOG,00000,"execute S_2: BEGIN",,,,,,,,,""
2017-05-02 19:09:35.464 EDT,"postgres","epinions",9606,"10.0.0.201:52745",59091155.2586,274,"SELECT",2017-05-02 19:08:05 EDT,2/104,0,LOG,00000,"execute S_3: SELECT avg(rating) FROM review r WHERE r.i_id=$1","parameters: $1 = '14988'",,,,,,,,""
2017-05-02 19:09:35.647 EDT,"postgres","epinions",9606,"10.0.0.201:52745",59091155.2586,275,"COMMIT",2017-05-02 19:08:05 EDT,2/104,0,LOG,00000,"execute S_1: COMMIT",,,,,,,,,""
2017-05-02 19:09:36.464 EDT,"postgres","epinions",9606,"10.0.0.201:52745",59091155.2586,276,"BEGIN",2017-05-02 19:08:05 EDT,2/105,0,LOG,00000,"execute S_2: BEGIN",,,,,,,,,""
2017-05-02 19:09:36.464 EDT,"postgres","epinions",9606,"10.0.0.201:52745",59091155.2586,277,"SELECT",2017-05-02 19:08:05 EDT,2/105,0,LOG,00000,"execute S_3: SELECT avg(rating) FROM review r WHERE r.i_id=$1","parameters: $1 = '95263'",,,,,,,,""
2017-05-02 19:09:36.640 EDT,"postgres","epinions",9606,"10.0.0.201:52745",59091155.2586,278,"COMMIT",2017-05-02 19:08:05 EDT,2/105,0,LOG,00000,"execute S_1: COMMIT",,,,,,,,,""
2017-05-02 19:09:37.464 EDT,"postgres","epinions",9606,"10.0.0.201:52745",59091155.2586,279,"BEGIN",2017-05-02 19:08:05 EDT,2/106,0,LOG,00000,"execute S_2: BEGIN",,,,,,,,,""
2017-05-02 19:09:37.464 EDT,"postgres","epinions",9606,"10.0.0.201:52745",59091155.2586,280,"SELECT",2017-05-02 19:08:05 EDT,2/106,0,LOG,00000,"execute S_3: SELECT avg(rating) FROM review r WHERE r.i_id=$1","parameters: $1 = '28588'",,,,,,,,""
2017-05-02 19:09:37.641 EDT,"postgres","epinions",9606,"10.0.0.201:52745",59091155.2586,281,"COMMIT",2017-05-02 19:08:05 EDT,2/106,0,LOG,00000,"execute S_1: COMMIT",,,,,,,,,""
2017-05-02 19:09:38.476 EDT,"postgres","epinions",9606,"10.0.0.201:52745",59091155.2586,282,"BEGIN",2017-05-02 19:08:05 EDT,2/107,0,LOG,00000,"execute S_2: BEGIN",,,,,,,,,""
2017-05-02 19:09:38.476 EDT,"postgres","epinions",9606,"10.0.0.201:52745",59091155.2586,283,"SELECT",2017-05-02 19:08:05 EDT,2/107,0,LOG,00000,"execute S_3: SELECT avg(rating) FROM review r WHERE r.i_id=$1","parameters: $1 = '87281'",,,,,,,,""
2017-05-02 19:09:38.646 EDT,"postgres","epinions",9606,"10.0.0.201:52745",59091155.2586,284,"COMMIT",2017-05-02 19:08:05 EDT,2/107,0,LOG,00000,"execute S_1: COMMIT",,,,,,,,,""
2017-05-02 19:09:39.464 EDT,"postgres","epinions",9606,"10.0.0.201:52745",59091155.2586,285,"BEGIN",2017-05-02 19:08:05 EDT,2/108,0,LOG,00000,"execute S_2: BEGIN",,,,,,,,,""
2017-05-02 19:09:39.464 EDT,"postgres","epinions",9606,"10.0.0.201:52745",59091155.2586,286,"SELECT",2017-05-02 19:08:05 EDT,2/108,0,LOG,00000,"execute S_3: SELECT avg(rating) FROM review r WHERE r.i_id=$1","parameters: $1 = '69436'",,,,,,,,""
2017-05-02 19:09:39.641 EDT,"postgres","epinions",9606,"10.0.0.201:52745",59091155.2586,287,"COMMIT",2017-05-02 19:08:05 EDT,2/108,0,LOG,00000,"execute S_1: COMMIT",,,,,,,,,""
2017-05-02 19:09:40.473 EDT,"postgres","epinions",9606,"10.0.0.201:52745",59091155.2586,288,"BEGIN",2017-05-02 19:08:05 EDT,2/109,0,LOG,00000,"execute S_2: BEGIN",,,,,,,,,""
2017-05-02 19:09:40.473 EDT,"postgres","epinions",9606,"10.0.0.201:52745",59091155.2586,289,"SELECT",2017-05-02 19:08:05 EDT,2/109,0,LOG,00000,"execute S_3: SELECT avg(rating) FROM review r WHERE r.i_id=$1","parameters: $1 = '23390'",,,,,,,,""
2017-05-02 19:09:40.638 EDT,"postgres","epinions",9606,"10.0.0.201:52745",59091155.2586,290,"COMMIT",2017-05-02 19:08:05 EDT,2/109,0,LOG,00000,"execute S_1: COMMIT",,,,,,,,,""
2017-05-02 19:09:41.481 EDT,"postgres","epinions",9606,"10.0.0.201:52745",59091155.2586,291,"BEGIN",2017-05-02 19:08:05 EDT,2/110,0,LOG,00000,"execute S_2: BEGIN",,,,,,,,,""
2017-05-02 19:09:41.481 EDT,"postgres","epinions",9606,"10.0.0.201:52745",59091155.2586,292,"SELECT",2017-05-02 19:08:05 EDT,2/110,0,LOG,00000,"execute S_3: SELECT avg(rating) FROM review r WHERE r.i_id=$1","parameters: $1 = '39680'",,,,,,,,""
2017-05-02 19:09:41.655 EDT,"postgres","epinions",9606,"10.0.0.201:52745",59091155.2586,293,"COMMIT",2017-05-02 19:08:05 EDT,2/110,0,LOG,00000,"execute S_1: COMMIT",,,,,,,,,""
2017-05-02 19:09:42.465 EDT,"postgres","epinions",9606,"10.0.0.201:52745",59091155.2586,294,"BEGIN",2017-05-02 19:08:05 EDT,2/111,0,LOG,00000,"execute S_2: BEGIN",,,,,,,,,""
2017-05-02 19:09:42.465 EDT,"postgres","epinions",9606,"10.0.0.201:52745",59091155.2586,295,"SELECT",2017-05-02 19:08:05 EDT,2/111,0,LOG,00000,"execute S_3: SELECT avg(rating) FROM review r WHERE r.i_id=$1","parameters: $1 = '59332'",,,,,,,,""
2017-05-02 19:09:42.645 EDT,"postgres","epinions",9606,"10.0.0.201:52745",59091155.2586,296,"COMMIT",2017-05-02 19:08:05 EDT,2/111,0,LOG,00000,"execute S_1: COMMIT",,,,,,,,,""
2017-05-02 19:09:43.465 EDT,"postgres","epinions",9606,"10.0.0.201:52745",59091155.2586,297,"BEGIN",2017-05-02 19:08:05 EDT,2/112,0,LOG,00000,"execute S_2: BEGIN",,,,,,,,,""
2017-05-02 19:09:43.465 EDT,"postgres","epinions",9606,"10.0.0.201:52745",59091155.2586,298,"SELECT",2017-05-02 19:08:05 EDT,2/112,0,LOG,00000,"execute S_3: SELECT avg(rating) FROM review r WHERE r.i_id=$1","parameters: $1 = '54122'",,,,,,,,""
2017-05-02 19:09:43.649 EDT,"postgres","epinions",9606,"10.0.0.201:52745",59091155.2586,299,"COMMIT",2017-05-02 19:08:05 EDT,2/112,0,LOG,00000,"execute S_1: COMMIT",,,,,,,,,""
2017-05-02 19:09:44.464 EDT,"postgres","epinions",9606,"10.0.0.201:52745",59091155.2586,300,"BEGIN",2017-05-02 19:08:05 EDT,2/113,0,LOG,00000,"execute S_2: BEGIN",,,,,,,,,""
2017-05-02 19:09:44.464 EDT,"postgres","epinions",9606,"10.0.0.201:52745",59091155.2586,301,"SELECT",2017-05-02 19:08:05 EDT,2/113,0,LOG,00000,"execute S_3: SELECT avg(rating) FROM review r WHERE r.i_id=$1","parameters: $1 = '33143'",,,,,,,,""
2017-05-02 19:09:44.635 EDT,"postgres","epinions",9606,"10.0.0.201:52745",59091155.2586,302,"COMMIT",2017-05-02 19:08:05 EDT,2/113,0,LOG,00000,"execute S_1: COMMIT",,,,,,,,,""
2017-05-02 19:09:45.473 EDT,"postgres","epinions",9606,"10.0.0.201:52745",59091155.2586,303,"BEGIN",2017-05-02 19:08:05 EDT,2/114,0,LOG,00000,"execute S_2: BEGIN",,,,,,,,,""
2017-05-02 19:09:45.474 EDT,"postgres","epinions",9606,"10.0.0.201:52745",59091155.2586,304,"SELECT",2017-05-02 19:08:05 EDT,2/114,0,LOG,00000,"execute S_3: SELECT avg(rating) FROM review r WHERE r.i_id=$1","parameters: $1 = '15290'",,,,,,,,""
2017-05-02 19:09:45.642 EDT,"postgres","epinions",9606,"10.0.0.201:52745",59091155.2586,305,"COMMIT",2017-05-02 19:08:05 EDT,2/114,0,LOG,00000,"execute S_1: COMMIT",,,,,,,,,""
2017-05-02 19:09:46.463 EDT,"postgres","epinions",9606,"10.0.0.201:52745",59091155.2586,306,"BEGIN",2017-05-02 19:08:05 EDT,2/115,0,LOG,00000,"execute S_2: BEGIN",,,,,,,,,""
2017-05-02 19:09:46.463 EDT,"postgres","epinions",9606,"10.0.0.201:52745",59091155.2586,307,"SELECT",2017-05-02 19:08:05 EDT,2/115,0,LOG,00000,"execute S_3: SELECT avg(rating) FROM review r WHERE r.i_id=$1","parameters: $1 = '57480'",,,,,,,,""
2017-05-02 19:09:46.637 EDT,"postgres","epinions",9606,"10.0.0.201:52745",59091155.2586,308,"COMMIT",2017-05-02 19:08:05 EDT,2/115,0,LOG,00000,"execute S_1: COMMIT",,,,,,,,,""
