2017-05-02 19:22:31.017 EDT,,,9992,,590914b6.2708,1,,2017-05-02 19:22:30 EDT,,0,LOG,00000,"ending log output to stderr",,"Future log output will go to log destination ""csvlog"".",,,,,,,""
2017-05-02 19:22:31.018 EDT,,,9994,,590914b7.270a,1,,2017-05-02 19:22:31 EDT,,0,LOG,00000,"database system was shut down at 2017-05-02 19:22:29 EDT",,,,,,,,,""
2017-05-02 19:22:31.023 EDT,,,9994,,590914b7.270a,2,,2017-05-02 19:22:31 EDT,,0,LOG,00000,"MultiXact member wraparound protections are now enabled",,,,,,,,,""
2017-05-02 19:22:31.025 EDT,,,9992,,590914b6.2708,2,,2017-05-02 19:22:30 EDT,,0,LOG,00000,"database system is ready to accept connections",,,,,,,,,""
2017-05-02 19:22:31.025 EDT,,,9998,,590914b7.270e,1,,2017-05-02 19:22:31 EDT,,0,LOG,00000,"autovacuum launcher started",,,,,,,,,""
2017-05-02 19:22:31.472 EDT,,,10000,"[local]",590914b7.2710,1,"",2017-05-02 19:22:31 EDT,,0,LOG,08P01,"incomplete startup packet",,,,,,,,,""
2017-05-02 19:22:31.983 EDT,"postgres","postgres",10003,"[local]",590914b7.2713,1,"idle",2017-05-02 19:22:31 EDT,2/2,0,LOG,00000,"statement: SELECT d.datname as ""Name"",
       pg_catalog.pg_get_userbyid(d.datdba) as ""Owner"",
       pg_catalog.pg_encoding_to_char(d.encoding) as ""Encoding"",
       d.datcollate as ""Collate"",
       d.datctype as ""Ctype"",
       pg_catalog.array_to_string(d.datacl, E'\n') AS ""Access privileges""
FROM pg_catalog.pg_database d
ORDER BY 1;",,,,,,,,,"psql"
2017-05-02 19:22:32.497 EDT,"postgres","postgres",10006,"[local]",590914b8.2716,1,"idle",2017-05-02 19:22:32 EDT,2/4,0,LOG,00000,"statement: SELECT d.datname as ""Name"",
       pg_catalog.pg_get_userbyid(d.datdba) as ""Owner"",
       pg_catalog.pg_encoding_to_char(d.encoding) as ""Encoding"",
       d.datcollate as ""Collate"",
       d.datctype as ""Ctype"",
       pg_catalog.array_to_string(d.datacl, E'\n') AS ""Access privileges""
FROM pg_catalog.pg_database d
ORDER BY 1;",,,,,,,,,"psql"
2017-05-02 19:22:33.005 EDT,"postgres","postgres",10009,"[local]",590914b9.2719,1,"idle",2017-05-02 19:22:33 EDT,2/6,0,LOG,00000,"statement: SELECT d.datname as ""Name"",
       pg_catalog.pg_get_userbyid(d.datdba) as ""Owner"",
       pg_catalog.pg_encoding_to_char(d.encoding) as ""Encoding"",
       d.datcollate as ""Collate"",
       d.datctype as ""Ctype"",
       pg_catalog.array_to_string(d.datacl, E'\n') AS ""Access privileges""
FROM pg_catalog.pg_database d
ORDER BY 1;",,,,,,,,,"psql"
2017-05-02 19:23:25.541 EDT,"postgres","epinions",10015,"10.0.0.201:52895",590914ed.271f,1,"SET",2017-05-02 19:23:25 EDT,2/10,0,LOG,00000,"execute <unnamed>: SET extra_float_digits = 3",,,,,,,,,""
2017-05-02 19:23:25.632 EDT,"postgres","epinions",10015,"10.0.0.201:52895",590914ed.271f,2,"SELECT",2017-05-02 19:23:25 EDT,2/11,0,LOG,00000,"execute <unnamed>: SELECT u_id FROM ""user""",,,,,,,,,""
2017-05-02 19:23:27.749 EDT,"postgres","epinions",10015,"10.0.0.201:52895",590914ed.271f,3,"SELECT",2017-05-02 19:23:25 EDT,2/12,0,LOG,00000,"execute <unnamed>: SELECT i_id FROM ""item""",,,,,,,,,""
2017-05-02 19:23:28.833 EDT,"postgres","epinions",10016,"10.0.0.201:52896",590914f0.2720,1,"SET",2017-05-02 19:23:28 EDT,2/14,0,LOG,00000,"execute <unnamed>: SET extra_float_digits = 3",,,,,,,,,""
2017-05-02 19:23:28.926 EDT,"postgres","epinions",10016,"10.0.0.201:52896",590914f0.2720,2,"SET",2017-05-02 19:23:28 EDT,2/15,0,LOG,00000,"execute <unnamed>: SET SESSION CHARACTERISTICS AS TRANSACTION ISOLATION LEVEL READ COMMITTED",,,,,,,,,""
2017-05-02 19:23:29.074 EDT,"postgres","epinions",10016,"10.0.0.201:52896",590914f0.2720,3,"BEGIN",2017-05-02 19:23:28 EDT,2/16,0,LOG,00000,"execute <unnamed>: BEGIN",,,,,,,,,""
2017-05-02 19:23:29.075 EDT,"postgres","epinions",10016,"10.0.0.201:52896",590914f0.2720,4,"UPDATE",2017-05-02 19:23:28 EDT,2/16,0,LOG,00000,"execute <unnamed>: UPDATE review SET rating = $1 WHERE i_id=$2 AND u_id=$3","parameters: $1 = '475', $2 = '20796', $3 = '167462'",,,,,,,,""
2017-05-02 19:23:29.247 EDT,"postgres","epinions",10016,"10.0.0.201:52896",590914f0.2720,5,"COMMIT",2017-05-02 19:23:28 EDT,2/16,0,LOG,00000,"execute S_1: COMMIT",,,,,,,,,""
2017-05-02 19:23:30.048 EDT,"postgres","epinions",10016,"10.0.0.201:52896",590914f0.2720,6,"BEGIN",2017-05-02 19:23:28 EDT,2/17,0,LOG,00000,"execute <unnamed>: BEGIN",,,,,,,,,""
2017-05-02 19:23:30.049 EDT,"postgres","epinions",10016,"10.0.0.201:52896",590914f0.2720,7,"UPDATE",2017-05-02 19:23:28 EDT,2/17,0,LOG,00000,"execute <unnamed>: UPDATE review SET rating = $1 WHERE i_id=$2 AND u_id=$3","parameters: $1 = '874', $2 = '93302', $3 = '145235'",,,,,,,,""
2017-05-02 19:23:30.223 EDT,"postgres","epinions",10016,"10.0.0.201:52896",590914f0.2720,8,"COMMIT",2017-05-02 19:23:28 EDT,2/17,0,LOG,00000,"execute S_1: COMMIT",,,,,,,,,""
2017-05-02 19:23:31.047 EDT,"postgres","epinions",10016,"10.0.0.201:52896",590914f0.2720,9,"BEGIN",2017-05-02 19:23:28 EDT,2/18,0,LOG,00000,"execute <unnamed>: BEGIN",,,,,,,,,""
2017-05-02 19:23:31.048 EDT,"postgres","epinions",10016,"10.0.0.201:52896",590914f0.2720,10,"UPDATE",2017-05-02 19:23:28 EDT,2/18,0,LOG,00000,"execute <unnamed>: UPDATE review SET rating = $1 WHERE i_id=$2 AND u_id=$3","parameters: $1 = '559', $2 = '64111', $3 = '65917'",,,,,,,,""
2017-05-02 19:23:31.215 EDT,"postgres","epinions",10016,"10.0.0.201:52896",590914f0.2720,11,"COMMIT",2017-05-02 19:23:28 EDT,2/18,0,LOG,00000,"execute S_1: COMMIT",,,,,,,,,""
2017-05-02 19:23:32.047 EDT,"postgres","epinions",10016,"10.0.0.201:52896",590914f0.2720,12,"BEGIN",2017-05-02 19:23:28 EDT,2/19,0,LOG,00000,"execute <unnamed>: BEGIN",,,,,,,,,""
2017-05-02 19:23:32.047 EDT,"postgres","epinions",10016,"10.0.0.201:52896",590914f0.2720,13,"UPDATE",2017-05-02 19:23:28 EDT,2/19,0,LOG,00000,"execute <unnamed>: UPDATE review SET rating = $1 WHERE i_id=$2 AND u_id=$3","parameters: $1 = '589', $2 = '76780', $3 = '134746'",,,,,,,,""
2017-05-02 19:23:32.211 EDT,"postgres","epinions",10016,"10.0.0.201:52896",590914f0.2720,14,"COMMIT",2017-05-02 19:23:28 EDT,2/19,0,LOG,00000,"execute S_1: COMMIT",,,,,,,,,""
2017-05-02 19:23:33.051 EDT,"postgres","epinions",10016,"10.0.0.201:52896",590914f0.2720,15,"BEGIN",2017-05-02 19:23:28 EDT,2/20,0,LOG,00000,"execute S_2: BEGIN",,,,,,,,,""
2017-05-02 19:23:33.051 EDT,"postgres","epinions",10016,"10.0.0.201:52896",590914f0.2720,16,"UPDATE",2017-05-02 19:23:28 EDT,2/20,0,LOG,00000,"execute S_3: UPDATE review SET rating = $1 WHERE i_id=$2 AND u_id=$3","parameters: $1 = '434', $2 = '95930', $3 = '195228'",,,,,,,,""
2017-05-02 19:23:33.229 EDT,"postgres","epinions",10016,"10.0.0.201:52896",590914f0.2720,17,"COMMIT",2017-05-02 19:23:28 EDT,2/20,0,LOG,00000,"execute S_1: COMMIT",,,,,,,,,""
2017-05-02 19:23:34.048 EDT,"postgres","epinions",10016,"10.0.0.201:52896",590914f0.2720,18,"BEGIN",2017-05-02 19:23:28 EDT,2/21,0,LOG,00000,"execute S_2: BEGIN",,,,,,,,,""
2017-05-02 19:23:34.048 EDT,"postgres","epinions",10016,"10.0.0.201:52896",590914f0.2720,19,"UPDATE",2017-05-02 19:23:28 EDT,2/21,0,LOG,00000,"execute S_3: UPDATE review SET rating = $1 WHERE i_id=$2 AND u_id=$3","parameters: $1 = '506', $2 = '3641', $3 = '22208'",,,,,,,,""
2017-05-02 19:23:34.321 EDT,"postgres","epinions",10016,"10.0.0.201:52896",590914f0.2720,20,"COMMIT",2017-05-02 19:23:28 EDT,2/21,0,LOG,00000,"execute S_1: COMMIT",,,,,,,,,""
2017-05-02 19:23:35.047 EDT,"postgres","epinions",10016,"10.0.0.201:52896",590914f0.2720,21,"BEGIN",2017-05-02 19:23:28 EDT,2/22,0,LOG,00000,"execute S_2: BEGIN",,,,,,,,,""
2017-05-02 19:23:35.047 EDT,"postgres","epinions",10016,"10.0.0.201:52896",590914f0.2720,22,"UPDATE",2017-05-02 19:23:28 EDT,2/22,0,LOG,00000,"execute S_3: UPDATE review SET rating = $1 WHERE i_id=$2 AND u_id=$3","parameters: $1 = '626', $2 = '35191', $3 = '51727'",,,,,,,,""
2017-05-02 19:23:35.313 EDT,"postgres","epinions",10016,"10.0.0.201:52896",590914f0.2720,23,"COMMIT",2017-05-02 19:23:28 EDT,2/22,0,LOG,00000,"execute S_1: COMMIT",,,,,,,,,""
2017-05-02 19:23:36.054 EDT,"postgres","epinions",10016,"10.0.0.201:52896",590914f0.2720,24,"BEGIN",2017-05-02 19:23:28 EDT,2/23,0,LOG,00000,"execute S_2: BEGIN",,,,,,,,,""
2017-05-02 19:23:36.054 EDT,"postgres","epinions",10016,"10.0.0.201:52896",590914f0.2720,25,"UPDATE",2017-05-02 19:23:28 EDT,2/23,0,LOG,00000,"execute S_3: UPDATE review SET rating = $1 WHERE i_id=$2 AND u_id=$3","parameters: $1 = '532', $2 = '94240', $3 = '36289'",,,,,,,,""
2017-05-02 19:23:36.324 EDT,"postgres","epinions",10016,"10.0.0.201:52896",590914f0.2720,26,"COMMIT",2017-05-02 19:23:28 EDT,2/23,0,LOG,00000,"execute S_1: COMMIT",,,,,,,,,""
2017-05-02 19:23:37.047 EDT,"postgres","epinions",10016,"10.0.0.201:52896",590914f0.2720,27,"BEGIN",2017-05-02 19:23:28 EDT,2/24,0,LOG,00000,"execute S_2: BEGIN",,,,,,,,,""
2017-05-02 19:23:37.047 EDT,"postgres","epinions",10016,"10.0.0.201:52896",590914f0.2720,28,"UPDATE",2017-05-02 19:23:28 EDT,2/24,0,LOG,00000,"execute S_3: UPDATE review SET rating = $1 WHERE i_id=$2 AND u_id=$3","parameters: $1 = '581', $2 = '19283', $3 = '86206'",,,,,,,,""
2017-05-02 19:23:37.320 EDT,"postgres","epinions",10016,"10.0.0.201:52896",590914f0.2720,29,"COMMIT",2017-05-02 19:23:28 EDT,2/24,0,LOG,00000,"execute S_1: COMMIT",,,,,,,,,""
2017-05-02 19:23:38.054 EDT,"postgres","epinions",10016,"10.0.0.201:52896",590914f0.2720,30,"BEGIN",2017-05-02 19:23:28 EDT,2/25,0,LOG,00000,"execute S_2: BEGIN",,,,,,,,,""
2017-05-02 19:23:38.054 EDT,"postgres","epinions",10016,"10.0.0.201:52896",590914f0.2720,31,"UPDATE",2017-05-02 19:23:28 EDT,2/25,0,LOG,00000,"execute S_3: UPDATE review SET rating = $1 WHERE i_id=$2 AND u_id=$3","parameters: $1 = '115', $2 = '20004', $3 = '186025'",,,,,,,,""
2017-05-02 19:23:38.324 EDT,"postgres","epinions",10016,"10.0.0.201:52896",590914f0.2720,32,"COMMIT",2017-05-02 19:23:28 EDT,2/25,0,LOG,00000,"execute S_1: COMMIT",,,,,,,,,""
2017-05-02 19:23:39.048 EDT,"postgres","epinions",10016,"10.0.0.201:52896",590914f0.2720,33,"BEGIN",2017-05-02 19:23:28 EDT,2/26,0,LOG,00000,"execute S_2: BEGIN",,,,,,,,,""
2017-05-02 19:23:39.048 EDT,"postgres","epinions",10016,"10.0.0.201:52896",590914f0.2720,34,"UPDATE",2017-05-02 19:23:28 EDT,2/26,0,LOG,00000,"execute S_3: UPDATE review SET rating = $1 WHERE i_id=$2 AND u_id=$3","parameters: $1 = '920', $2 = '95366', $3 = '58589'",,,,,,,,""
2017-05-02 19:23:39.320 EDT,"postgres","epinions",10016,"10.0.0.201:52896",590914f0.2720,35,"COMMIT",2017-05-02 19:23:28 EDT,2/26,0,LOG,00000,"execute S_1: COMMIT",,,,,,,,,""
2017-05-02 19:23:40.047 EDT,"postgres","epinions",10016,"10.0.0.201:52896",590914f0.2720,36,"BEGIN",2017-05-02 19:23:28 EDT,2/27,0,LOG,00000,"execute S_2: BEGIN",,,,,,,,,""
2017-05-02 19:23:40.047 EDT,"postgres","epinions",10016,"10.0.0.201:52896",590914f0.2720,37,"UPDATE",2017-05-02 19:23:28 EDT,2/27,0,LOG,00000,"execute S_3: UPDATE review SET rating = $1 WHERE i_id=$2 AND u_id=$3","parameters: $1 = '421', $2 = '32681', $3 = '155931'",,,,,,,,""
2017-05-02 19:23:40.325 EDT,"postgres","epinions",10016,"10.0.0.201:52896",590914f0.2720,38,"COMMIT",2017-05-02 19:23:28 EDT,2/27,0,LOG,00000,"execute S_1: COMMIT",,,,,,,,,""
2017-05-02 19:23:41.050 EDT,"postgres","epinions",10016,"10.0.0.201:52896",590914f0.2720,39,"BEGIN",2017-05-02 19:23:28 EDT,2/28,0,LOG,00000,"execute S_2: BEGIN",,,,,,,,,""
2017-05-02 19:23:41.050 EDT,"postgres","epinions",10016,"10.0.0.201:52896",590914f0.2720,40,"UPDATE",2017-05-02 19:23:28 EDT,2/28,0,LOG,00000,"execute S_3: UPDATE review SET rating = $1 WHERE i_id=$2 AND u_id=$3","parameters: $1 = '433', $2 = '64295', $3 = '89611'",,,,,,,,""
2017-05-02 19:23:41.324 EDT,"postgres","epinions",10016,"10.0.0.201:52896",590914f0.2720,41,"COMMIT",2017-05-02 19:23:28 EDT,2/28,0,LOG,00000,"execute S_1: COMMIT",,,,,,,,,""
2017-05-02 19:23:42.047 EDT,"postgres","epinions",10016,"10.0.0.201:52896",590914f0.2720,42,"BEGIN",2017-05-02 19:23:28 EDT,2/29,0,LOG,00000,"execute S_2: BEGIN",,,,,,,,,""
2017-05-02 19:23:42.047 EDT,"postgres","epinions",10016,"10.0.0.201:52896",590914f0.2720,43,"UPDATE",2017-05-02 19:23:28 EDT,2/29,0,LOG,00000,"execute S_3: UPDATE review SET rating = $1 WHERE i_id=$2 AND u_id=$3","parameters: $1 = '177', $2 = '87085', $3 = '42356'",,,,,,,,""
2017-05-02 19:23:42.338 EDT,"postgres","epinions",10016,"10.0.0.201:52896",590914f0.2720,44,"COMMIT",2017-05-02 19:23:28 EDT,2/29,0,LOG,00000,"execute S_1: COMMIT",,,,,,,,,""
2017-05-02 19:23:43.056 EDT,"postgres","epinions",10016,"10.0.0.201:52896",590914f0.2720,45,"BEGIN",2017-05-02 19:23:28 EDT,2/30,0,LOG,00000,"execute S_2: BEGIN",,,,,,,,,""
2017-05-02 19:23:43.056 EDT,"postgres","epinions",10016,"10.0.0.201:52896",590914f0.2720,46,"UPDATE",2017-05-02 19:23:28 EDT,2/30,0,LOG,00000,"execute S_3: UPDATE review SET rating = $1 WHERE i_id=$2 AND u_id=$3","parameters: $1 = '701', $2 = '40410', $3 = '44948'",,,,,,,,""
2017-05-02 19:23:43.334 EDT,"postgres","epinions",10016,"10.0.0.201:52896",590914f0.2720,47,"COMMIT",2017-05-02 19:23:28 EDT,2/30,0,LOG,00000,"execute S_1: COMMIT",,,,,,,,,""
2017-05-02 19:23:44.049 EDT,"postgres","epinions",10016,"10.0.0.201:52896",590914f0.2720,48,"BEGIN",2017-05-02 19:23:28 EDT,2/31,0,LOG,00000,"execute S_2: BEGIN",,,,,,,,,""
2017-05-02 19:23:44.049 EDT,"postgres","epinions",10016,"10.0.0.201:52896",590914f0.2720,49,"UPDATE",2017-05-02 19:23:28 EDT,2/31,0,LOG,00000,"execute S_3: UPDATE review SET rating = $1 WHERE i_id=$2 AND u_id=$3","parameters: $1 = '74', $2 = '51460', $3 = '165699'",,,,,,,,""
2017-05-02 19:23:44.333 EDT,"postgres","epinions",10016,"10.0.0.201:52896",590914f0.2720,50,"COMMIT",2017-05-02 19:23:28 EDT,2/31,0,LOG,00000,"execute S_1: COMMIT",,,,,,,,,""
2017-05-02 19:23:45.049 EDT,"postgres","epinions",10016,"10.0.0.201:52896",590914f0.2720,51,"BEGIN",2017-05-02 19:23:28 EDT,2/32,0,LOG,00000,"execute S_2: BEGIN",,,,,,,,,""
2017-05-02 19:23:45.049 EDT,"postgres","epinions",10016,"10.0.0.201:52896",590914f0.2720,52,"UPDATE",2017-05-02 19:23:28 EDT,2/32,0,LOG,00000,"execute S_3: UPDATE review SET rating = $1 WHERE i_id=$2 AND u_id=$3","parameters: $1 = '63', $2 = '83808', $3 = '111337'",,,,,,,,""
2017-05-02 19:23:45.332 EDT,"postgres","epinions",10016,"10.0.0.201:52896",590914f0.2720,53,"COMMIT",2017-05-02 19:23:28 EDT,2/32,0,LOG,00000,"execute S_1: COMMIT",,,,,,,,,""
2017-05-02 19:23:46.057 EDT,"postgres","epinions",10016,"10.0.0.201:52896",590914f0.2720,54,"BEGIN",2017-05-02 19:23:28 EDT,2/33,0,LOG,00000,"execute S_2: BEGIN",,,,,,,,,""
2017-05-02 19:23:46.057 EDT,"postgres","epinions",10016,"10.0.0.201:52896",590914f0.2720,55,"UPDATE",2017-05-02 19:23:28 EDT,2/33,0,LOG,00000,"execute S_3: UPDATE review SET rating = $1 WHERE i_id=$2 AND u_id=$3","parameters: $1 = '53', $2 = '57077', $3 = '147669'",,,,,,,,""
2017-05-02 19:23:46.332 EDT,"postgres","epinions",10016,"10.0.0.201:52896",590914f0.2720,56,"COMMIT",2017-05-02 19:23:28 EDT,2/33,0,LOG,00000,"execute S_1: COMMIT",,,,,,,,,""
2017-05-02 19:23:47.053 EDT,"postgres","epinions",10016,"10.0.0.201:52896",590914f0.2720,57,"BEGIN",2017-05-02 19:23:28 EDT,2/34,0,LOG,00000,"execute S_2: BEGIN",,,,,,,,,""
2017-05-02 19:23:47.053 EDT,"postgres","epinions",10016,"10.0.0.201:52896",590914f0.2720,58,"UPDATE",2017-05-02 19:23:28 EDT,2/34,0,LOG,00000,"execute S_3: UPDATE review SET rating = $1 WHERE i_id=$2 AND u_id=$3","parameters: $1 = '966', $2 = '46112', $3 = '86631'",,,,,,,,""
2017-05-02 19:23:47.308 EDT,"postgres","epinions",10016,"10.0.0.201:52896",590914f0.2720,59,"COMMIT",2017-05-02 19:23:28 EDT,2/34,0,LOG,00000,"execute S_1: COMMIT",,,,,,,,,""
2017-05-02 19:23:48.048 EDT,"postgres","epinions",10016,"10.0.0.201:52896",590914f0.2720,60,"BEGIN",2017-05-02 19:23:28 EDT,2/35,0,LOG,00000,"execute S_2: BEGIN",,,,,,,,,""
2017-05-02 19:23:48.048 EDT,"postgres","epinions",10016,"10.0.0.201:52896",590914f0.2720,61,"UPDATE",2017-05-02 19:23:28 EDT,2/35,0,LOG,00000,"execute S_3: UPDATE review SET rating = $1 WHERE i_id=$2 AND u_id=$3","parameters: $1 = '775', $2 = '5975', $3 = '93899'",,,,,,,,""
2017-05-02 19:23:48.317 EDT,"postgres","epinions",10016,"10.0.0.201:52896",590914f0.2720,62,"COMMIT",2017-05-02 19:23:28 EDT,2/35,0,LOG,00000,"execute S_1: COMMIT",,,,,,,,,""
2017-05-02 19:23:49.047 EDT,"postgres","epinions",10016,"10.0.0.201:52896",590914f0.2720,63,"BEGIN",2017-05-02 19:23:28 EDT,2/36,0,LOG,00000,"execute S_2: BEGIN",,,,,,,,,""
2017-05-02 19:23:49.047 EDT,"postgres","epinions",10016,"10.0.0.201:52896",590914f0.2720,64,"UPDATE",2017-05-02 19:23:28 EDT,2/36,0,LOG,00000,"execute S_3: UPDATE review SET rating = $1 WHERE i_id=$2 AND u_id=$3","parameters: $1 = '827', $2 = '29025', $3 = '115173'",,,,,,,,""
2017-05-02 19:23:49.321 EDT,"postgres","epinions",10016,"10.0.0.201:52896",590914f0.2720,65,"COMMIT",2017-05-02 19:23:28 EDT,2/36,0,LOG,00000,"execute S_1: COMMIT",,,,,,,,,""
2017-05-02 19:23:50.047 EDT,"postgres","epinions",10016,"10.0.0.201:52896",590914f0.2720,66,"BEGIN",2017-05-02 19:23:28 EDT,2/37,0,LOG,00000,"execute S_2: BEGIN",,,,,,,,,""
2017-05-02 19:23:50.047 EDT,"postgres","epinions",10016,"10.0.0.201:52896",590914f0.2720,67,"UPDATE",2017-05-02 19:23:28 EDT,2/37,0,LOG,00000,"execute S_3: UPDATE review SET rating = $1 WHERE i_id=$2 AND u_id=$3","parameters: $1 = '877', $2 = '19711', $3 = '193668'",,,,,,,,""
2017-05-02 19:23:50.325 EDT,"postgres","epinions",10016,"10.0.0.201:52896",590914f0.2720,68,"COMMIT",2017-05-02 19:23:28 EDT,2/37,0,LOG,00000,"execute S_1: COMMIT",,,,,,,,,""
2017-05-02 19:23:51.053 EDT,"postgres","epinions",10016,"10.0.0.201:52896",590914f0.2720,69,"BEGIN",2017-05-02 19:23:28 EDT,2/38,0,LOG,00000,"execute S_2: BEGIN",,,,,,,,,""
2017-05-02 19:23:51.053 EDT,"postgres","epinions",10016,"10.0.0.201:52896",590914f0.2720,70,"UPDATE",2017-05-02 19:23:28 EDT,2/38,0,LOG,00000,"execute S_3: UPDATE review SET rating = $1 WHERE i_id=$2 AND u_id=$3","parameters: $1 = '77', $2 = '17480', $3 = '121827'",,,,,,,,""
2017-05-02 19:23:51.329 EDT,"postgres","epinions",10016,"10.0.0.201:52896",590914f0.2720,71,"COMMIT",2017-05-02 19:23:28 EDT,2/38,0,LOG,00000,"execute S_1: COMMIT",,,,,,,,,""
2017-05-02 19:23:52.047 EDT,"postgres","epinions",10016,"10.0.0.201:52896",590914f0.2720,72,"BEGIN",2017-05-02 19:23:28 EDT,2/39,0,LOG,00000,"execute S_2: BEGIN",,,,,,,,,""
2017-05-02 19:23:52.048 EDT,"postgres","epinions",10016,"10.0.0.201:52896",590914f0.2720,73,"UPDATE",2017-05-02 19:23:28 EDT,2/39,0,LOG,00000,"execute S_3: UPDATE review SET rating = $1 WHERE i_id=$2 AND u_id=$3","parameters: $1 = '44', $2 = '10824', $3 = '67845'",,,,,,,,""
2017-05-02 19:23:52.321 EDT,"postgres","epinions",10016,"10.0.0.201:52896",590914f0.2720,74,"COMMIT",2017-05-02 19:23:28 EDT,2/39,0,LOG,00000,"execute S_1: COMMIT",,,,,,,,,""
2017-05-02 19:23:53.059 EDT,"postgres","epinions",10016,"10.0.0.201:52896",590914f0.2720,75,"BEGIN",2017-05-02 19:23:28 EDT,2/40,0,LOG,00000,"execute S_2: BEGIN",,,,,,,,,""
2017-05-02 19:23:53.059 EDT,"postgres","epinions",10016,"10.0.0.201:52896",590914f0.2720,76,"UPDATE",2017-05-02 19:23:28 EDT,2/40,0,LOG,00000,"execute S_3: UPDATE review SET rating = $1 WHERE i_id=$2 AND u_id=$3","parameters: $1 = '123', $2 = '49999', $3 = '34718'",,,,,,,,""
2017-05-02 19:23:53.342 EDT,"postgres","epinions",10016,"10.0.0.201:52896",590914f0.2720,77,"COMMIT",2017-05-02 19:23:28 EDT,2/40,0,LOG,00000,"execute S_1: COMMIT",,,,,,,,,""
2017-05-02 19:23:54.050 EDT,"postgres","epinions",10016,"10.0.0.201:52896",590914f0.2720,78,"BEGIN",2017-05-02 19:23:28 EDT,2/41,0,LOG,00000,"execute S_2: BEGIN",,,,,,,,,""
2017-05-02 19:23:54.050 EDT,"postgres","epinions",10016,"10.0.0.201:52896",590914f0.2720,79,"UPDATE",2017-05-02 19:23:28 EDT,2/41,0,LOG,00000,"execute S_3: UPDATE review SET rating = $1 WHERE i_id=$2 AND u_id=$3","parameters: $1 = '882', $2 = '43854', $3 = '67493'",,,,,,,,""
2017-05-02 19:23:54.320 EDT,"postgres","epinions",10016,"10.0.0.201:52896",590914f0.2720,80,"COMMIT",2017-05-02 19:23:28 EDT,2/41,0,LOG,00000,"execute S_1: COMMIT",,,,,,,,,""
2017-05-02 19:23:55.061 EDT,"postgres","epinions",10016,"10.0.0.201:52896",590914f0.2720,81,"BEGIN",2017-05-02 19:23:28 EDT,2/42,0,LOG,00000,"execute S_2: BEGIN",,,,,,,,,""
2017-05-02 19:23:55.061 EDT,"postgres","epinions",10016,"10.0.0.201:52896",590914f0.2720,82,"UPDATE",2017-05-02 19:23:28 EDT,2/42,0,LOG,00000,"execute S_3: UPDATE review SET rating = $1 WHERE i_id=$2 AND u_id=$3","parameters: $1 = '78', $2 = '59136', $3 = '88673'",,,,,,,,""
2017-05-02 19:23:55.340 EDT,"postgres","epinions",10016,"10.0.0.201:52896",590914f0.2720,83,"COMMIT",2017-05-02 19:23:28 EDT,2/42,0,LOG,00000,"execute S_1: COMMIT",,,,,,,,,""
2017-05-02 19:23:56.048 EDT,"postgres","epinions",10016,"10.0.0.201:52896",590914f0.2720,84,"BEGIN",2017-05-02 19:23:28 EDT,2/43,0,LOG,00000,"execute S_2: BEGIN",,,,,,,,,""
2017-05-02 19:23:56.048 EDT,"postgres","epinions",10016,"10.0.0.201:52896",590914f0.2720,85,"UPDATE",2017-05-02 19:23:28 EDT,2/43,0,LOG,00000,"execute S_3: UPDATE review SET rating = $1 WHERE i_id=$2 AND u_id=$3","parameters: $1 = '355', $2 = '88326', $3 = '41081'",,,,,,,,""
2017-05-02 19:23:56.267 EDT,"postgres","epinions",10016,"10.0.0.201:52896",590914f0.2720,86,"COMMIT",2017-05-02 19:23:28 EDT,2/43,0,LOG,00000,"execute S_1: COMMIT",,,,,,,,,""
2017-05-02 19:23:57.055 EDT,"postgres","epinions",10016,"10.0.0.201:52896",590914f0.2720,87,"BEGIN",2017-05-02 19:23:28 EDT,2/44,0,LOG,00000,"execute S_2: BEGIN",,,,,,,,,""
2017-05-02 19:23:57.055 EDT,"postgres","epinions",10016,"10.0.0.201:52896",590914f0.2720,88,"UPDATE",2017-05-02 19:23:28 EDT,2/44,0,LOG,00000,"execute S_3: UPDATE review SET rating = $1 WHERE i_id=$2 AND u_id=$3","parameters: $1 = '822', $2 = '94111', $3 = '18057'",,,,,,,,""
2017-05-02 19:23:57.340 EDT,"postgres","epinions",10016,"10.0.0.201:52896",590914f0.2720,89,"COMMIT",2017-05-02 19:23:28 EDT,2/44,0,LOG,00000,"execute S_1: COMMIT",,,,,,,,,""
2017-05-02 19:23:58.049 EDT,"postgres","epinions",10016,"10.0.0.201:52896",590914f0.2720,90,"BEGIN",2017-05-02 19:23:28 EDT,2/45,0,LOG,00000,"execute S_2: BEGIN",,,,,,,,,""
2017-05-02 19:23:58.049 EDT,"postgres","epinions",10016,"10.0.0.201:52896",590914f0.2720,91,"UPDATE",2017-05-02 19:23:28 EDT,2/45,0,LOG,00000,"execute S_3: UPDATE review SET rating = $1 WHERE i_id=$2 AND u_id=$3","parameters: $1 = '554', $2 = '68237', $3 = '171197'",,,,,,,,""
2017-05-02 19:23:58.320 EDT,"postgres","epinions",10016,"10.0.0.201:52896",590914f0.2720,92,"COMMIT",2017-05-02 19:23:28 EDT,2/45,0,LOG,00000,"execute S_1: COMMIT",,,,,,,,,""
2017-05-02 19:23:59.061 EDT,"postgres","epinions",10016,"10.0.0.201:52896",590914f0.2720,93,"BEGIN",2017-05-02 19:23:28 EDT,2/46,0,LOG,00000,"execute S_2: BEGIN",,,,,,,,,""
2017-05-02 19:23:59.061 EDT,"postgres","epinions",10016,"10.0.0.201:52896",590914f0.2720,94,"UPDATE",2017-05-02 19:23:28 EDT,2/46,0,LOG,00000,"execute S_3: UPDATE review SET rating = $1 WHERE i_id=$2 AND u_id=$3","parameters: $1 = '832', $2 = '65533', $3 = '38434'",,,,,,,,""
2017-05-02 19:23:59.392 EDT,"postgres","epinions",10016,"10.0.0.201:52896",590914f0.2720,95,"COMMIT",2017-05-02 19:23:28 EDT,2/46,0,LOG,00000,"execute S_1: COMMIT",,,,,,,,,""
2017-05-02 19:24:00.259 EDT,"postgres","epinions",10016,"10.0.0.201:52896",590914f0.2720,96,"BEGIN",2017-05-02 19:23:28 EDT,2/47,0,LOG,00000,"execute S_2: BEGIN",,,,,,,,,""
2017-05-02 19:24:00.259 EDT,"postgres","epinions",10016,"10.0.0.201:52896",590914f0.2720,97,"UPDATE",2017-05-02 19:23:28 EDT,2/47,0,LOG,00000,"execute S_3: UPDATE review SET rating = $1 WHERE i_id=$2 AND u_id=$3","parameters: $1 = '411', $2 = '45123', $3 = '186477'",,,,,,,,""
2017-05-02 19:24:00.563 EDT,"postgres","epinions",10016,"10.0.0.201:52896",590914f0.2720,98,"COMMIT",2017-05-02 19:23:28 EDT,2/47,0,LOG,00000,"execute S_1: COMMIT",,,,,,,,,""
2017-05-02 19:24:01.164 EDT,"postgres","epinions",10016,"10.0.0.201:52896",590914f0.2720,99,"BEGIN",2017-05-02 19:23:28 EDT,2/48,0,LOG,00000,"execute S_2: BEGIN",,,,,,,,,""
2017-05-02 19:24:01.164 EDT,"postgres","epinions",10016,"10.0.0.201:52896",590914f0.2720,100,"UPDATE",2017-05-02 19:23:28 EDT,2/48,0,LOG,00000,"execute S_3: UPDATE review SET rating = $1 WHERE i_id=$2 AND u_id=$3","parameters: $1 = '870', $2 = '97630', $3 = '193046'",,,,,,,,""
2017-05-02 19:24:01.436 EDT,"postgres","epinions",10016,"10.0.0.201:52896",590914f0.2720,101,"COMMIT",2017-05-02 19:23:28 EDT,2/48,0,LOG,00000,"execute S_1: COMMIT",,,,,,,,,""
2017-05-02 19:24:02.087 EDT,"postgres","epinions",10016,"10.0.0.201:52896",590914f0.2720,102,"BEGIN",2017-05-02 19:23:28 EDT,2/49,0,LOG,00000,"execute S_2: BEGIN",,,,,,,,,""
2017-05-02 19:24:02.087 EDT,"postgres","epinions",10016,"10.0.0.201:52896",590914f0.2720,103,"UPDATE",2017-05-02 19:23:28 EDT,2/49,0,LOG,00000,"execute S_3: UPDATE review SET rating = $1 WHERE i_id=$2 AND u_id=$3","parameters: $1 = '644', $2 = '92946', $3 = '144085'",,,,,,,,""
2017-05-02 19:24:02.367 EDT,"postgres","epinions",10016,"10.0.0.201:52896",590914f0.2720,104,"COMMIT",2017-05-02 19:23:28 EDT,2/49,0,LOG,00000,"execute S_1: COMMIT",,,,,,,,,""
2017-05-02 19:24:03.047 EDT,"postgres","epinions",10016,"10.0.0.201:52896",590914f0.2720,105,"BEGIN",2017-05-02 19:23:28 EDT,2/50,0,LOG,00000,"execute S_2: BEGIN",,,,,,,,,""
2017-05-02 19:24:03.047 EDT,"postgres","epinions",10016,"10.0.0.201:52896",590914f0.2720,106,"UPDATE",2017-05-02 19:23:28 EDT,2/50,0,LOG,00000,"execute S_3: UPDATE review SET rating = $1 WHERE i_id=$2 AND u_id=$3","parameters: $1 = '49', $2 = '31315', $3 = '18048'",,,,,,,,""
2017-05-02 19:24:03.330 EDT,"postgres","epinions",10016,"10.0.0.201:52896",590914f0.2720,107,"COMMIT",2017-05-02 19:23:28 EDT,2/50,0,LOG,00000,"execute S_1: COMMIT",,,,,,,,,""
2017-05-02 19:24:04.046 EDT,"postgres","epinions",10016,"10.0.0.201:52896",590914f0.2720,108,"BEGIN",2017-05-02 19:23:28 EDT,2/51,0,LOG,00000,"execute S_2: BEGIN",,,,,,,,,""
2017-05-02 19:24:04.047 EDT,"postgres","epinions",10016,"10.0.0.201:52896",590914f0.2720,109,"UPDATE",2017-05-02 19:23:28 EDT,2/51,0,LOG,00000,"execute S_3: UPDATE review SET rating = $1 WHERE i_id=$2 AND u_id=$3","parameters: $1 = '386', $2 = '74535', $3 = '131218'",,,,,,,,""
2017-05-02 19:24:04.324 EDT,"postgres","epinions",10016,"10.0.0.201:52896",590914f0.2720,110,"COMMIT",2017-05-02 19:23:28 EDT,2/51,0,LOG,00000,"execute S_1: COMMIT",,,,,,,,,""
2017-05-02 19:24:05.054 EDT,"postgres","epinions",10016,"10.0.0.201:52896",590914f0.2720,111,"BEGIN",2017-05-02 19:23:28 EDT,2/52,0,LOG,00000,"execute S_2: BEGIN",,,,,,,,,""
2017-05-02 19:24:05.054 EDT,"postgres","epinions",10016,"10.0.0.201:52896",590914f0.2720,112,"UPDATE",2017-05-02 19:23:28 EDT,2/52,0,LOG,00000,"execute S_3: UPDATE review SET rating = $1 WHERE i_id=$2 AND u_id=$3","parameters: $1 = '452', $2 = '31705', $3 = '142776'",,,,,,,,""
2017-05-02 19:24:05.326 EDT,"postgres","epinions",10016,"10.0.0.201:52896",590914f0.2720,113,"COMMIT",2017-05-02 19:23:28 EDT,2/52,0,LOG,00000,"execute S_1: COMMIT",,,,,,,,,""
2017-05-02 19:24:06.048 EDT,"postgres","epinions",10016,"10.0.0.201:52896",590914f0.2720,114,"BEGIN",2017-05-02 19:23:28 EDT,2/53,0,LOG,00000,"execute S_2: BEGIN",,,,,,,,,""
2017-05-02 19:24:06.048 EDT,"postgres","epinions",10016,"10.0.0.201:52896",590914f0.2720,115,"UPDATE",2017-05-02 19:23:28 EDT,2/53,0,LOG,00000,"execute S_3: UPDATE review SET rating = $1 WHERE i_id=$2 AND u_id=$3","parameters: $1 = '755', $2 = '30723', $3 = '155830'",,,,,,,,""
2017-05-02 19:24:06.322 EDT,"postgres","epinions",10016,"10.0.0.201:52896",590914f0.2720,116,"COMMIT",2017-05-02 19:23:28 EDT,2/53,0,LOG,00000,"execute S_1: COMMIT",,,,,,,,,""
2017-05-02 19:24:07.047 EDT,"postgres","epinions",10016,"10.0.0.201:52896",590914f0.2720,117,"BEGIN",2017-05-02 19:23:28 EDT,2/54,0,LOG,00000,"execute S_2: BEGIN",,,,,,,,,""
2017-05-02 19:24:07.047 EDT,"postgres","epinions",10016,"10.0.0.201:52896",590914f0.2720,118,"UPDATE",2017-05-02 19:23:28 EDT,2/54,0,LOG,00000,"execute S_3: UPDATE review SET rating = $1 WHERE i_id=$2 AND u_id=$3","parameters: $1 = '786', $2 = '3535', $3 = '27529'",,,,,,,,""
2017-05-02 19:24:07.323 EDT,"postgres","epinions",10016,"10.0.0.201:52896",590914f0.2720,119,"COMMIT",2017-05-02 19:23:28 EDT,2/54,0,LOG,00000,"execute S_1: COMMIT",,,,,,,,,""
2017-05-02 19:24:08.051 EDT,"postgres","epinions",10016,"10.0.0.201:52896",590914f0.2720,120,"BEGIN",2017-05-02 19:23:28 EDT,2/55,0,LOG,00000,"execute S_2: BEGIN",,,,,,,,,""
2017-05-02 19:24:08.051 EDT,"postgres","epinions",10016,"10.0.0.201:52896",590914f0.2720,121,"UPDATE",2017-05-02 19:23:28 EDT,2/55,0,LOG,00000,"execute S_3: UPDATE review SET rating = $1 WHERE i_id=$2 AND u_id=$3","parameters: $1 = '264', $2 = '6089', $3 = '168793'",,,,,,,,""
2017-05-02 19:24:08.325 EDT,"postgres","epinions",10016,"10.0.0.201:52896",590914f0.2720,122,"COMMIT",2017-05-02 19:23:28 EDT,2/55,0,LOG,00000,"execute S_1: COMMIT",,,,,,,,,""
2017-05-02 19:24:09.056 EDT,"postgres","epinions",10016,"10.0.0.201:52896",590914f0.2720,123,"BEGIN",2017-05-02 19:23:28 EDT,2/56,0,LOG,00000,"execute S_2: BEGIN",,,,,,,,,""
2017-05-02 19:24:09.057 EDT,"postgres","epinions",10016,"10.0.0.201:52896",590914f0.2720,124,"UPDATE",2017-05-02 19:23:28 EDT,2/56,0,LOG,00000,"execute S_3: UPDATE review SET rating = $1 WHERE i_id=$2 AND u_id=$3","parameters: $1 = '790', $2 = '84614', $3 = '122825'",,,,,,,,""
2017-05-02 19:24:09.342 EDT,"postgres","epinions",10016,"10.0.0.201:52896",590914f0.2720,125,"COMMIT",2017-05-02 19:23:28 EDT,2/56,0,LOG,00000,"execute S_1: COMMIT",,,,,,,,,""
2017-05-02 19:24:10.060 EDT,"postgres","epinions",10016,"10.0.0.201:52896",590914f0.2720,126,"BEGIN",2017-05-02 19:23:28 EDT,2/57,0,LOG,00000,"execute S_2: BEGIN",,,,,,,,,""
2017-05-02 19:24:10.060 EDT,"postgres","epinions",10016,"10.0.0.201:52896",590914f0.2720,127,"UPDATE",2017-05-02 19:23:28 EDT,2/57,0,LOG,00000,"execute S_3: UPDATE review SET rating = $1 WHERE i_id=$2 AND u_id=$3","parameters: $1 = '418', $2 = '74629', $3 = '16776'",,,,,,,,""
2017-05-02 19:24:10.347 EDT,"postgres","epinions",10016,"10.0.0.201:52896",590914f0.2720,128,"COMMIT",2017-05-02 19:23:28 EDT,2/57,0,LOG,00000,"execute S_1: COMMIT",,,,,,,,,""
2017-05-02 19:24:11.058 EDT,"postgres","epinions",10016,"10.0.0.201:52896",590914f0.2720,129,"BEGIN",2017-05-02 19:23:28 EDT,2/58,0,LOG,00000,"execute S_2: BEGIN",,,,,,,,,""
2017-05-02 19:24:11.058 EDT,"postgres","epinions",10016,"10.0.0.201:52896",590914f0.2720,130,"UPDATE",2017-05-02 19:23:28 EDT,2/58,0,LOG,00000,"execute S_3: UPDATE review SET rating = $1 WHERE i_id=$2 AND u_id=$3","parameters: $1 = '99', $2 = '82380', $3 = '29551'",,,,,,,,""
2017-05-02 19:24:11.337 EDT,"postgres","epinions",10016,"10.0.0.201:52896",590914f0.2720,131,"COMMIT",2017-05-02 19:23:28 EDT,2/58,0,LOG,00000,"execute S_1: COMMIT",,,,,,,,,""
2017-05-02 19:24:12.048 EDT,"postgres","epinions",10016,"10.0.0.201:52896",590914f0.2720,132,"BEGIN",2017-05-02 19:23:28 EDT,2/59,0,LOG,00000,"execute S_2: BEGIN",,,,,,,,,""
2017-05-02 19:24:12.048 EDT,"postgres","epinions",10016,"10.0.0.201:52896",590914f0.2720,133,"UPDATE",2017-05-02 19:23:28 EDT,2/59,0,LOG,00000,"execute S_3: UPDATE review SET rating = $1 WHERE i_id=$2 AND u_id=$3","parameters: $1 = '664', $2 = '81659', $3 = '123417'",,,,,,,,""
2017-05-02 19:24:12.259 EDT,"postgres","epinions",10016,"10.0.0.201:52896",590914f0.2720,134,"COMMIT",2017-05-02 19:23:28 EDT,2/59,0,LOG,00000,"execute S_1: COMMIT",,,,,,,,,""
2017-05-02 19:24:13.055 EDT,"postgres","epinions",10016,"10.0.0.201:52896",590914f0.2720,135,"BEGIN",2017-05-02 19:23:28 EDT,2/60,0,LOG,00000,"execute S_2: BEGIN",,,,,,,,,""
2017-05-02 19:24:13.055 EDT,"postgres","epinions",10016,"10.0.0.201:52896",590914f0.2720,136,"UPDATE",2017-05-02 19:23:28 EDT,2/60,0,LOG,00000,"execute S_3: UPDATE review SET rating = $1 WHERE i_id=$2 AND u_id=$3","parameters: $1 = '712', $2 = '47002', $3 = '171092'",,,,,,,,""
2017-05-02 19:24:13.335 EDT,"postgres","epinions",10016,"10.0.0.201:52896",590914f0.2720,137,"COMMIT",2017-05-02 19:23:28 EDT,2/60,0,LOG,00000,"execute S_1: COMMIT",,,,,,,,,""
2017-05-02 19:24:14.052 EDT,"postgres","epinions",10016,"10.0.0.201:52896",590914f0.2720,138,"BEGIN",2017-05-02 19:23:28 EDT,2/61,0,LOG,00000,"execute S_2: BEGIN",,,,,,,,,""
2017-05-02 19:24:14.052 EDT,"postgres","epinions",10016,"10.0.0.201:52896",590914f0.2720,139,"UPDATE",2017-05-02 19:23:28 EDT,2/61,0,LOG,00000,"execute S_3: UPDATE review SET rating = $1 WHERE i_id=$2 AND u_id=$3","parameters: $1 = '966', $2 = '43748', $3 = '90000'",,,,,,,,""
2017-05-02 19:24:14.325 EDT,"postgres","epinions",10016,"10.0.0.201:52896",590914f0.2720,140,"COMMIT",2017-05-02 19:23:28 EDT,2/61,0,LOG,00000,"execute S_1: COMMIT",,,,,,,,,""
2017-05-02 19:24:15.047 EDT,"postgres","epinions",10016,"10.0.0.201:52896",590914f0.2720,141,"BEGIN",2017-05-02 19:23:28 EDT,2/62,0,LOG,00000,"execute S_2: BEGIN",,,,,,,,,""
2017-05-02 19:24:15.048 EDT,"postgres","epinions",10016,"10.0.0.201:52896",590914f0.2720,142,"UPDATE",2017-05-02 19:23:28 EDT,2/62,0,LOG,00000,"execute S_3: UPDATE review SET rating = $1 WHERE i_id=$2 AND u_id=$3","parameters: $1 = '684', $2 = '1354', $3 = '179618'",,,,,,,,""
2017-05-02 19:24:15.321 EDT,"postgres","epinions",10016,"10.0.0.201:52896",590914f0.2720,143,"COMMIT",2017-05-02 19:23:28 EDT,2/62,0,LOG,00000,"execute S_1: COMMIT",,,,,,,,,""
2017-05-02 19:24:16.049 EDT,"postgres","epinions",10016,"10.0.0.201:52896",590914f0.2720,144,"BEGIN",2017-05-02 19:23:28 EDT,2/63,0,LOG,00000,"execute S_2: BEGIN",,,,,,,,,""
2017-05-02 19:24:16.049 EDT,"postgres","epinions",10016,"10.0.0.201:52896",590914f0.2720,145,"UPDATE",2017-05-02 19:23:28 EDT,2/63,0,LOG,00000,"execute S_3: UPDATE review SET rating = $1 WHERE i_id=$2 AND u_id=$3","parameters: $1 = '881', $2 = '82148', $3 = '80483'",,,,,,,,""
2017-05-02 19:24:16.316 EDT,"postgres","epinions",10016,"10.0.0.201:52896",590914f0.2720,146,"COMMIT",2017-05-02 19:23:28 EDT,2/63,0,LOG,00000,"execute S_1: COMMIT",,,,,,,,,""
2017-05-02 19:24:17.054 EDT,"postgres","epinions",10016,"10.0.0.201:52896",590914f0.2720,147,"BEGIN",2017-05-02 19:23:28 EDT,2/64,0,LOG,00000,"execute S_2: BEGIN",,,,,,,,,""
2017-05-02 19:24:17.054 EDT,"postgres","epinions",10016,"10.0.0.201:52896",590914f0.2720,148,"UPDATE",2017-05-02 19:23:28 EDT,2/64,0,LOG,00000,"execute S_3: UPDATE review SET rating = $1 WHERE i_id=$2 AND u_id=$3","parameters: $1 = '789', $2 = '74478', $3 = '187253'",,,,,,,,""
2017-05-02 19:24:17.330 EDT,"postgres","epinions",10016,"10.0.0.201:52896",590914f0.2720,149,"COMMIT",2017-05-02 19:23:28 EDT,2/64,0,LOG,00000,"execute S_1: COMMIT",,,,,,,,,""
2017-05-02 19:24:18.047 EDT,"postgres","epinions",10016,"10.0.0.201:52896",590914f0.2720,150,"BEGIN",2017-05-02 19:23:28 EDT,2/65,0,LOG,00000,"execute S_2: BEGIN",,,,,,,,,""
2017-05-02 19:24:18.048 EDT,"postgres","epinions",10016,"10.0.0.201:52896",590914f0.2720,151,"UPDATE",2017-05-02 19:23:28 EDT,2/65,0,LOG,00000,"execute S_3: UPDATE review SET rating = $1 WHERE i_id=$2 AND u_id=$3","parameters: $1 = '10', $2 = '22502', $3 = '107149'",,,,,,,,""
2017-05-02 19:24:18.368 EDT,"postgres","epinions",10016,"10.0.0.201:52896",590914f0.2720,152,"COMMIT",2017-05-02 19:23:28 EDT,2/65,0,LOG,00000,"execute S_1: COMMIT",,,,,,,,,""
2017-05-02 19:24:19.047 EDT,"postgres","epinions",10016,"10.0.0.201:52896",590914f0.2720,153,"BEGIN",2017-05-02 19:23:28 EDT,2/66,0,LOG,00000,"execute S_2: BEGIN",,,,,,,,,""
2017-05-02 19:24:19.047 EDT,"postgres","epinions",10016,"10.0.0.201:52896",590914f0.2720,154,"UPDATE",2017-05-02 19:23:28 EDT,2/66,0,LOG,00000,"execute S_3: UPDATE review SET rating = $1 WHERE i_id=$2 AND u_id=$3","parameters: $1 = '737', $2 = '37390', $3 = '144006'",,,,,,,,""
2017-05-02 19:24:19.317 EDT,"postgres","epinions",10016,"10.0.0.201:52896",590914f0.2720,155,"COMMIT",2017-05-02 19:23:28 EDT,2/66,0,LOG,00000,"execute S_1: COMMIT",,,,,,,,,""
2017-05-02 19:24:20.047 EDT,"postgres","epinions",10016,"10.0.0.201:52896",590914f0.2720,156,"BEGIN",2017-05-02 19:23:28 EDT,2/67,0,LOG,00000,"execute S_2: BEGIN",,,,,,,,,""
2017-05-02 19:24:20.047 EDT,"postgres","epinions",10016,"10.0.0.201:52896",590914f0.2720,157,"UPDATE",2017-05-02 19:23:28 EDT,2/67,0,LOG,00000,"execute S_3: UPDATE review SET rating = $1 WHERE i_id=$2 AND u_id=$3","parameters: $1 = '739', $2 = '2256', $3 = '6508'",,,,,,,,""
2017-05-02 19:24:20.333 EDT,"postgres","epinions",10016,"10.0.0.201:52896",590914f0.2720,158,"COMMIT",2017-05-02 19:23:28 EDT,2/67,0,LOG,00000,"execute S_1: COMMIT",,,,,,,,,""
2017-05-02 19:24:21.056 EDT,"postgres","epinions",10016,"10.0.0.201:52896",590914f0.2720,159,"BEGIN",2017-05-02 19:23:28 EDT,2/68,0,LOG,00000,"execute S_2: BEGIN",,,,,,,,,""
2017-05-02 19:24:21.056 EDT,"postgres","epinions",10016,"10.0.0.201:52896",590914f0.2720,160,"UPDATE",2017-05-02 19:23:28 EDT,2/68,0,LOG,00000,"execute S_3: UPDATE review SET rating = $1 WHERE i_id=$2 AND u_id=$3","parameters: $1 = '912', $2 = '68187', $3 = '195940'",,,,,,,,""
2017-05-02 19:24:21.332 EDT,"postgres","epinions",10016,"10.0.0.201:52896",590914f0.2720,161,"COMMIT",2017-05-02 19:23:28 EDT,2/68,0,LOG,00000,"execute S_1: COMMIT",,,,,,,,,""
2017-05-02 19:24:22.047 EDT,"postgres","epinions",10016,"10.0.0.201:52896",590914f0.2720,162,"BEGIN",2017-05-02 19:23:28 EDT,2/69,0,LOG,00000,"execute S_2: BEGIN",,,,,,,,,""
2017-05-02 19:24:22.047 EDT,"postgres","epinions",10016,"10.0.0.201:52896",590914f0.2720,163,"UPDATE",2017-05-02 19:23:28 EDT,2/69,0,LOG,00000,"execute S_3: UPDATE review SET rating = $1 WHERE i_id=$2 AND u_id=$3","parameters: $1 = '708', $2 = '72828', $3 = '63990'",,,,,,,,""
2017-05-02 19:24:22.323 EDT,"postgres","epinions",10016,"10.0.0.201:52896",590914f0.2720,164,"COMMIT",2017-05-02 19:23:28 EDT,2/69,0,LOG,00000,"execute S_1: COMMIT",,,,,,,,,""
2017-05-02 19:24:23.055 EDT,"postgres","epinions",10016,"10.0.0.201:52896",590914f0.2720,165,"BEGIN",2017-05-02 19:23:28 EDT,2/70,0,LOG,00000,"execute S_2: BEGIN",,,,,,,,,""
2017-05-02 19:24:23.055 EDT,"postgres","epinions",10016,"10.0.0.201:52896",590914f0.2720,166,"UPDATE",2017-05-02 19:23:28 EDT,2/70,0,LOG,00000,"execute S_3: UPDATE review SET rating = $1 WHERE i_id=$2 AND u_id=$3","parameters: $1 = '384', $2 = '52771', $3 = '102408'",,,,,,,,""
2017-05-02 19:24:23.324 EDT,"postgres","epinions",10016,"10.0.0.201:52896",590914f0.2720,167,"COMMIT",2017-05-02 19:23:28 EDT,2/70,0,LOG,00000,"execute S_1: COMMIT",,,,,,,,,""
2017-05-02 19:24:24.048 EDT,"postgres","epinions",10016,"10.0.0.201:52896",590914f0.2720,168,"BEGIN",2017-05-02 19:23:28 EDT,2/71,0,LOG,00000,"execute S_2: BEGIN",,,,,,,,,""
2017-05-02 19:24:24.048 EDT,"postgres","epinions",10016,"10.0.0.201:52896",590914f0.2720,169,"UPDATE",2017-05-02 19:23:28 EDT,2/71,0,LOG,00000,"execute S_3: UPDATE review SET rating = $1 WHERE i_id=$2 AND u_id=$3","parameters: $1 = '533', $2 = '26347', $3 = '5919'",,,,,,,,""
2017-05-02 19:24:24.321 EDT,"postgres","epinions",10016,"10.0.0.201:52896",590914f0.2720,170,"COMMIT",2017-05-02 19:23:28 EDT,2/71,0,LOG,00000,"execute S_1: COMMIT",,,,,,,,,""
2017-05-02 19:24:25.048 EDT,"postgres","epinions",10016,"10.0.0.201:52896",590914f0.2720,171,"BEGIN",2017-05-02 19:23:28 EDT,2/72,0,LOG,00000,"execute S_2: BEGIN",,,,,,,,,""
2017-05-02 19:24:25.048 EDT,"postgres","epinions",10016,"10.0.0.201:52896",590914f0.2720,172,"UPDATE",2017-05-02 19:23:28 EDT,2/72,0,LOG,00000,"execute S_3: UPDATE review SET rating = $1 WHERE i_id=$2 AND u_id=$3","parameters: $1 = '19', $2 = '20440', $3 = '29976'",,,,,,,,""
2017-05-02 19:24:25.318 EDT,"postgres","epinions",10016,"10.0.0.201:52896",590914f0.2720,173,"COMMIT",2017-05-02 19:23:28 EDT,2/72,0,LOG,00000,"execute S_1: COMMIT",,,,,,,,,""
2017-05-02 19:24:26.071 EDT,"postgres","epinions",10016,"10.0.0.201:52896",590914f0.2720,174,"BEGIN",2017-05-02 19:23:28 EDT,2/73,0,LOG,00000,"execute S_2: BEGIN",,,,,,,,,""
2017-05-02 19:24:26.072 EDT,"postgres","epinions",10016,"10.0.0.201:52896",590914f0.2720,175,"UPDATE",2017-05-02 19:23:28 EDT,2/73,0,LOG,00000,"execute S_3: UPDATE review SET rating = $1 WHERE i_id=$2 AND u_id=$3","parameters: $1 = '781', $2 = '10533', $3 = '196698'",,,,,,,,""
2017-05-02 19:24:26.254 EDT,"postgres","epinions",10016,"10.0.0.201:52896",590914f0.2720,176,"COMMIT",2017-05-02 19:23:28 EDT,2/73,0,LOG,00000,"execute S_1: COMMIT",,,,,,,,,""
2017-05-02 19:24:27.047 EDT,"postgres","epinions",10016,"10.0.0.201:52896",590914f0.2720,177,"BEGIN",2017-05-02 19:23:28 EDT,2/74,0,LOG,00000,"execute S_2: BEGIN",,,,,,,,,""
2017-05-02 19:24:27.047 EDT,"postgres","epinions",10016,"10.0.0.201:52896",590914f0.2720,178,"UPDATE",2017-05-02 19:23:28 EDT,2/74,0,LOG,00000,"execute S_3: UPDATE review SET rating = $1 WHERE i_id=$2 AND u_id=$3","parameters: $1 = '960', $2 = '89983', $3 = '197523'",,,,,,,,""
2017-05-02 19:24:27.320 EDT,"postgres","epinions",10016,"10.0.0.201:52896",590914f0.2720,179,"COMMIT",2017-05-02 19:23:28 EDT,2/74,0,LOG,00000,"execute S_1: COMMIT",,,,,,,,,""
2017-05-02 19:24:28.057 EDT,"postgres","epinions",10016,"10.0.0.201:52896",590914f0.2720,180,"BEGIN",2017-05-02 19:23:28 EDT,2/75,0,LOG,00000,"execute S_2: BEGIN",,,,,,,,,""
2017-05-02 19:24:28.057 EDT,"postgres","epinions",10016,"10.0.0.201:52896",590914f0.2720,181,"UPDATE",2017-05-02 19:23:28 EDT,2/75,0,LOG,00000,"execute S_3: UPDATE review SET rating = $1 WHERE i_id=$2 AND u_id=$3","parameters: $1 = '258', $2 = '17148', $3 = '118533'",,,,,,,,""
2017-05-02 19:24:28.328 EDT,"postgres","epinions",10016,"10.0.0.201:52896",590914f0.2720,182,"COMMIT",2017-05-02 19:23:28 EDT,2/75,0,LOG,00000,"execute S_1: COMMIT",,,,,,,,,""
2017-05-02 19:24:29.048 EDT,"postgres","epinions",10016,"10.0.0.201:52896",590914f0.2720,183,"BEGIN",2017-05-02 19:23:28 EDT,2/76,0,LOG,00000,"execute S_2: BEGIN",,,,,,,,,""
2017-05-02 19:24:29.048 EDT,"postgres","epinions",10016,"10.0.0.201:52896",590914f0.2720,184,"UPDATE",2017-05-02 19:23:28 EDT,2/76,0,LOG,00000,"execute S_3: UPDATE review SET rating = $1 WHERE i_id=$2 AND u_id=$3","parameters: $1 = '299', $2 = '38018', $3 = '79502'",,,,,,,,""
2017-05-02 19:24:29.593 EDT,"postgres","epinions",10016,"10.0.0.201:52896",590914f0.2720,185,"COMMIT",2017-05-02 19:23:28 EDT,2/76,0,LOG,00000,"execute S_1: COMMIT",,,,,,,,,""
2017-05-02 19:24:30.087 EDT,"postgres","epinions",10016,"10.0.0.201:52896",590914f0.2720,186,"BEGIN",2017-05-02 19:23:28 EDT,2/77,0,LOG,00000,"execute S_2: BEGIN",,,,,,,,,""
2017-05-02 19:24:30.087 EDT,"postgres","epinions",10016,"10.0.0.201:52896",590914f0.2720,187,"UPDATE",2017-05-02 19:23:28 EDT,2/77,0,LOG,00000,"execute S_3: UPDATE review SET rating = $1 WHERE i_id=$2 AND u_id=$3","parameters: $1 = '686', $2 = '46956', $3 = '135452'",,,,,,,,""
2017-05-02 19:24:30.774 EDT,"postgres","epinions",10016,"10.0.0.201:52896",590914f0.2720,188,"COMMIT",2017-05-02 19:23:28 EDT,2/77,0,LOG,00000,"execute S_1: COMMIT",,,,,,,,,""
2017-05-02 19:24:31.139 EDT,"postgres","epinions",10016,"10.0.0.201:52896",590914f0.2720,189,"BEGIN",2017-05-02 19:23:28 EDT,2/78,0,LOG,00000,"execute S_2: BEGIN",,,,,,,,,""
2017-05-02 19:24:31.139 EDT,"postgres","epinions",10016,"10.0.0.201:52896",590914f0.2720,190,"UPDATE",2017-05-02 19:23:28 EDT,2/78,0,LOG,00000,"execute S_3: UPDATE review SET rating = $1 WHERE i_id=$2 AND u_id=$3","parameters: $1 = '633', $2 = '91471', $3 = '45545'",,,,,,,,""
2017-05-02 19:24:31.684 EDT,"postgres","epinions",10016,"10.0.0.201:52896",590914f0.2720,191,"COMMIT",2017-05-02 19:23:28 EDT,2/78,0,LOG,00000,"execute S_1: COMMIT",,,,,,,,,""
2017-05-02 19:24:32.053 EDT,"postgres","epinions",10016,"10.0.0.201:52896",590914f0.2720,192,"BEGIN",2017-05-02 19:23:28 EDT,2/79,0,LOG,00000,"execute S_2: BEGIN",,,,,,,,,""
2017-05-02 19:24:32.053 EDT,"postgres","epinions",10016,"10.0.0.201:52896",590914f0.2720,193,"UPDATE",2017-05-02 19:23:28 EDT,2/79,0,LOG,00000,"execute S_3: UPDATE review SET rating = $1 WHERE i_id=$2 AND u_id=$3","parameters: $1 = '380', $2 = '15380', $3 = '165081'",,,,,,,,""
2017-05-02 19:24:32.489 EDT,"postgres","epinions",10016,"10.0.0.201:52896",590914f0.2720,194,"COMMIT",2017-05-02 19:23:28 EDT,2/79,0,LOG,00000,"execute S_1: COMMIT",,,,,,,,,""
2017-05-02 19:24:33.049 EDT,"postgres","epinions",10016,"10.0.0.201:52896",590914f0.2720,195,"BEGIN",2017-05-02 19:23:28 EDT,2/80,0,LOG,00000,"execute S_2: BEGIN",,,,,,,,,""
2017-05-02 19:24:33.049 EDT,"postgres","epinions",10016,"10.0.0.201:52896",590914f0.2720,196,"UPDATE",2017-05-02 19:23:28 EDT,2/80,0,LOG,00000,"execute S_3: UPDATE review SET rating = $1 WHERE i_id=$2 AND u_id=$3","parameters: $1 = '286', $2 = '47772', $3 = '18801'",,,,,,,,""
2017-05-02 19:24:33.333 EDT,"postgres","epinions",10016,"10.0.0.201:52896",590914f0.2720,197,"COMMIT",2017-05-02 19:23:28 EDT,2/80,0,LOG,00000,"execute S_1: COMMIT",,,,,,,,,""
2017-05-02 19:24:34.048 EDT,"postgres","epinions",10016,"10.0.0.201:52896",590914f0.2720,198,"BEGIN",2017-05-02 19:23:28 EDT,2/81,0,LOG,00000,"execute S_2: BEGIN",,,,,,,,,""
2017-05-02 19:24:34.048 EDT,"postgres","epinions",10016,"10.0.0.201:52896",590914f0.2720,199,"UPDATE",2017-05-02 19:23:28 EDT,2/81,0,LOG,00000,"execute S_3: UPDATE review SET rating = $1 WHERE i_id=$2 AND u_id=$3","parameters: $1 = '278', $2 = '47687', $3 = '181522'",,,,,,,,""
2017-05-02 19:24:34.317 EDT,"postgres","epinions",10016,"10.0.0.201:52896",590914f0.2720,200,"COMMIT",2017-05-02 19:23:28 EDT,2/81,0,LOG,00000,"execute S_1: COMMIT",,,,,,,,,""
2017-05-02 19:24:35.055 EDT,"postgres","epinions",10016,"10.0.0.201:52896",590914f0.2720,201,"BEGIN",2017-05-02 19:23:28 EDT,2/82,0,LOG,00000,"execute S_2: BEGIN",,,,,,,,,""
2017-05-02 19:24:35.055 EDT,"postgres","epinions",10016,"10.0.0.201:52896",590914f0.2720,202,"UPDATE",2017-05-02 19:23:28 EDT,2/82,0,LOG,00000,"execute S_3: UPDATE review SET rating = $1 WHERE i_id=$2 AND u_id=$3","parameters: $1 = '380', $2 = '90627', $3 = '15573'",,,,,,,,""
2017-05-02 19:24:35.329 EDT,"postgres","epinions",10016,"10.0.0.201:52896",590914f0.2720,203,"COMMIT",2017-05-02 19:23:28 EDT,2/82,0,LOG,00000,"execute S_1: COMMIT",,,,,,,,,""
2017-05-02 19:24:36.048 EDT,"postgres","epinions",10016,"10.0.0.201:52896",590914f0.2720,204,"BEGIN",2017-05-02 19:23:28 EDT,2/83,0,LOG,00000,"execute S_2: BEGIN",,,,,,,,,""
2017-05-02 19:24:36.048 EDT,"postgres","epinions",10016,"10.0.0.201:52896",590914f0.2720,205,"UPDATE",2017-05-02 19:23:28 EDT,2/83,0,LOG,00000,"execute S_3: UPDATE review SET rating = $1 WHERE i_id=$2 AND u_id=$3","parameters: $1 = '960', $2 = '16537', $3 = '175861'",,,,,,,,""
2017-05-02 19:24:36.325 EDT,"postgres","epinions",10016,"10.0.0.201:52896",590914f0.2720,206,"COMMIT",2017-05-02 19:23:28 EDT,2/83,0,LOG,00000,"execute S_1: COMMIT",,,,,,,,,""
2017-05-02 19:24:37.046 EDT,"postgres","epinions",10016,"10.0.0.201:52896",590914f0.2720,207,"BEGIN",2017-05-02 19:23:28 EDT,2/84,0,LOG,00000,"execute S_2: BEGIN",,,,,,,,,""
2017-05-02 19:24:37.046 EDT,"postgres","epinions",10016,"10.0.0.201:52896",590914f0.2720,208,"UPDATE",2017-05-02 19:23:28 EDT,2/84,0,LOG,00000,"execute S_3: UPDATE review SET rating = $1 WHERE i_id=$2 AND u_id=$3","parameters: $1 = '267', $2 = '4891', $3 = '184348'",,,,,,,,""
2017-05-02 19:24:37.327 EDT,"postgres","epinions",10016,"10.0.0.201:52896",590914f0.2720,209,"COMMIT",2017-05-02 19:23:28 EDT,2/84,0,LOG,00000,"execute S_1: COMMIT",,,,,,,,,""
2017-05-02 19:24:38.056 EDT,"postgres","epinions",10016,"10.0.0.201:52896",590914f0.2720,210,"BEGIN",2017-05-02 19:23:28 EDT,2/85,0,LOG,00000,"execute S_2: BEGIN",,,,,,,,,""
2017-05-02 19:24:38.056 EDT,"postgres","epinions",10016,"10.0.0.201:52896",590914f0.2720,211,"UPDATE",2017-05-02 19:23:28 EDT,2/85,0,LOG,00000,"execute S_3: UPDATE review SET rating = $1 WHERE i_id=$2 AND u_id=$3","parameters: $1 = '1', $2 = '98128', $3 = '195202'",,,,,,,,""
2017-05-02 19:24:38.325 EDT,"postgres","epinions",10016,"10.0.0.201:52896",590914f0.2720,212,"COMMIT",2017-05-02 19:23:28 EDT,2/85,0,LOG,00000,"execute S_1: COMMIT",,,,,,,,,""
2017-05-02 19:24:39.048 EDT,"postgres","epinions",10016,"10.0.0.201:52896",590914f0.2720,213,"BEGIN",2017-05-02 19:23:28 EDT,2/86,0,LOG,00000,"execute S_2: BEGIN",,,,,,,,,""
2017-05-02 19:24:39.049 EDT,"postgres","epinions",10016,"10.0.0.201:52896",590914f0.2720,214,"UPDATE",2017-05-02 19:23:28 EDT,2/86,0,LOG,00000,"execute S_3: UPDATE review SET rating = $1 WHERE i_id=$2 AND u_id=$3","parameters: $1 = '814', $2 = '68647', $3 = '53765'",,,,,,,,""
2017-05-02 19:24:39.324 EDT,"postgres","epinions",10016,"10.0.0.201:52896",590914f0.2720,215,"COMMIT",2017-05-02 19:23:28 EDT,2/86,0,LOG,00000,"execute S_1: COMMIT",,,,,,,,,""
2017-05-02 19:24:40.058 EDT,"postgres","epinions",10016,"10.0.0.201:52896",590914f0.2720,216,"BEGIN",2017-05-02 19:23:28 EDT,2/87,0,LOG,00000,"execute S_2: BEGIN",,,,,,,,,""
2017-05-02 19:24:40.058 EDT,"postgres","epinions",10016,"10.0.0.201:52896",590914f0.2720,217,"UPDATE",2017-05-02 19:23:28 EDT,2/87,0,LOG,00000,"execute S_3: UPDATE review SET rating = $1 WHERE i_id=$2 AND u_id=$3","parameters: $1 = '488', $2 = '57452', $3 = '22555'",,,,,,,,""
2017-05-02 19:24:40.330 EDT,"postgres","epinions",10016,"10.0.0.201:52896",590914f0.2720,218,"COMMIT",2017-05-02 19:23:28 EDT,2/87,0,LOG,00000,"execute S_1: COMMIT",,,,,,,,,""
2017-05-02 19:24:41.048 EDT,"postgres","epinions",10016,"10.0.0.201:52896",590914f0.2720,219,"BEGIN",2017-05-02 19:23:28 EDT,2/88,0,LOG,00000,"execute S_2: BEGIN",,,,,,,,,""
2017-05-02 19:24:41.048 EDT,"postgres","epinions",10016,"10.0.0.201:52896",590914f0.2720,220,"UPDATE",2017-05-02 19:23:28 EDT,2/88,0,LOG,00000,"execute S_3: UPDATE review SET rating = $1 WHERE i_id=$2 AND u_id=$3","parameters: $1 = '117', $2 = '71105', $3 = '42051'",,,,,,,,""
2017-05-02 19:24:41.334 EDT,"postgres","epinions",10016,"10.0.0.201:52896",590914f0.2720,221,"COMMIT",2017-05-02 19:23:28 EDT,2/88,0,LOG,00000,"execute S_1: COMMIT",,,,,,,,,""
2017-05-02 19:24:42.046 EDT,"postgres","epinions",10016,"10.0.0.201:52896",590914f0.2720,222,"BEGIN",2017-05-02 19:23:28 EDT,2/89,0,LOG,00000,"execute S_2: BEGIN",,,,,,,,,""
2017-05-02 19:24:42.046 EDT,"postgres","epinions",10016,"10.0.0.201:52896",590914f0.2720,223,"UPDATE",2017-05-02 19:23:28 EDT,2/89,0,LOG,00000,"execute S_3: UPDATE review SET rating = $1 WHERE i_id=$2 AND u_id=$3","parameters: $1 = '676', $2 = '60839', $3 = '7937'",,,,,,,,""
2017-05-02 19:24:42.321 EDT,"postgres","epinions",10016,"10.0.0.201:52896",590914f0.2720,224,"COMMIT",2017-05-02 19:23:28 EDT,2/89,0,LOG,00000,"execute S_1: COMMIT",,,,,,,,,""
2017-05-02 19:24:43.051 EDT,"postgres","epinions",10016,"10.0.0.201:52896",590914f0.2720,225,"BEGIN",2017-05-02 19:23:28 EDT,2/90,0,LOG,00000,"execute S_2: BEGIN",,,,,,,,,""
2017-05-02 19:24:43.052 EDT,"postgres","epinions",10016,"10.0.0.201:52896",590914f0.2720,226,"UPDATE",2017-05-02 19:23:28 EDT,2/90,0,LOG,00000,"execute S_3: UPDATE review SET rating = $1 WHERE i_id=$2 AND u_id=$3","parameters: $1 = '101', $2 = '71228', $3 = '88061'",,,,,,,,""
2017-05-02 19:24:43.325 EDT,"postgres","epinions",10016,"10.0.0.201:52896",590914f0.2720,227,"COMMIT",2017-05-02 19:23:28 EDT,2/90,0,LOG,00000,"execute S_1: COMMIT",,,,,,,,,""
2017-05-02 19:24:44.048 EDT,"postgres","epinions",10016,"10.0.0.201:52896",590914f0.2720,228,"BEGIN",2017-05-02 19:23:28 EDT,2/91,0,LOG,00000,"execute S_2: BEGIN",,,,,,,,,""
2017-05-02 19:24:44.048 EDT,"postgres","epinions",10016,"10.0.0.201:52896",590914f0.2720,229,"UPDATE",2017-05-02 19:23:28 EDT,2/91,0,LOG,00000,"execute S_3: UPDATE review SET rating = $1 WHERE i_id=$2 AND u_id=$3","parameters: $1 = '407', $2 = '63470', $3 = '114857'",,,,,,,,""
2017-05-02 19:24:44.262 EDT,"postgres","epinions",10016,"10.0.0.201:52896",590914f0.2720,230,"COMMIT",2017-05-02 19:23:28 EDT,2/91,0,LOG,00000,"execute S_1: COMMIT",,,,,,,,,""
2017-05-02 19:24:45.046 EDT,"postgres","epinions",10016,"10.0.0.201:52896",590914f0.2720,231,"BEGIN",2017-05-02 19:23:28 EDT,2/92,0,LOG,00000,"execute S_2: BEGIN",,,,,,,,,""
2017-05-02 19:24:45.046 EDT,"postgres","epinions",10016,"10.0.0.201:52896",590914f0.2720,232,"UPDATE",2017-05-02 19:23:28 EDT,2/92,0,LOG,00000,"execute S_3: UPDATE review SET rating = $1 WHERE i_id=$2 AND u_id=$3","parameters: $1 = '83', $2 = '87195', $3 = '31481'",,,,,,,,""
2017-05-02 19:24:45.323 EDT,"postgres","epinions",10016,"10.0.0.201:52896",590914f0.2720,233,"COMMIT",2017-05-02 19:23:28 EDT,2/92,0,LOG,00000,"execute S_1: COMMIT",,,,,,,,,""
2017-05-02 19:24:46.047 EDT,"postgres","epinions",10016,"10.0.0.201:52896",590914f0.2720,234,"BEGIN",2017-05-02 19:23:28 EDT,2/93,0,LOG,00000,"execute S_2: BEGIN",,,,,,,,,""
2017-05-02 19:24:46.047 EDT,"postgres","epinions",10016,"10.0.0.201:52896",590914f0.2720,235,"UPDATE",2017-05-02 19:23:28 EDT,2/93,0,LOG,00000,"execute S_3: UPDATE review SET rating = $1 WHERE i_id=$2 AND u_id=$3","parameters: $1 = '675', $2 = '42209', $3 = '68080'",,,,,,,,""
2017-05-02 19:24:46.314 EDT,"postgres","epinions",10016,"10.0.0.201:52896",590914f0.2720,236,"COMMIT",2017-05-02 19:23:28 EDT,2/93,0,LOG,00000,"execute S_1: COMMIT",,,,,,,,,""
2017-05-02 19:24:47.047 EDT,"postgres","epinions",10016,"10.0.0.201:52896",590914f0.2720,237,"BEGIN",2017-05-02 19:23:28 EDT,2/94,0,LOG,00000,"execute S_2: BEGIN",,,,,,,,,""
2017-05-02 19:24:47.048 EDT,"postgres","epinions",10016,"10.0.0.201:52896",590914f0.2720,238,"UPDATE",2017-05-02 19:23:28 EDT,2/94,0,LOG,00000,"execute S_3: UPDATE review SET rating = $1 WHERE i_id=$2 AND u_id=$3","parameters: $1 = '638', $2 = '59968', $3 = '89582'",,,,,,,,""
2017-05-02 19:24:47.325 EDT,"postgres","epinions",10016,"10.0.0.201:52896",590914f0.2720,239,"COMMIT",2017-05-02 19:23:28 EDT,2/94,0,LOG,00000,"execute S_1: COMMIT",,,,,,,,,""
2017-05-02 19:24:48.050 EDT,"postgres","epinions",10016,"10.0.0.201:52896",590914f0.2720,240,"BEGIN",2017-05-02 19:23:28 EDT,2/95,0,LOG,00000,"execute S_2: BEGIN",,,,,,,,,""
2017-05-02 19:24:48.050 EDT,"postgres","epinions",10016,"10.0.0.201:52896",590914f0.2720,241,"UPDATE",2017-05-02 19:23:28 EDT,2/95,0,LOG,00000,"execute S_3: UPDATE review SET rating = $1 WHERE i_id=$2 AND u_id=$3","parameters: $1 = '279', $2 = '50699', $3 = '3492'",,,,,,,,""
2017-05-02 19:24:48.322 EDT,"postgres","epinions",10016,"10.0.0.201:52896",590914f0.2720,242,"COMMIT",2017-05-02 19:23:28 EDT,2/95,0,LOG,00000,"execute S_1: COMMIT",,,,,,,,,""
2017-05-02 19:24:49.049 EDT,"postgres","epinions",10016,"10.0.0.201:52896",590914f0.2720,243,"BEGIN",2017-05-02 19:23:28 EDT,2/96,0,LOG,00000,"execute S_2: BEGIN",,,,,,,,,""
2017-05-02 19:24:49.049 EDT,"postgres","epinions",10016,"10.0.0.201:52896",590914f0.2720,244,"UPDATE",2017-05-02 19:23:28 EDT,2/96,0,LOG,00000,"execute S_3: UPDATE review SET rating = $1 WHERE i_id=$2 AND u_id=$3","parameters: $1 = '382', $2 = '13396', $3 = '191891'",,,,,,,,""
2017-05-02 19:24:49.283 EDT,"postgres","epinions",10016,"10.0.0.201:52896",590914f0.2720,245,"COMMIT",2017-05-02 19:23:28 EDT,2/96,0,LOG,00000,"execute S_1: COMMIT",,,,,,,,,""
2017-05-02 19:24:50.051 EDT,"postgres","epinions",10016,"10.0.0.201:52896",590914f0.2720,246,"BEGIN",2017-05-02 19:23:28 EDT,2/97,0,LOG,00000,"execute S_2: BEGIN",,,,,,,,,""
2017-05-02 19:24:50.051 EDT,"postgres","epinions",10016,"10.0.0.201:52896",590914f0.2720,247,"UPDATE",2017-05-02 19:23:28 EDT,2/97,0,LOG,00000,"execute S_3: UPDATE review SET rating = $1 WHERE i_id=$2 AND u_id=$3","parameters: $1 = '980', $2 = '66913', $3 = '39708'",,,,,,,,""
2017-05-02 19:24:50.338 EDT,"postgres","epinions",10016,"10.0.0.201:52896",590914f0.2720,248,"COMMIT",2017-05-02 19:23:28 EDT,2/97,0,LOG,00000,"execute S_1: COMMIT",,,,,,,,,""
2017-05-02 19:24:51.049 EDT,"postgres","epinions",10016,"10.0.0.201:52896",590914f0.2720,249,"BEGIN",2017-05-02 19:23:28 EDT,2/98,0,LOG,00000,"execute S_2: BEGIN",,,,,,,,,""
2017-05-02 19:24:51.049 EDT,"postgres","epinions",10016,"10.0.0.201:52896",590914f0.2720,250,"UPDATE",2017-05-02 19:23:28 EDT,2/98,0,LOG,00000,"execute S_3: UPDATE review SET rating = $1 WHERE i_id=$2 AND u_id=$3","parameters: $1 = '466', $2 = '56820', $3 = '26284'",,,,,,,,""
2017-05-02 19:24:51.327 EDT,"postgres","epinions",10016,"10.0.0.201:52896",590914f0.2720,251,"COMMIT",2017-05-02 19:23:28 EDT,2/98,0,LOG,00000,"execute S_1: COMMIT",,,,,,,,,""
2017-05-02 19:24:52.048 EDT,"postgres","epinions",10016,"10.0.0.201:52896",590914f0.2720,252,"BEGIN",2017-05-02 19:23:28 EDT,2/99,0,LOG,00000,"execute S_2: BEGIN",,,,,,,,,""
2017-05-02 19:24:52.048 EDT,"postgres","epinions",10016,"10.0.0.201:52896",590914f0.2720,253,"UPDATE",2017-05-02 19:23:28 EDT,2/99,0,LOG,00000,"execute S_3: UPDATE review SET rating = $1 WHERE i_id=$2 AND u_id=$3","parameters: $1 = '190', $2 = '52676', $3 = '124007'",,,,,,,,""
2017-05-02 19:24:52.320 EDT,"postgres","epinions",10016,"10.0.0.201:52896",590914f0.2720,254,"COMMIT",2017-05-02 19:23:28 EDT,2/99,0,LOG,00000,"execute S_1: COMMIT",,,,,,,,,""
2017-05-02 19:24:53.046 EDT,"postgres","epinions",10016,"10.0.0.201:52896",590914f0.2720,255,"BEGIN",2017-05-02 19:23:28 EDT,2/100,0,LOG,00000,"execute S_2: BEGIN",,,,,,,,,""
2017-05-02 19:24:53.046 EDT,"postgres","epinions",10016,"10.0.0.201:52896",590914f0.2720,256,"UPDATE",2017-05-02 19:23:28 EDT,2/100,0,LOG,00000,"execute S_3: UPDATE review SET rating = $1 WHERE i_id=$2 AND u_id=$3","parameters: $1 = '520', $2 = '90557', $3 = '170801'",,,,,,,,""
2017-05-02 19:24:53.322 EDT,"postgres","epinions",10016,"10.0.0.201:52896",590914f0.2720,257,"COMMIT",2017-05-02 19:23:28 EDT,2/100,0,LOG,00000,"execute S_1: COMMIT",,,,,,,,,""
2017-05-02 19:24:54.054 EDT,"postgres","epinions",10016,"10.0.0.201:52896",590914f0.2720,258,"BEGIN",2017-05-02 19:23:28 EDT,2/101,0,LOG,00000,"execute S_2: BEGIN",,,,,,,,,""
2017-05-02 19:24:54.054 EDT,"postgres","epinions",10016,"10.0.0.201:52896",590914f0.2720,259,"UPDATE",2017-05-02 19:23:28 EDT,2/101,0,LOG,00000,"execute S_3: UPDATE review SET rating = $1 WHERE i_id=$2 AND u_id=$3","parameters: $1 = '69', $2 = '39401', $3 = '62906'",,,,,,,,""
2017-05-02 19:24:54.329 EDT,"postgres","epinions",10016,"10.0.0.201:52896",590914f0.2720,260,"COMMIT",2017-05-02 19:23:28 EDT,2/101,0,LOG,00000,"execute S_1: COMMIT",,,,,,,,,""
2017-05-02 19:24:55.048 EDT,"postgres","epinions",10016,"10.0.0.201:52896",590914f0.2720,261,"BEGIN",2017-05-02 19:23:28 EDT,2/102,0,LOG,00000,"execute S_2: BEGIN",,,,,,,,,""
2017-05-02 19:24:55.048 EDT,"postgres","epinions",10016,"10.0.0.201:52896",590914f0.2720,262,"UPDATE",2017-05-02 19:23:28 EDT,2/102,0,LOG,00000,"execute S_3: UPDATE review SET rating = $1 WHERE i_id=$2 AND u_id=$3","parameters: $1 = '596', $2 = '1214', $3 = '172166'",,,,,,,,""
2017-05-02 19:24:55.320 EDT,"postgres","epinions",10016,"10.0.0.201:52896",590914f0.2720,263,"COMMIT",2017-05-02 19:23:28 EDT,2/102,0,LOG,00000,"execute S_1: COMMIT",,,,,,,,,""
2017-05-02 19:24:56.087 EDT,"postgres","epinions",10016,"10.0.0.201:52896",590914f0.2720,264,"BEGIN",2017-05-02 19:23:28 EDT,2/103,0,LOG,00000,"execute S_2: BEGIN",,,,,,,,,""
2017-05-02 19:24:56.088 EDT,"postgres","epinions",10016,"10.0.0.201:52896",590914f0.2720,265,"UPDATE",2017-05-02 19:23:28 EDT,2/103,0,LOG,00000,"execute S_3: UPDATE review SET rating = $1 WHERE i_id=$2 AND u_id=$3","parameters: $1 = '95', $2 = '9598', $3 = '102128'",,,,,,,,""
2017-05-02 19:24:56.334 EDT,"postgres","epinions",10016,"10.0.0.201:52896",590914f0.2720,266,"COMMIT",2017-05-02 19:23:28 EDT,2/103,0,LOG,00000,"execute S_1: COMMIT",,,,,,,,,""
2017-05-02 19:24:57.048 EDT,"postgres","epinions",10016,"10.0.0.201:52896",590914f0.2720,267,"BEGIN",2017-05-02 19:23:28 EDT,2/104,0,LOG,00000,"execute S_2: BEGIN",,,,,,,,,""
2017-05-02 19:24:57.048 EDT,"postgres","epinions",10016,"10.0.0.201:52896",590914f0.2720,268,"UPDATE",2017-05-02 19:23:28 EDT,2/104,0,LOG,00000,"execute S_3: UPDATE review SET rating = $1 WHERE i_id=$2 AND u_id=$3","parameters: $1 = '382', $2 = '13741', $3 = '9509'",,,,,,,,""
2017-05-02 19:24:57.360 EDT,"postgres","epinions",10016,"10.0.0.201:52896",590914f0.2720,269,"COMMIT",2017-05-02 19:23:28 EDT,2/104,0,LOG,00000,"execute S_1: COMMIT",,,,,,,,,""
2017-05-02 19:24:58.047 EDT,"postgres","epinions",10016,"10.0.0.201:52896",590914f0.2720,270,"BEGIN",2017-05-02 19:23:28 EDT,2/105,0,LOG,00000,"execute S_2: BEGIN",,,,,,,,,""
2017-05-02 19:24:58.047 EDT,"postgres","epinions",10016,"10.0.0.201:52896",590914f0.2720,271,"UPDATE",2017-05-02 19:23:28 EDT,2/105,0,LOG,00000,"execute S_3: UPDATE review SET rating = $1 WHERE i_id=$2 AND u_id=$3","parameters: $1 = '152', $2 = '91490', $3 = '127429'",,,,,,,,""
2017-05-02 19:24:58.318 EDT,"postgres","epinions",10016,"10.0.0.201:52896",590914f0.2720,272,"COMMIT",2017-05-02 19:23:28 EDT,2/105,0,LOG,00000,"execute S_1: COMMIT",,,,,,,,,""
2017-05-02 19:24:59.056 EDT,"postgres","epinions",10016,"10.0.0.201:52896",590914f0.2720,273,"BEGIN",2017-05-02 19:23:28 EDT,2/106,0,LOG,00000,"execute S_2: BEGIN",,,,,,,,,""
2017-05-02 19:24:59.056 EDT,"postgres","epinions",10016,"10.0.0.201:52896",590914f0.2720,274,"UPDATE",2017-05-02 19:23:28 EDT,2/106,0,LOG,00000,"execute S_3: UPDATE review SET rating = $1 WHERE i_id=$2 AND u_id=$3","parameters: $1 = '441', $2 = '64491', $3 = '28472'",,,,,,,,""
2017-05-02 19:24:59.325 EDT,"postgres","epinions",10016,"10.0.0.201:52896",590914f0.2720,275,"COMMIT",2017-05-02 19:23:28 EDT,2/106,0,LOG,00000,"execute S_1: COMMIT",,,,,,,,,""
2017-05-02 19:25:00.068 EDT,"postgres","epinions",10016,"10.0.0.201:52896",590914f0.2720,276,"BEGIN",2017-05-02 19:23:28 EDT,2/107,0,LOG,00000,"execute S_2: BEGIN",,,,,,,,,""
2017-05-02 19:25:00.068 EDT,"postgres","epinions",10016,"10.0.0.201:52896",590914f0.2720,277,"UPDATE",2017-05-02 19:23:28 EDT,2/107,0,LOG,00000,"execute S_3: UPDATE review SET rating = $1 WHERE i_id=$2 AND u_id=$3","parameters: $1 = '748', $2 = '88081', $3 = '94864'",,,,,,,,""
2017-05-02 19:25:00.347 EDT,"postgres","epinions",10016,"10.0.0.201:52896",590914f0.2720,278,"COMMIT",2017-05-02 19:23:28 EDT,2/107,0,LOG,00000,"execute S_1: COMMIT",,,,,,,,,""
2017-05-02 19:25:01.050 EDT,"postgres","epinions",10016,"10.0.0.201:52896",590914f0.2720,279,"BEGIN",2017-05-02 19:23:28 EDT,2/108,0,LOG,00000,"execute S_2: BEGIN",,,,,,,,,""
2017-05-02 19:25:01.050 EDT,"postgres","epinions",10016,"10.0.0.201:52896",590914f0.2720,280,"UPDATE",2017-05-02 19:23:28 EDT,2/108,0,LOG,00000,"execute S_3: UPDATE review SET rating = $1 WHERE i_id=$2 AND u_id=$3","parameters: $1 = '346', $2 = '13347', $3 = '34613'",,,,,,,,""
2017-05-02 19:25:01.340 EDT,"postgres","epinions",10016,"10.0.0.201:52896",590914f0.2720,281,"COMMIT",2017-05-02 19:23:28 EDT,2/108,0,LOG,00000,"execute S_1: COMMIT",,,,,,,,,""
2017-05-02 19:25:02.056 EDT,"postgres","epinions",10016,"10.0.0.201:52896",590914f0.2720,282,"BEGIN",2017-05-02 19:23:28 EDT,2/109,0,LOG,00000,"execute S_2: BEGIN",,,,,,,,,""
2017-05-02 19:25:02.056 EDT,"postgres","epinions",10016,"10.0.0.201:52896",590914f0.2720,283,"UPDATE",2017-05-02 19:23:28 EDT,2/109,0,LOG,00000,"execute S_3: UPDATE review SET rating = $1 WHERE i_id=$2 AND u_id=$3","parameters: $1 = '968', $2 = '78741', $3 = '41981'",,,,,,,,""
2017-05-02 19:25:02.328 EDT,"postgres","epinions",10016,"10.0.0.201:52896",590914f0.2720,284,"COMMIT",2017-05-02 19:23:28 EDT,2/109,0,LOG,00000,"execute S_1: COMMIT",,,,,,,,,""
2017-05-02 19:25:03.047 EDT,"postgres","epinions",10016,"10.0.0.201:52896",590914f0.2720,285,"BEGIN",2017-05-02 19:23:28 EDT,2/110,0,LOG,00000,"execute S_2: BEGIN",,,,,,,,,""
2017-05-02 19:25:03.047 EDT,"postgres","epinions",10016,"10.0.0.201:52896",590914f0.2720,286,"UPDATE",2017-05-02 19:23:28 EDT,2/110,0,LOG,00000,"execute S_3: UPDATE review SET rating = $1 WHERE i_id=$2 AND u_id=$3","parameters: $1 = '579', $2 = '57342', $3 = '188868'",,,,,,,,""
2017-05-02 19:25:03.336 EDT,"postgres","epinions",10016,"10.0.0.201:52896",590914f0.2720,287,"COMMIT",2017-05-02 19:23:28 EDT,2/110,0,LOG,00000,"execute S_1: COMMIT",,,,,,,,,""
2017-05-02 19:25:04.054 EDT,"postgres","epinions",10016,"10.0.0.201:52896",590914f0.2720,288,"BEGIN",2017-05-02 19:23:28 EDT,2/111,0,LOG,00000,"execute S_2: BEGIN",,,,,,,,,""
2017-05-02 19:25:04.054 EDT,"postgres","epinions",10016,"10.0.0.201:52896",590914f0.2720,289,"UPDATE",2017-05-02 19:23:28 EDT,2/111,0,LOG,00000,"execute S_3: UPDATE review SET rating = $1 WHERE i_id=$2 AND u_id=$3","parameters: $1 = '872', $2 = '65936', $3 = '12917'",,,,,,,,""
2017-05-02 19:25:04.332 EDT,"postgres","epinions",10016,"10.0.0.201:52896",590914f0.2720,290,"COMMIT",2017-05-02 19:23:28 EDT,2/111,0,LOG,00000,"execute S_1: COMMIT",,,,,,,,,""
2017-05-02 19:25:05.061 EDT,"postgres","epinions",10016,"10.0.0.201:52896",590914f0.2720,291,"BEGIN",2017-05-02 19:23:28 EDT,2/112,0,LOG,00000,"execute S_2: BEGIN",,,,,,,,,""
2017-05-02 19:25:05.061 EDT,"postgres","epinions",10016,"10.0.0.201:52896",590914f0.2720,292,"UPDATE",2017-05-02 19:23:28 EDT,2/112,0,LOG,00000,"execute S_3: UPDATE review SET rating = $1 WHERE i_id=$2 AND u_id=$3","parameters: $1 = '880', $2 = '30033', $3 = '129924'",,,,,,,,""
2017-05-02 19:25:05.333 EDT,"postgres","epinions",10016,"10.0.0.201:52896",590914f0.2720,293,"COMMIT",2017-05-02 19:23:28 EDT,2/112,0,LOG,00000,"execute S_1: COMMIT",,,,,,,,,""
2017-05-02 19:25:06.049 EDT,"postgres","epinions",10016,"10.0.0.201:52896",590914f0.2720,294,"BEGIN",2017-05-02 19:23:28 EDT,2/113,0,LOG,00000,"execute S_2: BEGIN",,,,,,,,,""
2017-05-02 19:25:06.049 EDT,"postgres","epinions",10016,"10.0.0.201:52896",590914f0.2720,295,"UPDATE",2017-05-02 19:23:28 EDT,2/113,0,LOG,00000,"execute S_3: UPDATE review SET rating = $1 WHERE i_id=$2 AND u_id=$3","parameters: $1 = '932', $2 = '33380', $3 = '178052'",,,,,,,,""
2017-05-02 19:25:06.322 EDT,"postgres","epinions",10016,"10.0.0.201:52896",590914f0.2720,296,"COMMIT",2017-05-02 19:23:28 EDT,2/113,0,LOG,00000,"execute S_1: COMMIT",,,,,,,,,""
2017-05-02 19:25:07.047 EDT,"postgres","epinions",10016,"10.0.0.201:52896",590914f0.2720,297,"BEGIN",2017-05-02 19:23:28 EDT,2/114,0,LOG,00000,"execute S_2: BEGIN",,,,,,,,,""
2017-05-02 19:25:07.047 EDT,"postgres","epinions",10016,"10.0.0.201:52896",590914f0.2720,298,"UPDATE",2017-05-02 19:23:28 EDT,2/114,0,LOG,00000,"execute S_3: UPDATE review SET rating = $1 WHERE i_id=$2 AND u_id=$3","parameters: $1 = '507', $2 = '29084', $3 = '92584'",,,,,,,,""
2017-05-02 19:25:07.318 EDT,"postgres","epinions",10016,"10.0.0.201:52896",590914f0.2720,299,"COMMIT",2017-05-02 19:23:28 EDT,2/114,0,LOG,00000,"execute S_1: COMMIT",,,,,,,,,""
2017-05-02 19:25:08.053 EDT,"postgres","epinions",10016,"10.0.0.201:52896",590914f0.2720,300,"BEGIN",2017-05-02 19:23:28 EDT,2/115,0,LOG,00000,"execute S_2: BEGIN",,,,,,,,,""
2017-05-02 19:25:08.053 EDT,"postgres","epinions",10016,"10.0.0.201:52896",590914f0.2720,301,"UPDATE",2017-05-02 19:23:28 EDT,2/115,0,LOG,00000,"execute S_3: UPDATE review SET rating = $1 WHERE i_id=$2 AND u_id=$3","parameters: $1 = '627', $2 = '5969', $3 = '177438'",,,,,,,,""
2017-05-02 19:25:08.326 EDT,"postgres","epinions",10016,"10.0.0.201:52896",590914f0.2720,302,"COMMIT",2017-05-02 19:23:28 EDT,2/115,0,LOG,00000,"execute S_1: COMMIT",,,,,,,,,""
2017-05-02 19:25:09.047 EDT,"postgres","epinions",10016,"10.0.0.201:52896",590914f0.2720,303,"BEGIN",2017-05-02 19:23:28 EDT,2/116,0,LOG,00000,"execute S_2: BEGIN",,,,,,,,,""
2017-05-02 19:25:09.047 EDT,"postgres","epinions",10016,"10.0.0.201:52896",590914f0.2720,304,"UPDATE",2017-05-02 19:23:28 EDT,2/116,0,LOG,00000,"execute S_3: UPDATE review SET rating = $1 WHERE i_id=$2 AND u_id=$3","parameters: $1 = '355', $2 = '64042', $3 = '16725'",,,,,,,,""
2017-05-02 19:25:09.325 EDT,"postgres","epinions",10016,"10.0.0.201:52896",590914f0.2720,305,"COMMIT",2017-05-02 19:23:28 EDT,2/116,0,LOG,00000,"execute S_1: COMMIT",,,,,,,,,""
