2017-04-14 14:37:20.810 EDT,,,26505,,58f116e0.6789,1,,2017-04-14 14:37:20 EDT,,0,LOG,00000,"ending log output to stderr",,"Future log output will go to log destination ""csvlog"".",,,,,,,""
2017-04-14 14:37:20.811 EDT,,,26507,,58f116e0.678b,1,,2017-04-14 14:37:20 EDT,,0,LOG,00000,"database system was shut down at 2017-04-14 14:37:19 EDT",,,,,,,,,""
2017-04-14 14:37:20.825 EDT,,,26507,,58f116e0.678b,2,,2017-04-14 14:37:20 EDT,,0,LOG,00000,"MultiXact member wraparound protections are now enabled",,,,,,,,,""
2017-04-14 14:37:20.827 EDT,,,26505,,58f116e0.6789,2,,2017-04-14 14:37:20 EDT,,0,LOG,00000,"database system is ready to accept connections",,,,,,,,,""
2017-04-14 14:37:20.827 EDT,,,26511,,58f116e0.678f,1,,2017-04-14 14:37:20 EDT,,0,LOG,00000,"autovacuum launcher started",,,,,,,,,""
2017-04-14 14:37:21.269 EDT,,,26513,"[local]",58f116e1.6791,1,"",2017-04-14 14:37:21 EDT,,0,LOG,08P01,"incomplete startup packet",,,,,,,,,""
2017-04-14 14:37:21.788 EDT,"postgres","postgres",26516,"[local]",58f116e1.6794,1,"idle",2017-04-14 14:37:21 EDT,2/2,0,LOG,00000,"statement: SELECT d.datname as ""Name"",
       pg_catalog.pg_get_userbyid(d.datdba) as ""Owner"",
       pg_catalog.pg_encoding_to_char(d.encoding) as ""Encoding"",
       d.datcollate as ""Collate"",
       d.datctype as ""Ctype"",
       pg_catalog.array_to_string(d.datacl, E'\n') AS ""Access privileges""
FROM pg_catalog.pg_database d
ORDER BY 1;",,,,,,,,,"psql"
2017-04-14 14:37:22.305 EDT,"postgres","postgres",26519,"[local]",58f116e2.6797,1,"idle",2017-04-14 14:37:22 EDT,2/4,0,LOG,00000,"statement: SELECT d.datname as ""Name"",
       pg_catalog.pg_get_userbyid(d.datdba) as ""Owner"",
       pg_catalog.pg_encoding_to_char(d.encoding) as ""Encoding"",
       d.datcollate as ""Collate"",
       d.datctype as ""Ctype"",
       pg_catalog.array_to_string(d.datacl, E'\n') AS ""Access privileges""
FROM pg_catalog.pg_database d
ORDER BY 1;",,,,,,,,,"psql"
2017-04-14 14:37:22.817 EDT,"postgres","postgres",26522,"[local]",58f116e2.679a,1,"idle",2017-04-14 14:37:22 EDT,2/6,0,LOG,00000,"statement: SELECT d.datname as ""Name"",
       pg_catalog.pg_get_userbyid(d.datdba) as ""Owner"",
       pg_catalog.pg_encoding_to_char(d.encoding) as ""Encoding"",
       d.datcollate as ""Collate"",
       d.datctype as ""Ctype"",
       pg_catalog.array_to_string(d.datacl, E'\n') AS ""Access privileges""
FROM pg_catalog.pg_database d
ORDER BY 1;",,,,,,,,,"psql"
2017-04-14 14:37:32.399 EDT,"postgres","epinions",26545,"127.0.0.1:51173",58f116ec.67b1,1,"SET",2017-04-14 14:37:32 EDT,2/8,0,LOG,00000,"execute <unnamed>: SET extra_float_digits = 3",,,,,,,,,""
2017-04-14 14:37:32.438 EDT,"postgres","epinions",26545,"127.0.0.1:51173",58f116ec.67b1,2,"SELECT",2017-04-14 14:37:32 EDT,2/9,0,LOG,00000,"execute <unnamed>: SELECT u_id FROM ""user""",,,,,,,,,""
2017-04-14 14:37:32.704 EDT,"postgres","epinions",26545,"127.0.0.1:51173",58f116ec.67b1,3,"SELECT",2017-04-14 14:37:32 EDT,2/10,0,LOG,00000,"execute <unnamed>: SELECT i_id FROM ""item""",,,,,,,,,""
2017-04-14 14:37:32.827 EDT,"postgres","epinions",26546,"127.0.0.1:51174",58f116ec.67b2,1,"SET",2017-04-14 14:37:32 EDT,2/12,0,LOG,00000,"execute <unnamed>: SET extra_float_digits = 3",,,,,,,,,""
2017-04-14 14:37:32.829 EDT,"postgres","epinions",26546,"127.0.0.1:51174",58f116ec.67b2,2,"SET",2017-04-14 14:37:32 EDT,2/13,0,LOG,00000,"execute <unnamed>: SET SESSION CHARACTERISTICS AS TRANSACTION ISOLATION LEVEL READ COMMITTED",,,,,,,,,""
2017-04-14 14:37:32.835 EDT,"postgres","epinions",26547,"127.0.0.1:51175",58f116ec.67b3,1,"SET",2017-04-14 14:37:32 EDT,3/2,0,LOG,00000,"execute <unnamed>: SET extra_float_digits = 3",,,,,,,,,""
2017-04-14 14:37:32.837 EDT,"postgres","epinions",26547,"127.0.0.1:51175",58f116ec.67b3,2,"SET",2017-04-14 14:37:32 EDT,3/3,0,LOG,00000,"execute <unnamed>: SET SESSION CHARACTERISTICS AS TRANSACTION ISOLATION LEVEL READ COMMITTED",,,,,,,,,""
2017-04-14 14:37:32.841 EDT,"postgres","epinions",26548,"127.0.0.1:51176",58f116ec.67b4,1,"SET",2017-04-14 14:37:32 EDT,4/2,0,LOG,00000,"execute <unnamed>: SET extra_float_digits = 3",,,,,,,,,""
2017-04-14 14:37:32.842 EDT,"postgres","epinions",26548,"127.0.0.1:51176",58f116ec.67b4,2,"SET",2017-04-14 14:37:32 EDT,4/3,0,LOG,00000,"execute <unnamed>: SET SESSION CHARACTERISTICS AS TRANSACTION ISOLATION LEVEL READ COMMITTED",,,,,,,,,""
2017-04-14 14:37:32.846 EDT,"postgres","epinions",26549,"127.0.0.1:51177",58f116ec.67b5,1,"SET",2017-04-14 14:37:32 EDT,5/2,0,LOG,00000,"execute <unnamed>: SET extra_float_digits = 3",,,,,,,,,""
2017-04-14 14:37:32.847 EDT,"postgres","epinions",26549,"127.0.0.1:51177",58f116ec.67b5,2,"SET",2017-04-14 14:37:32 EDT,5/3,0,LOG,00000,"execute <unnamed>: SET SESSION CHARACTERISTICS AS TRANSACTION ISOLATION LEVEL READ COMMITTED",,,,,,,,,""
2017-04-14 14:37:32.851 EDT,"postgres","epinions",26550,"127.0.0.1:51178",58f116ec.67b6,1,"SET",2017-04-14 14:37:32 EDT,6/2,0,LOG,00000,"execute <unnamed>: SET extra_float_digits = 3",,,,,,,,,""
2017-04-14 14:37:32.852 EDT,"postgres","epinions",26550,"127.0.0.1:51178",58f116ec.67b6,2,"SET",2017-04-14 14:37:32 EDT,6/3,0,LOG,00000,"execute <unnamed>: SET SESSION CHARACTERISTICS AS TRANSACTION ISOLATION LEVEL READ COMMITTED",,,,,,,,,""
2017-04-14 14:37:32.856 EDT,"postgres","epinions",26551,"127.0.0.1:51179",58f116ec.67b7,1,"SET",2017-04-14 14:37:32 EDT,7/2,0,LOG,00000,"execute <unnamed>: SET extra_float_digits = 3",,,,,,,,,""
2017-04-14 14:37:32.857 EDT,"postgres","epinions",26551,"127.0.0.1:51179",58f116ec.67b7,2,"SET",2017-04-14 14:37:32 EDT,7/3,0,LOG,00000,"execute <unnamed>: SET SESSION CHARACTERISTICS AS TRANSACTION ISOLATION LEVEL READ COMMITTED",,,,,,,,,""
2017-04-14 14:37:32.861 EDT,"postgres","epinions",26552,"127.0.0.1:51180",58f116ec.67b8,1,"SET",2017-04-14 14:37:32 EDT,8/2,0,LOG,00000,"execute <unnamed>: SET extra_float_digits = 3",,,,,,,,,""
2017-04-14 14:37:32.862 EDT,"postgres","epinions",26552,"127.0.0.1:51180",58f116ec.67b8,2,"SET",2017-04-14 14:37:32 EDT,8/3,0,LOG,00000,"execute <unnamed>: SET SESSION CHARACTERISTICS AS TRANSACTION ISOLATION LEVEL READ COMMITTED",,,,,,,,,""
2017-04-14 14:37:32.866 EDT,"postgres","epinions",26553,"127.0.0.1:51181",58f116ec.67b9,1,"SET",2017-04-14 14:37:32 EDT,9/2,0,LOG,00000,"execute <unnamed>: SET extra_float_digits = 3",,,,,,,,,""
2017-04-14 14:37:32.867 EDT,"postgres","epinions",26553,"127.0.0.1:51181",58f116ec.67b9,2,"SET",2017-04-14 14:37:32 EDT,9/3,0,LOG,00000,"execute <unnamed>: SET SESSION CHARACTERISTICS AS TRANSACTION ISOLATION LEVEL READ COMMITTED",,,,,,,,,""
2017-04-14 14:37:32.871 EDT,"postgres","epinions",26554,"127.0.0.1:51182",58f116ec.67ba,1,"SET",2017-04-14 14:37:32 EDT,10/2,0,LOG,00000,"execute <unnamed>: SET extra_float_digits = 3",,,,,,,,,""
2017-04-14 14:37:32.872 EDT,"postgres","epinions",26554,"127.0.0.1:51182",58f116ec.67ba,2,"SET",2017-04-14 14:37:32 EDT,10/3,0,LOG,00000,"execute <unnamed>: SET SESSION CHARACTERISTICS AS TRANSACTION ISOLATION LEVEL READ COMMITTED",,,,,,,,,""
2017-04-14 14:37:32.879 EDT,"postgres","epinions",26555,"127.0.0.1:51183",58f116ec.67bb,1,"SET",2017-04-14 14:37:32 EDT,11/2,0,LOG,00000,"execute <unnamed>: SET extra_float_digits = 3",,,,,,,,,""
2017-04-14 14:37:32.881 EDT,"postgres","epinions",26555,"127.0.0.1:51183",58f116ec.67bb,2,"SET",2017-04-14 14:37:32 EDT,11/3,0,LOG,00000,"execute <unnamed>: SET SESSION CHARACTERISTICS AS TRANSACTION ISOLATION LEVEL READ COMMITTED",,,,,,,,,""
2017-04-14 14:37:32.886 EDT,"postgres","epinions",26556,"127.0.0.1:51184",58f116ec.67bc,1,"SET",2017-04-14 14:37:32 EDT,12/2,0,LOG,00000,"execute <unnamed>: SET extra_float_digits = 3",,,,,,,,,""
2017-04-14 14:37:32.887 EDT,"postgres","epinions",26556,"127.0.0.1:51184",58f116ec.67bc,2,"SET",2017-04-14 14:37:32 EDT,12/3,0,LOG,00000,"execute <unnamed>: SET SESSION CHARACTERISTICS AS TRANSACTION ISOLATION LEVEL READ COMMITTED",,,,,,,,,""
2017-04-14 14:37:32.892 EDT,"postgres","epinions",26557,"127.0.0.1:51185",58f116ec.67bd,1,"SET",2017-04-14 14:37:32 EDT,13/2,0,LOG,00000,"execute <unnamed>: SET extra_float_digits = 3",,,,,,,,,""
2017-04-14 14:37:32.893 EDT,"postgres","epinions",26557,"127.0.0.1:51185",58f116ec.67bd,2,"SET",2017-04-14 14:37:32 EDT,13/3,0,LOG,00000,"execute <unnamed>: SET SESSION CHARACTERISTICS AS TRANSACTION ISOLATION LEVEL READ COMMITTED",,,,,,,,,""
2017-04-14 14:37:32.897 EDT,"postgres","epinions",26558,"127.0.0.1:51186",58f116ec.67be,1,"SET",2017-04-14 14:37:32 EDT,14/2,0,LOG,00000,"execute <unnamed>: SET extra_float_digits = 3",,,,,,,,,""
2017-04-14 14:37:32.898 EDT,"postgres","epinions",26558,"127.0.0.1:51186",58f116ec.67be,2,"SET",2017-04-14 14:37:32 EDT,14/3,0,LOG,00000,"execute <unnamed>: SET SESSION CHARACTERISTICS AS TRANSACTION ISOLATION LEVEL READ COMMITTED",,,,,,,,,""
2017-04-14 14:37:32.902 EDT,"postgres","epinions",26559,"127.0.0.1:51187",58f116ec.67bf,1,"SET",2017-04-14 14:37:32 EDT,15/2,0,LOG,00000,"execute <unnamed>: SET extra_float_digits = 3",,,,,,,,,""
2017-04-14 14:37:32.903 EDT,"postgres","epinions",26559,"127.0.0.1:51187",58f116ec.67bf,2,"SET",2017-04-14 14:37:32 EDT,15/3,0,LOG,00000,"execute <unnamed>: SET SESSION CHARACTERISTICS AS TRANSACTION ISOLATION LEVEL READ COMMITTED",,,,,,,,,""
2017-04-14 14:37:32.908 EDT,"postgres","epinions",26560,"127.0.0.1:51188",58f116ec.67c0,1,"SET",2017-04-14 14:37:32 EDT,16/2,0,LOG,00000,"execute <unnamed>: SET extra_float_digits = 3",,,,,,,,,""
2017-04-14 14:37:32.908 EDT,"postgres","epinions",26560,"127.0.0.1:51188",58f116ec.67c0,2,"SET",2017-04-14 14:37:32 EDT,16/3,0,LOG,00000,"execute <unnamed>: SET SESSION CHARACTERISTICS AS TRANSACTION ISOLATION LEVEL READ COMMITTED",,,,,,,,,""
2017-04-14 14:37:32.913 EDT,"postgres","epinions",26561,"127.0.0.1:51189",58f116ec.67c1,1,"SET",2017-04-14 14:37:32 EDT,17/2,0,LOG,00000,"execute <unnamed>: SET extra_float_digits = 3",,,,,,,,,""
2017-04-14 14:37:32.921 EDT,"postgres","epinions",26561,"127.0.0.1:51189",58f116ec.67c1,2,"SET",2017-04-14 14:37:32 EDT,17/3,0,LOG,00000,"execute <unnamed>: SET SESSION CHARACTERISTICS AS TRANSACTION ISOLATION LEVEL READ COMMITTED",,,,,,,,,""
2017-04-14 14:37:32.931 EDT,"postgres","epinions",26562,"127.0.0.1:51190",58f116ec.67c2,1,"SET",2017-04-14 14:37:32 EDT,18/2,0,LOG,00000,"execute <unnamed>: SET extra_float_digits = 3",,,,,,,,,""
2017-04-14 14:37:32.932 EDT,"postgres","epinions",26562,"127.0.0.1:51190",58f116ec.67c2,2,"SET",2017-04-14 14:37:32 EDT,18/3,0,LOG,00000,"execute <unnamed>: SET SESSION CHARACTERISTICS AS TRANSACTION ISOLATION LEVEL READ COMMITTED",,,,,,,,,""
2017-04-14 14:37:32.938 EDT,"postgres","epinions",26563,"127.0.0.1:51191",58f116ec.67c3,1,"SET",2017-04-14 14:37:32 EDT,19/2,0,LOG,00000,"execute <unnamed>: SET extra_float_digits = 3",,,,,,,,,""
2017-04-14 14:37:32.939 EDT,"postgres","epinions",26563,"127.0.0.1:51191",58f116ec.67c3,2,"SET",2017-04-14 14:37:32 EDT,19/3,0,LOG,00000,"execute <unnamed>: SET SESSION CHARACTERISTICS AS TRANSACTION ISOLATION LEVEL READ COMMITTED",,,,,,,,,""
2017-04-14 14:37:32.945 EDT,"postgres","epinions",26564,"127.0.0.1:51192",58f116ec.67c4,1,"SET",2017-04-14 14:37:32 EDT,20/2,0,LOG,00000,"execute <unnamed>: SET extra_float_digits = 3",,,,,,,,,""
2017-04-14 14:37:32.945 EDT,"postgres","epinions",26564,"127.0.0.1:51192",58f116ec.67c4,2,"SET",2017-04-14 14:37:32 EDT,20/3,0,LOG,00000,"execute <unnamed>: SET SESSION CHARACTERISTICS AS TRANSACTION ISOLATION LEVEL READ COMMITTED",,,,,,,,,""
2017-04-14 14:37:32.949 EDT,"postgres","epinions",26565,"127.0.0.1:51193",58f116ec.67c5,1,"SET",2017-04-14 14:37:32 EDT,21/2,0,LOG,00000,"execute <unnamed>: SET extra_float_digits = 3",,,,,,,,,""
2017-04-14 14:37:32.950 EDT,"postgres","epinions",26565,"127.0.0.1:51193",58f116ec.67c5,2,"SET",2017-04-14 14:37:32 EDT,21/3,0,LOG,00000,"execute <unnamed>: SET SESSION CHARACTERISTICS AS TRANSACTION ISOLATION LEVEL READ COMMITTED",,,,,,,,,""
2017-04-14 14:37:32.993 EDT,"postgres","epinions",26565,"127.0.0.1:51193",58f116ec.67c5,3,"BEGIN",2017-04-14 14:37:32 EDT,21/4,0,LOG,00000,"execute <unnamed>: BEGIN",,,,,,,,,""
2017-04-14 14:37:32.994 EDT,"postgres","epinions",26565,"127.0.0.1:51193",58f116ec.67c5,4,"SELECT",2017-04-14 14:37:32 EDT,21/4,0,LOG,00000,"execute <unnamed>: SELECT * FROM review r WHERE r.i_id=$1","parameters: $1 = '15520'",,,,,,,,""
2017-04-14 14:37:33.090 EDT,"postgres","epinions",26564,"127.0.0.1:51192",58f116ec.67c4,3,"BEGIN",2017-04-14 14:37:32 EDT,20/4,0,LOG,00000,"execute <unnamed>: BEGIN",,,,,,,,,""
2017-04-14 14:37:33.090 EDT,"postgres","epinions",26564,"127.0.0.1:51192",58f116ec.67c4,4,"UPDATE",2017-04-14 14:37:32 EDT,20/4,0,LOG,00000,"execute <unnamed>: UPDATE trust SET trust = $1 WHERE source_u_id=$2 AND target_u_id=$3","parameters: $1 = '0', $2 = '185023', $3 = '196826'",,,,,,,,""
2017-04-14 14:37:33.190 EDT,"postgres","epinions",26562,"127.0.0.1:51190",58f116ec.67c2,3,"BEGIN",2017-04-14 14:37:32 EDT,18/4,0,LOG,00000,"execute <unnamed>: BEGIN",,,,,,,,,""
2017-04-14 14:37:33.190 EDT,"postgres","epinions",26562,"127.0.0.1:51190",58f116ec.67c2,4,"UPDATE",2017-04-14 14:37:32 EDT,18/4,0,LOG,00000,"execute <unnamed>: UPDATE trust SET trust = $1 WHERE source_u_id=$2 AND target_u_id=$3","parameters: $1 = '0', $2 = '160409', $3 = '167561'",,,,,,,,""
2017-04-14 14:37:33.261 EDT,"postgres","epinions",26565,"127.0.0.1:51193",58f116ec.67c5,5,"SELECT",2017-04-14 14:37:32 EDT,21/4,0,LOG,00000,"execute <unnamed>: SELECT * FROM trust t WHERE t.source_u_id=$1","parameters: $1 = '82326'",,,,,,,,""
2017-04-14 14:37:33.292 EDT,"postgres","epinions",26561,"127.0.0.1:51189",58f116ec.67c1,3,"BEGIN",2017-04-14 14:37:32 EDT,17/4,0,LOG,00000,"execute <unnamed>: BEGIN",,,,,,,,,""
2017-04-14 14:37:33.293 EDT,"postgres","epinions",26561,"127.0.0.1:51189",58f116ec.67c1,4,"UPDATE",2017-04-14 14:37:32 EDT,17/4,0,LOG,00000,"execute <unnamed>: UPDATE ""user"" SET name = $1 WHERE u_id=$2","parameters: $1 = '?3us', $2 = '192279'",,,,,,,,""
2017-04-14 14:37:33.296 EDT,"postgres","epinions",26561,"127.0.0.1:51189",58f116ec.67c1,5,"COMMIT",2017-04-14 14:37:32 EDT,17/4,114302,LOG,00000,"execute S_1: COMMIT",,,,,,,,,""
2017-04-14 14:37:33.305 EDT,"postgres","epinions",26564,"127.0.0.1:51192",58f116ec.67c4,5,"COMMIT",2017-04-14 14:37:32 EDT,20/4,0,LOG,00000,"execute S_1: COMMIT",,,,,,,,,""
2017-04-14 14:37:33.389 EDT,"postgres","epinions",26560,"127.0.0.1:51188",58f116ec.67c0,3,"BEGIN",2017-04-14 14:37:32 EDT,16/4,0,LOG,00000,"execute <unnamed>: BEGIN",,,,,,,,,""
2017-04-14 14:37:33.390 EDT,"postgres","epinions",26560,"127.0.0.1:51188",58f116ec.67c0,4,"UPDATE",2017-04-14 14:37:32 EDT,16/4,0,LOG,00000,"execute <unnamed>: UPDATE item SET title = $1 WHERE i_id=$2","parameters: $1 = 'PA^+]:H{t1L+SIb+bS', $2 = '29534'",,,,,,,,""
2017-04-14 14:37:33.391 EDT,"postgres","epinions",26560,"127.0.0.1:51188",58f116ec.67c0,5,"COMMIT",2017-04-14 14:37:32 EDT,16/4,114303,LOG,00000,"execute S_1: COMMIT",,,,,,,,,""
2017-04-14 14:37:33.489 EDT,"postgres","epinions",26559,"127.0.0.1:51187",58f116ec.67bf,3,"BEGIN",2017-04-14 14:37:32 EDT,15/4,0,LOG,00000,"execute <unnamed>: BEGIN",,,,,,,,,""
2017-04-14 14:37:33.491 EDT,"postgres","epinions",26559,"127.0.0.1:51187",58f116ec.67bf,4,"SELECT",2017-04-14 14:37:32 EDT,15/4,0,LOG,00000,"execute <unnamed>: SELECT * FROM review r WHERE r.i_id=$1","parameters: $1 = '53280'",,,,,,,,""
2017-04-14 14:37:33.508 EDT,"postgres","epinions",26562,"127.0.0.1:51190",58f116ec.67c2,5,"COMMIT",2017-04-14 14:37:32 EDT,18/4,0,LOG,00000,"execute S_1: COMMIT",,,,,,,,,""
2017-04-14 14:37:33.589 EDT,"postgres","epinions",26558,"127.0.0.1:51186",58f116ec.67be,3,"BEGIN",2017-04-14 14:37:32 EDT,14/4,0,LOG,00000,"execute <unnamed>: BEGIN",,,,,,,,,""
2017-04-14 14:37:33.591 EDT,"postgres","epinions",26558,"127.0.0.1:51186",58f116ec.67be,4,"SELECT",2017-04-14 14:37:32 EDT,14/4,0,LOG,00000,"execute <unnamed>: SELECT avg(rating) FROM review r, trust t WHERE r.u_id=t.target_u_id AND r.i_id=$1 AND t.source_u_id=$2","parameters: $1 = '15150', $2 = '192469'",,,,,,,,""
2017-04-14 14:37:33.601 EDT,"postgres","epinions",26565,"127.0.0.1:51193",58f116ec.67c5,6,"COMMIT",2017-04-14 14:37:32 EDT,21/4,0,LOG,00000,"execute S_1: COMMIT",,,,,,,,,""
2017-04-14 14:37:33.690 EDT,"postgres","epinions",26557,"127.0.0.1:51185",58f116ec.67bd,3,"BEGIN",2017-04-14 14:37:32 EDT,13/4,0,LOG,00000,"execute <unnamed>: BEGIN",,,,,,,,,""
2017-04-14 14:37:33.691 EDT,"postgres","epinions",26557,"127.0.0.1:51185",58f116ec.67bd,4,"UPDATE",2017-04-14 14:37:32 EDT,13/4,0,LOG,00000,"execute <unnamed>: UPDATE trust SET trust = $1 WHERE source_u_id=$2 AND target_u_id=$3","parameters: $1 = '0', $2 = '163511', $3 = '49793'",,,,,,,,""
2017-04-14 14:37:33.790 EDT,"postgres","epinions",26556,"127.0.0.1:51184",58f116ec.67bc,3,"BEGIN",2017-04-14 14:37:32 EDT,12/4,0,LOG,00000,"execute <unnamed>: BEGIN",,,,,,,,,""
2017-04-14 14:37:33.791 EDT,"postgres","epinions",26556,"127.0.0.1:51184",58f116ec.67bc,4,"SELECT",2017-04-14 14:37:32 EDT,12/4,0,LOG,00000,"execute <unnamed>: SELECT * FROM review r WHERE r.i_id=$1","parameters: $1 = '25380'",,,,,,,,""
2017-04-14 14:37:33.854 EDT,"postgres","epinions",26558,"127.0.0.1:51186",58f116ec.67be,5,"COMMIT",2017-04-14 14:37:32 EDT,14/4,0,LOG,00000,"execute S_1: COMMIT",,,,,,,,,""
2017-04-14 14:37:33.865 EDT,"postgres","epinions",26559,"127.0.0.1:51187",58f116ec.67bf,5,"SELECT",2017-04-14 14:37:32 EDT,15/4,0,LOG,00000,"execute <unnamed>: SELECT * FROM trust t WHERE t.source_u_id=$1","parameters: $1 = '136610'",,,,,,,,""
2017-04-14 14:37:33.893 EDT,"postgres","epinions",26546,"127.0.0.1:51174",58f116ec.67b2,3,"BEGIN",2017-04-14 14:37:32 EDT,2/14,0,LOG,00000,"execute <unnamed>: BEGIN",,,,,,,,,""
2017-04-14 14:37:33.895 EDT,"postgres","epinions",26546,"127.0.0.1:51174",58f116ec.67b2,4,"SELECT",2017-04-14 14:37:32 EDT,2/14,0,LOG,00000,"execute <unnamed>: SELECT avg(rating) FROM review r, trust t WHERE r.u_id=t.target_u_id AND r.i_id=$1 AND t.source_u_id=$2","parameters: $1 = '42367', $2 = '108979'",,,,,,,,""
2017-04-14 14:37:33.989 EDT,"postgres","epinions",26553,"127.0.0.1:51181",58f116ec.67b9,3,"BEGIN",2017-04-14 14:37:32 EDT,9/4,0,LOG,00000,"execute <unnamed>: BEGIN",,,,,,,,,""
2017-04-14 14:37:33.990 EDT,"postgres","epinions",26553,"127.0.0.1:51181",58f116ec.67b9,4,"UPDATE",2017-04-14 14:37:32 EDT,9/4,0,LOG,00000,"execute <unnamed>: UPDATE item SET title = $1 WHERE i_id=$2","parameters: $1 = 'uu/`]D>ASo<oQQch@GW@', $2 = '16885'",,,,,,,,""
2017-04-14 14:37:33.991 EDT,"postgres","epinions",26553,"127.0.0.1:51181",58f116ec.67b9,5,"COMMIT",2017-04-14 14:37:32 EDT,9/4,114304,LOG,00000,"execute S_1: COMMIT",,,,,,,,,""
2017-04-14 14:37:34.023 EDT,"postgres","epinions",26557,"127.0.0.1:51185",58f116ec.67bd,5,"COMMIT",2017-04-14 14:37:32 EDT,13/4,0,LOG,00000,"execute S_1: COMMIT",,,,,,,,,""
2017-04-14 14:37:34.089 EDT,"postgres","epinions",26547,"127.0.0.1:51175",58f116ec.67b3,3,"BEGIN",2017-04-14 14:37:32 EDT,3/4,0,LOG,00000,"execute <unnamed>: BEGIN",,,,,,,,,""
2017-04-14 14:37:34.091 EDT,"postgres","epinions",26547,"127.0.0.1:51175",58f116ec.67b3,4,"SELECT",2017-04-14 14:37:32 EDT,3/4,0,LOG,00000,"execute <unnamed>: SELECT avg(rating) FROM review r WHERE r.i_id=$1","parameters: $1 = '80501'",,,,,,,,""
2017-04-14 14:37:34.190 EDT,"postgres","epinions",26555,"127.0.0.1:51183",58f116ec.67bb,3,"BEGIN",2017-04-14 14:37:32 EDT,11/4,0,LOG,00000,"execute <unnamed>: BEGIN",,,,,,,,,""
2017-04-14 14:37:34.192 EDT,"postgres","epinions",26555,"127.0.0.1:51183",58f116ec.67bb,4,"SELECT",2017-04-14 14:37:32 EDT,11/4,0,LOG,00000,"execute <unnamed>: SELECT * FROM review r, ""user"" u WHERE u.u_id = r.u_id AND r.u_id=$1 ORDER BY rating LIMIT 10","parameters: $1 = '49124'",,,,,,,,""
2017-04-14 14:37:34.193 EDT,"postgres","epinions",26555,"127.0.0.1:51183",58f116ec.67bb,5,"COMMIT",2017-04-14 14:37:32 EDT,11/4,0,LOG,00000,"execute S_1: COMMIT",,,,,,,,,""
2017-04-14 14:37:34.214 EDT,"postgres","epinions",26559,"127.0.0.1:51187",58f116ec.67bf,6,"COMMIT",2017-04-14 14:37:32 EDT,15/4,0,LOG,00000,"execute S_1: COMMIT",,,,,,,,,""
2017-04-14 14:37:34.261 EDT,"postgres","epinions",26546,"127.0.0.1:51174",58f116ec.67b2,5,"COMMIT",2017-04-14 14:37:32 EDT,2/14,0,LOG,00000,"execute S_1: COMMIT",,,,,,,,,""
2017-04-14 14:37:34.287 EDT,"postgres","epinions",26556,"127.0.0.1:51184",58f116ec.67bc,5,"SELECT",2017-04-14 14:37:32 EDT,12/4,0,LOG,00000,"execute <unnamed>: SELECT * FROM trust t WHERE t.source_u_id=$1","parameters: $1 = '22000'",,,,,,,,""
2017-04-14 14:37:34.290 EDT,"postgres","epinions",26552,"127.0.0.1:51180",58f116ec.67b8,3,"BEGIN",2017-04-14 14:37:32 EDT,8/4,0,LOG,00000,"execute <unnamed>: BEGIN",,,,,,,,,""
2017-04-14 14:37:34.291 EDT,"postgres","epinions",26552,"127.0.0.1:51180",58f116ec.67b8,4,"UPDATE",2017-04-14 14:37:32 EDT,8/4,0,LOG,00000,"execute <unnamed>: UPDATE review SET rating = $1 WHERE i_id=$2 AND u_id=$3","parameters: $1 = '573', $2 = '4237', $3 = '164838'",,,,,,,,""
2017-04-14 14:37:34.291 EDT,"postgres","epinions",26552,"127.0.0.1:51180",58f116ec.67b8,5,"COMMIT",2017-04-14 14:37:32 EDT,8/4,0,LOG,00000,"execute S_1: COMMIT",,,,,,,,,""
2017-04-14 14:37:34.390 EDT,"postgres","epinions",26550,"127.0.0.1:51178",58f116ec.67b6,3,"BEGIN",2017-04-14 14:37:32 EDT,6/4,0,LOG,00000,"execute <unnamed>: BEGIN",,,,,,,,,""
2017-04-14 14:37:34.391 EDT,"postgres","epinions",26550,"127.0.0.1:51178",58f116ec.67b6,4,"UPDATE",2017-04-14 14:37:32 EDT,6/4,0,LOG,00000,"execute <unnamed>: UPDATE trust SET trust = $1 WHERE source_u_id=$2 AND target_u_id=$3","parameters: $1 = '0', $2 = '50860', $3 = '136116'",,,,,,,,""
2017-04-14 14:37:34.472 EDT,"postgres","epinions",26556,"127.0.0.1:51184",58f116ec.67bc,6,"COMMIT",2017-04-14 14:37:32 EDT,12/4,0,LOG,00000,"execute S_1: COMMIT",,,,,,,,,""
2017-04-14 14:37:34.490 EDT,"postgres","epinions",26554,"127.0.0.1:51182",58f116ec.67ba,3,"BEGIN",2017-04-14 14:37:32 EDT,10/4,0,LOG,00000,"execute <unnamed>: BEGIN",,,,,,,,,""
2017-04-14 14:37:34.492 EDT,"postgres","epinions",26554,"127.0.0.1:51182",58f116ec.67ba,4,"SELECT",2017-04-14 14:37:32 EDT,10/4,0,LOG,00000,"execute <unnamed>: SELECT avg(rating) FROM review r, trust t WHERE r.u_id=t.target_u_id AND r.i_id=$1 AND t.source_u_id=$2","parameters: $1 = '55016', $2 = '22656'",,,,,,,,""
2017-04-14 14:37:34.497 EDT,"postgres","epinions",26547,"127.0.0.1:51175",58f116ec.67b3,5,"COMMIT",2017-04-14 14:37:32 EDT,3/4,0,LOG,00000,"execute S_1: COMMIT",,,,,,,,,""
2017-04-14 14:37:34.590 EDT,"postgres","epinions",26551,"127.0.0.1:51179",58f116ec.67b7,3,"BEGIN",2017-04-14 14:37:32 EDT,7/4,0,LOG,00000,"execute <unnamed>: BEGIN",,,,,,,,,""
2017-04-14 14:37:34.593 EDT,"postgres","epinions",26551,"127.0.0.1:51179",58f116ec.67b7,4,"SELECT",2017-04-14 14:37:32 EDT,7/4,0,LOG,00000,"execute <unnamed>: SELECT avg(rating) FROM review r, trust t WHERE r.u_id=t.target_u_id AND r.i_id=$1 AND t.source_u_id=$2","parameters: $1 = '88996', $2 = '80259'",,,,,,,,""
2017-04-14 14:37:34.616 EDT,"postgres","epinions",26550,"127.0.0.1:51178",58f116ec.67b6,5,"COMMIT",2017-04-14 14:37:32 EDT,6/4,0,LOG,00000,"execute S_1: COMMIT",,,,,,,,,""
2017-04-14 14:37:34.690 EDT,"postgres","epinions",26549,"127.0.0.1:51177",58f116ec.67b5,3,"BEGIN",2017-04-14 14:37:32 EDT,5/4,0,LOG,00000,"execute <unnamed>: BEGIN",,,,,,,,,""
2017-04-14 14:37:34.691 EDT,"postgres","epinions",26549,"127.0.0.1:51177",58f116ec.67b5,4,"UPDATE",2017-04-14 14:37:32 EDT,5/4,0,LOG,00000,"execute <unnamed>: UPDATE ""user"" SET name = $1 WHERE u_id=$2","parameters: $1 = '!(&*\', $2 = '26246'",,,,,,,,""
2017-04-14 14:37:34.691 EDT,"postgres","epinions",26549,"127.0.0.1:51177",58f116ec.67b5,5,"COMMIT",2017-04-14 14:37:32 EDT,5/4,114305,LOG,00000,"execute S_1: COMMIT",,,,,,,,,""
2017-04-14 14:37:34.737 EDT,"postgres","epinions",26554,"127.0.0.1:51182",58f116ec.67ba,5,"COMMIT",2017-04-14 14:37:32 EDT,10/4,0,LOG,00000,"execute S_1: COMMIT",,,,,,,,,""
2017-04-14 14:37:34.790 EDT,"postgres","epinions",26563,"127.0.0.1:51191",58f116ec.67c3,3,"BEGIN",2017-04-14 14:37:32 EDT,19/4,0,LOG,00000,"execute <unnamed>: BEGIN",,,,,,,,,""
2017-04-14 14:37:34.791 EDT,"postgres","epinions",26563,"127.0.0.1:51191",58f116ec.67c3,4,"UPDATE",2017-04-14 14:37:32 EDT,19/4,0,LOG,00000,"execute <unnamed>: UPDATE review SET rating = $1 WHERE i_id=$2 AND u_id=$3","parameters: $1 = '62', $2 = '13784', $3 = '196281'",,,,,,,,""
2017-04-14 14:37:34.791 EDT,"postgres","epinions",26563,"127.0.0.1:51191",58f116ec.67c3,5,"COMMIT",2017-04-14 14:37:32 EDT,19/4,0,LOG,00000,"execute S_1: COMMIT",,,,,,,,,""
2017-04-14 14:37:34.834 EDT,"postgres","epinions",26551,"127.0.0.1:51179",58f116ec.67b7,5,"COMMIT",2017-04-14 14:37:32 EDT,7/4,0,LOG,00000,"execute S_1: COMMIT",,,,,,,,,""
2017-04-14 14:37:34.889 EDT,"postgres","epinions",26548,"127.0.0.1:51176",58f116ec.67b4,3,"BEGIN",2017-04-14 14:37:32 EDT,4/4,0,LOG,00000,"execute <unnamed>: BEGIN",,,,,,,,,""
2017-04-14 14:37:34.893 EDT,"postgres","epinions",26548,"127.0.0.1:51176",58f116ec.67b4,4,"SELECT",2017-04-14 14:37:32 EDT,4/4,0,LOG,00000,"execute <unnamed>: SELECT * FROM review r, item i WHERE i.i_id = r.i_id and r.i_id=$1 ORDER BY rating LIMIT 10","parameters: $1 = '88128'",,,,,,,,""
2017-04-14 14:37:34.989 EDT,"postgres","epinions",26561,"127.0.0.1:51189",58f116ec.67c1,6,"BEGIN",2017-04-14 14:37:32 EDT,17/5,0,LOG,00000,"execute <unnamed>: BEGIN",,,,,,,,,""
2017-04-14 14:37:34.990 EDT,"postgres","epinions",26561,"127.0.0.1:51189",58f116ec.67c1,7,"SELECT",2017-04-14 14:37:32 EDT,17/5,0,LOG,00000,"execute <unnamed>: SELECT avg(rating) FROM review r WHERE r.i_id=$1","parameters: $1 = '49249'",,,,,,,,""
2017-04-14 14:37:35.089 EDT,"postgres","epinions",26564,"127.0.0.1:51192",58f116ec.67c4,6,"BEGIN",2017-04-14 14:37:32 EDT,20/5,0,LOG,00000,"execute <unnamed>: BEGIN",,,,,,,,,""
2017-04-14 14:37:35.090 EDT,"postgres","epinions",26564,"127.0.0.1:51192",58f116ec.67c4,7,"SELECT",2017-04-14 14:37:32 EDT,20/5,0,LOG,00000,"execute <unnamed>: SELECT avg(rating) FROM review r WHERE r.i_id=$1","parameters: $1 = '344'",,,,,,,,""
2017-04-14 14:37:35.190 EDT,"postgres","epinions",26560,"127.0.0.1:51188",58f116ec.67c0,6,"BEGIN",2017-04-14 14:37:32 EDT,16/5,0,LOG,00000,"execute <unnamed>: BEGIN",,,,,,,,,""
2017-04-14 14:37:35.190 EDT,"postgres","epinions",26560,"127.0.0.1:51188",58f116ec.67c0,7,"SELECT",2017-04-14 14:37:32 EDT,16/5,0,LOG,00000,"execute <unnamed>: SELECT avg(rating) FROM review r WHERE r.i_id=$1","parameters: $1 = '92201'",,,,,,,,""
2017-04-14 14:37:35.224 EDT,"postgres","epinions",26548,"127.0.0.1:51176",58f116ec.67b4,5,"COMMIT",2017-04-14 14:37:32 EDT,4/4,0,LOG,00000,"execute S_1: COMMIT",,,,,,,,,""
2017-04-14 14:37:35.289 EDT,"postgres","epinions",26562,"127.0.0.1:51190",58f116ec.67c2,6,"BEGIN",2017-04-14 14:37:32 EDT,18/5,0,LOG,00000,"execute <unnamed>: BEGIN",,,,,,,,,""
2017-04-14 14:37:35.290 EDT,"postgres","epinions",26562,"127.0.0.1:51190",58f116ec.67c2,7,"SELECT",2017-04-14 14:37:32 EDT,18/5,0,LOG,00000,"execute <unnamed>: SELECT * FROM review r WHERE r.i_id=$1","parameters: $1 = '57503'",,,,,,,,""
2017-04-14 14:37:35.352 EDT,"postgres","epinions",26561,"127.0.0.1:51189",58f116ec.67c1,8,"COMMIT",2017-04-14 14:37:32 EDT,17/5,0,LOG,00000,"execute S_1: COMMIT",,,,,,,,,""
2017-04-14 14:37:35.389 EDT,"postgres","epinions",26565,"127.0.0.1:51193",58f116ec.67c5,7,"BEGIN",2017-04-14 14:37:32 EDT,21/5,0,LOG,00000,"execute <unnamed>: BEGIN",,,,,,,,,""
2017-04-14 14:37:35.390 EDT,"postgres","epinions",26565,"127.0.0.1:51193",58f116ec.67c5,8,"UPDATE",2017-04-14 14:37:32 EDT,21/5,0,LOG,00000,"execute <unnamed>: UPDATE review SET rating = $1 WHERE i_id=$2 AND u_id=$3","parameters: $1 = '743', $2 = '40373', $3 = '99458'",,,,,,,,""
2017-04-14 14:37:35.390 EDT,"postgres","epinions",26565,"127.0.0.1:51193",58f116ec.67c5,9,"COMMIT",2017-04-14 14:37:32 EDT,21/5,0,LOG,00000,"execute S_1: COMMIT",,,,,,,,,""
2017-04-14 14:37:35.490 EDT,"postgres","epinions",26558,"127.0.0.1:51186",58f116ec.67be,6,"BEGIN",2017-04-14 14:37:32 EDT,14/5,0,LOG,00000,"execute <unnamed>: BEGIN",,,,,,,,,""
2017-04-14 14:37:35.490 EDT,"postgres","epinions",26558,"127.0.0.1:51186",58f116ec.67be,7,"UPDATE",2017-04-14 14:37:32 EDT,14/5,0,LOG,00000,"execute <unnamed>: UPDATE trust SET trust = $1 WHERE source_u_id=$2 AND target_u_id=$3","parameters: $1 = '0', $2 = '35646', $3 = '143248'",,,,,,,,""
2017-04-14 14:37:35.590 EDT,"postgres","epinions",26553,"127.0.0.1:51181",58f116ec.67b9,6,"BEGIN",2017-04-14 14:37:32 EDT,9/5,0,LOG,00000,"execute <unnamed>: BEGIN",,,,,,,,,""
2017-04-14 14:37:35.591 EDT,"postgres","epinions",26553,"127.0.0.1:51181",58f116ec.67b9,7,"UPDATE",2017-04-14 14:37:32 EDT,9/5,0,LOG,00000,"execute <unnamed>: UPDATE item SET title = $1 WHERE i_id=$2","parameters: $1 = 'VqTPm_Sa^O<QE::}@hx5', $2 = '78519'",,,,,,,,""
2017-04-14 14:37:35.591 EDT,"postgres","epinions",26553,"127.0.0.1:51181",58f116ec.67b9,8,"COMMIT",2017-04-14 14:37:32 EDT,9/5,114306,LOG,00000,"execute S_1: COMMIT",,,,,,,,,""
2017-04-14 14:37:35.640 EDT,"postgres","epinions",26560,"127.0.0.1:51188",58f116ec.67c0,8,"COMMIT",2017-04-14 14:37:32 EDT,16/5,0,LOG,00000,"execute S_1: COMMIT",,,,,,,,,""
2017-04-14 14:37:35.663 EDT,"postgres","epinions",26564,"127.0.0.1:51192",58f116ec.67c4,8,"COMMIT",2017-04-14 14:37:32 EDT,20/5,0,LOG,00000,"execute S_1: COMMIT",,,,,,,,,""
2017-04-14 14:37:35.689 EDT,"postgres","epinions",26557,"127.0.0.1:51185",58f116ec.67bd,6,"BEGIN",2017-04-14 14:37:32 EDT,13/5,0,LOG,00000,"execute <unnamed>: BEGIN",,,,,,,,,""
2017-04-14 14:37:35.689 EDT,"postgres","epinions",26557,"127.0.0.1:51185",58f116ec.67bd,7,"UPDATE",2017-04-14 14:37:32 EDT,13/5,0,LOG,00000,"execute <unnamed>: UPDATE trust SET trust = $1 WHERE source_u_id=$2 AND target_u_id=$3","parameters: $1 = '0', $2 = '180141', $3 = '41163'",,,,,,,,""
2017-04-14 14:37:35.790 EDT,"postgres","epinions",26555,"127.0.0.1:51183",58f116ec.67bb,6,"BEGIN",2017-04-14 14:37:32 EDT,11/5,0,LOG,00000,"execute <unnamed>: BEGIN",,,,,,,,,""
2017-04-14 14:37:35.791 EDT,"postgres","epinions",26555,"127.0.0.1:51183",58f116ec.67bb,7,"SELECT",2017-04-14 14:37:32 EDT,11/5,0,LOG,00000,"execute <unnamed>: SELECT avg(rating) FROM review r, trust t WHERE r.u_id=t.target_u_id AND r.i_id=$1 AND t.source_u_id=$2","parameters: $1 = '50066', $2 = '85185'",,,,,,,,""
2017-04-14 14:37:35.827 EDT,"postgres","epinions",26558,"127.0.0.1:51186",58f116ec.67be,8,"COMMIT",2017-04-14 14:37:32 EDT,14/5,0,LOG,00000,"execute S_1: COMMIT",,,,,,,,,""
2017-04-14 14:37:35.851 EDT,"postgres","epinions",26562,"127.0.0.1:51190",58f116ec.67c2,8,"SELECT",2017-04-14 14:37:32 EDT,18/5,0,LOG,00000,"execute <unnamed>: SELECT * FROM trust t WHERE t.source_u_id=$1","parameters: $1 = '16970'",,,,,,,,""
2017-04-14 14:37:35.889 EDT,"postgres","epinions",26559,"127.0.0.1:51187",58f116ec.67bf,7,"BEGIN",2017-04-14 14:37:32 EDT,15/5,0,LOG,00000,"execute <unnamed>: BEGIN",,,,,,,,,""
2017-04-14 14:37:35.891 EDT,"postgres","epinions",26559,"127.0.0.1:51187",58f116ec.67bf,8,"SELECT",2017-04-14 14:37:32 EDT,15/5,0,LOG,00000,"execute <unnamed>: SELECT * FROM review r, item i WHERE i.i_id = r.i_id and r.i_id=$1 ORDER BY rating LIMIT 10","parameters: $1 = '4737'",,,,,,,,""
2017-04-14 14:37:35.911 EDT,"postgres","epinions",26557,"127.0.0.1:51185",58f116ec.67bd,8,"COMMIT",2017-04-14 14:37:32 EDT,13/5,0,LOG,00000,"execute S_1: COMMIT",,,,,,,,,""
2017-04-14 14:37:35.989 EDT,"postgres","epinions",26546,"127.0.0.1:51174",58f116ec.67b2,6,"BEGIN",2017-04-14 14:37:32 EDT,2/15,0,LOG,00000,"execute <unnamed>: BEGIN",,,,,,,,,""
2017-04-14 14:37:35.990 EDT,"postgres","epinions",26546,"127.0.0.1:51174",58f116ec.67b2,7,"SELECT",2017-04-14 14:37:32 EDT,2/15,0,LOG,00000,"execute <unnamed>: SELECT avg(rating) FROM review r, trust t WHERE r.u_id=t.target_u_id AND r.i_id=$1 AND t.source_u_id=$2","parameters: $1 = '39020', $2 = '199794'",,,,,,,,""
2017-04-14 14:37:36.046 EDT,"postgres","epinions",26562,"127.0.0.1:51190",58f116ec.67c2,9,"COMMIT",2017-04-14 14:37:32 EDT,18/5,0,LOG,00000,"execute S_1: COMMIT",,,,,,,,,""
2017-04-14 14:37:36.089 EDT,"postgres","epinions",26552,"127.0.0.1:51180",58f116ec.67b8,6,"BEGIN",2017-04-14 14:37:32 EDT,8/5,0,LOG,00000,"execute <unnamed>: BEGIN",,,,,,,,,""
2017-04-14 14:37:36.091 EDT,"postgres","epinions",26552,"127.0.0.1:51180",58f116ec.67b8,7,"SELECT",2017-04-14 14:37:32 EDT,8/5,0,LOG,00000,"execute <unnamed>: SELECT * FROM review r, item i WHERE i.i_id = r.i_id and r.i_id=$1 ORDER BY rating LIMIT 10","parameters: $1 = '46813'",,,,,,,,""
2017-04-14 14:37:36.175 EDT,"postgres","epinions",26555,"127.0.0.1:51183",58f116ec.67bb,8,"COMMIT",2017-04-14 14:37:32 EDT,11/5,0,LOG,00000,"execute S_1: COMMIT",,,,,,,,,""
2017-04-14 14:37:36.189 EDT,"postgres","epinions",26556,"127.0.0.1:51184",58f116ec.67bc,7,"BEGIN",2017-04-14 14:37:32 EDT,12/5,0,LOG,00000,"execute <unnamed>: BEGIN",,,,,,,,,""
2017-04-14 14:37:36.191 EDT,"postgres","epinions",26556,"127.0.0.1:51184",58f116ec.67bc,8,"SELECT",2017-04-14 14:37:32 EDT,12/5,0,LOG,00000,"execute <unnamed>: SELECT avg(rating) FROM review r, trust t WHERE r.u_id=t.target_u_id AND r.i_id=$1 AND t.source_u_id=$2","parameters: $1 = '56077', $2 = '27159'",,,,,,,,""
2017-04-14 14:37:36.268 EDT,"postgres","epinions",26546,"127.0.0.1:51174",58f116ec.67b2,8,"COMMIT",2017-04-14 14:37:32 EDT,2/15,0,LOG,00000,"execute S_1: COMMIT",,,,,,,,,""
2017-04-14 14:37:36.289 EDT,"postgres","epinions",26547,"127.0.0.1:51175",58f116ec.67b3,6,"BEGIN",2017-04-14 14:37:32 EDT,3/5,0,LOG,00000,"execute <unnamed>: BEGIN",,,,,,,,,""
2017-04-14 14:37:36.290 EDT,"postgres","epinions",26547,"127.0.0.1:51175",58f116ec.67b3,7,"SELECT",2017-04-14 14:37:32 EDT,3/5,0,LOG,00000,"execute <unnamed>: SELECT avg(rating) FROM review r WHERE r.i_id=$1","parameters: $1 = '36769'",,,,,,,,""
2017-04-14 14:37:36.390 EDT,"postgres","epinions",26550,"127.0.0.1:51178",58f116ec.67b6,6,"BEGIN",2017-04-14 14:37:32 EDT,6/5,0,LOG,00000,"execute <unnamed>: BEGIN",,,,,,,,,""
2017-04-14 14:37:36.390 EDT,"postgres","epinions",26550,"127.0.0.1:51178",58f116ec.67b6,7,"UPDATE",2017-04-14 14:37:32 EDT,6/5,0,LOG,00000,"execute <unnamed>: UPDATE trust SET trust = $1 WHERE source_u_id=$2 AND target_u_id=$3","parameters: $1 = '0', $2 = '102456', $3 = '168847'",,,,,,,,""
2017-04-14 14:37:36.457 EDT,"postgres","epinions",26559,"127.0.0.1:51187",58f116ec.67bf,9,"COMMIT",2017-04-14 14:37:32 EDT,15/5,0,LOG,00000,"execute S_1: COMMIT",,,,,,,,,""
2017-04-14 14:37:36.489 EDT,"postgres","epinions",26549,"127.0.0.1:51177",58f116ec.67b5,6,"BEGIN",2017-04-14 14:37:32 EDT,5/5,0,LOG,00000,"execute <unnamed>: BEGIN",,,,,,,,,""
2017-04-14 14:37:36.489 EDT,"postgres","epinions",26549,"127.0.0.1:51177",58f116ec.67b5,7,"UPDATE",2017-04-14 14:37:32 EDT,5/5,0,LOG,00000,"execute <unnamed>: UPDATE ""user"" SET name = $1 WHERE u_id=$2","parameters: $1 = '\''sVc', $2 = '23200'",,,,,,,,""
2017-04-14 14:37:36.490 EDT,"postgres","epinions",26549,"127.0.0.1:51177",58f116ec.67b5,8,"COMMIT",2017-04-14 14:37:32 EDT,5/5,114307,LOG,00000,"execute S_1: COMMIT",,,,,,,,,""
2017-04-14 14:37:36.533 EDT,"postgres","epinions",26556,"127.0.0.1:51184",58f116ec.67bc,9,"COMMIT",2017-04-14 14:37:32 EDT,12/5,0,LOG,00000,"execute S_1: COMMIT",,,,,,,,,""
2017-04-14 14:37:36.589 EDT,"postgres","epinions",26554,"127.0.0.1:51182",58f116ec.67ba,6,"BEGIN",2017-04-14 14:37:32 EDT,10/5,0,LOG,00000,"execute <unnamed>: BEGIN",,,,,,,,,""
2017-04-14 14:37:36.590 EDT,"postgres","epinions",26554,"127.0.0.1:51182",58f116ec.67ba,7,"SELECT",2017-04-14 14:37:32 EDT,10/5,0,LOG,00000,"execute <unnamed>: SELECT avg(rating) FROM review r, trust t WHERE r.u_id=t.target_u_id AND r.i_id=$1 AND t.source_u_id=$2","parameters: $1 = '45', $2 = '77472'",,,,,,,,""
2017-04-14 14:37:36.660 EDT,"postgres","epinions",26552,"127.0.0.1:51180",58f116ec.67b8,8,"COMMIT",2017-04-14 14:37:32 EDT,8/5,0,LOG,00000,"execute S_1: COMMIT",,,,,,,,,""
2017-04-14 14:37:36.690 EDT,"postgres","epinions",26563,"127.0.0.1:51191",58f116ec.67c3,6,"BEGIN",2017-04-14 14:37:32 EDT,19/5,0,LOG,00000,"execute <unnamed>: BEGIN",,,,,,,,,""
2017-04-14 14:37:36.691 EDT,"postgres","epinions",26563,"127.0.0.1:51191",58f116ec.67c3,7,"UPDATE",2017-04-14 14:37:32 EDT,19/5,0,LOG,00000,"execute <unnamed>: UPDATE item SET title = $1 WHERE i_id=$2","parameters: $1 = '7aD7~0)Mt{Gj L c@sl', $2 = '18207'",,,,,,,,""
2017-04-14 14:37:36.691 EDT,"postgres","epinions",26563,"127.0.0.1:51191",58f116ec.67c3,8,"COMMIT",2017-04-14 14:37:32 EDT,19/5,114308,LOG,00000,"execute S_1: COMMIT",,,,,,,,,""
2017-04-14 14:37:36.711 EDT,"postgres","epinions",26550,"127.0.0.1:51178",58f116ec.67b6,8,"COMMIT",2017-04-14 14:37:32 EDT,6/5,0,LOG,00000,"execute S_1: COMMIT",,,,,,,,,""
2017-04-14 14:37:36.789 EDT,"postgres","epinions",26551,"127.0.0.1:51179",58f116ec.67b7,6,"BEGIN",2017-04-14 14:37:32 EDT,7/5,0,LOG,00000,"execute <unnamed>: BEGIN",,,,,,,,,""
2017-04-14 14:37:36.790 EDT,"postgres","epinions",26551,"127.0.0.1:51179",58f116ec.67b7,7,"UPDATE",2017-04-14 14:37:32 EDT,7/5,0,LOG,00000,"execute <unnamed>: UPDATE item SET title = $1 WHERE i_id=$2","parameters: $1 = 'lzUUse92chh><7)0W^', $2 = '65940'",,,,,,,,""
2017-04-14 14:37:36.790 EDT,"postgres","epinions",26551,"127.0.0.1:51179",58f116ec.67b7,8,"COMMIT",2017-04-14 14:37:32 EDT,7/5,114309,LOG,00000,"execute S_1: COMMIT",,,,,,,,,""
2017-04-14 14:37:36.851 EDT,"postgres","epinions",26547,"127.0.0.1:51175",58f116ec.67b3,8,"COMMIT",2017-04-14 14:37:32 EDT,3/5,0,LOG,00000,"execute S_1: COMMIT",,,,,,,,,""
2017-04-14 14:37:36.883 EDT,"postgres","epinions",26554,"127.0.0.1:51182",58f116ec.67ba,8,"COMMIT",2017-04-14 14:37:32 EDT,10/5,0,LOG,00000,"execute S_1: COMMIT",,,,,,,,,""
2017-04-14 14:37:36.890 EDT,"postgres","epinions",26548,"127.0.0.1:51176",58f116ec.67b4,6,"BEGIN",2017-04-14 14:37:32 EDT,4/5,0,LOG,00000,"execute <unnamed>: BEGIN",,,,,,,,,""
2017-04-14 14:37:36.890 EDT,"postgres","epinions",26548,"127.0.0.1:51176",58f116ec.67b4,7,"SELECT",2017-04-14 14:37:32 EDT,4/5,0,LOG,00000,"execute <unnamed>: SELECT avg(rating) FROM review r WHERE r.i_id=$1","parameters: $1 = '79063'",,,,,,,,""
2017-04-14 14:37:36.990 EDT,"postgres","epinions",26561,"127.0.0.1:51189",58f116ec.67c1,9,"BEGIN",2017-04-14 14:37:32 EDT,17/6,0,LOG,00000,"execute <unnamed>: BEGIN",,,,,,,,,""
2017-04-14 14:37:36.991 EDT,"postgres","epinions",26561,"127.0.0.1:51189",58f116ec.67c1,10,"SELECT",2017-04-14 14:37:32 EDT,17/6,0,LOG,00000,"execute <unnamed>: SELECT * FROM review r, item i WHERE i.i_id = r.i_id and r.i_id=$1 ORDER BY rating LIMIT 10","parameters: $1 = '37838'",,,,,,,,""
2017-04-14 14:37:37.089 EDT,"postgres","epinions",26565,"127.0.0.1:51193",58f116ec.67c5,10,"BEGIN",2017-04-14 14:37:32 EDT,21/6,0,LOG,00000,"execute <unnamed>: BEGIN",,,,,,,,,""
2017-04-14 14:37:37.089 EDT,"postgres","epinions",26565,"127.0.0.1:51193",58f116ec.67c5,11,"UPDATE",2017-04-14 14:37:32 EDT,21/6,0,LOG,00000,"execute <unnamed>: UPDATE trust SET trust = $1 WHERE source_u_id=$2 AND target_u_id=$3","parameters: $1 = '1', $2 = '15564', $3 = '187109'",,,,,,,,""
2017-04-14 14:37:37.189 EDT,"postgres","epinions",26553,"127.0.0.1:51181",58f116ec.67b9,9,"BEGIN",2017-04-14 14:37:32 EDT,9/6,0,LOG,00000,"execute <unnamed>: BEGIN",,,,,,,,,""
2017-04-14 14:37:37.191 EDT,"postgres","epinions",26553,"127.0.0.1:51181",58f116ec.67b9,10,"SELECT",2017-04-14 14:37:32 EDT,9/6,0,LOG,00000,"execute <unnamed>: SELECT avg(rating) FROM review r, trust t WHERE r.u_id=t.target_u_id AND r.i_id=$1 AND t.source_u_id=$2","parameters: $1 = '14601', $2 = '124496'",,,,,,,,""
2017-04-14 14:37:37.222 EDT,"postgres","epinions",26548,"127.0.0.1:51176",58f116ec.67b4,8,"COMMIT",2017-04-14 14:37:32 EDT,4/5,0,LOG,00000,"execute S_1: COMMIT",,,,,,,,,""
2017-04-14 14:37:37.289 EDT,"postgres","epinions",26560,"127.0.0.1:51188",58f116ec.67c0,9,"BEGIN",2017-04-14 14:37:32 EDT,16/6,0,LOG,00000,"execute <unnamed>: BEGIN",,,,,,,,,""
2017-04-14 14:37:37.291 EDT,"postgres","epinions",26560,"127.0.0.1:51188",58f116ec.67c0,10,"SELECT",2017-04-14 14:37:32 EDT,16/6,0,LOG,00000,"execute <unnamed>: SELECT * FROM review r, ""user"" u WHERE u.u_id = r.u_id AND r.u_id=$1 ORDER BY rating LIMIT 10","parameters: $1 = '75630'",,,,,,,,""
2017-04-14 14:37:37.291 EDT,"postgres","epinions",26560,"127.0.0.1:51188",58f116ec.67c0,11,"COMMIT",2017-04-14 14:37:32 EDT,16/6,0,LOG,00000,"execute S_1: COMMIT",,,,,,,,,""
2017-04-14 14:37:37.315 EDT,"postgres","epinions",26561,"127.0.0.1:51189",58f116ec.67c1,11,"COMMIT",2017-04-14 14:37:32 EDT,17/6,0,LOG,00000,"execute S_1: COMMIT",,,,,,,,,""
2017-04-14 14:37:37.323 EDT,"postgres","epinions",26565,"127.0.0.1:51193",58f116ec.67c5,12,"COMMIT",2017-04-14 14:37:32 EDT,21/6,0,LOG,00000,"execute S_1: COMMIT",,,,,,,,,""
2017-04-14 14:37:37.389 EDT,"postgres","epinions",26564,"127.0.0.1:51192",58f116ec.67c4,9,"BEGIN",2017-04-14 14:37:32 EDT,20/6,0,LOG,00000,"execute <unnamed>: BEGIN",,,,,,,,,""
2017-04-14 14:37:37.390 EDT,"postgres","epinions",26564,"127.0.0.1:51192",58f116ec.67c4,10,"UPDATE",2017-04-14 14:37:32 EDT,20/6,0,LOG,00000,"execute <unnamed>: UPDATE review SET rating = $1 WHERE i_id=$2 AND u_id=$3","parameters: $1 = '683', $2 = '3490', $3 = '196519'",,,,,,,,""
2017-04-14 14:37:37.390 EDT,"postgres","epinions",26564,"127.0.0.1:51192",58f116ec.67c4,11,"COMMIT",2017-04-14 14:37:32 EDT,20/6,0,LOG,00000,"execute S_1: COMMIT",,,,,,,,,""
2017-04-14 14:37:37.426 EDT,"postgres","epinions",26553,"127.0.0.1:51181",58f116ec.67b9,11,"COMMIT",2017-04-14 14:37:32 EDT,9/6,0,LOG,00000,"execute S_1: COMMIT",,,,,,,,,""
2017-04-14 14:37:37.490 EDT,"postgres","epinions",26558,"127.0.0.1:51186",58f116ec.67be,9,"BEGIN",2017-04-14 14:37:32 EDT,14/6,0,LOG,00000,"execute <unnamed>: BEGIN",,,,,,,,,""
2017-04-14 14:37:37.491 EDT,"postgres","epinions",26558,"127.0.0.1:51186",58f116ec.67be,10,"SELECT",2017-04-14 14:37:32 EDT,14/6,0,LOG,00000,"execute <unnamed>: SELECT avg(rating) FROM review r, trust t WHERE r.u_id=t.target_u_id AND r.i_id=$1 AND t.source_u_id=$2","parameters: $1 = '57918', $2 = '39673'",,,,,,,,""
2017-04-14 14:37:37.590 EDT,"postgres","epinions",26557,"127.0.0.1:51185",58f116ec.67bd,9,"BEGIN",2017-04-14 14:37:32 EDT,13/6,0,LOG,00000,"execute <unnamed>: BEGIN",,,,,,,,,""
2017-04-14 14:37:37.590 EDT,"postgres","epinions",26557,"127.0.0.1:51185",58f116ec.67bd,10,"UPDATE",2017-04-14 14:37:32 EDT,13/6,0,LOG,00000,"execute <unnamed>: UPDATE review SET rating = $1 WHERE i_id=$2 AND u_id=$3","parameters: $1 = '427', $2 = '6020', $3 = '56958'",,,,,,,,""
2017-04-14 14:37:37.591 EDT,"postgres","epinions",26557,"127.0.0.1:51185",58f116ec.67bd,11,"COMMIT",2017-04-14 14:37:32 EDT,13/6,0,LOG,00000,"execute S_1: COMMIT",,,,,,,,,""
2017-04-14 14:37:37.650 EDT,"postgres","epinions",26558,"127.0.0.1:51186",58f116ec.67be,11,"COMMIT",2017-04-14 14:37:32 EDT,14/6,0,LOG,00000,"execute S_1: COMMIT",,,,,,,,,""
2017-04-14 14:37:37.689 EDT,"postgres","epinions",26562,"127.0.0.1:51190",58f116ec.67c2,10,"BEGIN",2017-04-14 14:37:32 EDT,18/6,0,LOG,00000,"execute <unnamed>: BEGIN",,,,,,,,,""
2017-04-14 14:37:37.689 EDT,"postgres","epinions",26562,"127.0.0.1:51190",58f116ec.67c2,11,"SELECT",2017-04-14 14:37:32 EDT,18/6,0,LOG,00000,"execute <unnamed>: SELECT * FROM review r WHERE r.i_id=$1","parameters: $1 = '76985'",,,,,,,,""
2017-04-14 14:37:37.789 EDT,"postgres","epinions",26555,"127.0.0.1:51183",58f116ec.67bb,9,"BEGIN",2017-04-14 14:37:32 EDT,11/6,0,LOG,00000,"execute <unnamed>: BEGIN",,,,,,,,,""
2017-04-14 14:37:37.789 EDT,"postgres","epinions",26555,"127.0.0.1:51183",58f116ec.67bb,10,"SELECT",2017-04-14 14:37:32 EDT,11/6,0,LOG,00000,"execute <unnamed>: SELECT * FROM review r WHERE r.i_id=$1","parameters: $1 = '21205'",,,,,,,,""
2017-04-14 14:37:37.889 EDT,"postgres","epinions",26546,"127.0.0.1:51174",58f116ec.67b2,9,"BEGIN",2017-04-14 14:37:32 EDT,2/16,0,LOG,00000,"execute <unnamed>: BEGIN",,,,,,,,,""
2017-04-14 14:37:37.890 EDT,"postgres","epinions",26546,"127.0.0.1:51174",58f116ec.67b2,10,"UPDATE",2017-04-14 14:37:32 EDT,2/16,0,LOG,00000,"execute <unnamed>: UPDATE item SET title = $1 WHERE i_id=$2","parameters: $1 = 'GzzUses^lb}?e&tJy p', $2 = '35953'",,,,,,,,""
2017-04-14 14:37:37.890 EDT,"postgres","epinions",26546,"127.0.0.1:51174",58f116ec.67b2,11,"COMMIT",2017-04-14 14:37:32 EDT,2/16,114310,LOG,00000,"execute S_1: COMMIT",,,,,,,,,""
2017-04-14 14:37:37.957 EDT,"postgres","epinions",26562,"127.0.0.1:51190",58f116ec.67c2,12,"SELECT",2017-04-14 14:37:32 EDT,18/6,0,LOG,00000,"execute <unnamed>: SELECT * FROM trust t WHERE t.source_u_id=$1","parameters: $1 = '70612'",,,,,,,,""
2017-04-14 14:37:37.989 EDT,"postgres","epinions",26559,"127.0.0.1:51187",58f116ec.67bf,10,"BEGIN",2017-04-14 14:37:32 EDT,15/6,0,LOG,00000,"execute <unnamed>: BEGIN",,,,,,,,,""
2017-04-14 14:37:37.990 EDT,"postgres","epinions",26559,"127.0.0.1:51187",58f116ec.67bf,11,"SELECT",2017-04-14 14:37:32 EDT,15/6,0,LOG,00000,"execute <unnamed>: SELECT avg(rating) FROM review r, trust t WHERE r.u_id=t.target_u_id AND r.i_id=$1 AND t.source_u_id=$2","parameters: $1 = '96232', $2 = '51266'",,,,,,,,""
2017-04-14 14:37:38.090 EDT,"postgres","epinions",26549,"127.0.0.1:51177",58f116ec.67b5,9,"BEGIN",2017-04-14 14:37:32 EDT,5/6,0,LOG,00000,"execute <unnamed>: BEGIN",,,,,,,,,""
2017-04-14 14:37:38.091 EDT,"postgres","epinions",26549,"127.0.0.1:51177",58f116ec.67b5,10,"SELECT",2017-04-14 14:37:32 EDT,5/6,0,LOG,00000,"execute <unnamed>: SELECT avg(rating) FROM review r, trust t WHERE r.u_id=t.target_u_id AND r.i_id=$1 AND t.source_u_id=$2","parameters: $1 = '3726', $2 = '159612'",,,,,,,,""
2017-04-14 14:37:38.133 EDT,"postgres","epinions",26562,"127.0.0.1:51190",58f116ec.67c2,13,"COMMIT",2017-04-14 14:37:32 EDT,18/6,0,LOG,00000,"execute S_1: COMMIT",,,,,,,,,""
2017-04-14 14:37:38.146 EDT,"postgres","epinions",26555,"127.0.0.1:51183",58f116ec.67bb,11,"SELECT",2017-04-14 14:37:32 EDT,11/6,0,LOG,00000,"execute <unnamed>: SELECT * FROM trust t WHERE t.source_u_id=$1","parameters: $1 = '28187'",,,,,,,,""
2017-04-14 14:37:38.190 EDT,"postgres","epinions",26556,"127.0.0.1:51184",58f116ec.67bc,10,"BEGIN",2017-04-14 14:37:32 EDT,12/6,0,LOG,00000,"execute <unnamed>: BEGIN",,,,,,,,,""
2017-04-14 14:37:38.191 EDT,"postgres","epinions",26556,"127.0.0.1:51184",58f116ec.67bc,11,"SELECT",2017-04-14 14:37:32 EDT,12/6,0,LOG,00000,"execute <unnamed>: SELECT * FROM review r, item i WHERE i.i_id = r.i_id and r.i_id=$1 ORDER BY rating LIMIT 10","parameters: $1 = '70176'",,,,,,,,""
2017-04-14 14:37:38.265 EDT,"postgres","epinions",26559,"127.0.0.1:51187",58f116ec.67bf,12,"COMMIT",2017-04-14 14:37:32 EDT,15/6,0,LOG,00000,"execute S_1: COMMIT",,,,,,,,,""
2017-04-14 14:37:38.289 EDT,"postgres","epinions",26552,"127.0.0.1:51180",58f116ec.67b8,9,"BEGIN",2017-04-14 14:37:32 EDT,8/6,0,LOG,00000,"execute <unnamed>: BEGIN",,,,,,,,,""
2017-04-14 14:37:38.289 EDT,"postgres","epinions",26552,"127.0.0.1:51180",58f116ec.67b8,10,"UPDATE",2017-04-14 14:37:32 EDT,8/6,0,LOG,00000,"execute <unnamed>: UPDATE trust SET trust = $1 WHERE source_u_id=$2 AND target_u_id=$3","parameters: $1 = '1', $2 = '164965', $3 = '84224'",,,,,,,,""
2017-04-14 14:37:38.389 EDT,"postgres","epinions",26563,"127.0.0.1:51191",58f116ec.67c3,9,"BEGIN",2017-04-14 14:37:32 EDT,19/6,0,LOG,00000,"execute <unnamed>: BEGIN",,,,,,,,,""
2017-04-14 14:37:38.390 EDT,"postgres","epinions",26563,"127.0.0.1:51191",58f116ec.67c3,10,"UPDATE",2017-04-14 14:37:32 EDT,19/6,0,LOG,00000,"execute <unnamed>: UPDATE ""user"" SET name = $1 WHERE u_id=$2","parameters: $1 = 'ua}45', $2 = '13088'",,,,,,,,""
2017-04-14 14:37:38.390 EDT,"postgres","epinions",26563,"127.0.0.1:51191",58f116ec.67c3,11,"COMMIT",2017-04-14 14:37:32 EDT,19/6,114311,LOG,00000,"execute S_1: COMMIT",,,,,,,,,""
2017-04-14 14:37:38.424 EDT,"postgres","epinions",26549,"127.0.0.1:51177",58f116ec.67b5,11,"COMMIT",2017-04-14 14:37:32 EDT,5/6,0,LOG,00000,"execute S_1: COMMIT",,,,,,,,,""
2017-04-14 14:37:38.459 EDT,"postgres","epinions",26555,"127.0.0.1:51183",58f116ec.67bb,12,"COMMIT",2017-04-14 14:37:32 EDT,11/6,0,LOG,00000,"execute S_1: COMMIT",,,,,,,,,""
2017-04-14 14:37:38.489 EDT,"postgres","epinions",26550,"127.0.0.1:51178",58f116ec.67b6,9,"BEGIN",2017-04-14 14:37:32 EDT,6/6,0,LOG,00000,"execute <unnamed>: BEGIN",,,,,,,,,""
2017-04-14 14:37:38.489 EDT,"postgres","epinions",26550,"127.0.0.1:51178",58f116ec.67b6,10,"UPDATE",2017-04-14 14:37:32 EDT,6/6,0,LOG,00000,"execute <unnamed>: UPDATE trust SET trust = $1 WHERE source_u_id=$2 AND target_u_id=$3","parameters: $1 = '0', $2 = '5530', $3 = '186565'",,,,,,,,""
2017-04-14 14:37:38.589 EDT,"postgres","epinions",26551,"127.0.0.1:51179",58f116ec.67b7,9,"BEGIN",2017-04-14 14:37:32 EDT,7/6,0,LOG,00000,"execute <unnamed>: BEGIN",,,,,,,,,""
2017-04-14 14:37:38.590 EDT,"postgres","epinions",26551,"127.0.0.1:51179",58f116ec.67b7,10,"UPDATE",2017-04-14 14:37:32 EDT,7/6,0,LOG,00000,"execute <unnamed>: UPDATE ""user"" SET name = $1 WHERE u_id=$2","parameters: $1 = 'W&vO5', $2 = '55432'",,,,,,,,""
2017-04-14 14:37:38.590 EDT,"postgres","epinions",26551,"127.0.0.1:51179",58f116ec.67b7,11,"COMMIT",2017-04-14 14:37:32 EDT,7/6,114312,LOG,00000,"execute S_1: COMMIT",,,,,,,,,""
2017-04-14 14:37:38.644 EDT,"postgres","epinions",26550,"127.0.0.1:51178",58f116ec.67b6,11,"COMMIT",2017-04-14 14:37:32 EDT,6/6,0,LOG,00000,"execute S_1: COMMIT",,,,,,,,,""
2017-04-14 14:37:38.649 EDT,"postgres","epinions",26552,"127.0.0.1:51180",58f116ec.67b8,11,"COMMIT",2017-04-14 14:37:32 EDT,8/6,0,LOG,00000,"execute S_1: COMMIT",,,,,,,,,""
2017-04-14 14:37:38.689 EDT,"postgres","epinions",26547,"127.0.0.1:51175",58f116ec.67b3,9,"BEGIN",2017-04-14 14:37:32 EDT,3/6,0,LOG,00000,"execute <unnamed>: BEGIN",,,,,,,,,""
2017-04-14 14:37:38.691 EDT,"postgres","epinions",26547,"127.0.0.1:51175",58f116ec.67b3,10,"SELECT",2017-04-14 14:37:32 EDT,3/6,0,LOG,00000,"execute <unnamed>: SELECT avg(rating) FROM review r, trust t WHERE r.u_id=t.target_u_id AND r.i_id=$1 AND t.source_u_id=$2","parameters: $1 = '24465', $2 = '152769'",,,,,,,,""
2017-04-14 14:37:38.713 EDT,"postgres","epinions",26556,"127.0.0.1:51184",58f116ec.67bc,12,"COMMIT",2017-04-14 14:37:32 EDT,12/6,0,LOG,00000,"execute S_1: COMMIT",,,,,,,,,""
2017-04-14 14:37:38.789 EDT,"postgres","epinions",26554,"127.0.0.1:51182",58f116ec.67ba,9,"BEGIN",2017-04-14 14:37:32 EDT,10/6,0,LOG,00000,"execute <unnamed>: BEGIN",,,,,,,,,""
2017-04-14 14:37:38.790 EDT,"postgres","epinions",26554,"127.0.0.1:51182",58f116ec.67ba,10,"SELECT",2017-04-14 14:37:32 EDT,10/6,0,LOG,00000,"execute <unnamed>: SELECT avg(rating) FROM review r, trust t WHERE r.u_id=t.target_u_id AND r.i_id=$1 AND t.source_u_id=$2","parameters: $1 = '8271', $2 = '128802'",,,,,,,,""
2017-04-14 14:37:38.890 EDT,"postgres","epinions",26548,"127.0.0.1:51176",58f116ec.67b4,9,"BEGIN",2017-04-14 14:37:32 EDT,4/6,0,LOG,00000,"execute <unnamed>: BEGIN",,,,,,,,,""
2017-04-14 14:37:38.890 EDT,"postgres","epinions",26548,"127.0.0.1:51176",58f116ec.67b4,10,"SELECT",2017-04-14 14:37:32 EDT,4/6,0,LOG,00000,"execute <unnamed>: SELECT avg(rating) FROM review r, trust t WHERE r.u_id=t.target_u_id AND r.i_id=$1 AND t.source_u_id=$2","parameters: $1 = '18282', $2 = '6630'",,,,,,,,""
2017-04-14 14:37:38.955 EDT,"postgres","epinions",26547,"127.0.0.1:51175",58f116ec.67b3,11,"COMMIT",2017-04-14 14:37:32 EDT,3/6,0,LOG,00000,"execute S_1: COMMIT",,,,,,,,,""
2017-04-14 14:37:38.989 EDT,"postgres","epinions",26560,"127.0.0.1:51188",58f116ec.67c0,12,"BEGIN",2017-04-14 14:37:32 EDT,16/7,0,LOG,00000,"execute <unnamed>: BEGIN",,,,,,,,,""
2017-04-14 14:37:38.989 EDT,"postgres","epinions",26560,"127.0.0.1:51188",58f116ec.67c0,13,"UPDATE",2017-04-14 14:37:32 EDT,16/7,0,LOG,00000,"execute <unnamed>: UPDATE item SET title = $1 WHERE i_id=$2","parameters: $1 = 'Y_6{{u@o &@k8+S:r7te', $2 = '2174'",,,,,,,,""
2017-04-14 14:37:38.989 EDT,"postgres","epinions",26560,"127.0.0.1:51188",58f116ec.67c0,14,"COMMIT",2017-04-14 14:37:32 EDT,16/7,114313,LOG,00000,"execute S_1: COMMIT",,,,,,,,,""
2017-04-14 14:37:39.031 EDT,"postgres","epinions",26554,"127.0.0.1:51182",58f116ec.67ba,11,"COMMIT",2017-04-14 14:37:32 EDT,10/6,0,LOG,00000,"execute S_1: COMMIT",,,,,,,,,""
2017-04-14 14:37:39.061 EDT,"postgres","epinions",26548,"127.0.0.1:51176",58f116ec.67b4,11,"COMMIT",2017-04-14 14:37:32 EDT,4/6,0,LOG,00000,"execute S_1: COMMIT",,,,,,,,,""
2017-04-14 14:37:39.089 EDT,"postgres","epinions",26561,"127.0.0.1:51189",58f116ec.67c1,12,"BEGIN",2017-04-14 14:37:32 EDT,17/7,0,LOG,00000,"execute <unnamed>: BEGIN",,,,,,,,,""
2017-04-14 14:37:39.089 EDT,"postgres","epinions",26561,"127.0.0.1:51189",58f116ec.67c1,13,"SELECT",2017-04-14 14:37:32 EDT,17/7,0,LOG,00000,"execute <unnamed>: SELECT * FROM review r, item i WHERE i.i_id = r.i_id and r.i_id=$1 ORDER BY rating LIMIT 10","parameters: $1 = '98010'",,,,,,,,""
2017-04-14 14:37:39.189 EDT,"postgres","epinions",26565,"127.0.0.1:51193",58f116ec.67c5,13,"BEGIN",2017-04-14 14:37:32 EDT,21/7,0,LOG,00000,"execute <unnamed>: BEGIN",,,,,,,,,""
2017-04-14 14:37:39.190 EDT,"postgres","epinions",26565,"127.0.0.1:51193",58f116ec.67c5,14,"SELECT",2017-04-14 14:37:32 EDT,21/7,0,LOG,00000,"execute <unnamed>: SELECT * FROM review r, ""user"" u WHERE u.u_id = r.u_id AND r.u_id=$1 ORDER BY rating LIMIT 10","parameters: $1 = '7288'",,,,,,,,""
2017-04-14 14:37:39.191 EDT,"postgres","epinions",26565,"127.0.0.1:51193",58f116ec.67c5,15,"COMMIT",2017-04-14 14:37:32 EDT,21/7,0,LOG,00000,"execute S_1: COMMIT",,,,,,,,,""
2017-04-14 14:37:39.289 EDT,"postgres","epinions",26564,"127.0.0.1:51192",58f116ec.67c4,12,"BEGIN",2017-04-14 14:37:32 EDT,20/7,0,LOG,00000,"execute <unnamed>: BEGIN",,,,,,,,,""
2017-04-14 14:37:39.290 EDT,"postgres","epinions",26564,"127.0.0.1:51192",58f116ec.67c4,13,"UPDATE",2017-04-14 14:37:32 EDT,20/7,0,LOG,00000,"execute <unnamed>: UPDATE trust SET trust = $1 WHERE source_u_id=$2 AND target_u_id=$3","parameters: $1 = '0', $2 = '198585', $3 = '89548'",,,,,,,,""
2017-04-14 14:37:39.344 EDT,"postgres","epinions",26561,"127.0.0.1:51189",58f116ec.67c1,14,"COMMIT",2017-04-14 14:37:32 EDT,17/7,0,LOG,00000,"execute S_1: COMMIT",,,,,,,,,""
2017-04-14 14:37:39.390 EDT,"postgres","epinions",26553,"127.0.0.1:51181",58f116ec.67b9,12,"BEGIN",2017-04-14 14:37:32 EDT,9/7,0,LOG,00000,"execute <unnamed>: BEGIN",,,,,,,,,""
2017-04-14 14:37:39.390 EDT,"postgres","epinions",26553,"127.0.0.1:51181",58f116ec.67b9,13,"SELECT",2017-04-14 14:37:32 EDT,9/7,0,LOG,00000,"execute <unnamed>: SELECT * FROM review r, item i WHERE i.i_id = r.i_id and r.i_id=$1 ORDER BY rating LIMIT 10","parameters: $1 = '37281'",,,,,,,,""
2017-04-14 14:37:39.463 EDT,"postgres","epinions",26564,"127.0.0.1:51192",58f116ec.67c4,14,"COMMIT",2017-04-14 14:37:32 EDT,20/7,0,LOG,00000,"execute S_1: COMMIT",,,,,,,,,""
2017-04-14 14:37:39.490 EDT,"postgres","epinions",26557,"127.0.0.1:51185",58f116ec.67bd,12,"BEGIN",2017-04-14 14:37:32 EDT,13/7,0,LOG,00000,"execute <unnamed>: BEGIN",,,,,,,,,""
2017-04-14 14:37:39.491 EDT,"postgres","epinions",26557,"127.0.0.1:51185",58f116ec.67bd,13,"SELECT",2017-04-14 14:37:32 EDT,13/7,0,LOG,00000,"execute <unnamed>: SELECT avg(rating) FROM review r, trust t WHERE r.u_id=t.target_u_id AND r.i_id=$1 AND t.source_u_id=$2","parameters: $1 = '93216', $2 = '155516'",,,,,,,,""
2017-04-14 14:37:39.590 EDT,"postgres","epinions",26558,"127.0.0.1:51186",58f116ec.67be,12,"BEGIN",2017-04-14 14:37:32 EDT,14/7,0,LOG,00000,"execute <unnamed>: BEGIN",,,,,,,,,""
2017-04-14 14:37:39.590 EDT,"postgres","epinions",26558,"127.0.0.1:51186",58f116ec.67be,13,"UPDATE",2017-04-14 14:37:32 EDT,14/7,0,LOG,00000,"execute <unnamed>: UPDATE review SET rating = $1 WHERE i_id=$2 AND u_id=$3","parameters: $1 = '976', $2 = '67188', $3 = '147230'",,,,,,,,""
2017-04-14 14:37:39.590 EDT,"postgres","epinions",26558,"127.0.0.1:51186",58f116ec.67be,14,"COMMIT",2017-04-14 14:37:32 EDT,14/7,0,LOG,00000,"execute S_1: COMMIT",,,,,,,,,""
2017-04-14 14:37:39.689 EDT,"postgres","epinions",26546,"127.0.0.1:51174",58f116ec.67b2,12,"BEGIN",2017-04-14 14:37:32 EDT,2/17,0,LOG,00000,"execute <unnamed>: BEGIN",,,,,,,,,""
2017-04-14 14:37:39.689 EDT,"postgres","epinions",26546,"127.0.0.1:51174",58f116ec.67b2,13,"UPDATE",2017-04-14 14:37:32 EDT,2/17,0,LOG,00000,"execute <unnamed>: UPDATE trust SET trust = $1 WHERE source_u_id=$2 AND target_u_id=$3","parameters: $1 = '1', $2 = '120776', $3 = '55791'",,,,,,,,""
2017-04-14 14:37:39.789 EDT,"postgres","epinions",26562,"127.0.0.1:51190",58f116ec.67c2,14,"BEGIN",2017-04-14 14:37:32 EDT,18/7,0,LOG,00000,"execute <unnamed>: BEGIN",,,,,,,,,""
2017-04-14 14:37:39.789 EDT,"postgres","epinions",26562,"127.0.0.1:51190",58f116ec.67c2,15,"UPDATE",2017-04-14 14:37:32 EDT,18/7,0,LOG,00000,"execute <unnamed>: UPDATE trust SET trust = $1 WHERE source_u_id=$2 AND target_u_id=$3","parameters: $1 = '1', $2 = '42243', $3 = '25689'",,,,,,,,""
2017-04-14 14:37:39.800 EDT,"postgres","epinions",26557,"127.0.0.1:51185",58f116ec.67bd,14,"COMMIT",2017-04-14 14:37:32 EDT,13/7,0,LOG,00000,"execute S_1: COMMIT",,,,,,,,,""
2017-04-14 14:37:39.831 EDT,"postgres","epinions",26553,"127.0.0.1:51181",58f116ec.67b9,14,"COMMIT",2017-04-14 14:37:32 EDT,9/7,0,LOG,00000,"execute S_1: COMMIT",,,,,,,,,""
2017-04-14 14:37:39.889 EDT,"postgres","epinions",26559,"127.0.0.1:51187",58f116ec.67bf,13,"BEGIN",2017-04-14 14:37:32 EDT,15/7,0,LOG,00000,"execute <unnamed>: BEGIN",,,,,,,,,""
2017-04-14 14:37:39.890 EDT,"postgres","epinions",26559,"127.0.0.1:51187",58f116ec.67bf,14,"UPDATE",2017-04-14 14:37:32 EDT,15/7,0,LOG,00000,"execute <unnamed>: UPDATE ""user"" SET name = $1 WHERE u_id=$2","parameters: $1 = ',6}@0', $2 = '194472'",,,,,,,,""
2017-04-14 14:37:39.891 EDT,"postgres","epinions",26559,"127.0.0.1:51187",58f116ec.67bf,15,"COMMIT",2017-04-14 14:37:32 EDT,15/7,114314,LOG,00000,"execute S_1: COMMIT",,,,,,,,,""
2017-04-14 14:37:39.911 EDT,"postgres","epinions",26546,"127.0.0.1:51174",58f116ec.67b2,14,"COMMIT",2017-04-14 14:37:32 EDT,2/17,0,LOG,00000,"execute S_1: COMMIT",,,,,,,,,""
2017-04-14 14:37:39.990 EDT,"postgres","epinions",26563,"127.0.0.1:51191",58f116ec.67c3,12,"BEGIN",2017-04-14 14:37:32 EDT,19/7,0,LOG,00000,"execute <unnamed>: BEGIN",,,,,,,,,""
2017-04-14 14:37:39.991 EDT,"postgres","epinions",26563,"127.0.0.1:51191",58f116ec.67c3,13,"SELECT",2017-04-14 14:37:32 EDT,19/7,0,LOG,00000,"execute <unnamed>: SELECT * FROM review r, item i WHERE i.i_id = r.i_id and r.i_id=$1 ORDER BY rating LIMIT 10","parameters: $1 = '81240'",,,,,,,,""
2017-04-14 14:37:40.005 EDT,"postgres","epinions",26562,"127.0.0.1:51190",58f116ec.67c2,16,"COMMIT",2017-04-14 14:37:32 EDT,18/7,0,LOG,00000,"execute S_1: COMMIT",,,,,,,,,""
2017-04-14 14:37:40.090 EDT,"postgres","epinions",26549,"127.0.0.1:51177",58f116ec.67b5,12,"BEGIN",2017-04-14 14:37:32 EDT,5/7,0,LOG,00000,"execute <unnamed>: BEGIN",,,,,,,,,""
2017-04-14 14:37:40.090 EDT,"postgres","epinions",26549,"127.0.0.1:51177",58f116ec.67b5,13,"SELECT",2017-04-14 14:37:32 EDT,5/7,0,LOG,00000,"execute <unnamed>: SELECT * FROM review r WHERE r.i_id=$1","parameters: $1 = '98685'",,,,,,,,""
2017-04-14 14:37:40.189 EDT,"postgres","epinions",26555,"127.0.0.1:51183",58f116ec.67bb,13,"BEGIN",2017-04-14 14:37:32 EDT,11/7,0,LOG,00000,"execute <unnamed>: BEGIN",,,,,,,,,""
2017-04-14 14:37:40.189 EDT,"postgres","epinions",26555,"127.0.0.1:51183",58f116ec.67bb,14,"SELECT",2017-04-14 14:37:32 EDT,11/7,0,LOG,00000,"execute <unnamed>: SELECT * FROM review r WHERE r.i_id=$1","parameters: $1 = '45636'",,,,,,,,""
2017-04-14 14:37:40.272 EDT,"postgres","epinions",26563,"127.0.0.1:51191",58f116ec.67c3,14,"COMMIT",2017-04-14 14:37:32 EDT,19/7,0,LOG,00000,"execute S_1: COMMIT",,,,,,,,,""
2017-04-14 14:37:40.289 EDT,"postgres","epinions",26551,"127.0.0.1:51179",58f116ec.67b7,12,"BEGIN",2017-04-14 14:37:32 EDT,7/7,0,LOG,00000,"execute <unnamed>: BEGIN",,,,,,,,,""
2017-04-14 14:37:40.290 EDT,"postgres","epinions",26551,"127.0.0.1:51179",58f116ec.67b7,13,"SELECT",2017-04-14 14:37:32 EDT,7/7,0,LOG,00000,"execute <unnamed>: SELECT avg(rating) FROM review r WHERE r.i_id=$1","parameters: $1 = '39836'",,,,,,,,""
2017-04-14 14:37:40.390 EDT,"postgres","epinions",26550,"127.0.0.1:51178",58f116ec.67b6,12,"BEGIN",2017-04-14 14:37:32 EDT,6/7,0,LOG,00000,"execute <unnamed>: BEGIN",,,,,,,,,""
2017-04-14 14:37:40.391 EDT,"postgres","epinions",26550,"127.0.0.1:51178",58f116ec.67b6,13,"UPDATE",2017-04-14 14:37:32 EDT,6/7,0,LOG,00000,"execute <unnamed>: UPDATE trust SET trust = $1 WHERE source_u_id=$2 AND target_u_id=$3","parameters: $1 = '0', $2 = '17637', $3 = '9282'",,,,,,,,""
2017-04-14 14:37:40.489 EDT,"postgres","epinions",26552,"127.0.0.1:51180",58f116ec.67b8,12,"BEGIN",2017-04-14 14:37:32 EDT,8/7,0,LOG,00000,"execute <unnamed>: BEGIN",,,,,,,,,""
2017-04-14 14:37:40.491 EDT,"postgres","epinions",26552,"127.0.0.1:51180",58f116ec.67b8,13,"SELECT",2017-04-14 14:37:32 EDT,8/7,0,LOG,00000,"execute <unnamed>: SELECT avg(rating) FROM review r, trust t WHERE r.u_id=t.target_u_id AND r.i_id=$1 AND t.source_u_id=$2","parameters: $1 = '9883', $2 = '14018'",,,,,,,,""
2017-04-14 14:37:40.565 EDT,"postgres","epinions",26549,"127.0.0.1:51177",58f116ec.67b5,14,"SELECT",2017-04-14 14:37:32 EDT,5/7,0,LOG,00000,"execute <unnamed>: SELECT * FROM trust t WHERE t.source_u_id=$1","parameters: $1 = '44081'",,,,,,,,""
2017-04-14 14:37:40.590 EDT,"postgres","epinions",26556,"127.0.0.1:51184",58f116ec.67bc,13,"BEGIN",2017-04-14 14:37:32 EDT,12/7,0,LOG,00000,"execute <unnamed>: BEGIN",,,,,,,,,""
2017-04-14 14:37:40.590 EDT,"postgres","epinions",26556,"127.0.0.1:51184",58f116ec.67bc,14,"SELECT",2017-04-14 14:37:32 EDT,12/7,0,LOG,00000,"execute <unnamed>: SELECT * FROM review r, ""user"" u WHERE u.u_id = r.u_id AND r.u_id=$1 ORDER BY rating LIMIT 10","parameters: $1 = '35090'",,,,,,,,""
2017-04-14 14:37:40.592 EDT,"postgres","epinions",26556,"127.0.0.1:51184",58f116ec.67bc,15,"COMMIT",2017-04-14 14:37:32 EDT,12/7,0,LOG,00000,"execute S_1: COMMIT",,,,,,,,,""
2017-04-14 14:37:40.661 EDT,"postgres","epinions",26555,"127.0.0.1:51183",58f116ec.67bb,15,"SELECT",2017-04-14 14:37:32 EDT,11/7,0,LOG,00000,"execute <unnamed>: SELECT * FROM trust t WHERE t.source_u_id=$1","parameters: $1 = '5933'",,,,,,,,""
2017-04-14 14:37:40.690 EDT,"postgres","epinions",26547,"127.0.0.1:51175",58f116ec.67b3,12,"BEGIN",2017-04-14 14:37:32 EDT,3/7,0,LOG,00000,"execute <unnamed>: BEGIN",,,,,,,,,""
2017-04-14 14:37:40.690 EDT,"postgres","epinions",26547,"127.0.0.1:51175",58f116ec.67b3,13,"SELECT",2017-04-14 14:37:32 EDT,3/7,0,LOG,00000,"execute <unnamed>: SELECT * FROM review r WHERE r.i_id=$1","parameters: $1 = '6942'",,,,,,,,""
2017-04-14 14:37:40.789 EDT,"postgres","epinions",26560,"127.0.0.1:51188",58f116ec.67c0,15,"BEGIN",2017-04-14 14:37:32 EDT,16/8,0,LOG,00000,"execute <unnamed>: BEGIN",,,,,,,,,""
2017-04-14 14:37:40.789 EDT,"postgres","epinions",26560,"127.0.0.1:51188",58f116ec.67c0,16,"UPDATE",2017-04-14 14:37:32 EDT,16/8,0,LOG,00000,"execute <unnamed>: UPDATE item SET title = $1 WHERE i_id=$2","parameters: $1 = 'x4}<L)0WH{WVISCjqW]', $2 = '93259'",,,,,,,,""
2017-04-14 14:37:40.790 EDT,"postgres","epinions",26560,"127.0.0.1:51188",58f116ec.67c0,17,"COMMIT",2017-04-14 14:37:32 EDT,16/8,114315,LOG,00000,"execute S_1: COMMIT",,,,,,,,,""
2017-04-14 14:37:40.889 EDT,"postgres","epinions",26554,"127.0.0.1:51182",58f116ec.67ba,12,"BEGIN",2017-04-14 14:37:32 EDT,10/7,0,LOG,00000,"execute <unnamed>: BEGIN",,,,,,,,,""
2017-04-14 14:37:40.890 EDT,"postgres","epinions",26554,"127.0.0.1:51182",58f116ec.67ba,13,"UPDATE",2017-04-14 14:37:32 EDT,10/7,0,LOG,00000,"execute <unnamed>: UPDATE ""user"" SET name = $1 WHERE u_id=$2","parameters: $1 = 'GOZs', $2 = '56281'",,,,,,,,""
2017-04-14 14:37:40.890 EDT,"postgres","epinions",26554,"127.0.0.1:51182",58f116ec.67ba,14,"COMMIT",2017-04-14 14:37:32 EDT,10/7,114316,LOG,00000,"execute S_1: COMMIT",,,,,,,,,""
2017-04-14 14:37:40.903 EDT,"postgres","epinions",26551,"127.0.0.1:51179",58f116ec.67b7,14,"COMMIT",2017-04-14 14:37:32 EDT,7/7,0,LOG,00000,"execute S_1: COMMIT",,,,,,,,,""
2017-04-14 14:37:40.957 EDT,"postgres","epinions",26550,"127.0.0.1:51178",58f116ec.67b6,14,"COMMIT",2017-04-14 14:37:32 EDT,6/7,0,LOG,00000,"execute S_1: COMMIT",,,,,,,,,""
2017-04-14 14:37:40.989 EDT,"postgres","epinions",26548,"127.0.0.1:51176",58f116ec.67b4,12,"BEGIN",2017-04-14 14:37:32 EDT,4/7,0,LOG,00000,"execute <unnamed>: BEGIN",,,,,,,,,""
2017-04-14 14:37:40.989 EDT,"postgres","epinions",26548,"127.0.0.1:51176",58f116ec.67b4,13,"UPDATE",2017-04-14 14:37:32 EDT,4/7,0,LOG,00000,"execute <unnamed>: UPDATE item SET title = $1 WHERE i_id=$2","parameters: $1 = '_AQpKj/tzTqq-_''Kt9', $2 = '27683'",,,,,,,,""
2017-04-14 14:37:40.990 EDT,"postgres","epinions",26548,"127.0.0.1:51176",58f116ec.67b4,14,"COMMIT",2017-04-14 14:37:32 EDT,4/7,114317,LOG,00000,"execute S_1: COMMIT",,,,,,,,,""
2017-04-14 14:37:41.003 EDT,"postgres","epinions",26555,"127.0.0.1:51183",58f116ec.67bb,16,"COMMIT",2017-04-14 14:37:32 EDT,11/7,0,LOG,00000,"execute S_1: COMMIT",,,,,,,,,""
2017-04-14 14:37:41.013 EDT,"postgres","epinions",26552,"127.0.0.1:51180",58f116ec.67b8,14,"COMMIT",2017-04-14 14:37:32 EDT,8/7,0,LOG,00000,"execute S_1: COMMIT",,,,,,,,,""
2017-04-14 14:37:41.026 EDT,"postgres","epinions",26549,"127.0.0.1:51177",58f116ec.67b5,15,"COMMIT",2017-04-14 14:37:32 EDT,5/7,0,LOG,00000,"execute S_1: COMMIT",,,,,,,,,""
2017-04-14 14:37:41.089 EDT,"postgres","epinions",26565,"127.0.0.1:51193",58f116ec.67c5,16,"BEGIN",2017-04-14 14:37:32 EDT,21/8,0,LOG,00000,"execute <unnamed>: BEGIN",,,,,,,,,""
2017-04-14 14:37:41.090 EDT,"postgres","epinions",26565,"127.0.0.1:51193",58f116ec.67c5,17,"SELECT",2017-04-14 14:37:32 EDT,21/8,0,LOG,00000,"execute <unnamed>: SELECT * FROM review r, ""user"" u WHERE u.u_id = r.u_id AND r.u_id=$1 ORDER BY rating LIMIT 10","parameters: $1 = '53162'",,,,,,,,""
2017-04-14 14:37:41.090 EDT,"postgres","epinions",26565,"127.0.0.1:51193",58f116ec.67c5,18,"COMMIT",2017-04-14 14:37:32 EDT,21/8,0,LOG,00000,"execute S_1: COMMIT",,,,,,,,,""
2017-04-14 14:37:41.182 EDT,"postgres","epinions",26547,"127.0.0.1:51175",58f116ec.67b3,14,"SELECT",2017-04-14 14:37:32 EDT,3/7,0,LOG,00000,"execute <unnamed>: SELECT * FROM trust t WHERE t.source_u_id=$1","parameters: $1 = '73679'",,,,,,,,""
2017-04-14 14:37:41.189 EDT,"postgres","epinions",26561,"127.0.0.1:51189",58f116ec.67c1,15,"BEGIN",2017-04-14 14:37:32 EDT,17/8,0,LOG,00000,"execute <unnamed>: BEGIN",,,,,,,,,""
2017-04-14 14:37:41.190 EDT,"postgres","epinions",26561,"127.0.0.1:51189",58f116ec.67c1,16,"UPDATE",2017-04-14 14:37:32 EDT,17/8,0,LOG,00000,"execute <unnamed>: UPDATE trust SET trust = $1 WHERE source_u_id=$2 AND target_u_id=$3","parameters: $1 = '1', $2 = '150764', $3 = '156365'",,,,,,,,""
2017-04-14 14:37:41.290 EDT,"postgres","epinions",26564,"127.0.0.1:51192",58f116ec.67c4,15,"BEGIN",2017-04-14 14:37:32 EDT,20/8,0,LOG,00000,"execute <unnamed>: BEGIN",,,,,,,,,""
2017-04-14 14:37:41.291 EDT,"postgres","epinions",26564,"127.0.0.1:51192",58f116ec.67c4,16,"UPDATE",2017-04-14 14:37:32 EDT,20/8,0,LOG,00000,"execute <unnamed>: UPDATE item SET title = $1 WHERE i_id=$2","parameters: $1 = 'c/x8LG)0WHvBxA^;]- &', $2 = '80692'",,,,,,,,""
2017-04-14 14:37:41.292 EDT,"postgres","epinions",26564,"127.0.0.1:51192",58f116ec.67c4,17,"COMMIT",2017-04-14 14:37:32 EDT,20/8,114318,LOG,00000,"execute S_1: COMMIT",,,,,,,,,""
2017-04-14 14:37:41.331 EDT,"postgres","epinions",26547,"127.0.0.1:51175",58f116ec.67b3,15,"COMMIT",2017-04-14 14:37:32 EDT,3/7,0,LOG,00000,"execute S_1: COMMIT",,,,,,,,,""
2017-04-14 14:37:41.359 EDT,"postgres","epinions",26561,"127.0.0.1:51189",58f116ec.67c1,17,"COMMIT",2017-04-14 14:37:32 EDT,17/8,0,LOG,00000,"execute S_1: COMMIT",,,,,,,,,""
2017-04-14 14:37:41.390 EDT,"postgres","epinions",26558,"127.0.0.1:51186",58f116ec.67be,15,"BEGIN",2017-04-14 14:37:32 EDT,14/8,0,LOG,00000,"execute <unnamed>: BEGIN",,,,,,,,,""
2017-04-14 14:37:41.390 EDT,"postgres","epinions",26558,"127.0.0.1:51186",58f116ec.67be,16,"UPDATE",2017-04-14 14:37:32 EDT,14/8,0,LOG,00000,"execute <unnamed>: UPDATE ""user"" SET name = $1 WHERE u_id=$2","parameters: $1 = 'i]GHu', $2 = '123218'",,,,,,,,""
2017-04-14 14:37:41.391 EDT,"postgres","epinions",26558,"127.0.0.1:51186",58f116ec.67be,17,"COMMIT",2017-04-14 14:37:32 EDT,14/8,114319,LOG,00000,"execute S_1: COMMIT",,,,,,,,,""
2017-04-14 14:37:41.489 EDT,"postgres","epinions",26557,"127.0.0.1:51185",58f116ec.67bd,15,"BEGIN",2017-04-14 14:37:32 EDT,13/8,0,LOG,00000,"execute <unnamed>: BEGIN",,,,,,,,,""
2017-04-14 14:37:41.490 EDT,"postgres","epinions",26557,"127.0.0.1:51185",58f116ec.67bd,16,"UPDATE",2017-04-14 14:37:32 EDT,13/8,0,LOG,00000,"execute <unnamed>: UPDATE item SET title = $1 WHERE i_id=$2","parameters: $1 = 'J+xi(xSVSDG`^Fuj: h', $2 = '66362'",,,,,,,,""
2017-04-14 14:37:41.491 EDT,"postgres","epinions",26557,"127.0.0.1:51185",58f116ec.67bd,17,"COMMIT",2017-04-14 14:37:32 EDT,13/8,114320,LOG,00000,"execute S_1: COMMIT",,,,,,,,,""
2017-04-14 14:37:41.589 EDT,"postgres","epinions",26553,"127.0.0.1:51181",58f116ec.67b9,15,"BEGIN",2017-04-14 14:37:32 EDT,9/8,0,LOG,00000,"execute <unnamed>: BEGIN",,,,,,,,,""
2017-04-14 14:37:41.590 EDT,"postgres","epinions",26553,"127.0.0.1:51181",58f116ec.67b9,16,"UPDATE",2017-04-14 14:37:32 EDT,9/8,0,LOG,00000,"execute <unnamed>: UPDATE trust SET trust = $1 WHERE source_u_id=$2 AND target_u_id=$3","parameters: $1 = '0', $2 = '92250', $3 = '122920'",,,,,,,,""
2017-04-14 14:37:41.689 EDT,"postgres","epinions",26559,"127.0.0.1:51187",58f116ec.67bf,16,"BEGIN",2017-04-14 14:37:32 EDT,15/8,0,LOG,00000,"execute <unnamed>: BEGIN",,,,,,,,,""
2017-04-14 14:37:41.689 EDT,"postgres","epinions",26559,"127.0.0.1:51187",58f116ec.67bf,17,"UPDATE",2017-04-14 14:37:32 EDT,15/8,0,LOG,00000,"execute <unnamed>: UPDATE trust SET trust = $1 WHERE source_u_id=$2 AND target_u_id=$3","parameters: $1 = '0', $2 = '173040', $3 = '100468'",,,,,,,,""
2017-04-14 14:37:41.742 EDT,"postgres","epinions",26553,"127.0.0.1:51181",58f116ec.67b9,17,"COMMIT",2017-04-14 14:37:32 EDT,9/8,0,LOG,00000,"execute S_1: COMMIT",,,,,,,,,""
2017-04-14 14:37:41.789 EDT,"postgres","epinions",26546,"127.0.0.1:51174",58f116ec.67b2,15,"BEGIN",2017-04-14 14:37:32 EDT,2/18,0,LOG,00000,"execute <unnamed>: BEGIN",,,,,,,,,""
2017-04-14 14:37:41.790 EDT,"postgres","epinions",26546,"127.0.0.1:51174",58f116ec.67b2,16,"UPDATE",2017-04-14 14:37:32 EDT,2/18,0,LOG,00000,"execute <unnamed>: UPDATE review SET rating = $1 WHERE i_id=$2 AND u_id=$3","parameters: $1 = '774', $2 = '53025', $3 = '128008'",,,,,,,,""
2017-04-14 14:37:41.790 EDT,"postgres","epinions",26546,"127.0.0.1:51174",58f116ec.67b2,17,"COMMIT",2017-04-14 14:37:32 EDT,2/18,0,LOG,00000,"execute S_1: COMMIT",,,,,,,,,""
2017-04-14 14:37:41.842 EDT,"postgres","epinions",26559,"127.0.0.1:51187",58f116ec.67bf,18,"COMMIT",2017-04-14 14:37:32 EDT,15/8,0,LOG,00000,"execute S_1: COMMIT",,,,,,,,,""
2017-04-14 14:37:41.890 EDT,"postgres","epinions",26562,"127.0.0.1:51190",58f116ec.67c2,17,"BEGIN",2017-04-14 14:37:32 EDT,18/8,0,LOG,00000,"execute <unnamed>: BEGIN",,,,,,,,,""
2017-04-14 14:37:41.892 EDT,"postgres","epinions",26562,"127.0.0.1:51190",58f116ec.67c2,18,"SELECT",2017-04-14 14:37:32 EDT,18/8,0,LOG,00000,"execute <unnamed>: SELECT * FROM review r, item i WHERE i.i_id = r.i_id and r.i_id=$1 ORDER BY rating LIMIT 10","parameters: $1 = '42529'",,,,,,,,""
2017-04-14 14:37:41.989 EDT,"postgres","epinions",26563,"127.0.0.1:51191",58f116ec.67c3,15,"BEGIN",2017-04-14 14:37:32 EDT,19/8,0,LOG,00000,"execute <unnamed>: BEGIN",,,,,,,,,""
2017-04-14 14:37:41.989 EDT,"postgres","epinions",26563,"127.0.0.1:51191",58f116ec.67c3,16,"SELECT",2017-04-14 14:37:32 EDT,19/8,0,LOG,00000,"execute <unnamed>: SELECT avg(rating) FROM review r WHERE r.i_id=$1","parameters: $1 = '87516'",,,,,,,,""
2017-04-14 14:37:42.089 EDT,"postgres","epinions",26556,"127.0.0.1:51184",58f116ec.67bc,16,"BEGIN",2017-04-14 14:37:32 EDT,12/8,0,LOG,00000,"execute <unnamed>: BEGIN",,,,,,,,,""
2017-04-14 14:37:42.089 EDT,"postgres","epinions",26556,"127.0.0.1:51184",58f116ec.67bc,17,"SELECT",2017-04-14 14:37:32 EDT,12/8,0,LOG,00000,"execute <unnamed>: SELECT * FROM review r WHERE r.i_id=$1","parameters: $1 = '72665'",,,,,,,,""
2017-04-14 14:37:42.189 EDT,"postgres","epinions",26560,"127.0.0.1:51188",58f116ec.67c0,18,"BEGIN",2017-04-14 14:37:32 EDT,16/9,0,LOG,00000,"execute <unnamed>: BEGIN",,,,,,,,,""
2017-04-14 14:37:42.189 EDT,"postgres","epinions",26560,"127.0.0.1:51188",58f116ec.67c0,19,"SELECT",2017-04-14 14:37:32 EDT,16/9,0,LOG,00000,"execute <unnamed>: SELECT * FROM review r WHERE r.i_id=$1","parameters: $1 = '83931'",,,,,,,,""
2017-04-14 14:37:42.230 EDT,"postgres","epinions",26562,"127.0.0.1:51190",58f116ec.67c2,19,"COMMIT",2017-04-14 14:37:32 EDT,18/8,0,LOG,00000,"execute S_1: COMMIT",,,,,,,,,""
2017-04-14 14:37:42.289 EDT,"postgres","epinions",26554,"127.0.0.1:51182",58f116ec.67ba,15,"BEGIN",2017-04-14 14:37:32 EDT,10/8,0,LOG,00000,"execute <unnamed>: BEGIN",,,,,,,,,""
2017-04-14 14:37:42.290 EDT,"postgres","epinions",26554,"127.0.0.1:51182",58f116ec.67ba,16,"SELECT",2017-04-14 14:37:32 EDT,10/8,0,LOG,00000,"execute <unnamed>: SELECT avg(rating) FROM review r, trust t WHERE r.u_id=t.target_u_id AND r.i_id=$1 AND t.source_u_id=$2","parameters: $1 = '13563', $2 = '169959'",,,,,,,,""
2017-04-14 14:37:42.313 EDT,"postgres","epinions",26563,"127.0.0.1:51191",58f116ec.67c3,17,"COMMIT",2017-04-14 14:37:32 EDT,19/8,0,LOG,00000,"execute S_1: COMMIT",,,,,,,,,""
2017-04-14 14:37:42.389 EDT,"postgres","epinions",26551,"127.0.0.1:51179",58f116ec.67b7,15,"BEGIN",2017-04-14 14:37:32 EDT,7/8,0,LOG,00000,"execute <unnamed>: BEGIN",,,,,,,,,""
2017-04-14 14:37:42.390 EDT,"postgres","epinions",26551,"127.0.0.1:51179",58f116ec.67b7,16,"SELECT",2017-04-14 14:37:32 EDT,7/8,0,LOG,00000,"execute <unnamed>: SELECT * FROM review r, ""user"" u WHERE u.u_id = r.u_id AND r.u_id=$1 ORDER BY rating LIMIT 10","parameters: $1 = '16518'",,,,,,,,""
2017-04-14 14:37:42.391 EDT,"postgres","epinions",26551,"127.0.0.1:51179",58f116ec.67b7,17,"COMMIT",2017-04-14 14:37:32 EDT,7/8,0,LOG,00000,"execute S_1: COMMIT",,,,,,,,,""
2017-04-14 14:37:42.490 EDT,"postgres","epinions",26550,"127.0.0.1:51178",58f116ec.67b6,15,"BEGIN",2017-04-14 14:37:32 EDT,6/8,0,LOG,00000,"execute S_2: BEGIN",,,,,,,,,""
2017-04-14 14:37:42.490 EDT,"postgres","epinions",26550,"127.0.0.1:51178",58f116ec.67b6,16,"UPDATE",2017-04-14 14:37:32 EDT,6/8,0,LOG,00000,"execute S_3: UPDATE trust SET trust = $1 WHERE source_u_id=$2 AND target_u_id=$3","parameters: $1 = '0', $2 = '181891', $3 = '176637'",,,,,,,,""
2017-04-14 14:37:42.578 EDT,"postgres","epinions",26556,"127.0.0.1:51184",58f116ec.67bc,18,"SELECT",2017-04-14 14:37:32 EDT,12/8,0,LOG,00000,"execute <unnamed>: SELECT * FROM trust t WHERE t.source_u_id=$1","parameters: $1 = '123678'",,,,,,,,""
2017-04-14 14:37:42.579 EDT,"postgres","epinions",26560,"127.0.0.1:51188",58f116ec.67c0,20,"SELECT",2017-04-14 14:37:32 EDT,16/9,0,LOG,00000,"execute <unnamed>: SELECT * FROM trust t WHERE t.source_u_id=$1","parameters: $1 = '123411'",,,,,,,,""
2017-04-14 14:37:42.590 EDT,"postgres","epinions",26548,"127.0.0.1:51176",58f116ec.67b4,15,"BEGIN",2017-04-14 14:37:32 EDT,4/8,0,LOG,00000,"execute <unnamed>: BEGIN",,,,,,,,,""
2017-04-14 14:37:42.590 EDT,"postgres","epinions",26548,"127.0.0.1:51176",58f116ec.67b4,16,"UPDATE",2017-04-14 14:37:32 EDT,4/8,0,LOG,00000,"execute <unnamed>: UPDATE item SET title = $1 WHERE i_id=$2","parameters: $1 = 'Yt6Q1`U% p:+tr3JQWH', $2 = '7527'",,,,,,,,""
2017-04-14 14:37:42.590 EDT,"postgres","epinions",26548,"127.0.0.1:51176",58f116ec.67b4,17,"COMMIT",2017-04-14 14:37:32 EDT,4/8,114321,LOG,00000,"execute S_1: COMMIT",,,,,,,,,""
2017-04-14 14:37:42.628 EDT,"postgres","epinions",26554,"127.0.0.1:51182",58f116ec.67ba,17,"COMMIT",2017-04-14 14:37:32 EDT,10/8,0,LOG,00000,"execute S_1: COMMIT",,,,,,,,,""
2017-04-14 14:37:42.689 EDT,"postgres","epinions",26555,"127.0.0.1:51183",58f116ec.67bb,17,"BEGIN",2017-04-14 14:37:32 EDT,11/8,0,LOG,00000,"execute <unnamed>: BEGIN",,,,,,,,,""
2017-04-14 14:37:42.689 EDT,"postgres","epinions",26555,"127.0.0.1:51183",58f116ec.67bb,18,"SELECT",2017-04-14 14:37:32 EDT,11/8,0,LOG,00000,"execute <unnamed>: SELECT avg(rating) FROM review r WHERE r.i_id=$1","parameters: $1 = '73469'",,,,,,,,""
2017-04-14 14:37:42.789 EDT,"postgres","epinions",26552,"127.0.0.1:51180",58f116ec.67b8,15,"BEGIN",2017-04-14 14:37:32 EDT,8/8,0,LOG,00000,"execute <unnamed>: BEGIN",,,,,,,,,""
2017-04-14 14:37:42.789 EDT,"postgres","epinions",26552,"127.0.0.1:51180",58f116ec.67b8,16,"UPDATE",2017-04-14 14:37:32 EDT,8/8,0,LOG,00000,"execute <unnamed>: UPDATE item SET title = $1 WHERE i_id=$2","parameters: $1 = 'pa@h~w+bS\ @V mKsxa', $2 = '99902'",,,,,,,,""
2017-04-14 14:37:42.790 EDT,"postgres","epinions",26552,"127.0.0.1:51180",58f116ec.67b8,17,"COMMIT",2017-04-14 14:37:32 EDT,8/8,114322,LOG,00000,"execute S_1: COMMIT",,,,,,,,,""
2017-04-14 14:37:42.836 EDT,"postgres","epinions",26556,"127.0.0.1:51184",58f116ec.67bc,19,"COMMIT",2017-04-14 14:37:32 EDT,12/8,0,LOG,00000,"execute S_1: COMMIT",,,,,,,,,""
2017-04-14 14:37:42.839 EDT,"postgres","epinions",26550,"127.0.0.1:51178",58f116ec.67b6,17,"COMMIT",2017-04-14 14:37:32 EDT,6/8,0,LOG,00000,"execute S_1: COMMIT",,,,,,,,,""
2017-04-14 14:37:42.889 EDT,"postgres","epinions",26549,"127.0.0.1:51177",58f116ec.67b5,16,"BEGIN",2017-04-14 14:37:32 EDT,5/8,0,LOG,00000,"execute <unnamed>: BEGIN",,,,,,,,,""
2017-04-14 14:37:42.889 EDT,"postgres","epinions",26549,"127.0.0.1:51177",58f116ec.67b5,17,"UPDATE",2017-04-14 14:37:32 EDT,5/8,0,LOG,00000,"execute <unnamed>: UPDATE trust SET trust = $1 WHERE source_u_id=$2 AND target_u_id=$3","parameters: $1 = '1', $2 = '172462', $3 = '30224'",,,,,,,,""
2017-04-14 14:37:42.937 EDT,"postgres","epinions",26560,"127.0.0.1:51188",58f116ec.67c0,21,"COMMIT",2017-04-14 14:37:32 EDT,16/9,0,LOG,00000,"execute S_1: COMMIT",,,,,,,,,""
2017-04-14 14:37:42.989 EDT,"postgres","epinions",26565,"127.0.0.1:51193",58f116ec.67c5,19,"BEGIN",2017-04-14 14:37:32 EDT,21/9,0,LOG,00000,"execute <unnamed>: BEGIN",,,,,,,,,""
2017-04-14 14:37:42.990 EDT,"postgres","epinions",26565,"127.0.0.1:51193",58f116ec.67c5,20,"SELECT",2017-04-14 14:37:32 EDT,21/9,0,LOG,00000,"execute <unnamed>: SELECT * FROM review r, item i WHERE i.i_id = r.i_id and r.i_id=$1 ORDER BY rating LIMIT 10","parameters: $1 = '86307'",,,,,,,,""
2017-04-14 14:37:43.041 EDT,"postgres","epinions",26549,"127.0.0.1:51177",58f116ec.67b5,18,"COMMIT",2017-04-14 14:37:32 EDT,5/8,0,LOG,00000,"execute S_1: COMMIT",,,,,,,,,""
2017-04-14 14:37:43.440 EDT,"postgres","epinions",26555,"127.0.0.1:51183",58f116ec.67bb,19,"COMMIT",2017-04-14 14:37:32 EDT,11/8,0,LOG,00000,"execute S_1: COMMIT",,,,,,,,,""
2017-04-14 14:37:43.453 EDT,"postgres","epinions",26565,"127.0.0.1:51193",58f116ec.67c5,21,"COMMIT",2017-04-14 14:37:32 EDT,21/9,0,LOG,00000,"execute S_1: COMMIT",,,,,,,,,""
