2017-04-17 20:08:12.284 EDT,,,28509,,58f558ec.6f5d,1,,2017-04-17 20:08:12 EDT,,0,LOG,00000,"ending log output to stderr",,"Future log output will go to log destination ""csvlog"".",,,,,,,""
2017-04-17 20:08:12.285 EDT,,,28511,,58f558ec.6f5f,1,,2017-04-17 20:08:12 EDT,,0,LOG,00000,"database system was shut down at 2017-04-17 20:08:11 EDT",,,,,,,,,""
2017-04-17 20:08:12.287 EDT,,,28511,,58f558ec.6f5f,2,,2017-04-17 20:08:12 EDT,,0,LOG,00000,"MultiXact member wraparound protections are now enabled",,,,,,,,,""
2017-04-17 20:08:12.289 EDT,,,28509,,58f558ec.6f5d,2,,2017-04-17 20:08:12 EDT,,0,LOG,00000,"database system is ready to accept connections",,,,,,,,,""
2017-04-17 20:08:12.289 EDT,,,28515,,58f558ec.6f63,1,,2017-04-17 20:08:12 EDT,,0,LOG,00000,"autovacuum launcher started",,,,,,,,,""
2017-04-17 20:08:12.769 EDT,,,28517,"[local]",58f558ec.6f65,1,"",2017-04-17 20:08:12 EDT,,0,LOG,08P01,"incomplete startup packet",,,,,,,,,""
2017-04-17 20:08:13.288 EDT,"postgres","postgres",28520,"[local]",58f558ed.6f68,1,"idle",2017-04-17 20:08:13 EDT,2/2,0,LOG,00000,"statement: SELECT d.datname as ""Name"",
       pg_catalog.pg_get_userbyid(d.datdba) as ""Owner"",
       pg_catalog.pg_encoding_to_char(d.encoding) as ""Encoding"",
       d.datcollate as ""Collate"",
       d.datctype as ""Ctype"",
       pg_catalog.array_to_string(d.datacl, E'\n') AS ""Access privileges""
FROM pg_catalog.pg_database d
ORDER BY 1;",,,,,,,,,"psql"
2017-04-17 20:08:13.802 EDT,"postgres","postgres",28523,"[local]",58f558ed.6f6b,1,"idle",2017-04-17 20:08:13 EDT,2/4,0,LOG,00000,"statement: SELECT d.datname as ""Name"",
       pg_catalog.pg_get_userbyid(d.datdba) as ""Owner"",
       pg_catalog.pg_encoding_to_char(d.encoding) as ""Encoding"",
       d.datcollate as ""Collate"",
       d.datctype as ""Ctype"",
       pg_catalog.array_to_string(d.datacl, E'\n') AS ""Access privileges""
FROM pg_catalog.pg_database d
ORDER BY 1;",,,,,,,,,"psql"
2017-04-17 20:08:14.317 EDT,"postgres","postgres",28526,"[local]",58f558ee.6f6e,1,"idle",2017-04-17 20:08:14 EDT,2/6,0,LOG,00000,"statement: SELECT d.datname as ""Name"",
       pg_catalog.pg_get_userbyid(d.datdba) as ""Owner"",
       pg_catalog.pg_encoding_to_char(d.encoding) as ""Encoding"",
       d.datcollate as ""Collate"",
       d.datctype as ""Ctype"",
       pg_catalog.array_to_string(d.datacl, E'\n') AS ""Access privileges""
FROM pg_catalog.pg_database d
ORDER BY 1;",,,,,,,,,"psql"
2017-04-17 20:08:29.430 EDT,"postgres","epinions",28553,"127.0.0.1:33835",58f558fd.6f89,1,"SET",2017-04-17 20:08:29 EDT,2/8,0,LOG,00000,"execute <unnamed>: SET extra_float_digits = 3",,,,,,,,,""
2017-04-17 20:08:29.449 EDT,"postgres","epinions",28553,"127.0.0.1:33835",58f558fd.6f89,2,"SELECT",2017-04-17 20:08:29 EDT,2/9,0,LOG,00000,"execute <unnamed>: SELECT u_id FROM ""user""",,,,,,,,,""
2017-04-17 20:08:29.629 EDT,"postgres","epinions",28553,"127.0.0.1:33835",58f558fd.6f89,3,"SELECT",2017-04-17 20:08:29 EDT,2/10,0,LOG,00000,"execute <unnamed>: SELECT i_id FROM ""item""",,,,,,,,,""
2017-04-17 20:08:29.717 EDT,"postgres","epinions",28554,"127.0.0.1:33836",58f558fd.6f8a,1,"SET",2017-04-17 20:08:29 EDT,2/12,0,LOG,00000,"execute <unnamed>: SET extra_float_digits = 3",,,,,,,,,""
2017-04-17 20:08:29.720 EDT,"postgres","epinions",28554,"127.0.0.1:33836",58f558fd.6f8a,2,"SET",2017-04-17 20:08:29 EDT,2/13,0,LOG,00000,"execute <unnamed>: SET SESSION CHARACTERISTICS AS TRANSACTION ISOLATION LEVEL READ COMMITTED",,,,,,,,,""
2017-04-17 20:08:29.726 EDT,"postgres","epinions",28555,"127.0.0.1:33837",58f558fd.6f8b,1,"SET",2017-04-17 20:08:29 EDT,3/2,0,LOG,00000,"execute <unnamed>: SET extra_float_digits = 3",,,,,,,,,""
2017-04-17 20:08:29.727 EDT,"postgres","epinions",28555,"127.0.0.1:33837",58f558fd.6f8b,2,"SET",2017-04-17 20:08:29 EDT,3/3,0,LOG,00000,"execute <unnamed>: SET SESSION CHARACTERISTICS AS TRANSACTION ISOLATION LEVEL READ COMMITTED",,,,,,,,,""
2017-04-17 20:08:29.730 EDT,"postgres","epinions",28556,"127.0.0.1:33838",58f558fd.6f8c,1,"SET",2017-04-17 20:08:29 EDT,4/2,0,LOG,00000,"execute <unnamed>: SET extra_float_digits = 3",,,,,,,,,""
2017-04-17 20:08:29.731 EDT,"postgres","epinions",28556,"127.0.0.1:33838",58f558fd.6f8c,2,"SET",2017-04-17 20:08:29 EDT,4/3,0,LOG,00000,"execute <unnamed>: SET SESSION CHARACTERISTICS AS TRANSACTION ISOLATION LEVEL READ COMMITTED",,,,,,,,,""
2017-04-17 20:08:29.734 EDT,"postgres","epinions",28557,"127.0.0.1:33839",58f558fd.6f8d,1,"SET",2017-04-17 20:08:29 EDT,5/2,0,LOG,00000,"execute <unnamed>: SET extra_float_digits = 3",,,,,,,,,""
2017-04-17 20:08:29.735 EDT,"postgres","epinions",28557,"127.0.0.1:33839",58f558fd.6f8d,2,"SET",2017-04-17 20:08:29 EDT,5/3,0,LOG,00000,"execute <unnamed>: SET SESSION CHARACTERISTICS AS TRANSACTION ISOLATION LEVEL READ COMMITTED",,,,,,,,,""
2017-04-17 20:08:29.738 EDT,"postgres","epinions",28558,"127.0.0.1:33840",58f558fd.6f8e,1,"SET",2017-04-17 20:08:29 EDT,6/2,0,LOG,00000,"execute <unnamed>: SET extra_float_digits = 3",,,,,,,,,""
2017-04-17 20:08:29.738 EDT,"postgres","epinions",28558,"127.0.0.1:33840",58f558fd.6f8e,2,"SET",2017-04-17 20:08:29 EDT,6/3,0,LOG,00000,"execute <unnamed>: SET SESSION CHARACTERISTICS AS TRANSACTION ISOLATION LEVEL READ COMMITTED",,,,,,,,,""
2017-04-17 20:08:29.741 EDT,"postgres","epinions",28559,"127.0.0.1:33841",58f558fd.6f8f,1,"SET",2017-04-17 20:08:29 EDT,7/2,0,LOG,00000,"execute <unnamed>: SET extra_float_digits = 3",,,,,,,,,""
2017-04-17 20:08:29.742 EDT,"postgres","epinions",28559,"127.0.0.1:33841",58f558fd.6f8f,2,"SET",2017-04-17 20:08:29 EDT,7/3,0,LOG,00000,"execute <unnamed>: SET SESSION CHARACTERISTICS AS TRANSACTION ISOLATION LEVEL READ COMMITTED",,,,,,,,,""
2017-04-17 20:08:29.745 EDT,"postgres","epinions",28560,"127.0.0.1:33842",58f558fd.6f90,1,"SET",2017-04-17 20:08:29 EDT,8/2,0,LOG,00000,"execute <unnamed>: SET extra_float_digits = 3",,,,,,,,,""
2017-04-17 20:08:29.745 EDT,"postgres","epinions",28560,"127.0.0.1:33842",58f558fd.6f90,2,"SET",2017-04-17 20:08:29 EDT,8/3,0,LOG,00000,"execute <unnamed>: SET SESSION CHARACTERISTICS AS TRANSACTION ISOLATION LEVEL READ COMMITTED",,,,,,,,,""
2017-04-17 20:08:29.750 EDT,"postgres","epinions",28561,"127.0.0.1:33843",58f558fd.6f91,1,"SET",2017-04-17 20:08:29 EDT,9/2,0,LOG,00000,"execute <unnamed>: SET extra_float_digits = 3",,,,,,,,,""
2017-04-17 20:08:29.751 EDT,"postgres","epinions",28561,"127.0.0.1:33843",58f558fd.6f91,2,"SET",2017-04-17 20:08:29 EDT,9/3,0,LOG,00000,"execute <unnamed>: SET SESSION CHARACTERISTICS AS TRANSACTION ISOLATION LEVEL READ COMMITTED",,,,,,,,,""
2017-04-17 20:08:29.755 EDT,"postgres","epinions",28562,"127.0.0.1:33844",58f558fd.6f92,1,"SET",2017-04-17 20:08:29 EDT,10/2,0,LOG,00000,"execute <unnamed>: SET extra_float_digits = 3",,,,,,,,,""
2017-04-17 20:08:29.757 EDT,"postgres","epinions",28562,"127.0.0.1:33844",58f558fd.6f92,2,"SET",2017-04-17 20:08:29 EDT,10/3,0,LOG,00000,"execute <unnamed>: SET SESSION CHARACTERISTICS AS TRANSACTION ISOLATION LEVEL READ COMMITTED",,,,,,,,,""
2017-04-17 20:08:29.763 EDT,"postgres","epinions",28563,"127.0.0.1:33845",58f558fd.6f93,1,"SET",2017-04-17 20:08:29 EDT,11/2,0,LOG,00000,"execute <unnamed>: SET extra_float_digits = 3",,,,,,,,,""
2017-04-17 20:08:29.764 EDT,"postgres","epinions",28563,"127.0.0.1:33845",58f558fd.6f93,2,"SET",2017-04-17 20:08:29 EDT,11/3,0,LOG,00000,"execute <unnamed>: SET SESSION CHARACTERISTICS AS TRANSACTION ISOLATION LEVEL READ COMMITTED",,,,,,,,,""
2017-04-17 20:08:29.771 EDT,"postgres","epinions",28564,"127.0.0.1:33846",58f558fd.6f94,1,"SET",2017-04-17 20:08:29 EDT,12/2,0,LOG,00000,"execute <unnamed>: SET extra_float_digits = 3",,,,,,,,,""
2017-04-17 20:08:29.772 EDT,"postgres","epinions",28564,"127.0.0.1:33846",58f558fd.6f94,2,"SET",2017-04-17 20:08:29 EDT,12/3,0,LOG,00000,"execute <unnamed>: SET SESSION CHARACTERISTICS AS TRANSACTION ISOLATION LEVEL READ COMMITTED",,,,,,,,,""
2017-04-17 20:08:29.775 EDT,"postgres","epinions",28565,"127.0.0.1:33847",58f558fd.6f95,1,"SET",2017-04-17 20:08:29 EDT,13/2,0,LOG,00000,"execute <unnamed>: SET extra_float_digits = 3",,,,,,,,,""
2017-04-17 20:08:29.776 EDT,"postgres","epinions",28565,"127.0.0.1:33847",58f558fd.6f95,2,"SET",2017-04-17 20:08:29 EDT,13/3,0,LOG,00000,"execute <unnamed>: SET SESSION CHARACTERISTICS AS TRANSACTION ISOLATION LEVEL READ COMMITTED",,,,,,,,,""
2017-04-17 20:08:29.779 EDT,"postgres","epinions",28566,"127.0.0.1:33848",58f558fd.6f96,1,"SET",2017-04-17 20:08:29 EDT,14/2,0,LOG,00000,"execute <unnamed>: SET extra_float_digits = 3",,,,,,,,,""
2017-04-17 20:08:29.779 EDT,"postgres","epinions",28566,"127.0.0.1:33848",58f558fd.6f96,2,"SET",2017-04-17 20:08:29 EDT,14/3,0,LOG,00000,"execute <unnamed>: SET SESSION CHARACTERISTICS AS TRANSACTION ISOLATION LEVEL READ COMMITTED",,,,,,,,,""
2017-04-17 20:08:29.782 EDT,"postgres","epinions",28567,"127.0.0.1:33849",58f558fd.6f97,1,"SET",2017-04-17 20:08:29 EDT,15/2,0,LOG,00000,"execute <unnamed>: SET extra_float_digits = 3",,,,,,,,,""
2017-04-17 20:08:29.783 EDT,"postgres","epinions",28567,"127.0.0.1:33849",58f558fd.6f97,2,"SET",2017-04-17 20:08:29 EDT,15/3,0,LOG,00000,"execute <unnamed>: SET SESSION CHARACTERISTICS AS TRANSACTION ISOLATION LEVEL READ COMMITTED",,,,,,,,,""
2017-04-17 20:08:29.786 EDT,"postgres","epinions",28568,"127.0.0.1:33850",58f558fd.6f98,1,"SET",2017-04-17 20:08:29 EDT,16/2,0,LOG,00000,"execute <unnamed>: SET extra_float_digits = 3",,,,,,,,,""
2017-04-17 20:08:29.787 EDT,"postgres","epinions",28568,"127.0.0.1:33850",58f558fd.6f98,2,"SET",2017-04-17 20:08:29 EDT,16/3,0,LOG,00000,"execute <unnamed>: SET SESSION CHARACTERISTICS AS TRANSACTION ISOLATION LEVEL READ COMMITTED",,,,,,,,,""
2017-04-17 20:08:29.790 EDT,"postgres","epinions",28569,"127.0.0.1:33851",58f558fd.6f99,1,"SET",2017-04-17 20:08:29 EDT,17/2,0,LOG,00000,"execute <unnamed>: SET extra_float_digits = 3",,,,,,,,,""
2017-04-17 20:08:29.795 EDT,"postgres","epinions",28569,"127.0.0.1:33851",58f558fd.6f99,2,"SET",2017-04-17 20:08:29 EDT,17/3,0,LOG,00000,"execute <unnamed>: SET SESSION CHARACTERISTICS AS TRANSACTION ISOLATION LEVEL READ COMMITTED",,,,,,,,,""
2017-04-17 20:08:29.803 EDT,"postgres","epinions",28570,"127.0.0.1:33852",58f558fd.6f9a,1,"SET",2017-04-17 20:08:29 EDT,18/2,0,LOG,00000,"execute <unnamed>: SET extra_float_digits = 3",,,,,,,,,""
2017-04-17 20:08:29.804 EDT,"postgres","epinions",28570,"127.0.0.1:33852",58f558fd.6f9a,2,"SET",2017-04-17 20:08:29 EDT,18/3,0,LOG,00000,"execute <unnamed>: SET SESSION CHARACTERISTICS AS TRANSACTION ISOLATION LEVEL READ COMMITTED",,,,,,,,,""
2017-04-17 20:08:29.808 EDT,"postgres","epinions",28571,"127.0.0.1:33853",58f558fd.6f9b,1,"SET",2017-04-17 20:08:29 EDT,19/2,0,LOG,00000,"execute <unnamed>: SET extra_float_digits = 3",,,,,,,,,""
2017-04-17 20:08:29.809 EDT,"postgres","epinions",28571,"127.0.0.1:33853",58f558fd.6f9b,2,"SET",2017-04-17 20:08:29 EDT,19/3,0,LOG,00000,"execute <unnamed>: SET SESSION CHARACTERISTICS AS TRANSACTION ISOLATION LEVEL READ COMMITTED",,,,,,,,,""
2017-04-17 20:08:29.812 EDT,"postgres","epinions",28572,"127.0.0.1:33854",58f558fd.6f9c,1,"SET",2017-04-17 20:08:29 EDT,20/2,0,LOG,00000,"execute <unnamed>: SET extra_float_digits = 3",,,,,,,,,""
2017-04-17 20:08:29.813 EDT,"postgres","epinions",28572,"127.0.0.1:33854",58f558fd.6f9c,2,"SET",2017-04-17 20:08:29 EDT,20/3,0,LOG,00000,"execute <unnamed>: SET SESSION CHARACTERISTICS AS TRANSACTION ISOLATION LEVEL READ COMMITTED",,,,,,,,,""
2017-04-17 20:08:29.816 EDT,"postgres","epinions",28573,"127.0.0.1:33855",58f558fd.6f9d,1,"SET",2017-04-17 20:08:29 EDT,21/2,0,LOG,00000,"execute <unnamed>: SET extra_float_digits = 3",,,,,,,,,""
2017-04-17 20:08:29.817 EDT,"postgres","epinions",28573,"127.0.0.1:33855",58f558fd.6f9d,2,"SET",2017-04-17 20:08:29 EDT,21/3,0,LOG,00000,"execute <unnamed>: SET SESSION CHARACTERISTICS AS TRANSACTION ISOLATION LEVEL READ COMMITTED",,,,,,,,,""
2017-04-17 20:08:29.987 EDT,"postgres","epinions",28573,"127.0.0.1:33855",58f558fd.6f9d,3,"BEGIN",2017-04-17 20:08:29 EDT,21/4,0,LOG,00000,"execute <unnamed>: BEGIN",,,,,,,,,""
2017-04-17 20:08:29.987 EDT,"postgres","epinions",28573,"127.0.0.1:33855",58f558fd.6f9d,4,"UPDATE",2017-04-17 20:08:29 EDT,21/4,0,LOG,00000,"execute <unnamed>: UPDATE trust SET trust = $1 WHERE source_u_id=$2 AND target_u_id=$3","parameters: $1 = '0', $2 = '83888', $3 = '9825'",,,,,,,,""
2017-04-17 20:08:30.036 EDT,"postgres","epinions",28572,"127.0.0.1:33854",58f558fd.6f9c,3,"BEGIN",2017-04-17 20:08:29 EDT,20/4,0,LOG,00000,"execute <unnamed>: BEGIN",,,,,,,,,""
2017-04-17 20:08:30.036 EDT,"postgres","epinions",28572,"127.0.0.1:33854",58f558fd.6f9c,4,"UPDATE",2017-04-17 20:08:29 EDT,20/4,0,LOG,00000,"execute <unnamed>: UPDATE review SET rating = $1 WHERE i_id=$2 AND u_id=$3","parameters: $1 = '746', $2 = '53387', $3 = '124331'",,,,,,,,""
2017-04-17 20:08:30.085 EDT,"postgres","epinions",28571,"127.0.0.1:33853",58f558fd.6f9b,3,"BEGIN",2017-04-17 20:08:29 EDT,19/4,0,LOG,00000,"execute <unnamed>: BEGIN",,,,,,,,,""
2017-04-17 20:08:30.086 EDT,"postgres","epinions",28571,"127.0.0.1:33853",58f558fd.6f9b,4,"SELECT",2017-04-17 20:08:29 EDT,19/4,0,LOG,00000,"execute <unnamed>: SELECT avg(rating) FROM review r WHERE r.i_id=$1","parameters: $1 = '22025'",,,,,,,,""
2017-04-17 20:08:30.124 EDT,"postgres","epinions",28573,"127.0.0.1:33855",58f558fd.6f9d,5,"COMMIT",2017-04-17 20:08:29 EDT,21/4,0,LOG,00000,"execute S_1: COMMIT",,,,,,,,,""
2017-04-17 20:08:30.137 EDT,"postgres","epinions",28569,"127.0.0.1:33851",58f558fd.6f99,3,"BEGIN",2017-04-17 20:08:29 EDT,17/4,0,LOG,00000,"execute <unnamed>: BEGIN",,,,,,,,,""
2017-04-17 20:08:30.137 EDT,"postgres","epinions",28569,"127.0.0.1:33851",58f558fd.6f99,4,"UPDATE",2017-04-17 20:08:29 EDT,17/4,0,LOG,00000,"execute <unnamed>: UPDATE item SET title = $1 WHERE i_id=$2","parameters: $1 = 'KvnjHdhv^dZwshRDHpx=', $2 = '98274'",,,,,,,,""
2017-04-17 20:08:30.167 EDT,"postgres","epinions",28569,"127.0.0.1:33851",58f558fd.6f99,5,"COMMIT",2017-04-17 20:08:29 EDT,17/4,21274,LOG,00000,"execute S_1: COMMIT",,,,,,,,,""
2017-04-17 20:08:30.185 EDT,"postgres","epinions",28568,"127.0.0.1:33850",58f558fd.6f98,3,"BEGIN",2017-04-17 20:08:29 EDT,16/4,0,LOG,00000,"execute <unnamed>: BEGIN",,,,,,,,,""
2017-04-17 20:08:30.186 EDT,"postgres","epinions",28568,"127.0.0.1:33850",58f558fd.6f98,4,"UPDATE",2017-04-17 20:08:29 EDT,16/4,0,LOG,00000,"execute <unnamed>: UPDATE trust SET trust = $1 WHERE source_u_id=$2 AND target_u_id=$3","parameters: $1 = '0', $2 = '24614', $3 = '8514'",,,,,,,,""
2017-04-17 20:08:30.235 EDT,"postgres","epinions",28570,"127.0.0.1:33852",58f558fd.6f9a,3,"BEGIN",2017-04-17 20:08:29 EDT,18/4,0,LOG,00000,"execute <unnamed>: BEGIN",,,,,,,,,""
2017-04-17 20:08:30.236 EDT,"postgres","epinions",28570,"127.0.0.1:33852",58f558fd.6f9a,4,"UPDATE",2017-04-17 20:08:29 EDT,18/4,0,LOG,00000,"execute <unnamed>: UPDATE item SET title = $1 WHERE i_id=$2","parameters: $1 = 'dzQ7,1@o &$Op76FJy p', $2 = '36398'",,,,,,,,""
2017-04-17 20:08:30.268 EDT,"postgres","epinions",28570,"127.0.0.1:33852",58f558fd.6f9a,5,"COMMIT",2017-04-17 20:08:29 EDT,18/4,21275,LOG,00000,"execute S_1: COMMIT",,,,,,,,,""
2017-04-17 20:08:30.285 EDT,"postgres","epinions",28558,"127.0.0.1:33840",58f558fd.6f8e,3,"BEGIN",2017-04-17 20:08:29 EDT,6/4,0,LOG,00000,"execute <unnamed>: BEGIN",,,,,,,,,""
2017-04-17 20:08:30.285 EDT,"postgres","epinions",28558,"127.0.0.1:33840",58f558fd.6f8e,4,"UPDATE",2017-04-17 20:08:29 EDT,6/4,0,LOG,00000,"execute <unnamed>: UPDATE ""user"" SET name = $1 WHERE u_id=$2","parameters: $1 = '0^p,2', $2 = '102610'",,,,,,,,""
2017-04-17 20:08:30.331 EDT,"postgres","epinions",28558,"127.0.0.1:33840",58f558fd.6f8e,5,"COMMIT",2017-04-17 20:08:29 EDT,6/4,21276,LOG,00000,"execute S_1: COMMIT",,,,,,,,,""
2017-04-17 20:08:30.335 EDT,"postgres","epinions",28564,"127.0.0.1:33846",58f558fd.6f94,3,"BEGIN",2017-04-17 20:08:29 EDT,12/4,0,LOG,00000,"execute <unnamed>: BEGIN",,,,,,,,,""
2017-04-17 20:08:30.335 EDT,"postgres","epinions",28564,"127.0.0.1:33846",58f558fd.6f94,4,"UPDATE",2017-04-17 20:08:29 EDT,12/4,0,LOG,00000,"execute <unnamed>: UPDATE trust SET trust = $1 WHERE source_u_id=$2 AND target_u_id=$3","parameters: $1 = '1', $2 = '184763', $3 = '94681'",,,,,,,,""
2017-04-17 20:08:30.346 EDT,"postgres","epinions",28572,"127.0.0.1:33854",58f558fd.6f9c,5,"COMMIT",2017-04-17 20:08:29 EDT,20/4,0,LOG,00000,"execute S_1: COMMIT",,,,,,,,,""
2017-04-17 20:08:30.385 EDT,"postgres","epinions",28554,"127.0.0.1:33836",58f558fd.6f8a,3,"BEGIN",2017-04-17 20:08:29 EDT,2/14,0,LOG,00000,"execute <unnamed>: BEGIN",,,,,,,,,""
2017-04-17 20:08:30.386 EDT,"postgres","epinions",28554,"127.0.0.1:33836",58f558fd.6f8a,4,"UPDATE",2017-04-17 20:08:29 EDT,2/14,0,LOG,00000,"execute <unnamed>: UPDATE ""user"" SET name = $1 WHERE u_id=$2","parameters: $1 = '?1\]V', $2 = '136587'",,,,,,,,""
2017-04-17 20:08:30.417 EDT,"postgres","epinions",28568,"127.0.0.1:33850",58f558fd.6f98,5,"COMMIT",2017-04-17 20:08:29 EDT,16/4,0,LOG,00000,"execute S_1: COMMIT",,,,,,,,,""
2017-04-17 20:08:30.425 EDT,"postgres","epinions",28554,"127.0.0.1:33836",58f558fd.6f8a,5,"COMMIT",2017-04-17 20:08:29 EDT,2/14,21277,LOG,00000,"execute S_1: COMMIT",,,,,,,,,""
2017-04-17 20:08:30.428 EDT,"postgres","epinions",28571,"127.0.0.1:33853",58f558fd.6f9b,5,"COMMIT",2017-04-17 20:08:29 EDT,19/4,0,LOG,00000,"execute S_1: COMMIT",,,,,,,,,""
2017-04-17 20:08:30.435 EDT,"postgres","epinions",28559,"127.0.0.1:33841",58f558fd.6f8f,3,"BEGIN",2017-04-17 20:08:29 EDT,7/4,0,LOG,00000,"execute <unnamed>: BEGIN",,,,,,,,,""
2017-04-17 20:08:30.437 EDT,"postgres","epinions",28559,"127.0.0.1:33841",58f558fd.6f8f,4,"SELECT",2017-04-17 20:08:29 EDT,7/4,0,LOG,00000,"execute <unnamed>: SELECT avg(rating) FROM review r, trust t WHERE r.u_id=t.target_u_id AND r.i_id=$1 AND t.source_u_id=$2","parameters: $1 = '25485', $2 = '9714'",,,,,,,,""
2017-04-17 20:08:30.485 EDT,"postgres","epinions",28563,"127.0.0.1:33845",58f558fd.6f93,3,"BEGIN",2017-04-17 20:08:29 EDT,11/4,0,LOG,00000,"execute <unnamed>: BEGIN",,,,,,,,,""
2017-04-17 20:08:30.486 EDT,"postgres","epinions",28563,"127.0.0.1:33845",58f558fd.6f93,4,"UPDATE",2017-04-17 20:08:29 EDT,11/4,0,LOG,00000,"execute <unnamed>: UPDATE review SET rating = $1 WHERE i_id=$2 AND u_id=$3","parameters: $1 = '592', $2 = '31376', $3 = '65962'",,,,,,,,""
2017-04-17 20:08:30.535 EDT,"postgres","epinions",28555,"127.0.0.1:33837",58f558fd.6f8b,3,"BEGIN",2017-04-17 20:08:29 EDT,3/4,0,LOG,00000,"execute <unnamed>: BEGIN",,,,,,,,,""
2017-04-17 20:08:30.537 EDT,"postgres","epinions",28555,"127.0.0.1:33837",58f558fd.6f8b,4,"SELECT",2017-04-17 20:08:29 EDT,3/4,0,LOG,00000,"execute <unnamed>: SELECT * FROM review r, item i WHERE i.i_id = r.i_id and r.i_id=$1 ORDER BY rating LIMIT 10","parameters: $1 = '67088'",,,,,,,,""
2017-04-17 20:08:30.555 EDT,"postgres","epinions",28564,"127.0.0.1:33846",58f558fd.6f94,5,"COMMIT",2017-04-17 20:08:29 EDT,12/4,0,LOG,00000,"execute S_1: COMMIT",,,,,,,,,""
2017-04-17 20:08:30.584 EDT,"postgres","epinions",28561,"127.0.0.1:33843",58f558fd.6f91,3,"BEGIN",2017-04-17 20:08:29 EDT,9/4,0,LOG,00000,"execute <unnamed>: BEGIN",,,,,,,,,""
2017-04-17 20:08:30.585 EDT,"postgres","epinions",28561,"127.0.0.1:33843",58f558fd.6f91,4,"SELECT",2017-04-17 20:08:29 EDT,9/4,0,LOG,00000,"execute <unnamed>: SELECT avg(rating) FROM review r WHERE r.i_id=$1","parameters: $1 = '50100'",,,,,,,,""
2017-04-17 20:08:30.635 EDT,"postgres","epinions",28562,"127.0.0.1:33844",58f558fd.6f92,3,"BEGIN",2017-04-17 20:08:29 EDT,10/4,0,LOG,00000,"execute <unnamed>: BEGIN",,,,,,,,,""
2017-04-17 20:08:30.637 EDT,"postgres","epinions",28562,"127.0.0.1:33844",58f558fd.6f92,4,"SELECT",2017-04-17 20:08:29 EDT,10/4,0,LOG,00000,"execute <unnamed>: SELECT * FROM review r, item i WHERE i.i_id = r.i_id and r.i_id=$1 ORDER BY rating LIMIT 10","parameters: $1 = '3470'",,,,,,,,""
2017-04-17 20:08:30.685 EDT,"postgres","epinions",28557,"127.0.0.1:33839",58f558fd.6f8d,3,"BEGIN",2017-04-17 20:08:29 EDT,5/4,0,LOG,00000,"execute <unnamed>: BEGIN",,,,,,,,,""
2017-04-17 20:08:30.686 EDT,"postgres","epinions",28557,"127.0.0.1:33839",58f558fd.6f8d,4,"UPDATE",2017-04-17 20:08:29 EDT,5/4,0,LOG,00000,"execute <unnamed>: UPDATE review SET rating = $1 WHERE i_id=$2 AND u_id=$3","parameters: $1 = '647', $2 = '72110', $3 = '181008'",,,,,,,,""
2017-04-17 20:08:30.735 EDT,"postgres","epinions",28560,"127.0.0.1:33842",58f558fd.6f90,3,"BEGIN",2017-04-17 20:08:29 EDT,8/4,0,LOG,00000,"execute <unnamed>: BEGIN",,,,,,,,,""
2017-04-17 20:08:30.736 EDT,"postgres","epinions",28560,"127.0.0.1:33842",58f558fd.6f90,4,"UPDATE",2017-04-17 20:08:29 EDT,8/4,0,LOG,00000,"execute <unnamed>: UPDATE trust SET trust = $1 WHERE source_u_id=$2 AND target_u_id=$3","parameters: $1 = '0', $2 = '111972', $3 = '94843'",,,,,,,,""
2017-04-17 20:08:30.785 EDT,"postgres","epinions",28567,"127.0.0.1:33849",58f558fd.6f97,3,"BEGIN",2017-04-17 20:08:29 EDT,15/4,0,LOG,00000,"execute <unnamed>: BEGIN",,,,,,,,,""
2017-04-17 20:08:30.786 EDT,"postgres","epinions",28567,"127.0.0.1:33849",58f558fd.6f97,4,"SELECT",2017-04-17 20:08:29 EDT,15/4,0,LOG,00000,"execute <unnamed>: SELECT avg(rating) FROM review r WHERE r.i_id=$1","parameters: $1 = '94120'",,,,,,,,""
2017-04-17 20:08:30.835 EDT,"postgres","epinions",28556,"127.0.0.1:33838",58f558fd.6f8c,3,"BEGIN",2017-04-17 20:08:29 EDT,4/4,0,LOG,00000,"execute <unnamed>: BEGIN",,,,,,,,,""
2017-04-17 20:08:30.837 EDT,"postgres","epinions",28556,"127.0.0.1:33838",58f558fd.6f8c,4,"SELECT",2017-04-17 20:08:29 EDT,4/4,0,LOG,00000,"execute <unnamed>: SELECT * FROM review r, ""user"" u WHERE u.u_id = r.u_id AND r.u_id=$1  ORDER BY rating LIMIT 10","parameters: $1 = '41603'",,,,,,,,""
2017-04-17 20:08:30.884 EDT,"postgres","epinions",28565,"127.0.0.1:33847",58f558fd.6f95,3,"BEGIN",2017-04-17 20:08:29 EDT,13/4,0,LOG,00000,"execute <unnamed>: BEGIN",,,,,,,,,""
2017-04-17 20:08:30.885 EDT,"postgres","epinions",28565,"127.0.0.1:33847",58f558fd.6f95,4,"SELECT",2017-04-17 20:08:29 EDT,13/4,0,LOG,00000,"execute <unnamed>: SELECT * FROM review r WHERE r.i_id=$1","parameters: $1 = '71242'",,,,,,,,""
2017-04-17 20:08:30.935 EDT,"postgres","epinions",28566,"127.0.0.1:33848",58f558fd.6f96,3,"BEGIN",2017-04-17 20:08:29 EDT,14/4,0,LOG,00000,"execute <unnamed>: BEGIN",,,,,,,,,""
2017-04-17 20:08:30.936 EDT,"postgres","epinions",28566,"127.0.0.1:33848",58f558fd.6f96,4,"SELECT",2017-04-17 20:08:29 EDT,14/4,0,LOG,00000,"execute <unnamed>: SELECT * FROM review r, ""user"" u WHERE u.u_id = r.u_id AND r.u_id=$1 ORDER BY rating LIMIT 10","parameters: $1 = '1733'",,,,,,,,""
2017-04-17 20:08:30.985 EDT,"postgres","epinions",28573,"127.0.0.1:33855",58f558fd.6f9d,6,"BEGIN",2017-04-17 20:08:29 EDT,21/5,0,LOG,00000,"execute <unnamed>: BEGIN",,,,,,,,,""
2017-04-17 20:08:30.985 EDT,"postgres","epinions",28573,"127.0.0.1:33855",58f558fd.6f9d,7,"UPDATE",2017-04-17 20:08:29 EDT,21/5,0,LOG,00000,"execute <unnamed>: UPDATE ""user"" SET name = $1 WHERE u_id=$2","parameters: $1 = 'F7F''s', $2 = '151715'",,,,,,,,""
2017-04-17 20:08:31.035 EDT,"postgres","epinions",28569,"127.0.0.1:33851",58f558fd.6f99,6,"BEGIN",2017-04-17 20:08:29 EDT,17/5,0,LOG,00000,"execute <unnamed>: BEGIN",,,,,,,,,""
2017-04-17 20:08:31.035 EDT,"postgres","epinions",28569,"127.0.0.1:33851",58f558fd.6f99,7,"UPDATE",2017-04-17 20:08:29 EDT,17/5,0,LOG,00000,"execute <unnamed>: UPDATE trust SET trust = $1 WHERE source_u_id=$2 AND target_u_id=$3","parameters: $1 = '1', $2 = '9553', $3 = '153370'",,,,,,,,""
2017-04-17 20:08:31.086 EDT,"postgres","epinions",28570,"127.0.0.1:33852",58f558fd.6f9a,6,"BEGIN",2017-04-17 20:08:29 EDT,18/5,0,LOG,00000,"execute <unnamed>: BEGIN",,,,,,,,,""
2017-04-17 20:08:31.087 EDT,"postgres","epinions",28570,"127.0.0.1:33852",58f558fd.6f9a,7,"SELECT",2017-04-17 20:08:29 EDT,18/5,0,LOG,00000,"execute <unnamed>: SELECT avg(rating) FROM review r WHERE r.i_id=$1","parameters: $1 = '37352'",,,,,,,,""
2017-04-17 20:08:31.122 EDT,"postgres","epinions",28573,"127.0.0.1:33855",58f558fd.6f9d,8,"COMMIT",2017-04-17 20:08:29 EDT,21/5,21278,LOG,00000,"execute S_1: COMMIT",,,,,,,,,""
2017-04-17 20:08:31.135 EDT,"postgres","epinions",28558,"127.0.0.1:33840",58f558fd.6f8e,6,"BEGIN",2017-04-17 20:08:29 EDT,6/5,0,LOG,00000,"execute <unnamed>: BEGIN",,,,,,,,,""
2017-04-17 20:08:31.136 EDT,"postgres","epinions",28558,"127.0.0.1:33840",58f558fd.6f8e,7,"UPDATE",2017-04-17 20:08:29 EDT,6/5,0,LOG,00000,"execute <unnamed>: UPDATE ""user"" SET name = $1 WHERE u_id=$2","parameters: $1 = 'p,b@~', $2 = '66506'",,,,,,,,""
2017-04-17 20:08:31.199 EDT,"postgres","epinions",28572,"127.0.0.1:33854",58f558fd.6f9c,6,"BEGIN",2017-04-17 20:08:29 EDT,20/5,0,LOG,00000,"execute <unnamed>: BEGIN",,,,,,,,,""
2017-04-17 20:08:31.199 EDT,"postgres","epinions",28572,"127.0.0.1:33854",58f558fd.6f9c,7,"UPDATE",2017-04-17 20:08:29 EDT,20/5,0,LOG,00000,"execute <unnamed>: UPDATE ""user"" SET name = $1 WHERE u_id=$2","parameters: $1 = '(Df.G', $2 = '52597'",,,,,,,,""
2017-04-17 20:08:31.235 EDT,"postgres","epinions",28568,"127.0.0.1:33850",58f558fd.6f98,6,"BEGIN",2017-04-17 20:08:29 EDT,16/5,0,LOG,00000,"execute <unnamed>: BEGIN",,,,,,,,,""
2017-04-17 20:08:31.235 EDT,"postgres","epinions",28568,"127.0.0.1:33850",58f558fd.6f98,7,"UPDATE",2017-04-17 20:08:29 EDT,16/5,0,LOG,00000,"execute <unnamed>: UPDATE ""user"" SET name = $1 WHERE u_id=$2","parameters: $1 = ']xT#D', $2 = '134739'",,,,,,,,""
2017-04-17 20:08:31.285 EDT,"postgres","epinions",28554,"127.0.0.1:33836",58f558fd.6f8a,6,"BEGIN",2017-04-17 20:08:29 EDT,2/15,0,LOG,00000,"execute <unnamed>: BEGIN",,,,,,,,,""
2017-04-17 20:08:31.286 EDT,"postgres","epinions",28554,"127.0.0.1:33836",58f558fd.6f8a,7,"UPDATE",2017-04-17 20:08:29 EDT,2/15,0,LOG,00000,"execute <unnamed>: UPDATE item SET title = $1 WHERE i_id=$2","parameters: $1 = '/ji)''#>EW]/Z9yA)r%bS', $2 = '24104'",,,,,,,,""
2017-04-17 20:08:31.326 EDT,"postgres","epinions",28558,"127.0.0.1:33840",58f558fd.6f8e,8,"COMMIT",2017-04-17 20:08:29 EDT,6/5,21279,LOG,00000,"execute S_1: COMMIT",,,,,,,,,""
2017-04-17 20:08:31.335 EDT,"postgres","epinions",28571,"127.0.0.1:33853",58f558fd.6f9b,6,"BEGIN",2017-04-17 20:08:29 EDT,19/5,0,LOG,00000,"execute <unnamed>: BEGIN",,,,,,,,,""
2017-04-17 20:08:31.336 EDT,"postgres","epinions",28571,"127.0.0.1:33853",58f558fd.6f9b,7,"UPDATE",2017-04-17 20:08:29 EDT,19/5,0,LOG,00000,"execute <unnamed>: UPDATE trust SET trust = $1 WHERE source_u_id=$2 AND target_u_id=$3","parameters: $1 = '1', $2 = '95609', $3 = '48672'",,,,,,,,""
2017-04-17 20:08:31.381 EDT,"postgres","epinions",28572,"127.0.0.1:33854",58f558fd.6f9c,8,"COMMIT",2017-04-17 20:08:29 EDT,20/5,21280,LOG,00000,"execute S_1: COMMIT",,,,,,,,,""
2017-04-17 20:08:31.381 EDT,"postgres","epinions",28568,"127.0.0.1:33850",58f558fd.6f98,8,"COMMIT",2017-04-17 20:08:29 EDT,16/5,21282,LOG,00000,"execute S_1: COMMIT",,,,,,,,,""
2017-04-17 20:08:31.385 EDT,"postgres","epinions",28564,"127.0.0.1:33846",58f558fd.6f94,6,"BEGIN",2017-04-17 20:08:29 EDT,12/5,0,LOG,00000,"execute <unnamed>: BEGIN",,,,,,,,,""
2017-04-17 20:08:31.386 EDT,"postgres","epinions",28564,"127.0.0.1:33846",58f558fd.6f94,7,"SELECT",2017-04-17 20:08:29 EDT,12/5,0,LOG,00000,"execute <unnamed>: SELECT avg(rating) FROM review r WHERE r.i_id=$1","parameters: $1 = '501'",,,,,,,,""
2017-04-17 20:08:31.386 EDT,"postgres","epinions",28554,"127.0.0.1:33836",58f558fd.6f8a,8,"COMMIT",2017-04-17 20:08:29 EDT,2/15,21281,LOG,00000,"execute S_1: COMMIT",,,,,,,,,""
2017-04-17 20:08:31.435 EDT,"postgres","epinions",28563,"127.0.0.1:33845",58f558fd.6f93,5,"COMMIT",2017-04-17 20:08:29 EDT,11/4,0,LOG,00000,"execute S_1: COMMIT",,,,,,,,,""
2017-04-17 20:08:31.435 EDT,"postgres","epinions",28573,"127.0.0.1:33855",58f558fd.6f9d,9,"BEGIN",2017-04-17 20:08:29 EDT,21/6,0,LOG,00000,"execute <unnamed>: BEGIN",,,,,,,,,""
2017-04-17 20:08:31.436 EDT,"postgres","epinions",28573,"127.0.0.1:33855",58f558fd.6f9d,10,"UPDATE",2017-04-17 20:08:29 EDT,21/6,0,LOG,00000,"execute <unnamed>: UPDATE review SET rating = $1 WHERE i_id=$2 AND u_id=$3","parameters: $1 = '543', $2 = '43031', $3 = '168672'",,,,,,,,""
2017-04-17 20:08:31.485 EDT,"postgres","epinions",28558,"127.0.0.1:33840",58f558fd.6f8e,9,"BEGIN",2017-04-17 20:08:29 EDT,6/6,0,LOG,00000,"execute <unnamed>: BEGIN",,,,,,,,,""
2017-04-17 20:08:31.486 EDT,"postgres","epinions",28558,"127.0.0.1:33840",58f558fd.6f8e,10,"SELECT",2017-04-17 20:08:29 EDT,6/6,0,LOG,00000,"execute <unnamed>: SELECT * FROM review r, item i WHERE i.i_id = r.i_id and r.i_id=$1 ORDER BY rating LIMIT 10","parameters: $1 = '75286'",,,,,,,,""
2017-04-17 20:08:31.511 EDT,"postgres","epinions",28560,"127.0.0.1:33842",58f558fd.6f90,5,"COMMIT",2017-04-17 20:08:29 EDT,8/4,0,LOG,00000,"execute S_1: COMMIT",,,,,,,,,""
2017-04-17 20:08:31.538 EDT,"postgres","epinions",28559,"127.0.0.1:33841",58f558fd.6f8f,5,"COMMIT",2017-04-17 20:08:29 EDT,7/4,0,LOG,00000,"execute S_1: COMMIT",,,,,,,,,""
2017-04-17 20:08:31.538 EDT,"postgres","epinions",28572,"127.0.0.1:33854",58f558fd.6f9c,9,"BEGIN",2017-04-17 20:08:29 EDT,20/6,0,LOG,00000,"execute <unnamed>: BEGIN",,,,,,,,,""
2017-04-17 20:08:31.539 EDT,"postgres","epinions",28572,"127.0.0.1:33854",58f558fd.6f9c,10,"UPDATE",2017-04-17 20:08:29 EDT,20/6,0,LOG,00000,"execute <unnamed>: UPDATE review SET rating = $1 WHERE i_id=$2 AND u_id=$3","parameters: $1 = '124', $2 = '92783', $3 = '149618'",,,,,,,,""
2017-04-17 20:08:31.585 EDT,"postgres","epinions",28568,"127.0.0.1:33850",58f558fd.6f98,9,"BEGIN",2017-04-17 20:08:29 EDT,16/6,0,LOG,00000,"execute <unnamed>: BEGIN",,,,,,,,,""
2017-04-17 20:08:31.585 EDT,"postgres","epinions",28568,"127.0.0.1:33850",58f558fd.6f98,10,"UPDATE",2017-04-17 20:08:29 EDT,16/6,0,LOG,00000,"execute <unnamed>: UPDATE review SET rating = $1 WHERE i_id=$2 AND u_id=$3","parameters: $1 = '949', $2 = '83185', $3 = '181253'",,,,,,,,""
2017-04-17 20:08:31.636 EDT,"postgres","epinions",28554,"127.0.0.1:33836",58f558fd.6f8a,9,"BEGIN",2017-04-17 20:08:29 EDT,2/16,0,LOG,00000,"execute <unnamed>: BEGIN",,,,,,,,,""
2017-04-17 20:08:31.637 EDT,"postgres","epinions",28554,"127.0.0.1:33836",58f558fd.6f8a,10,"SELECT",2017-04-17 20:08:29 EDT,2/16,0,LOG,00000,"execute <unnamed>: SELECT * FROM review r WHERE r.i_id=$1","parameters: $1 = '41172'",,,,,,,,""
2017-04-17 20:08:31.686 EDT,"postgres","epinions",28563,"127.0.0.1:33845",58f558fd.6f93,6,"BEGIN",2017-04-17 20:08:29 EDT,11/5,0,LOG,00000,"execute <unnamed>: BEGIN",,,,,,,,,""
2017-04-17 20:08:31.686 EDT,"postgres","epinions",28563,"127.0.0.1:33845",58f558fd.6f93,7,"UPDATE",2017-04-17 20:08:29 EDT,11/5,0,LOG,00000,"execute <unnamed>: UPDATE trust SET trust = $1 WHERE source_u_id=$2 AND target_u_id=$3","parameters: $1 = '0', $2 = '139804', $3 = '75418'",,,,,,,,""
2017-04-17 20:08:31.736 EDT,"postgres","epinions",28560,"127.0.0.1:33842",58f558fd.6f90,6,"BEGIN",2017-04-17 20:08:29 EDT,8/5,0,LOG,00000,"execute <unnamed>: BEGIN",,,,,,,,,""
2017-04-17 20:08:31.736 EDT,"postgres","epinions",28560,"127.0.0.1:33842",58f558fd.6f90,7,"SELECT",2017-04-17 20:08:29 EDT,8/5,0,LOG,00000,"execute <unnamed>: SELECT avg(rating) FROM review r WHERE r.i_id=$1","parameters: $1 = '57055'",,,,,,,,""
2017-04-17 20:08:31.785 EDT,"postgres","epinions",28559,"127.0.0.1:33841",58f558fd.6f8f,6,"BEGIN",2017-04-17 20:08:29 EDT,7/5,0,LOG,00000,"execute <unnamed>: BEGIN",,,,,,,,,""
2017-04-17 20:08:31.785 EDT,"postgres","epinions",28559,"127.0.0.1:33841",58f558fd.6f8f,7,"UPDATE",2017-04-17 20:08:29 EDT,7/5,0,LOG,00000,"execute <unnamed>: UPDATE review SET rating = $1 WHERE i_id=$2 AND u_id=$3","parameters: $1 = '325', $2 = '73094', $3 = '183543'",,,,,,,,""
2017-04-17 20:08:31.955 EDT,"postgres","epinions",28561,"127.0.0.1:33843",58f558fd.6f91,5,"COMMIT",2017-04-17 20:08:29 EDT,9/4,0,LOG,00000,"execute S_1: COMMIT",,,,,,,,,""
2017-04-17 20:08:31.960 EDT,"postgres","epinions",28561,"127.0.0.1:33843",58f558fd.6f91,6,"BEGIN",2017-04-17 20:08:29 EDT,9/5,0,LOG,00000,"execute <unnamed>: BEGIN",,,,,,,,,""
2017-04-17 20:08:31.960 EDT,"postgres","epinions",28561,"127.0.0.1:33843",58f558fd.6f91,7,"UPDATE",2017-04-17 20:08:29 EDT,9/5,0,LOG,00000,"execute <unnamed>: UPDATE trust SET trust = $1 WHERE source_u_id=$2 AND target_u_id=$3","parameters: $1 = '1', $2 = '38983', $3 = '149859'",,,,,,,,""
2017-04-17 20:08:32.185 EDT,"postgres","epinions",28555,"127.0.0.1:33837",58f558fd.6f8b,5,"COMMIT",2017-04-17 20:08:29 EDT,3/4,0,LOG,00000,"execute S_1: COMMIT",,,,,,,,,""
2017-04-17 20:08:32.185 EDT,"postgres","epinions",28555,"127.0.0.1:33837",58f558fd.6f8b,6,"BEGIN",2017-04-17 20:08:29 EDT,3/5,0,LOG,00000,"execute <unnamed>: BEGIN",,,,,,,,,""
2017-04-17 20:08:32.186 EDT,"postgres","epinions",28555,"127.0.0.1:33837",58f558fd.6f8b,7,"UPDATE",2017-04-17 20:08:29 EDT,3/5,0,LOG,00000,"execute <unnamed>: UPDATE review SET rating = $1 WHERE i_id=$2 AND u_id=$3","parameters: $1 = '2', $2 = '9604', $3 = '32796'",,,,,,,,""
2017-04-17 20:08:32.522 EDT,"postgres","epinions",28569,"127.0.0.1:33851",58f558fd.6f99,8,"COMMIT",2017-04-17 20:08:29 EDT,17/5,0,LOG,00000,"execute S_1: COMMIT",,,,,,,,,""
2017-04-17 20:08:32.523 EDT,"postgres","epinions",28569,"127.0.0.1:33851",58f558fd.6f99,9,"BEGIN",2017-04-17 20:08:29 EDT,17/6,0,LOG,00000,"execute <unnamed>: BEGIN",,,,,,,,,""
2017-04-17 20:08:32.524 EDT,"postgres","epinions",28569,"127.0.0.1:33851",58f558fd.6f99,10,"SELECT",2017-04-17 20:08:29 EDT,17/6,0,LOG,00000,"execute <unnamed>: SELECT * FROM review r, ""user"" u WHERE u.u_id = r.u_id AND r.u_id=$1 ORDER BY rating LIMIT 10","parameters: $1 = '56006'",,,,,,,,""
2017-04-17 20:08:32.614 EDT,"postgres","epinions",28562,"127.0.0.1:33844",58f558fd.6f92,5,"COMMIT",2017-04-17 20:08:29 EDT,10/4,0,LOG,00000,"execute S_1: COMMIT",,,,,,,,,""
2017-04-17 20:08:32.615 EDT,"postgres","epinions",28562,"127.0.0.1:33844",58f558fd.6f92,6,"BEGIN",2017-04-17 20:08:29 EDT,10/5,0,LOG,00000,"execute <unnamed>: BEGIN",,,,,,,,,""
2017-04-17 20:08:32.615 EDT,"postgres","epinions",28562,"127.0.0.1:33844",58f558fd.6f92,7,"UPDATE",2017-04-17 20:08:29 EDT,10/5,0,LOG,00000,"execute <unnamed>: UPDATE review SET rating = $1 WHERE i_id=$2 AND u_id=$3","parameters: $1 = '730', $2 = '67708', $3 = '122939'",,,,,,,,""
2017-04-17 20:08:32.729 EDT,"postgres","epinions",28557,"127.0.0.1:33839",58f558fd.6f8d,5,"COMMIT",2017-04-17 20:08:29 EDT,5/4,0,LOG,00000,"execute S_1: COMMIT",,,,,,,,,""
2017-04-17 20:08:32.730 EDT,"postgres","epinions",28557,"127.0.0.1:33839",58f558fd.6f8d,6,"BEGIN",2017-04-17 20:08:29 EDT,5/5,0,LOG,00000,"execute <unnamed>: BEGIN",,,,,,,,,""
2017-04-17 20:08:32.731 EDT,"postgres","epinions",28557,"127.0.0.1:33839",58f558fd.6f8d,7,"SELECT",2017-04-17 20:08:29 EDT,5/5,0,LOG,00000,"execute <unnamed>: SELECT * FROM review r, item i WHERE i.i_id = r.i_id and r.i_id=$1 ORDER BY rating LIMIT 10","parameters: $1 = '22824'",,,,,,,,""
2017-04-17 20:08:32.950 EDT,"postgres","epinions",28571,"127.0.0.1:33853",58f558fd.6f9b,8,"COMMIT",2017-04-17 20:08:29 EDT,19/5,0,LOG,00000,"execute S_1: COMMIT",,,,,,,,,""
2017-04-17 20:08:32.951 EDT,"postgres","epinions",28571,"127.0.0.1:33853",58f558fd.6f9b,9,"BEGIN",2017-04-17 20:08:29 EDT,19/6,0,LOG,00000,"execute <unnamed>: BEGIN",,,,,,,,,""
2017-04-17 20:08:32.951 EDT,"postgres","epinions",28571,"127.0.0.1:33853",58f558fd.6f9b,10,"SELECT",2017-04-17 20:08:29 EDT,19/6,0,LOG,00000,"execute <unnamed>: SELECT avg(rating) FROM review r WHERE r.i_id=$1","parameters: $1 = '96665'",,,,,,,,""
2017-04-17 20:08:33.028 EDT,"postgres","epinions",28567,"127.0.0.1:33849",58f558fd.6f97,5,"COMMIT",2017-04-17 20:08:29 EDT,15/4,0,LOG,00000,"execute S_1: COMMIT",,,,,,,,,""
2017-04-17 20:08:33.028 EDT,"postgres","epinions",28567,"127.0.0.1:33849",58f558fd.6f97,6,"BEGIN",2017-04-17 20:08:29 EDT,15/5,0,LOG,00000,"execute <unnamed>: BEGIN",,,,,,,,,""
2017-04-17 20:08:33.029 EDT,"postgres","epinions",28567,"127.0.0.1:33849",58f558fd.6f97,7,"SELECT",2017-04-17 20:08:29 EDT,15/5,0,LOG,00000,"execute <unnamed>: SELECT avg(rating) FROM review r WHERE r.i_id=$1","parameters: $1 = '23014'",,,,,,,,""
2017-04-17 20:08:33.046 EDT,"postgres","epinions",28566,"127.0.0.1:33848",58f558fd.6f96,5,"COMMIT",2017-04-17 20:08:29 EDT,14/4,0,LOG,00000,"execute S_1: COMMIT",,,,,,,,,""
2017-04-17 20:08:33.047 EDT,"postgres","epinions",28566,"127.0.0.1:33848",58f558fd.6f96,6,"BEGIN",2017-04-17 20:08:29 EDT,14/5,0,LOG,00000,"execute <unnamed>: BEGIN",,,,,,,,,""
2017-04-17 20:08:33.047 EDT,"postgres","epinions",28566,"127.0.0.1:33848",58f558fd.6f96,7,"UPDATE",2017-04-17 20:08:29 EDT,14/5,0,LOG,00000,"execute <unnamed>: UPDATE ""user"" SET name = $1 WHERE u_id=$2","parameters: $1 = '~K_9M', $2 = '181664'",,,,,,,,""
2017-04-17 20:08:33.147 EDT,"postgres","epinions",28565,"127.0.0.1:33847",58f558fd.6f95,5,"SELECT",2017-04-17 20:08:29 EDT,13/4,0,LOG,00000,"execute <unnamed>: SELECT * FROM trust t WHERE t.source_u_id=$1","parameters: $1 = '96154'",,,,,,,,""
2017-04-17 20:08:33.185 EDT,"postgres","epinions",28563,"127.0.0.1:33845",58f558fd.6f93,8,"COMMIT",2017-04-17 20:08:29 EDT,11/5,0,LOG,00000,"execute S_1: COMMIT",,,,,,,,,""
2017-04-17 20:08:33.186 EDT,"postgres","epinions",28563,"127.0.0.1:33845",58f558fd.6f93,9,"BEGIN",2017-04-17 20:08:29 EDT,11/6,0,LOG,00000,"execute <unnamed>: BEGIN",,,,,,,,,""
2017-04-17 20:08:33.187 EDT,"postgres","epinions",28563,"127.0.0.1:33845",58f558fd.6f93,10,"SELECT",2017-04-17 20:08:29 EDT,11/6,0,LOG,00000,"execute <unnamed>: SELECT avg(rating) FROM review r, trust t WHERE r.u_id=t.target_u_id AND r.i_id=$1 AND t.source_u_id=$2","parameters: $1 = '18095', $2 = '112089'",,,,,,,,""
2017-04-17 20:08:33.266 EDT,"postgres","epinions",28556,"127.0.0.1:33838",58f558fd.6f8c,5,"COMMIT",2017-04-17 20:08:29 EDT,4/4,0,LOG,00000,"execute S_1: COMMIT",,,,,,,,,""
2017-04-17 20:08:33.267 EDT,"postgres","epinions",28556,"127.0.0.1:33838",58f558fd.6f8c,6,"BEGIN",2017-04-17 20:08:29 EDT,4/5,0,LOG,00000,"execute <unnamed>: BEGIN",,,,,,,,,""
2017-04-17 20:08:33.267 EDT,"postgres","epinions",28556,"127.0.0.1:33838",58f558fd.6f8c,7,"UPDATE",2017-04-17 20:08:29 EDT,4/5,0,LOG,00000,"execute <unnamed>: UPDATE ""user"" SET name = $1 WHERE u_id=$2","parameters: $1 = 'wDDX_', $2 = '95498'",,,,,,,,""
2017-04-17 20:08:33.298 EDT,"postgres","epinions",28566,"127.0.0.1:33848",58f558fd.6f96,8,"COMMIT",2017-04-17 20:08:29 EDT,14/5,21283,LOG,00000,"execute S_1: COMMIT",,,,,,,,,""
2017-04-17 20:08:33.303 EDT,"postgres","epinions",28566,"127.0.0.1:33848",58f558fd.6f96,9,"BEGIN",2017-04-17 20:08:29 EDT,14/6,0,LOG,00000,"execute <unnamed>: BEGIN",,,,,,,,,""
2017-04-17 20:08:33.303 EDT,"postgres","epinions",28566,"127.0.0.1:33848",58f558fd.6f96,10,"UPDATE",2017-04-17 20:08:29 EDT,14/6,0,LOG,00000,"execute <unnamed>: UPDATE review SET rating = $1 WHERE i_id=$2 AND u_id=$3","parameters: $1 = '308', $2 = '27627', $3 = '89491'",,,,,,,,""
2017-04-17 20:08:33.492 EDT,"postgres","epinions",28556,"127.0.0.1:33838",58f558fd.6f8c,8,"COMMIT",2017-04-17 20:08:29 EDT,4/5,21284,LOG,00000,"execute S_1: COMMIT",,,,,,,,,""
2017-04-17 20:08:33.495 EDT,"postgres","epinions",28556,"127.0.0.1:33838",58f558fd.6f8c,9,"BEGIN",2017-04-17 20:08:29 EDT,4/6,0,LOG,00000,"execute <unnamed>: BEGIN",,,,,,,,,""
2017-04-17 20:08:33.495 EDT,"postgres","epinions",28556,"127.0.0.1:33838",58f558fd.6f8c,10,"UPDATE",2017-04-17 20:08:29 EDT,4/6,0,LOG,00000,"execute <unnamed>: UPDATE review SET rating = $1 WHERE i_id=$2 AND u_id=$3","parameters: $1 = '954', $2 = '8374', $3 = '23711'",,,,,,,,""
2017-04-17 20:08:33.514 EDT,"postgres","epinions",28570,"127.0.0.1:33852",58f558fd.6f9a,8,"COMMIT",2017-04-17 20:08:29 EDT,18/5,0,LOG,00000,"execute S_1: COMMIT",,,,,,,,,""
2017-04-17 20:08:33.515 EDT,"postgres","epinions",28570,"127.0.0.1:33852",58f558fd.6f9a,9,"BEGIN",2017-04-17 20:08:29 EDT,18/6,0,LOG,00000,"execute <unnamed>: BEGIN",,,,,,,,,""
2017-04-17 20:08:33.515 EDT,"postgres","epinions",28570,"127.0.0.1:33852",58f558fd.6f9a,10,"UPDATE",2017-04-17 20:08:29 EDT,18/6,0,LOG,00000,"execute <unnamed>: UPDATE trust SET trust = $1 WHERE source_u_id=$2 AND target_u_id=$3","parameters: $1 = '0', $2 = '138813', $3 = '163623'",,,,,,,,""
2017-04-17 20:08:33.578 EDT,"postgres","epinions",28561,"127.0.0.1:33843",58f558fd.6f91,8,"COMMIT",2017-04-17 20:08:29 EDT,9/5,0,LOG,00000,"execute S_1: COMMIT",,,,,,,,,""
2017-04-17 20:08:33.579 EDT,"postgres","epinions",28561,"127.0.0.1:33843",58f558fd.6f91,9,"BEGIN",2017-04-17 20:08:29 EDT,9/6,0,LOG,00000,"execute <unnamed>: BEGIN",,,,,,,,,""
2017-04-17 20:08:33.580 EDT,"postgres","epinions",28561,"127.0.0.1:33843",58f558fd.6f91,10,"SELECT",2017-04-17 20:08:29 EDT,9/6,0,LOG,00000,"execute <unnamed>: SELECT * FROM review r, item i WHERE i.i_id = r.i_id and r.i_id=$1 ORDER BY rating LIMIT 10","parameters: $1 = '81857'",,,,,,,,""
2017-04-17 20:08:33.599 EDT,"postgres","epinions",28572,"127.0.0.1:33854",58f558fd.6f9c,11,"COMMIT",2017-04-17 20:08:29 EDT,20/6,0,LOG,00000,"execute S_1: COMMIT",,,,,,,,,""
2017-04-17 20:08:33.601 EDT,"postgres","epinions",28572,"127.0.0.1:33854",58f558fd.6f9c,12,"BEGIN",2017-04-17 20:08:29 EDT,20/7,0,LOG,00000,"execute <unnamed>: BEGIN",,,,,,,,,""
2017-04-17 20:08:33.601 EDT,"postgres","epinions",28572,"127.0.0.1:33854",58f558fd.6f9c,13,"UPDATE",2017-04-17 20:08:29 EDT,20/7,0,LOG,00000,"execute <unnamed>: UPDATE review SET rating = $1 WHERE i_id=$2 AND u_id=$3","parameters: $1 = '640', $2 = '32427', $3 = '27009'",,,,,,,,""
2017-04-17 20:08:33.778 EDT,"postgres","epinions",28564,"127.0.0.1:33846",58f558fd.6f94,8,"COMMIT",2017-04-17 20:08:29 EDT,12/5,0,LOG,00000,"execute S_1: COMMIT",,,,,,,,,""
2017-04-17 20:08:33.779 EDT,"postgres","epinions",28564,"127.0.0.1:33846",58f558fd.6f94,9,"BEGIN",2017-04-17 20:08:29 EDT,12/6,0,LOG,00000,"execute <unnamed>: BEGIN",,,,,,,,,""
2017-04-17 20:08:33.779 EDT,"postgres","epinions",28564,"127.0.0.1:33846",58f558fd.6f94,10,"UPDATE",2017-04-17 20:08:29 EDT,12/6,0,LOG,00000,"execute <unnamed>: UPDATE item SET title = $1 WHERE i_id=$2","parameters: $1 = 'wS*PpJ_/ &.~K<zKt9te', $2 = '71538'",,,,,,,,""
2017-04-17 20:08:33.827 EDT,"postgres","epinions",28554,"127.0.0.1:33836",58f558fd.6f8a,11,"SELECT",2017-04-17 20:08:29 EDT,2/16,0,LOG,00000,"execute <unnamed>: SELECT * FROM trust t WHERE t.source_u_id=$1","parameters: $1 = '199907'",,,,,,,,""
2017-04-17 20:08:33.902 EDT,"postgres","epinions",28564,"127.0.0.1:33846",58f558fd.6f94,11,"COMMIT",2017-04-17 20:08:29 EDT,12/6,21285,LOG,00000,"execute S_1: COMMIT",,,,,,,,,""
2017-04-17 20:08:33.909 EDT,"postgres","epinions",28564,"127.0.0.1:33846",58f558fd.6f94,12,"BEGIN",2017-04-17 20:08:29 EDT,12/7,0,LOG,00000,"execute <unnamed>: BEGIN",,,,,,,,,""
2017-04-17 20:08:33.910 EDT,"postgres","epinions",28564,"127.0.0.1:33846",58f558fd.6f94,13,"SELECT",2017-04-17 20:08:29 EDT,12/7,0,LOG,00000,"execute <unnamed>: SELECT * FROM review r, ""user"" u WHERE u.u_id = r.u_id AND r.u_id=$1 ORDER BY rating LIMIT 10","parameters: $1 = '94010'",,,,,,,,""
2017-04-17 20:08:33.956 EDT,"postgres","epinions",28559,"127.0.0.1:33841",58f558fd.6f8f,8,"COMMIT",2017-04-17 20:08:29 EDT,7/5,0,LOG,00000,"execute S_1: COMMIT",,,,,,,,,""
2017-04-17 20:08:33.956 EDT,"postgres","epinions",28559,"127.0.0.1:33841",58f558fd.6f8f,9,"BEGIN",2017-04-17 20:08:29 EDT,7/6,0,LOG,00000,"execute <unnamed>: BEGIN",,,,,,,,,""
2017-04-17 20:08:33.957 EDT,"postgres","epinions",28559,"127.0.0.1:33841",58f558fd.6f8f,10,"SELECT",2017-04-17 20:08:29 EDT,7/6,0,LOG,00000,"execute <unnamed>: SELECT * FROM review r, item i WHERE i.i_id = r.i_id and r.i_id=$1 ORDER BY rating LIMIT 10","parameters: $1 = '90241'",,,,,,,,""
2017-04-17 20:08:33.998 EDT,"postgres","epinions",28568,"127.0.0.1:33850",58f558fd.6f98,11,"COMMIT",2017-04-17 20:08:29 EDT,16/6,0,LOG,00000,"execute S_1: COMMIT",,,,,,,,,""
2017-04-17 20:08:33.999 EDT,"postgres","epinions",28568,"127.0.0.1:33850",58f558fd.6f98,12,"BEGIN",2017-04-17 20:08:29 EDT,16/7,0,LOG,00000,"execute <unnamed>: BEGIN",,,,,,,,,""
2017-04-17 20:08:33.999 EDT,"postgres","epinions",28568,"127.0.0.1:33850",58f558fd.6f98,13,"UPDATE",2017-04-17 20:08:29 EDT,16/7,0,LOG,00000,"execute <unnamed>: UPDATE trust SET trust = $1 WHERE source_u_id=$2 AND target_u_id=$3","parameters: $1 = '0', $2 = '65441', $3 = '109348'",,,,,,,,""
2017-04-17 20:08:34.018 EDT,"postgres","epinions",28560,"127.0.0.1:33842",58f558fd.6f90,8,"COMMIT",2017-04-17 20:08:29 EDT,8/5,0,LOG,00000,"execute S_1: COMMIT",,,,,,,,,""
2017-04-17 20:08:34.019 EDT,"postgres","epinions",28560,"127.0.0.1:33842",58f558fd.6f90,9,"BEGIN",2017-04-17 20:08:29 EDT,8/6,0,LOG,00000,"execute <unnamed>: BEGIN",,,,,,,,,""
2017-04-17 20:08:34.019 EDT,"postgres","epinions",28560,"127.0.0.1:33842",58f558fd.6f90,10,"UPDATE",2017-04-17 20:08:29 EDT,8/6,0,LOG,00000,"execute <unnamed>: UPDATE ""user"" SET name = $1 WHERE u_id=$2","parameters: $1 = '\ot?g', $2 = '10854'",,,,,,,,""
2017-04-17 20:08:34.030 EDT,"postgres","epinions",28558,"127.0.0.1:33840",58f558fd.6f8e,11,"COMMIT",2017-04-17 20:08:29 EDT,6/6,0,LOG,00000,"execute S_1: COMMIT",,,,,,,,,""
2017-04-17 20:08:34.031 EDT,"postgres","epinions",28558,"127.0.0.1:33840",58f558fd.6f8e,12,"BEGIN",2017-04-17 20:08:29 EDT,6/7,0,LOG,00000,"execute <unnamed>: BEGIN",,,,,,,,,""
2017-04-17 20:08:34.031 EDT,"postgres","epinions",28558,"127.0.0.1:33840",58f558fd.6f8e,13,"SELECT",2017-04-17 20:08:29 EDT,6/7,0,LOG,00000,"execute <unnamed>: SELECT * FROM review r WHERE r.i_id=$1","parameters: $1 = '21933'",,,,,,,,""
2017-04-17 20:08:34.042 EDT,"postgres","epinions",28573,"127.0.0.1:33855",58f558fd.6f9d,11,"COMMIT",2017-04-17 20:08:29 EDT,21/6,0,LOG,00000,"execute S_1: COMMIT",,,,,,,,,""
2017-04-17 20:08:34.043 EDT,"postgres","epinions",28573,"127.0.0.1:33855",58f558fd.6f9d,12,"BEGIN",2017-04-17 20:08:29 EDT,21/7,0,LOG,00000,"execute <unnamed>: BEGIN",,,,,,,,,""
2017-04-17 20:08:34.043 EDT,"postgres","epinions",28573,"127.0.0.1:33855",58f558fd.6f9d,13,"SELECT",2017-04-17 20:08:29 EDT,21/7,0,LOG,00000,"execute <unnamed>: SELECT * FROM review r WHERE r.i_id=$1","parameters: $1 = '12506'",,,,,,,,""
2017-04-17 20:08:34.246 EDT,"postgres","epinions",28560,"127.0.0.1:33842",58f558fd.6f90,11,"COMMIT",2017-04-17 20:08:29 EDT,8/6,21286,LOG,00000,"execute S_1: COMMIT",,,,,,,,,""
2017-04-17 20:08:34.255 EDT,"postgres","epinions",28560,"127.0.0.1:33842",58f558fd.6f90,12,"BEGIN",2017-04-17 20:08:29 EDT,8/7,0,LOG,00000,"execute <unnamed>: BEGIN",,,,,,,,,""
2017-04-17 20:08:34.255 EDT,"postgres","epinions",28560,"127.0.0.1:33842",58f558fd.6f90,13,"UPDATE",2017-04-17 20:08:29 EDT,8/7,0,LOG,00000,"execute <unnamed>: UPDATE trust SET trust = $1 WHERE source_u_id=$2 AND target_u_id=$3","parameters: $1 = '0', $2 = '173227', $3 = '167473'",,,,,,,,""
2017-04-17 20:08:34.407 EDT,"postgres","epinions",28555,"127.0.0.1:33837",58f558fd.6f8b,8,"COMMIT",2017-04-17 20:08:29 EDT,3/5,0,LOG,00000,"execute S_1: COMMIT",,,,,,,,,""
2017-04-17 20:08:34.410 EDT,"postgres","epinions",28555,"127.0.0.1:33837",58f558fd.6f8b,9,"BEGIN",2017-04-17 20:08:29 EDT,3/6,0,LOG,00000,"execute <unnamed>: BEGIN",,,,,,,,,""
2017-04-17 20:08:34.410 EDT,"postgres","epinions",28555,"127.0.0.1:33837",58f558fd.6f8b,10,"UPDATE",2017-04-17 20:08:29 EDT,3/6,0,LOG,00000,"execute <unnamed>: UPDATE trust SET trust = $1 WHERE source_u_id=$2 AND target_u_id=$3","parameters: $1 = '1', $2 = '63987', $3 = '11802'",,,,,,,,""
2017-04-17 20:08:34.506 EDT,"postgres","epinions",28565,"127.0.0.1:33847",58f558fd.6f95,6,"COMMIT",2017-04-17 20:08:29 EDT,13/4,0,LOG,00000,"execute S_1: COMMIT",,,,,,,,,""
2017-04-17 20:08:34.507 EDT,"postgres","epinions",28565,"127.0.0.1:33847",58f558fd.6f95,7,"BEGIN",2017-04-17 20:08:29 EDT,13/5,0,LOG,00000,"execute <unnamed>: BEGIN",,,,,,,,,""
2017-04-17 20:08:34.508 EDT,"postgres","epinions",28565,"127.0.0.1:33847",58f558fd.6f95,8,"SELECT",2017-04-17 20:08:29 EDT,13/5,0,LOG,00000,"execute <unnamed>: SELECT * FROM review r, ""user"" u WHERE u.u_id = r.u_id AND r.u_id=$1 ORDER BY rating LIMIT 10","parameters: $1 = '52353'",,,,,,,,""
2017-04-17 20:08:34.598 EDT,"postgres","epinions",28562,"127.0.0.1:33844",58f558fd.6f92,8,"COMMIT",2017-04-17 20:08:29 EDT,10/5,0,LOG,00000,"execute S_1: COMMIT",,,,,,,,,""
2017-04-17 20:08:34.599 EDT,"postgres","epinions",28562,"127.0.0.1:33844",58f558fd.6f92,9,"BEGIN",2017-04-17 20:08:29 EDT,10/6,0,LOG,00000,"execute <unnamed>: BEGIN",,,,,,,,,""
2017-04-17 20:08:34.600 EDT,"postgres","epinions",28562,"127.0.0.1:33844",58f558fd.6f92,10,"UPDATE",2017-04-17 20:08:29 EDT,10/6,0,LOG,00000,"execute <unnamed>: UPDATE trust SET trust = $1 WHERE source_u_id=$2 AND target_u_id=$3","parameters: $1 = '0', $2 = '77972', $3 = '30375'",,,,,,,,""
2017-04-17 20:08:34.866 EDT,"postgres","epinions",28570,"127.0.0.1:33852",58f558fd.6f9a,11,"COMMIT",2017-04-17 20:08:29 EDT,18/6,0,LOG,00000,"execute S_1: COMMIT",,,,,,,,,""
2017-04-17 20:08:34.866 EDT,"postgres","epinions",28570,"127.0.0.1:33852",58f558fd.6f9a,12,"BEGIN",2017-04-17 20:08:29 EDT,18/7,0,LOG,00000,"execute <unnamed>: BEGIN",,,,,,,,,""
2017-04-17 20:08:34.867 EDT,"postgres","epinions",28570,"127.0.0.1:33852",58f558fd.6f9a,13,"SELECT",2017-04-17 20:08:29 EDT,18/7,0,LOG,00000,"execute <unnamed>: SELECT * FROM review r, item i WHERE i.i_id = r.i_id and r.i_id=$1 ORDER BY rating LIMIT 10","parameters: $1 = '63932'",,,,,,,,""
2017-04-17 20:08:35.007 EDT,"postgres","epinions",28569,"127.0.0.1:33851",58f558fd.6f99,11,"COMMIT",2017-04-17 20:08:29 EDT,17/6,0,LOG,00000,"execute S_1: COMMIT",,,,,,,,,""
2017-04-17 20:08:35.008 EDT,"postgres","epinions",28569,"127.0.0.1:33851",58f558fd.6f99,12,"BEGIN",2017-04-17 20:08:29 EDT,17/7,0,LOG,00000,"execute <unnamed>: BEGIN",,,,,,,,,""
2017-04-17 20:08:35.008 EDT,"postgres","epinions",28569,"127.0.0.1:33851",58f558fd.6f99,13,"SELECT",2017-04-17 20:08:29 EDT,17/7,0,LOG,00000,"execute <unnamed>: SELECT * FROM review r, ""user"" u WHERE u.u_id = r.u_id AND r.u_id=$1 ORDER BY rating LIMIT 10","parameters: $1 = '111027'",,,,,,,,""
2017-04-17 20:08:35.139 EDT,"postgres","epinions",28567,"127.0.0.1:33849",58f558fd.6f97,8,"COMMIT",2017-04-17 20:08:29 EDT,15/5,0,LOG,00000,"execute S_1: COMMIT",,,,,,,,,""
2017-04-17 20:08:35.140 EDT,"postgres","epinions",28567,"127.0.0.1:33849",58f558fd.6f97,9,"BEGIN",2017-04-17 20:08:29 EDT,15/6,0,LOG,00000,"execute <unnamed>: BEGIN",,,,,,,,,""
2017-04-17 20:08:35.140 EDT,"postgres","epinions",28567,"127.0.0.1:33849",58f558fd.6f97,10,"UPDATE",2017-04-17 20:08:29 EDT,15/6,0,LOG,00000,"execute <unnamed>: UPDATE review SET rating = $1 WHERE i_id=$2 AND u_id=$3","parameters: $1 = '569', $2 = '33809', $3 = '35621'",,,,,,,,""
2017-04-17 20:08:35.195 EDT,"postgres","epinions",28571,"127.0.0.1:33853",58f558fd.6f9b,11,"COMMIT",2017-04-17 20:08:29 EDT,19/6,0,LOG,00000,"execute S_1: COMMIT",,,,,,,,,""
2017-04-17 20:08:35.196 EDT,"postgres","epinions",28571,"127.0.0.1:33853",58f558fd.6f9b,12,"BEGIN",2017-04-17 20:08:29 EDT,19/7,0,LOG,00000,"execute <unnamed>: BEGIN",,,,,,,,,""
2017-04-17 20:08:35.197 EDT,"postgres","epinions",28571,"127.0.0.1:33853",58f558fd.6f9b,13,"SELECT",2017-04-17 20:08:29 EDT,19/7,0,LOG,00000,"execute <unnamed>: SELECT * FROM review r, item i WHERE i.i_id = r.i_id and r.i_id=$1 ORDER BY rating LIMIT 10","parameters: $1 = '45360'",,,,,,,,""
2017-04-17 20:08:35.263 EDT,"postgres","epinions",28557,"127.0.0.1:33839",58f558fd.6f8d,8,"COMMIT",2017-04-17 20:08:29 EDT,5/5,0,LOG,00000,"execute S_1: COMMIT",,,,,,,,,""
2017-04-17 20:08:35.264 EDT,"postgres","epinions",28557,"127.0.0.1:33839",58f558fd.6f8d,9,"BEGIN",2017-04-17 20:08:29 EDT,5/6,0,LOG,00000,"execute <unnamed>: BEGIN",,,,,,,,,""
2017-04-17 20:08:35.264 EDT,"postgres","epinions",28557,"127.0.0.1:33839",58f558fd.6f8d,10,"SELECT",2017-04-17 20:08:29 EDT,5/6,0,LOG,00000,"execute <unnamed>: SELECT * FROM review r WHERE r.i_id=$1","parameters: $1 = '99219'",,,,,,,,""
2017-04-17 20:08:35.363 EDT,"postgres","epinions",28568,"127.0.0.1:33850",58f558fd.6f98,14,"COMMIT",2017-04-17 20:08:29 EDT,16/7,0,LOG,00000,"execute S_1: COMMIT",,,,,,,,,""
2017-04-17 20:08:35.364 EDT,"postgres","epinions",28568,"127.0.0.1:33850",58f558fd.6f98,15,"BEGIN",2017-04-17 20:08:29 EDT,16/8,0,LOG,00000,"execute <unnamed>: BEGIN",,,,,,,,,""
2017-04-17 20:08:35.364 EDT,"postgres","epinions",28568,"127.0.0.1:33850",58f558fd.6f98,16,"UPDATE",2017-04-17 20:08:29 EDT,16/8,0,LOG,00000,"execute <unnamed>: UPDATE item SET title = $1 WHERE i_id=$2","parameters: $1 = 'KIPE$7pwWe8c[  y@N^d', $2 = '95486'",,,,,,,,""
2017-04-17 20:08:35.374 EDT,"postgres","epinions",28554,"127.0.0.1:33836",58f558fd.6f8a,12,"COMMIT",2017-04-17 20:08:29 EDT,2/16,0,LOG,00000,"execute S_1: COMMIT",,,,,,,,,""
2017-04-17 20:08:35.375 EDT,"postgres","epinions",28554,"127.0.0.1:33836",58f558fd.6f8a,13,"BEGIN",2017-04-17 20:08:29 EDT,2/17,0,LOG,00000,"execute <unnamed>: BEGIN",,,,,,,,,""
2017-04-17 20:08:35.375 EDT,"postgres","epinions",28554,"127.0.0.1:33836",58f558fd.6f8a,14,"UPDATE",2017-04-17 20:08:29 EDT,2/17,0,LOG,00000,"execute <unnamed>: UPDATE trust SET trust = $1 WHERE source_u_id=$2 AND target_u_id=$3","parameters: $1 = '1', $2 = '97382', $3 = '192763'",,,,,,,,""
2017-04-17 20:08:35.394 EDT,"postgres","epinions",28560,"127.0.0.1:33842",58f558fd.6f90,14,"COMMIT",2017-04-17 20:08:29 EDT,8/7,0,LOG,00000,"execute S_1: COMMIT",,,,,,,,,""
2017-04-17 20:08:35.395 EDT,"postgres","epinions",28560,"127.0.0.1:33842",58f558fd.6f90,15,"BEGIN",2017-04-17 20:08:29 EDT,8/8,0,LOG,00000,"execute <unnamed>: BEGIN",,,,,,,,,""
2017-04-17 20:08:35.395 EDT,"postgres","epinions",28560,"127.0.0.1:33842",58f558fd.6f90,16,"SELECT",2017-04-17 20:08:29 EDT,8/8,0,LOG,00000,"execute <unnamed>: SELECT avg(rating) FROM review r WHERE r.i_id=$1","parameters: $1 = '92419'",,,,,,,,""
2017-04-17 20:08:35.463 EDT,"postgres","epinions",28568,"127.0.0.1:33850",58f558fd.6f98,17,"COMMIT",2017-04-17 20:08:29 EDT,16/8,21287,LOG,00000,"execute S_1: COMMIT",,,,,,,,,""
2017-04-17 20:08:35.466 EDT,"postgres","epinions",28568,"127.0.0.1:33850",58f558fd.6f98,18,"BEGIN",2017-04-17 20:08:29 EDT,16/9,0,LOG,00000,"execute <unnamed>: BEGIN",,,,,,,,,""
2017-04-17 20:08:35.467 EDT,"postgres","epinions",28568,"127.0.0.1:33850",58f558fd.6f98,19,"SELECT",2017-04-17 20:08:29 EDT,16/9,0,LOG,00000,"execute <unnamed>: SELECT avg(rating) FROM review r WHERE r.i_id=$1","parameters: $1 = '34362'",,,,,,,,""
2017-04-17 20:08:35.522 EDT,"postgres","epinions",28556,"127.0.0.1:33838",58f558fd.6f8c,11,"COMMIT",2017-04-17 20:08:29 EDT,4/6,0,LOG,00000,"execute S_1: COMMIT",,,,,,,,,""
2017-04-17 20:08:35.522 EDT,"postgres","epinions",28556,"127.0.0.1:33838",58f558fd.6f8c,12,"BEGIN",2017-04-17 20:08:29 EDT,4/7,0,LOG,00000,"execute <unnamed>: BEGIN",,,,,,,,,""
2017-04-17 20:08:35.523 EDT,"postgres","epinions",28556,"127.0.0.1:33838",58f558fd.6f8c,13,"UPDATE",2017-04-17 20:08:29 EDT,4/7,0,LOG,00000,"execute <unnamed>: UPDATE ""user"" SET name = $1 WHERE u_id=$2","parameters: $1 = 'gADQw', $2 = '66931'",,,,,,,,""
2017-04-17 20:08:35.574 EDT,"postgres","epinions",28566,"127.0.0.1:33848",58f558fd.6f96,11,"COMMIT",2017-04-17 20:08:29 EDT,14/6,0,LOG,00000,"execute S_1: COMMIT",,,,,,,,,""
2017-04-17 20:08:35.575 EDT,"postgres","epinions",28566,"127.0.0.1:33848",58f558fd.6f96,12,"BEGIN",2017-04-17 20:08:29 EDT,14/7,0,LOG,00000,"execute <unnamed>: BEGIN",,,,,,,,,""
2017-04-17 20:08:35.575 EDT,"postgres","epinions",28566,"127.0.0.1:33848",58f558fd.6f96,13,"UPDATE",2017-04-17 20:08:29 EDT,14/7,0,LOG,00000,"execute <unnamed>: UPDATE ""user"" SET name = $1 WHERE u_id=$2","parameters: $1 = '8fLw:', $2 = '179700'",,,,,,,,""
2017-04-17 20:08:35.660 EDT,"postgres","epinions",28572,"127.0.0.1:33854",58f558fd.6f9c,14,"COMMIT",2017-04-17 20:08:29 EDT,20/7,0,LOG,00000,"execute S_1: COMMIT",,,,,,,,,""
2017-04-17 20:08:35.661 EDT,"postgres","epinions",28572,"127.0.0.1:33854",58f558fd.6f9c,15,"BEGIN",2017-04-17 20:08:29 EDT,20/8,0,LOG,00000,"execute <unnamed>: BEGIN",,,,,,,,,""
2017-04-17 20:08:35.662 EDT,"postgres","epinions",28572,"127.0.0.1:33854",58f558fd.6f9c,16,"SELECT",2017-04-17 20:08:29 EDT,20/8,0,LOG,00000,"execute <unnamed>: SELECT * FROM review r, ""user"" u WHERE u.u_id = r.u_id AND r.u_id=$1 ORDER BY rating LIMIT 10","parameters: $1 = '96712'",,,,,,,,""
2017-04-17 20:08:35.671 EDT,"postgres","epinions",28555,"127.0.0.1:33837",58f558fd.6f8b,11,"COMMIT",2017-04-17 20:08:29 EDT,3/6,0,LOG,00000,"execute S_1: COMMIT",,,,,,,,,""
2017-04-17 20:08:35.672 EDT,"postgres","epinions",28555,"127.0.0.1:33837",58f558fd.6f8b,12,"BEGIN",2017-04-17 20:08:29 EDT,3/7,0,LOG,00000,"execute <unnamed>: BEGIN",,,,,,,,,""
2017-04-17 20:08:35.672 EDT,"postgres","epinions",28555,"127.0.0.1:33837",58f558fd.6f8b,13,"SELECT",2017-04-17 20:08:29 EDT,3/7,0,LOG,00000,"execute <unnamed>: SELECT avg(rating) FROM review r, trust t WHERE r.u_id=t.target_u_id AND r.i_id=$1 AND t.source_u_id=$2","parameters: $1 = '31464', $2 = '74016'",,,,,,,,""
2017-04-17 20:08:35.717 EDT,"postgres","epinions",28562,"127.0.0.1:33844",58f558fd.6f92,11,"COMMIT",2017-04-17 20:08:29 EDT,10/6,0,LOG,00000,"execute S_1: COMMIT",,,,,,,,,""
2017-04-17 20:08:35.725 EDT,"postgres","epinions",28562,"127.0.0.1:33844",58f558fd.6f92,12,"BEGIN",2017-04-17 20:08:29 EDT,10/7,0,LOG,00000,"execute <unnamed>: BEGIN",,,,,,,,,""
2017-04-17 20:08:35.725 EDT,"postgres","epinions",28562,"127.0.0.1:33844",58f558fd.6f92,13,"UPDATE",2017-04-17 20:08:29 EDT,10/7,0,LOG,00000,"execute <unnamed>: UPDATE item SET title = $1 WHERE i_id=$2","parameters: $1 = '""b/k~z)Mte.v;wv/!Et]', $2 = '35297'",,,,,,,,""
2017-04-17 20:08:35.756 EDT,"postgres","epinions",28556,"127.0.0.1:33838",58f558fd.6f8c,14,"COMMIT",2017-04-17 20:08:29 EDT,4/7,21288,LOG,00000,"execute S_1: COMMIT",,,,,,,,,""
2017-04-17 20:08:35.766 EDT,"postgres","epinions",28556,"127.0.0.1:33838",58f558fd.6f8c,15,"BEGIN",2017-04-17 20:08:29 EDT,4/8,0,LOG,00000,"execute <unnamed>: BEGIN",,,,,,,,,""
2017-04-17 20:08:35.766 EDT,"postgres","epinions",28556,"127.0.0.1:33838",58f558fd.6f8c,16,"UPDATE",2017-04-17 20:08:29 EDT,4/8,0,LOG,00000,"execute <unnamed>: UPDATE ""user"" SET name = $1 WHERE u_id=$2","parameters: $1 = '''+{>5', $2 = '67441'",,,,,,,,""
2017-04-17 20:08:35.818 EDT,"postgres","epinions",28566,"127.0.0.1:33848",58f558fd.6f96,14,"COMMIT",2017-04-17 20:08:29 EDT,14/7,21290,LOG,00000,"execute S_1: COMMIT",,,,,,,,,""
2017-04-17 20:08:35.822 EDT,"postgres","epinions",28561,"127.0.0.1:33843",58f558fd.6f91,11,"COMMIT",2017-04-17 20:08:29 EDT,9/6,0,LOG,00000,"execute S_1: COMMIT",,,,,,,,,""
2017-04-17 20:08:35.823 EDT,"postgres","epinions",28561,"127.0.0.1:33843",58f558fd.6f91,12,"BEGIN",2017-04-17 20:08:29 EDT,9/7,0,LOG,00000,"execute <unnamed>: BEGIN",,,,,,,,,""
2017-04-17 20:08:35.823 EDT,"postgres","epinions",28566,"127.0.0.1:33848",58f558fd.6f96,15,"BEGIN",2017-04-17 20:08:29 EDT,14/8,0,LOG,00000,"execute <unnamed>: BEGIN",,,,,,,,,""
2017-04-17 20:08:35.823 EDT,"postgres","epinions",28561,"127.0.0.1:33843",58f558fd.6f91,13,"UPDATE",2017-04-17 20:08:29 EDT,9/7,0,LOG,00000,"execute <unnamed>: UPDATE trust SET trust = $1 WHERE source_u_id=$2 AND target_u_id=$3","parameters: $1 = '0', $2 = '9765', $3 = '100830'",,,,,,,,""
2017-04-17 20:08:35.824 EDT,"postgres","epinions",28566,"127.0.0.1:33848",58f558fd.6f96,16,"SELECT",2017-04-17 20:08:29 EDT,14/8,0,LOG,00000,"execute <unnamed>: SELECT avg(rating) FROM review r, trust t WHERE r.u_id=t.target_u_id AND r.i_id=$1 AND t.source_u_id=$2","parameters: $1 = '34480', $2 = '122203'",,,,,,,,""
2017-04-17 20:08:35.834 EDT,"postgres","epinions",28562,"127.0.0.1:33844",58f558fd.6f92,14,"COMMIT",2017-04-17 20:08:29 EDT,10/7,21289,LOG,00000,"execute S_1: COMMIT",,,,,,,,,""
2017-04-17 20:08:35.839 EDT,"postgres","epinions",28562,"127.0.0.1:33844",58f558fd.6f92,15,"BEGIN",2017-04-17 20:08:29 EDT,10/8,0,LOG,00000,"execute <unnamed>: BEGIN",,,,,,,,,""
2017-04-17 20:08:35.839 EDT,"postgres","epinions",28562,"127.0.0.1:33844",58f558fd.6f92,16,"UPDATE",2017-04-17 20:08:29 EDT,10/8,0,LOG,00000,"execute <unnamed>: UPDATE ""user"" SET name = $1 WHERE u_id=$2","parameters: $1 = '*W1hD', $2 = '12935'",,,,,,,,""
2017-04-17 20:08:35.990 EDT,"postgres","epinions",28556,"127.0.0.1:33838",58f558fd.6f8c,17,"COMMIT",2017-04-17 20:08:29 EDT,4/8,21291,LOG,00000,"execute S_1: COMMIT",,,,,,,,,""
2017-04-17 20:08:35.997 EDT,"postgres","epinions",28556,"127.0.0.1:33838",58f558fd.6f8c,18,"BEGIN",2017-04-17 20:08:29 EDT,4/9,0,LOG,00000,"execute <unnamed>: BEGIN",,,,,,,,,""
2017-04-17 20:08:35.997 EDT,"postgres","epinions",28556,"127.0.0.1:33838",58f558fd.6f8c,19,"SELECT",2017-04-17 20:08:29 EDT,4/9,0,LOG,00000,"execute <unnamed>: SELECT * FROM review r WHERE r.i_id=$1","parameters: $1 = '68582'",,,,,,,,""
2017-04-17 20:08:36.058 EDT,"postgres","epinions",28562,"127.0.0.1:33844",58f558fd.6f92,17,"COMMIT",2017-04-17 20:08:29 EDT,10/8,21292,LOG,00000,"execute S_1: COMMIT",,,,,,,,,""
2017-04-17 20:08:36.067 EDT,"postgres","epinions",28562,"127.0.0.1:33844",58f558fd.6f92,18,"BEGIN",2017-04-17 20:08:29 EDT,10/9,0,LOG,00000,"execute <unnamed>: BEGIN",,,,,,,,,""
2017-04-17 20:08:36.067 EDT,"postgres","epinions",28562,"127.0.0.1:33844",58f558fd.6f92,19,"SELECT",2017-04-17 20:08:29 EDT,10/9,0,LOG,00000,"execute <unnamed>: SELECT * FROM review r, ""user"" u WHERE u.u_id = r.u_id AND r.u_id=$1 ORDER BY rating LIMIT 10","parameters: $1 = '127359'",,,,,,,,""
2017-04-17 20:08:36.238 EDT,"postgres","epinions",28564,"127.0.0.1:33846",58f558fd.6f94,14,"COMMIT",2017-04-17 20:08:29 EDT,12/7,0,LOG,00000,"execute S_1: COMMIT",,,,,,,,,""
2017-04-17 20:08:36.243 EDT,"postgres","epinions",28573,"127.0.0.1:33855",58f558fd.6f9d,14,"SELECT",2017-04-17 20:08:29 EDT,21/7,0,LOG,00000,"execute <unnamed>: SELECT * FROM trust t WHERE t.source_u_id=$1","parameters: $1 = '28401'",,,,,,,,""
2017-04-17 20:08:36.244 EDT,"postgres","epinions",28564,"127.0.0.1:33846",58f558fd.6f94,15,"BEGIN",2017-04-17 20:08:29 EDT,12/8,0,LOG,00000,"execute <unnamed>: BEGIN",,,,,,,,,""
2017-04-17 20:08:36.244 EDT,"postgres","epinions",28564,"127.0.0.1:33846",58f558fd.6f94,16,"SELECT",2017-04-17 20:08:29 EDT,12/8,0,LOG,00000,"execute <unnamed>: SELECT avg(rating) FROM review r WHERE r.i_id=$1","parameters: $1 = '51352'",,,,,,,,""
2017-04-17 20:08:36.291 EDT,"postgres","epinions",28558,"127.0.0.1:33840",58f558fd.6f8e,14,"SELECT",2017-04-17 20:08:29 EDT,6/7,0,LOG,00000,"execute <unnamed>: SELECT * FROM trust t WHERE t.source_u_id=$1","parameters: $1 = '165825'",,,,,,,,""
2017-04-17 20:08:36.314 EDT,"postgres","epinions",28559,"127.0.0.1:33841",58f558fd.6f8f,11,"COMMIT",2017-04-17 20:08:29 EDT,7/6,0,LOG,00000,"execute S_1: COMMIT",,,,,,,,,""
2017-04-17 20:08:36.314 EDT,"postgres","epinions",28559,"127.0.0.1:33841",58f558fd.6f8f,12,"BEGIN",2017-04-17 20:08:29 EDT,7/7,0,LOG,00000,"execute <unnamed>: BEGIN",,,,,,,,,""
2017-04-17 20:08:36.314 EDT,"postgres","epinions",28559,"127.0.0.1:33841",58f558fd.6f8f,13,"UPDATE",2017-04-17 20:08:29 EDT,7/7,0,LOG,00000,"execute <unnamed>: UPDATE trust SET trust = $1 WHERE source_u_id=$2 AND target_u_id=$3","parameters: $1 = '1', $2 = '67757', $3 = '171995'",,,,,,,,""
2017-04-17 20:08:36.657 EDT,"postgres","epinions",28554,"127.0.0.1:33836",58f558fd.6f8a,15,"COMMIT",2017-04-17 20:08:29 EDT,2/17,0,LOG,00000,"execute S_1: COMMIT",,,,,,,,,""
2017-04-17 20:08:36.658 EDT,"postgres","epinions",28554,"127.0.0.1:33836",58f558fd.6f8a,16,"BEGIN",2017-04-17 20:08:29 EDT,2/18,0,LOG,00000,"execute <unnamed>: BEGIN",,,,,,,,,""
2017-04-17 20:08:36.658 EDT,"postgres","epinions",28554,"127.0.0.1:33836",58f558fd.6f8a,17,"SELECT",2017-04-17 20:08:29 EDT,2/18,0,LOG,00000,"execute <unnamed>: SELECT * FROM review r WHERE r.i_id=$1","parameters: $1 = '35027'",,,,,,,,""
2017-04-17 20:08:36.678 EDT,"postgres","epinions",28565,"127.0.0.1:33847",58f558fd.6f95,9,"COMMIT",2017-04-17 20:08:29 EDT,13/5,0,LOG,00000,"execute S_1: COMMIT",,,,,,,,,""
2017-04-17 20:08:36.682 EDT,"postgres","epinions",28565,"127.0.0.1:33847",58f558fd.6f95,10,"BEGIN",2017-04-17 20:08:29 EDT,13/6,0,LOG,00000,"execute <unnamed>: BEGIN",,,,,,,,,""
2017-04-17 20:08:36.683 EDT,"postgres","epinions",28565,"127.0.0.1:33847",58f558fd.6f95,11,"SELECT",2017-04-17 20:08:29 EDT,13/6,0,LOG,00000,"execute <unnamed>: SELECT * FROM review r, ""user"" u WHERE u.u_id = r.u_id AND r.u_id=$1 ORDER BY rating LIMIT 10","parameters: $1 = '74027'",,,,,,,,""
2017-04-17 20:08:36.827 EDT,"postgres","epinions",28563,"127.0.0.1:33845",58f558fd.6f93,11,"COMMIT",2017-04-17 20:08:29 EDT,11/6,0,LOG,00000,"execute S_1: COMMIT",,,,,,,,,""
2017-04-17 20:08:36.828 EDT,"postgres","epinions",28563,"127.0.0.1:33845",58f558fd.6f93,12,"BEGIN",2017-04-17 20:08:29 EDT,11/7,0,LOG,00000,"execute <unnamed>: BEGIN",,,,,,,,,""
2017-04-17 20:08:36.828 EDT,"postgres","epinions",28563,"127.0.0.1:33845",58f558fd.6f93,13,"SELECT",2017-04-17 20:08:29 EDT,11/7,0,LOG,00000,"execute <unnamed>: SELECT avg(rating) FROM review r WHERE r.i_id=$1","parameters: $1 = '88748'",,,,,,,,""
2017-04-17 20:08:37.101 EDT,"postgres","epinions",28570,"127.0.0.1:33852",58f558fd.6f9a,14,"COMMIT",2017-04-17 20:08:29 EDT,18/7,0,LOG,00000,"execute S_1: COMMIT",,,,,,,,,""
2017-04-17 20:08:37.101 EDT,"postgres","epinions",28570,"127.0.0.1:33852",58f558fd.6f9a,15,"BEGIN",2017-04-17 20:08:29 EDT,18/8,0,LOG,00000,"execute <unnamed>: BEGIN",,,,,,,,,""
2017-04-17 20:08:37.101 EDT,"postgres","epinions",28570,"127.0.0.1:33852",58f558fd.6f9a,16,"SELECT",2017-04-17 20:08:29 EDT,18/8,0,LOG,00000,"execute <unnamed>: SELECT avg(rating) FROM review r WHERE r.i_id=$1","parameters: $1 = '85005'",,,,,,,,""
2017-04-17 20:08:37.246 EDT,"postgres","epinions",28561,"127.0.0.1:33843",58f558fd.6f91,14,"COMMIT",2017-04-17 20:08:29 EDT,9/7,0,LOG,00000,"execute S_1: COMMIT",,,,,,,,,""
2017-04-17 20:08:37.254 EDT,"postgres","epinions",28561,"127.0.0.1:33843",58f558fd.6f91,15,"BEGIN",2017-04-17 20:08:29 EDT,9/8,0,LOG,00000,"execute <unnamed>: BEGIN",,,,,,,,,""
2017-04-17 20:08:37.255 EDT,"postgres","epinions",28561,"127.0.0.1:33843",58f558fd.6f91,16,"UPDATE",2017-04-17 20:08:29 EDT,9/8,0,LOG,00000,"execute <unnamed>: UPDATE ""user"" SET name = $1 WHERE u_id=$2","parameters: $1 = 'IN~8D', $2 = '31415'",,,,,,,,""
2017-04-17 20:08:37.306 EDT,"postgres","epinions",28569,"127.0.0.1:33851",58f558fd.6f99,14,"COMMIT",2017-04-17 20:08:29 EDT,17/7,0,LOG,00000,"execute S_1: COMMIT",,,,,,,,,""
2017-04-17 20:08:37.307 EDT,"postgres","epinions",28567,"127.0.0.1:33849",58f558fd.6f97,11,"COMMIT",2017-04-17 20:08:29 EDT,15/6,0,LOG,00000,"execute S_1: COMMIT",,,,,,,,,""
2017-04-17 20:08:37.307 EDT,"postgres","epinions",28569,"127.0.0.1:33851",58f558fd.6f99,15,"BEGIN",2017-04-17 20:08:29 EDT,17/8,0,LOG,00000,"execute <unnamed>: BEGIN",,,,,,,,,""
2017-04-17 20:08:37.307 EDT,"postgres","epinions",28567,"127.0.0.1:33849",58f558fd.6f97,12,"BEGIN",2017-04-17 20:08:29 EDT,15/7,0,LOG,00000,"execute <unnamed>: BEGIN",,,,,,,,,""
2017-04-17 20:08:37.312 EDT,"postgres","epinions",28567,"127.0.0.1:33849",58f558fd.6f97,13,"SELECT",2017-04-17 20:08:29 EDT,15/7,0,LOG,00000,"execute <unnamed>: SELECT * FROM review r, ""user"" u WHERE u.u_id = r.u_id AND r.u_id=$1 ORDER BY rating LIMIT 10","parameters: $1 = '162199'",,,,,,,,""
2017-04-17 20:08:37.312 EDT,"postgres","epinions",28569,"127.0.0.1:33851",58f558fd.6f99,16,"SELECT",2017-04-17 20:08:29 EDT,17/8,0,LOG,00000,"execute <unnamed>: SELECT * FROM review r, item i WHERE i.i_id = r.i_id and r.i_id=$1 ORDER BY rating LIMIT 10","parameters: $1 = '51640'",,,,,,,,""
2017-04-17 20:08:37.392 EDT,"postgres","epinions",28571,"127.0.0.1:33853",58f558fd.6f9b,14,"COMMIT",2017-04-17 20:08:29 EDT,19/7,0,LOG,00000,"execute S_1: COMMIT",,,,,,,,,""
2017-04-17 20:08:37.393 EDT,"postgres","epinions",28571,"127.0.0.1:33853",58f558fd.6f9b,15,"BEGIN",2017-04-17 20:08:29 EDT,19/8,0,LOG,00000,"execute <unnamed>: BEGIN",,,,,,,,,""
2017-04-17 20:08:37.393 EDT,"postgres","epinions",28571,"127.0.0.1:33853",58f558fd.6f9b,16,"SELECT",2017-04-17 20:08:29 EDT,19/8,0,LOG,00000,"execute <unnamed>: SELECT avg(rating) FROM review r WHERE r.i_id=$1","parameters: $1 = '34883'",,,,,,,,""
2017-04-17 20:08:37.475 EDT,"postgres","epinions",28561,"127.0.0.1:33843",58f558fd.6f91,17,"COMMIT",2017-04-17 20:08:29 EDT,9/8,21293,LOG,00000,"execute S_1: COMMIT",,,,,,,,,""
2017-04-17 20:08:37.481 EDT,"postgres","epinions",28561,"127.0.0.1:33843",58f558fd.6f91,18,"BEGIN",2017-04-17 20:08:29 EDT,9/9,0,LOG,00000,"execute <unnamed>: BEGIN",,,,,,,,,""
2017-04-17 20:08:37.482 EDT,"postgres","epinions",28561,"127.0.0.1:33843",58f558fd.6f91,19,"SELECT",2017-04-17 20:08:29 EDT,9/9,0,LOG,00000,"execute <unnamed>: SELECT avg(rating) FROM review r, trust t WHERE r.u_id=t.target_u_id AND r.i_id=$1 AND t.source_u_id=$2","parameters: $1 = '45103', $2 = '194016'",,,,,,,,""
2017-04-17 20:08:37.525 EDT,"postgres","epinions",28557,"127.0.0.1:33839",58f558fd.6f8d,11,"SELECT",2017-04-17 20:08:29 EDT,5/6,0,LOG,00000,"execute <unnamed>: SELECT * FROM trust t WHERE t.source_u_id=$1","parameters: $1 = '85984'",,,,,,,,""
2017-04-17 20:08:37.566 EDT,"postgres","epinions",28558,"127.0.0.1:33840",58f558fd.6f8e,15,"COMMIT",2017-04-17 20:08:29 EDT,6/7,0,LOG,00000,"execute S_1: COMMIT",,,,,,,,,""
2017-04-17 20:08:37.566 EDT,"postgres","epinions",28568,"127.0.0.1:33850",58f558fd.6f98,20,"COMMIT",2017-04-17 20:08:29 EDT,16/9,0,LOG,00000,"execute S_1: COMMIT",,,,,,,,,""
2017-04-17 20:08:37.567 EDT,"postgres","epinions",28568,"127.0.0.1:33850",58f558fd.6f98,21,"BEGIN",2017-04-17 20:08:29 EDT,16/10,0,LOG,00000,"execute <unnamed>: BEGIN",,,,,,,,,""
2017-04-17 20:08:37.571 EDT,"postgres","epinions",28568,"127.0.0.1:33850",58f558fd.6f98,22,"UPDATE",2017-04-17 20:08:29 EDT,16/10,0,LOG,00000,"execute <unnamed>: UPDATE review SET rating = $1 WHERE i_id=$2 AND u_id=$3","parameters: $1 = '670', $2 = '48792', $3 = '17082'",,,,,,,,""
2017-04-17 20:08:37.575 EDT,"postgres","epinions",28558,"127.0.0.1:33840",58f558fd.6f8e,16,"BEGIN",2017-04-17 20:08:29 EDT,6/8,0,LOG,00000,"execute <unnamed>: BEGIN",,,,,,,,,""
2017-04-17 20:08:37.575 EDT,"postgres","epinions",28558,"127.0.0.1:33840",58f558fd.6f8e,17,"UPDATE",2017-04-17 20:08:29 EDT,6/8,0,LOG,00000,"execute <unnamed>: UPDATE trust SET trust = $1 WHERE source_u_id=$2 AND target_u_id=$3","parameters: $1 = '1', $2 = '105036', $3 = '34276'",,,,,,,,""
2017-04-17 20:08:37.610 EDT,"postgres","epinions",28560,"127.0.0.1:33842",58f558fd.6f90,17,"COMMIT",2017-04-17 20:08:29 EDT,8/8,0,LOG,00000,"execute S_1: COMMIT",,,,,,,,,""
2017-04-17 20:08:37.611 EDT,"postgres","epinions",28560,"127.0.0.1:33842",58f558fd.6f90,18,"BEGIN",2017-04-17 20:08:29 EDT,8/9,0,LOG,00000,"execute <unnamed>: BEGIN",,,,,,,,,""
2017-04-17 20:08:37.611 EDT,"postgres","epinions",28560,"127.0.0.1:33842",58f558fd.6f90,19,"UPDATE",2017-04-17 20:08:29 EDT,8/9,0,LOG,00000,"execute <unnamed>: UPDATE trust SET trust = $1 WHERE source_u_id=$2 AND target_u_id=$3","parameters: $1 = '1', $2 = '16984', $3 = '132906'",,,,,,,,""
2017-04-17 20:08:37.656 EDT,"postgres","epinions",28573,"127.0.0.1:33855",58f558fd.6f9d,15,"COMMIT",2017-04-17 20:08:29 EDT,21/7,0,LOG,00000,"execute S_1: COMMIT",,,,,,,,,""
2017-04-17 20:08:37.657 EDT,"postgres","epinions",28573,"127.0.0.1:33855",58f558fd.6f9d,16,"BEGIN",2017-04-17 20:08:29 EDT,21/8,0,LOG,00000,"execute <unnamed>: BEGIN",,,,,,,,,""
2017-04-17 20:08:37.668 EDT,"postgres","epinions",28573,"127.0.0.1:33855",58f558fd.6f9d,17,"SELECT",2017-04-17 20:08:29 EDT,21/8,0,LOG,00000,"execute <unnamed>: SELECT * FROM review r, ""user"" u WHERE u.u_id = r.u_id AND r.u_id=$1 ORDER BY rating LIMIT 10","parameters: $1 = '185877'",,,,,,,,""
2017-04-17 20:08:37.698 EDT,"postgres","epinions",28559,"127.0.0.1:33841",58f558fd.6f8f,14,"COMMIT",2017-04-17 20:08:29 EDT,7/7,0,LOG,00000,"execute S_1: COMMIT",,,,,,,,,""
2017-04-17 20:08:37.705 EDT,"postgres","epinions",28559,"127.0.0.1:33841",58f558fd.6f8f,15,"BEGIN",2017-04-17 20:08:29 EDT,7/8,0,LOG,00000,"execute <unnamed>: BEGIN",,,,,,,,,""
2017-04-17 20:08:37.705 EDT,"postgres","epinions",28559,"127.0.0.1:33841",58f558fd.6f8f,16,"UPDATE",2017-04-17 20:08:29 EDT,7/8,0,LOG,00000,"execute <unnamed>: UPDATE review SET rating = $1 WHERE i_id=$2 AND u_id=$3","parameters: $1 = '363', $2 = '13289', $3 = '39497'",,,,,,,,""
2017-04-17 20:08:37.950 EDT,"postgres","epinions",28572,"127.0.0.1:33854",58f558fd.6f9c,17,"COMMIT",2017-04-17 20:08:29 EDT,20/8,0,LOG,00000,"execute S_1: COMMIT",,,,,,,,,""
2017-04-17 20:08:37.951 EDT,"postgres","epinions",28572,"127.0.0.1:33854",58f558fd.6f9c,18,"BEGIN",2017-04-17 20:08:29 EDT,20/9,0,LOG,00000,"execute <unnamed>: BEGIN",,,,,,,,,""
2017-04-17 20:08:37.951 EDT,"postgres","epinions",28572,"127.0.0.1:33854",58f558fd.6f9c,19,"UPDATE",2017-04-17 20:08:29 EDT,20/9,0,LOG,00000,"execute <unnamed>: UPDATE item SET title = $1 WHERE i_id=$2","parameters: $1 = '[/Sc.zMqt]Da]RR.Hpx=', $2 = '59176'",,,,,,,,""
2017-04-17 20:08:38.039 EDT,"postgres","epinions",28556,"127.0.0.1:33838",58f558fd.6f8c,20,"SELECT",2017-04-17 20:08:29 EDT,4/9,0,LOG,00000,"execute <unnamed>: SELECT * FROM trust t WHERE t.source_u_id=$1","parameters: $1 = '151950'",,,,,,,,""
2017-04-17 20:08:38.078 EDT,"postgres","epinions",28572,"127.0.0.1:33854",58f558fd.6f9c,20,"COMMIT",2017-04-17 20:08:29 EDT,20/9,21294,LOG,00000,"execute S_1: COMMIT",,,,,,,,,""
2017-04-17 20:08:38.081 EDT,"postgres","epinions",28572,"127.0.0.1:33854",58f558fd.6f9c,21,"BEGIN",2017-04-17 20:08:29 EDT,20/10,0,LOG,00000,"execute <unnamed>: BEGIN",,,,,,,,,""
2017-04-17 20:08:38.082 EDT,"postgres","epinions",28572,"127.0.0.1:33854",58f558fd.6f9c,22,"SELECT",2017-04-17 20:08:29 EDT,20/10,0,LOG,00000,"execute <unnamed>: SELECT avg(rating) FROM review r, trust t WHERE r.u_id=t.target_u_id AND r.i_id=$1 AND t.source_u_id=$2","parameters: $1 = '28435', $2 = '114523'",,,,,,,,""
2017-04-17 20:08:38.254 EDT,"postgres","epinions",28564,"127.0.0.1:33846",58f558fd.6f94,17,"COMMIT",2017-04-17 20:08:29 EDT,12/8,0,LOG,00000,"execute S_1: COMMIT",,,,,,,,,""
2017-04-17 20:08:38.256 EDT,"postgres","epinions",28564,"127.0.0.1:33846",58f558fd.6f94,18,"BEGIN",2017-04-17 20:08:29 EDT,12/9,0,LOG,00000,"execute <unnamed>: BEGIN",,,,,,,,,""
2017-04-17 20:08:38.257 EDT,"postgres","epinions",28564,"127.0.0.1:33846",58f558fd.6f94,19,"UPDATE",2017-04-17 20:08:29 EDT,12/9,0,LOG,00000,"execute <unnamed>: UPDATE trust SET trust = $1 WHERE source_u_id=$2 AND target_u_id=$3","parameters: $1 = '1', $2 = '119063', $3 = '86620'",,,,,,,,""
2017-04-17 20:08:38.402 EDT,"postgres","epinions",28562,"127.0.0.1:33844",58f558fd.6f92,20,"COMMIT",2017-04-17 20:08:29 EDT,10/9,0,LOG,00000,"execute S_1: COMMIT",,,,,,,,,""
2017-04-17 20:08:38.407 EDT,"postgres","epinions",28562,"127.0.0.1:33844",58f558fd.6f92,21,"BEGIN",2017-04-17 20:08:29 EDT,10/10,0,LOG,00000,"execute <unnamed>: BEGIN",,,,,,,,,""
2017-04-17 20:08:38.407 EDT,"postgres","epinions",28562,"127.0.0.1:33844",58f558fd.6f92,22,"UPDATE",2017-04-17 20:08:29 EDT,10/10,0,LOG,00000,"execute <unnamed>: UPDATE item SET title = $1 WHERE i_id=$2","parameters: $1 = 'n_!<fKU% pLqi\D@>bt1', $2 = '33393'",,,,,,,,""
2017-04-17 20:08:38.555 EDT,"postgres","epinions",28562,"127.0.0.1:33844",58f558fd.6f92,23,"COMMIT",2017-04-17 20:08:29 EDT,10/10,21295,LOG,00000,"execute S_1: COMMIT",,,,,,,,,""
2017-04-17 20:08:38.557 EDT,"postgres","epinions",28562,"127.0.0.1:33844",58f558fd.6f92,24,"BEGIN",2017-04-17 20:08:29 EDT,10/11,0,LOG,00000,"execute <unnamed>: BEGIN",,,,,,,,,""
2017-04-17 20:08:38.558 EDT,"postgres","epinions",28562,"127.0.0.1:33844",58f558fd.6f92,25,"SELECT",2017-04-17 20:08:29 EDT,10/11,0,LOG,00000,"execute <unnamed>: SELECT * FROM review r WHERE r.i_id=$1","parameters: $1 = '75350'",,,,,,,,""
2017-04-17 20:08:38.732 EDT,"postgres","epinions",28554,"127.0.0.1:33836",58f558fd.6f8a,18,"SELECT",2017-04-17 20:08:29 EDT,2/18,0,LOG,00000,"execute <unnamed>: SELECT * FROM trust t WHERE t.source_u_id=$1","parameters: $1 = '156278'",,,,,,,,""
2017-04-17 20:08:38.850 EDT,"postgres","epinions",28563,"127.0.0.1:33845",58f558fd.6f93,14,"COMMIT",2017-04-17 20:08:29 EDT,11/7,0,LOG,00000,"execute S_1: COMMIT",,,,,,,,,""
2017-04-17 20:08:38.851 EDT,"postgres","epinions",28563,"127.0.0.1:33845",58f558fd.6f93,15,"BEGIN",2017-04-17 20:08:29 EDT,11/8,0,LOG,00000,"execute <unnamed>: BEGIN",,,,,,,,,""
2017-04-17 20:08:38.851 EDT,"postgres","epinions",28563,"127.0.0.1:33845",58f558fd.6f93,16,"UPDATE",2017-04-17 20:08:29 EDT,11/8,0,LOG,00000,"execute <unnamed>: UPDATE item SET title = $1 WHERE i_id=$2","parameters: $1 = 'K,nu(%HV^O]jbWtXahWV', $2 = '40708'",,,,,,,,""
2017-04-17 20:08:38.875 EDT,"postgres","epinions",28557,"127.0.0.1:33839",58f558fd.6f8d,12,"COMMIT",2017-04-17 20:08:29 EDT,5/6,0,LOG,00000,"execute S_1: COMMIT",,,,,,,,,""
2017-04-17 20:08:38.875 EDT,"postgres","epinions",28557,"127.0.0.1:33839",58f558fd.6f8d,13,"BEGIN",2017-04-17 20:08:29 EDT,5/7,0,LOG,00000,"execute <unnamed>: BEGIN",,,,,,,,,""
2017-04-17 20:08:38.875 EDT,"postgres","epinions",28557,"127.0.0.1:33839",58f558fd.6f8d,14,"SELECT",2017-04-17 20:08:29 EDT,5/7,0,LOG,00000,"execute <unnamed>: SELECT * FROM review r, ""user"" u WHERE u.u_id = r.u_id AND r.u_id=$1 ORDER BY rating LIMIT 10","parameters: $1 = '150865'",,,,,,,,""
2017-04-17 20:08:39.006 EDT,"postgres","epinions",28565,"127.0.0.1:33847",58f558fd.6f95,12,"COMMIT",2017-04-17 20:08:29 EDT,13/6,0,LOG,00000,"execute S_1: COMMIT",,,,,,,,,""
2017-04-17 20:08:39.007 EDT,"postgres","epinions",28565,"127.0.0.1:33847",58f558fd.6f95,13,"BEGIN",2017-04-17 20:08:29 EDT,13/7,0,LOG,00000,"execute <unnamed>: BEGIN",,,,,,,,,""
2017-04-17 20:08:39.007 EDT,"postgres","epinions",28558,"127.0.0.1:33840",58f558fd.6f8e,18,"COMMIT",2017-04-17 20:08:29 EDT,6/8,0,LOG,00000,"execute S_1: COMMIT",,,,,,,,,""
2017-04-17 20:08:39.014 EDT,"postgres","epinions",28565,"127.0.0.1:33847",58f558fd.6f95,14,"UPDATE",2017-04-17 20:08:29 EDT,13/7,0,LOG,00000,"execute <unnamed>: UPDATE ""user"" SET name = $1 WHERE u_id=$2","parameters: $1 = 'U""2$\', $2 = '87064'",,,,,,,,""
2017-04-17 20:08:39.014 EDT,"postgres","epinions",28558,"127.0.0.1:33840",58f558fd.6f8e,19,"BEGIN",2017-04-17 20:08:29 EDT,6/9,0,LOG,00000,"execute <unnamed>: BEGIN",,,,,,,,,""
2017-04-17 20:08:39.015 EDT,"postgres","epinions",28558,"127.0.0.1:33840",58f558fd.6f8e,20,"SELECT",2017-04-17 20:08:29 EDT,6/9,0,LOG,00000,"execute <unnamed>: SELECT avg(rating) FROM review r, trust t WHERE r.u_id=t.target_u_id AND r.i_id=$1 AND t.source_u_id=$2","parameters: $1 = '71081', $2 = '6608'",,,,,,,,""
2017-04-17 20:08:39.025 EDT,"postgres","epinions",28563,"127.0.0.1:33845",58f558fd.6f93,17,"COMMIT",2017-04-17 20:08:29 EDT,11/8,21296,LOG,00000,"execute S_1: COMMIT",,,,,,,,,""
2017-04-17 20:08:39.030 EDT,"postgres","epinions",28560,"127.0.0.1:33842",58f558fd.6f90,20,"COMMIT",2017-04-17 20:08:29 EDT,8/9,0,LOG,00000,"execute S_1: COMMIT",,,,,,,,,""
2017-04-17 20:08:39.031 EDT,"postgres","epinions",28560,"127.0.0.1:33842",58f558fd.6f90,21,"BEGIN",2017-04-17 20:08:29 EDT,8/10,0,LOG,00000,"execute <unnamed>: BEGIN",,,,,,,,,""
2017-04-17 20:08:39.031 EDT,"postgres","epinions",28560,"127.0.0.1:33842",58f558fd.6f90,22,"SELECT",2017-04-17 20:08:29 EDT,8/10,0,LOG,00000,"execute <unnamed>: SELECT avg(rating) FROM review r WHERE r.i_id=$1","parameters: $1 = '6097'",,,,,,,,""
2017-04-17 20:08:39.031 EDT,"postgres","epinions",28563,"127.0.0.1:33845",58f558fd.6f93,18,"BEGIN",2017-04-17 20:08:29 EDT,11/9,0,LOG,00000,"execute <unnamed>: BEGIN",,,,,,,,,""
2017-04-17 20:08:39.031 EDT,"postgres","epinions",28563,"127.0.0.1:33845",58f558fd.6f93,19,"SELECT",2017-04-17 20:08:29 EDT,11/9,0,LOG,00000,"execute <unnamed>: SELECT avg(rating) FROM review r, trust t WHERE r.u_id=t.target_u_id AND r.i_id=$1 AND t.source_u_id=$2","parameters: $1 = '90609', $2 = '139152'",,,,,,,,""
2017-04-17 20:08:39.199 EDT,"postgres","epinions",28570,"127.0.0.1:33852",58f558fd.6f9a,17,"COMMIT",2017-04-17 20:08:29 EDT,18/8,0,LOG,00000,"execute S_1: COMMIT",,,,,,,,,""
2017-04-17 20:08:39.200 EDT,"postgres","epinions",28570,"127.0.0.1:33852",58f558fd.6f9a,18,"BEGIN",2017-04-17 20:08:29 EDT,18/9,0,LOG,00000,"execute <unnamed>: BEGIN",,,,,,,,,""
2017-04-17 20:08:39.200 EDT,"postgres","epinions",28570,"127.0.0.1:33852",58f558fd.6f9a,19,"SELECT",2017-04-17 20:08:29 EDT,18/9,0,LOG,00000,"execute <unnamed>: SELECT avg(rating) FROM review r WHERE r.i_id=$1","parameters: $1 = '29287'",,,,,,,,""
2017-04-17 20:08:39.212 EDT,"postgres","epinions",28565,"127.0.0.1:33847",58f558fd.6f95,15,"COMMIT",2017-04-17 20:08:29 EDT,13/7,21297,LOG,00000,"execute S_1: COMMIT",,,,,,,,,""
2017-04-17 20:08:39.217 EDT,"postgres","epinions",28565,"127.0.0.1:33847",58f558fd.6f95,16,"BEGIN",2017-04-17 20:08:29 EDT,13/8,0,LOG,00000,"execute <unnamed>: BEGIN",,,,,,,,,""
2017-04-17 20:08:39.217 EDT,"postgres","epinions",28565,"127.0.0.1:33847",58f558fd.6f95,17,"SELECT",2017-04-17 20:08:29 EDT,13/8,0,LOG,00000,"execute <unnamed>: SELECT * FROM review r, ""user"" u WHERE u.u_id = r.u_id AND r.u_id=$1 ORDER BY rating LIMIT 10","parameters: $1 = '76993'",,,,,,,,""
2017-04-17 20:08:39.406 EDT,"postgres","epinions",28555,"127.0.0.1:33837",58f558fd.6f8b,14,"COMMIT",2017-04-17 20:08:29 EDT,3/7,0,LOG,00000,"execute S_1: COMMIT",,,,,,,,,""
2017-04-17 20:08:39.407 EDT,"postgres","epinions",28569,"127.0.0.1:33851",58f558fd.6f99,17,"COMMIT",2017-04-17 20:08:29 EDT,17/8,0,LOG,00000,"execute S_1: COMMIT",,,,,,,,,""
2017-04-17 20:08:39.408 EDT,"postgres","epinions",28569,"127.0.0.1:33851",58f558fd.6f99,18,"BEGIN",2017-04-17 20:08:29 EDT,17/9,0,LOG,00000,"execute <unnamed>: BEGIN",,,,,,,,,""
2017-04-17 20:08:39.408 EDT,"postgres","epinions",28569,"127.0.0.1:33851",58f558fd.6f99,19,"UPDATE",2017-04-17 20:08:29 EDT,17/9,0,LOG,00000,"execute <unnamed>: UPDATE trust SET trust = $1 WHERE source_u_id=$2 AND target_u_id=$3","parameters: $1 = '1', $2 = '12352', $3 = '45413'",,,,,,,,""
2017-04-17 20:08:39.411 EDT,"postgres","epinions",28555,"127.0.0.1:33837",58f558fd.6f8b,15,"BEGIN",2017-04-17 20:08:29 EDT,3/8,0,LOG,00000,"execute <unnamed>: BEGIN",,,,,,,,,""
2017-04-17 20:08:39.411 EDT,"postgres","epinions",28555,"127.0.0.1:33837",58f558fd.6f8b,16,"UPDATE",2017-04-17 20:08:29 EDT,3/8,0,LOG,00000,"execute <unnamed>: UPDATE trust SET trust = $1 WHERE source_u_id=$2 AND target_u_id=$3","parameters: $1 = '1', $2 = '124373', $3 = '76674'",,,,,,,,""
2017-04-17 20:08:39.446 EDT,"postgres","epinions",28571,"127.0.0.1:33853",58f558fd.6f9b,17,"COMMIT",2017-04-17 20:08:29 EDT,19/8,0,LOG,00000,"execute S_1: COMMIT",,,,,,,,,""
2017-04-17 20:08:39.446 EDT,"postgres","epinions",28571,"127.0.0.1:33853",58f558fd.6f9b,18,"BEGIN",2017-04-17 20:08:29 EDT,19/9,0,LOG,00000,"execute <unnamed>: BEGIN",,,,,,,,,""
2017-04-17 20:08:39.447 EDT,"postgres","epinions",28571,"127.0.0.1:33853",58f558fd.6f9b,19,"UPDATE",2017-04-17 20:08:29 EDT,19/9,0,LOG,00000,"execute <unnamed>: UPDATE trust SET trust = $1 WHERE source_u_id=$2 AND target_u_id=$3","parameters: $1 = '1', $2 = '109104', $3 = '129141'",,,,,,,,""
2017-04-17 20:08:39.449 EDT,"postgres","epinions",28566,"127.0.0.1:33848",58f558fd.6f96,17,"COMMIT",2017-04-17 20:08:29 EDT,14/8,0,LOG,00000,"execute S_1: COMMIT",,,,,,,,,""
2017-04-17 20:08:39.449 EDT,"postgres","epinions",28566,"127.0.0.1:33848",58f558fd.6f96,18,"BEGIN",2017-04-17 20:08:29 EDT,14/9,0,LOG,00000,"execute <unnamed>: BEGIN",,,,,,,,,""
2017-04-17 20:08:39.449 EDT,"postgres","epinions",28566,"127.0.0.1:33848",58f558fd.6f96,19,"SELECT",2017-04-17 20:08:29 EDT,14/9,0,LOG,00000,"execute <unnamed>: SELECT * FROM review r WHERE r.i_id=$1","parameters: $1 = '29214'",,,,,,,,""
2017-04-17 20:08:39.539 EDT,"postgres","epinions",28556,"127.0.0.1:33838",58f558fd.6f8c,21,"COMMIT",2017-04-17 20:08:29 EDT,4/9,0,LOG,00000,"execute S_1: COMMIT",,,,,,,,,""
2017-04-17 20:08:39.539 EDT,"postgres","epinions",28556,"127.0.0.1:33838",58f558fd.6f8c,22,"BEGIN",2017-04-17 20:08:29 EDT,4/10,0,LOG,00000,"execute <unnamed>: BEGIN",,,,,,,,,""
2017-04-17 20:08:39.546 EDT,"postgres","epinions",28556,"127.0.0.1:33838",58f558fd.6f8c,23,"UPDATE",2017-04-17 20:08:29 EDT,4/10,0,LOG,00000,"execute <unnamed>: UPDATE item SET title = $1 WHERE i_id=$2","parameters: $1 = '%u3_]nH{$t1G;yXs*<bh', $2 = '71825'",,,,,,,,""
2017-04-17 20:08:39.637 EDT,"postgres","epinions",28559,"127.0.0.1:33841",58f558fd.6f8f,17,"COMMIT",2017-04-17 20:08:29 EDT,7/8,0,LOG,00000,"execute S_1: COMMIT",,,,,,,,,""
2017-04-17 20:08:39.638 EDT,"postgres","epinions",28559,"127.0.0.1:33841",58f558fd.6f8f,18,"BEGIN",2017-04-17 20:08:29 EDT,7/9,0,LOG,00000,"execute <unnamed>: BEGIN",,,,,,,,,""
2017-04-17 20:08:39.638 EDT,"postgres","epinions",28559,"127.0.0.1:33841",58f558fd.6f8f,19,"SELECT",2017-04-17 20:08:29 EDT,7/9,0,LOG,00000,"execute <unnamed>: SELECT * FROM review r, item i WHERE i.i_id = r.i_id and r.i_id=$1 ORDER BY rating LIMIT 10","parameters: $1 = '47359'",,,,,,,,""
2017-04-17 20:08:39.650 EDT,"postgres","epinions",28567,"127.0.0.1:33849",58f558fd.6f97,14,"COMMIT",2017-04-17 20:08:29 EDT,15/7,0,LOG,00000,"execute S_1: COMMIT",,,,,,,,,""
2017-04-17 20:08:39.654 EDT,"postgres","epinions",28567,"127.0.0.1:33849",58f558fd.6f97,15,"BEGIN",2017-04-17 20:08:29 EDT,15/8,0,LOG,00000,"execute <unnamed>: BEGIN",,,,,,,,,""
2017-04-17 20:08:39.655 EDT,"postgres","epinions",28567,"127.0.0.1:33849",58f558fd.6f97,16,"UPDATE",2017-04-17 20:08:29 EDT,15/8,0,LOG,00000,"execute <unnamed>: UPDATE item SET title = $1 WHERE i_id=$2","parameters: $1 = '6.K!i\FMW{Y_A{pu@dtz', $2 = '84542'",,,,,,,,""
2017-04-17 20:08:39.678 EDT,"postgres","epinions",28556,"127.0.0.1:33838",58f558fd.6f8c,24,"COMMIT",2017-04-17 20:08:29 EDT,4/10,21298,LOG,00000,"execute S_1: COMMIT",,,,,,,,,""
2017-04-17 20:08:39.681 EDT,"postgres","epinions",28556,"127.0.0.1:33838",58f558fd.6f8c,25,"BEGIN",2017-04-17 20:08:29 EDT,4/11,0,LOG,00000,"execute <unnamed>: BEGIN",,,,,,,,,""
2017-04-17 20:08:39.681 EDT,"postgres","epinions",28556,"127.0.0.1:33838",58f558fd.6f8c,26,"UPDATE",2017-04-17 20:08:29 EDT,4/11,0,LOG,00000,"execute <unnamed>: UPDATE item SET title = $1 WHERE i_id=$2","parameters: $1 = ']bA6_/+Sx vWx6TES# p', $2 = '94503'",,,,,,,,""
2017-04-17 20:08:39.689 EDT,"postgres","epinions",28564,"127.0.0.1:33846",58f558fd.6f94,20,"COMMIT",2017-04-17 20:08:29 EDT,12/9,0,LOG,00000,"execute S_1: COMMIT",,,,,,,,,""
2017-04-17 20:08:39.689 EDT,"postgres","epinions",28564,"127.0.0.1:33846",58f558fd.6f94,21,"BEGIN",2017-04-17 20:08:29 EDT,12/10,0,LOG,00000,"execute <unnamed>: BEGIN",,,,,,,,,""
2017-04-17 20:08:39.690 EDT,"postgres","epinions",28564,"127.0.0.1:33846",58f558fd.6f94,22,"SELECT",2017-04-17 20:08:29 EDT,12/10,0,LOG,00000,"execute <unnamed>: SELECT * FROM review r, item i WHERE i.i_id = r.i_id and r.i_id=$1 ORDER BY rating LIMIT 10","parameters: $1 = '46343'",,,,,,,,""
2017-04-17 20:08:39.766 EDT,"postgres","epinions",28567,"127.0.0.1:33849",58f558fd.6f97,17,"COMMIT",2017-04-17 20:08:29 EDT,15/8,21299,LOG,00000,"execute S_1: COMMIT",,,,,,,,,""
2017-04-17 20:08:39.772 EDT,"postgres","epinions",28567,"127.0.0.1:33849",58f558fd.6f97,18,"BEGIN",2017-04-17 20:08:29 EDT,15/9,0,LOG,00000,"execute <unnamed>: BEGIN",,,,,,,,,""
2017-04-17 20:08:39.772 EDT,"postgres","epinions",28567,"127.0.0.1:33849",58f558fd.6f97,19,"SELECT",2017-04-17 20:08:29 EDT,15/9,0,LOG,00000,"execute <unnamed>: SELECT avg(rating) FROM review r WHERE r.i_id=$1","parameters: $1 = '85359'",,,,,,,,""
2017-04-17 20:08:39.781 EDT,"postgres","epinions",28568,"127.0.0.1:33850",58f558fd.6f98,23,"COMMIT",2017-04-17 20:08:29 EDT,16/10,0,LOG,00000,"execute S_1: COMMIT",,,,,,,,,""
2017-04-17 20:08:39.784 EDT,"postgres","epinions",28568,"127.0.0.1:33850",58f558fd.6f98,24,"BEGIN",2017-04-17 20:08:29 EDT,16/11,0,LOG,00000,"execute <unnamed>: BEGIN",,,,,,,,,""
2017-04-17 20:08:39.785 EDT,"postgres","epinions",28568,"127.0.0.1:33850",58f558fd.6f98,25,"SELECT",2017-04-17 20:08:29 EDT,16/11,0,LOG,00000,"execute <unnamed>: SELECT avg(rating) FROM review r, trust t WHERE r.u_id=t.target_u_id AND r.i_id=$1 AND t.source_u_id=$2","parameters: $1 = '42068', $2 = '169407'",,,,,,,,""
2017-04-17 20:08:39.790 EDT,"postgres","epinions",28556,"127.0.0.1:33838",58f558fd.6f8c,27,"COMMIT",2017-04-17 20:08:29 EDT,4/11,21300,LOG,00000,"execute S_1: COMMIT",,,,,,,,,""
2017-04-17 20:08:39.792 EDT,"postgres","epinions",28556,"127.0.0.1:33838",58f558fd.6f8c,28,"BEGIN",2017-04-17 20:08:29 EDT,4/12,0,LOG,00000,"execute <unnamed>: BEGIN",,,,,,,,,""
2017-04-17 20:08:39.793 EDT,"postgres","epinions",28556,"127.0.0.1:33838",58f558fd.6f8c,29,"SELECT",2017-04-17 20:08:29 EDT,4/12,0,LOG,00000,"execute <unnamed>: SELECT avg(rating) FROM review r, trust t WHERE r.u_id=t.target_u_id AND r.i_id=$1 AND t.source_u_id=$2","parameters: $1 = '4317', $2 = '151620'",,,,,,,,""
2017-04-17 20:08:39.950 EDT,"postgres","epinions",28573,"127.0.0.1:33855",58f558fd.6f9d,18,"COMMIT",2017-04-17 20:08:29 EDT,21/8,0,LOG,00000,"execute S_1: COMMIT",,,,,,,,,""
2017-04-17 20:08:39.951 EDT,"postgres","epinions",28573,"127.0.0.1:33855",58f558fd.6f9d,19,"BEGIN",2017-04-17 20:08:29 EDT,21/9,0,LOG,00000,"execute <unnamed>: BEGIN",,,,,,,,,""
2017-04-17 20:08:39.951 EDT,"postgres","epinions",28573,"127.0.0.1:33855",58f558fd.6f9d,20,"SELECT",2017-04-17 20:08:29 EDT,21/9,0,LOG,00000,"execute <unnamed>: SELECT * FROM review r, ""user"" u WHERE u.u_id = r.u_id AND r.u_id=$1 ORDER BY rating LIMIT 10","parameters: $1 = '2317'",,,,,,,,""
2017-04-17 20:08:40.134 EDT,"postgres","epinions",28554,"127.0.0.1:33836",58f558fd.6f8a,19,"COMMIT",2017-04-17 20:08:29 EDT,2/18,0,LOG,00000,"execute S_1: COMMIT",,,,,,,,,""
2017-04-17 20:08:40.763 EDT,"postgres","epinions",28562,"127.0.0.1:33844",58f558fd.6f92,26,"SELECT",2017-04-17 20:08:29 EDT,10/11,0,LOG,00000,"execute <unnamed>: SELECT * FROM trust t WHERE t.source_u_id=$1","parameters: $1 = '154698'",,,,,,,,""
2017-04-17 20:08:40.836 EDT,"postgres","epinions",28569,"127.0.0.1:33851",58f558fd.6f99,20,"COMMIT",2017-04-17 20:08:29 EDT,17/9,0,LOG,00000,"execute S_1: COMMIT",,,,,,,,,""
2017-04-17 20:08:40.840 EDT,"postgres","epinions",28561,"127.0.0.1:33843",58f558fd.6f91,20,"COMMIT",2017-04-17 20:08:29 EDT,9/9,0,LOG,00000,"execute S_1: COMMIT",,,,,,,,,""
2017-04-17 20:08:40.858 EDT,"postgres","epinions",28555,"127.0.0.1:33837",58f558fd.6f8b,17,"COMMIT",2017-04-17 20:08:29 EDT,3/8,0,LOG,00000,"execute S_1: COMMIT",,,,,,,,,""
2017-04-17 20:08:40.927 EDT,"postgres","epinions",28571,"127.0.0.1:33853",58f558fd.6f9b,20,"COMMIT",2017-04-17 20:08:29 EDT,19/9,0,LOG,00000,"execute S_1: COMMIT",,,,,,,,,""
2017-04-17 20:08:41.101 EDT,"postgres","epinions",28557,"127.0.0.1:33839",58f558fd.6f8d,15,"COMMIT",2017-04-17 20:08:29 EDT,5/7,0,LOG,00000,"execute S_1: COMMIT",,,,,,,,,""
2017-04-17 20:08:41.110 EDT,"postgres","epinions",28560,"127.0.0.1:33842",58f558fd.6f90,23,"COMMIT",2017-04-17 20:08:29 EDT,8/10,0,LOG,00000,"execute S_1: COMMIT",,,,,,,,,""
2017-04-17 20:08:41.181 EDT,"postgres","epinions",28565,"127.0.0.1:33847",58f558fd.6f95,18,"COMMIT",2017-04-17 20:08:29 EDT,13/8,0,LOG,00000,"execute S_1: COMMIT",,,,,,,,,""
2017-04-17 20:08:41.187 EDT,"postgres","epinions",28572,"127.0.0.1:33854",58f558fd.6f9c,23,"COMMIT",2017-04-17 20:08:29 EDT,20/10,0,LOG,00000,"execute S_1: COMMIT",,,,,,,,,""
2017-04-17 20:08:41.199 EDT,"postgres","epinions",28570,"127.0.0.1:33852",58f558fd.6f9a,20,"COMMIT",2017-04-17 20:08:29 EDT,18/9,0,LOG,00000,"execute S_1: COMMIT",,,,,,,,,""
2017-04-17 20:08:41.263 EDT,"postgres","epinions",28566,"127.0.0.1:33848",58f558fd.6f96,20,"SELECT",2017-04-17 20:08:29 EDT,14/9,0,LOG,00000,"execute <unnamed>: SELECT * FROM trust t WHERE t.source_u_id=$1","parameters: $1 = '85876'",,,,,,,,""
2017-04-17 20:08:41.406 EDT,"postgres","epinions",28567,"127.0.0.1:33849",58f558fd.6f97,20,"COMMIT",2017-04-17 20:08:29 EDT,15/9,0,LOG,00000,"execute S_1: COMMIT",,,,,,,,,""
2017-04-17 20:08:41.504 EDT,"postgres","epinions",28559,"127.0.0.1:33841",58f558fd.6f8f,20,"COMMIT",2017-04-17 20:08:29 EDT,7/9,0,LOG,00000,"execute S_1: COMMIT",,,,,,,,,""
2017-04-17 20:08:41.602 EDT,"postgres","epinions",28573,"127.0.0.1:33855",58f558fd.6f9d,21,"COMMIT",2017-04-17 20:08:29 EDT,21/9,0,LOG,00000,"execute S_1: COMMIT",,,,,,,,,""
2017-04-17 20:08:41.633 EDT,"postgres","epinions",28564,"127.0.0.1:33846",58f558fd.6f94,23,"COMMIT",2017-04-17 20:08:29 EDT,12/10,0,LOG,00000,"execute S_1: COMMIT",,,,,,,,,""
2017-04-17 20:08:41.636 EDT,"postgres","epinions",28562,"127.0.0.1:33844",58f558fd.6f92,27,"COMMIT",2017-04-17 20:08:29 EDT,10/11,0,LOG,00000,"execute S_1: COMMIT",,,,,,,,,""
2017-04-17 20:08:41.730 EDT,"postgres","epinions",28563,"127.0.0.1:33845",58f558fd.6f93,20,"COMMIT",2017-04-17 20:08:29 EDT,11/9,0,LOG,00000,"execute S_1: COMMIT",,,,,,,,,""
2017-04-17 20:08:41.746 EDT,"postgres","epinions",28566,"127.0.0.1:33848",58f558fd.6f96,21,"COMMIT",2017-04-17 20:08:29 EDT,14/9,0,LOG,00000,"execute S_1: COMMIT",,,,,,,,,""
2017-04-17 20:08:41.757 EDT,"postgres","epinions",28558,"127.0.0.1:33840",58f558fd.6f8e,21,"COMMIT",2017-04-17 20:08:29 EDT,6/9,0,LOG,00000,"execute S_1: COMMIT",,,,,,,,,""
2017-04-17 20:08:41.843 EDT,"postgres","epinions",28556,"127.0.0.1:33838",58f558fd.6f8c,30,"COMMIT",2017-04-17 20:08:29 EDT,4/12,0,LOG,00000,"execute S_1: COMMIT",,,,,,,,,""
2017-04-17 20:08:41.858 EDT,"postgres","epinions",28568,"127.0.0.1:33850",58f558fd.6f98,26,"COMMIT",2017-04-17 20:08:29 EDT,16/11,0,LOG,00000,"execute S_1: COMMIT",,,,,,,,,""
